EESchema Schematic File Version 2
LIBS:power
LIBS:device
LIBS:transistors
LIBS:conn
LIBS:linear
LIBS:regul
LIBS:74xx
LIBS:cmos4000
LIBS:adc-dac
LIBS:memory
LIBS:xilinx
LIBS:microcontrollers
LIBS:dsp
LIBS:microchip
LIBS:analog_switches
LIBS:motorola
LIBS:texas
LIBS:intel
LIBS:audio
LIBS:interface
LIBS:digital-audio
LIBS:philips
LIBS:display
LIBS:cypress
LIBS:siliconi
LIBS:opto
LIBS:atmel
LIBS:contrib
LIBS:valves
LIBS:Capacitors
LIBS:Connectors
LIBS:Discretes
LIBS:ICs
LIBS:Inductors
LIBS:Allegro
LIBS:Resistors
LIBS:TestPoints
LIBS:Current_Driver-cache
EELAYER 25 0
EELAYER END
$Descr A4 11693 8268
encoding utf-8
Sheet 1 4
Title ""
Date ""
Rev ""
Comp ""
Comment1 ""
Comment2 ""
Comment3 ""
Comment4 ""
$EndDescr
$Comp
L LT1001ACN8 U?
U 1 1 5DBB2818
P 7800 3050
F 0 "U?" H 8150 2850 60  0000 C CNN
F 1 "LT1001ACN8" H 8400 3250 60  0000 C CNN
F 2 "" H 8150 2850 60  0001 C CNN
F 3 "" H 8150 2850 60  0001 C CNN
	1    7800 3050
	1    0    0    -1  
$EndComp
$Comp
L LT1101ACJ8 U?
U 1 1 5DBB28CB
P 8600 5150
F 0 "U?" H 8800 4900 60  0000 C CNN
F 1 "LT1101ACJ8" H 9000 5400 60  0000 C CNN
F 2 "" H 9000 5400 60  0001 C CNN
F 3 "" H 9000 5400 60  0001 C CNN
	1    8600 5150
	-1   0    0    -1  
$EndComp
$Comp
L LT1010CN8 U?
U 1 1 5DBB342C
P 9800 3050
F 0 "U?" H 10000 2800 60  0000 C CNN
F 1 "LT1010CN8" H 10150 3300 60  0000 C CNN
F 2 "" H 10000 2800 60  0001 C CNN
F 3 "" H 10000 2800 60  0001 C CNN
	1    9800 3050
	1    0    0    -1  
$EndComp
$Comp
L Banana_Black_Conn J?
U 1 1 5DBB359E
P 700 1100
F 0 "J?" H 700 1300 60  0000 C CNN
F 1 "Banana_Black_Conn" H 730 1400 60  0001 C CNN
F 2 "Connectors:CINCH1110703001" H 600 1200 60  0001 C CNN
F 3 "" H 700 1100 60  0000 C CNN
F 4 "J10126-ND" H 730 1490 60  0001 C CNN "DigkeyKeyPN"
F 5 "111-0703-001" H 900 1500 60  0001 C CNN "MPN"
	1    700  1100
	1    0    0    -1  
$EndComp
$Comp
L Banana_Red_Conn J?
U 1 1 5DBB3739
P 700 750
F 0 "J?" H 700 950 60  0000 C CNN
F 1 "Banana_Red_Conn" H 730 1050 60  0001 C CNN
F 2 "Connectors:CINCH1110703001" H 600 850 60  0001 C CNN
F 3 "" H 700 750 60  0000 C CNN
F 4 "J10125-ND" H 730 1140 60  0001 C CNN "DigkeyKeyPN"
F 5 "111-0702-001" H 900 1150 60  0001 C CNN "MPN"
	1    700  750 
	1    0    0    -1  
$EndComp
$Comp
L Banana_Red_Conn J?
U 1 1 5DBB37F6
P 700 1500
F 0 "J?" H 700 1700 60  0000 C CNN
F 1 "Banana_Red_Conn" H 730 1800 60  0001 C CNN
F 2 "Connectors:CINCH1110703001" H 600 1600 60  0001 C CNN
F 3 "" H 700 1500 60  0000 C CNN
F 4 "J10125-ND" H 730 1890 60  0001 C CNN "DigkeyKeyPN"
F 5 "111-0702-001" H 900 1900 60  0001 C CNN "MPN"
	1    700  1500
	1    0    0    -1  
$EndComp
$Comp
L GND #PWR?
U 1 1 5DBB4BAF
P 1350 1200
F 0 "#PWR?" H 1350 950 50  0001 C CNN
F 1 "GND" H 1350 1050 50  0000 C CNN
F 2 "" H 1350 1200 50  0001 C CNN
F 3 "" H 1350 1200 50  0001 C CNN
	1    1350 1200
	1    0    0    -1  
$EndComp
$Comp
L GND #PWR?
U 1 1 5DBB73F0
P 8700 5750
F 0 "#PWR?" H 8700 5500 50  0001 C CNN
F 1 "GND" H 8700 5600 50  0000 C CNN
F 2 "" H 8700 5750 50  0001 C CNN
F 3 "" H 8700 5750 50  0001 C CNN
	1    8700 5750
	1    0    0    -1  
$EndComp
NoConn ~ 9800 3550
NoConn ~ 9800 2550
NoConn ~ 9200 2750
NoConn ~ 9150 3400
NoConn ~ 8600 4600
NoConn ~ 8600 5700
NoConn ~ 7900 3400
NoConn ~ 7800 3400
Text Notes 1350 600  0    60   ~ 0
Voltage In
$Comp
L Banana_Red_Conn J?
U 1 1 5DBD119C
P 2100 750
F 0 "J?" H 2100 950 60  0000 C CNN
F 1 "Banana_Red_Conn" H 2130 1050 60  0001 C CNN
F 2 "Connectors:CINCH1110703001" H 2000 850 60  0001 C CNN
F 3 "" H 2100 750 60  0000 C CNN
F 4 "J10125-ND" H 2130 1140 60  0001 C CNN "DigkeyKeyPN"
F 5 "111-0702-001" H 2300 1150 60  0001 C CNN "MPN"
	1    2100 750 
	1    0    0    -1  
$EndComp
Text Notes 2150 600  0    60   ~ 0
Output To Load
$Comp
L 0.5Ohm-Y08500R50000B9W U?
U 1 1 5DC09077
P 10700 5300
F 0 "U?" H 10700 5000 60  0000 C CNN
F 1 "0.5Ohm-Y08500R50000B9W" H 10750 5550 60  0000 C CNN
F 2 "" H 10750 5550 60  0001 C CNN
F 3 "" H 10750 5550 60  0001 C CNN
	1    10700 5300
	0    1    1    0   
$EndComp
$Comp
L Bare_TP TP?
U 1 1 5DC0CDD9
P 7600 5150
F 0 "TP?" H 7750 5400 60  0000 C CNN
F 1 "Bare_TP" H 7450 5400 60  0000 C CNN
F 2 "" H 7600 5150 60  0000 C CNN
F 3 "" H 7600 5150 60  0000 C CNN
	1    7600 5150
	1    0    0    -1  
$EndComp
$Comp
L Bare_TP TP?
U 1 1 5DC0D262
P 9550 4650
F 0 "TP?" H 9700 4900 60  0000 C CNN
F 1 "Bare_TP" H 9400 4900 60  0000 C CNN
F 2 "" H 9550 4650 60  0000 C CNN
F 3 "" H 9550 4650 60  0000 C CNN
	1    9550 4650
	1    0    0    -1  
$EndComp
$Comp
L Bare_TP TP?
U 1 1 5DC0D304
P 9550 5750
F 0 "TP?" H 9700 6000 60  0000 C CNN
F 1 "Bare_TP" H 9400 6000 60  0000 C CNN
F 2 "" H 9550 5750 60  0000 C CNN
F 3 "" H 9550 5750 60  0000 C CNN
	1    9550 5750
	-1   0    0    1   
$EndComp
$Comp
L ASEK3_Conn J?
U 1 1 5DC0F390
P 5900 950
F 0 "J?" H 5900 1250 60  0000 C CNN
F 1 "ASEK3_Conn" H 5900 1350 60  0000 C CNN
F 2 "" H 5900 950 60  0000 C CNN
F 3 "" H 5900 1250 60  0000 C CNN
F 4 "WM17469-ND" H 5900 1450 60  0001 C CNN "DigikeyPN"
	1    5900 950 
	1    0    0    -1  
$EndComp
NoConn ~ 6350 700 
NoConn ~ 5450 700 
NoConn ~ 5450 900 
NoConn ~ 5450 1000
NoConn ~ 6350 1000
NoConn ~ 6350 900 
NoConn ~ 5450 1300
$Comp
L GND #PWR?
U 1 1 5DC09950
P 6800 1100
F 0 "#PWR?" H 6800 850 50  0001 C CNN
F 1 "GND" H 6800 950 50  0000 C CNN
F 2 "" H 6800 1100 50  0001 C CNN
F 3 "" H 6800 1100 50  0001 C CNN
	1    6800 1100
	1    0    0    -1  
$EndComp
NoConn ~ 6350 800 
NoConn ~ 5450 800 
$Sheet
S 850  4450 1400 1150
U 5DC1AD4B
F0 "PowerSourceCaps" 60
F1 "PowerSourceCaps.sch" 60
F2 "V+" I L 850 4650 60 
F3 "V-" I L 850 4850 60 
$EndSheet
Wire Wire Line
	1000 1500 1350 1500
Wire Wire Line
	1000 750  1350 750 
Wire Wire Line
	1000 1100 1350 1100
Wire Wire Line
	1350 1100 1350 1200
Wire Wire Line
	8700 5750 8700 5700
Wire Wire Line
	8850 5700 8850 5800
Wire Wire Line
	8850 4600 8850 4500
Wire Wire Line
	8050 3400 8050 3500
Wire Wire Line
	8050 2700 8050 2600
Wire Wire Line
	9650 3550 9650 3650
Wire Wire Line
	9650 2550 9650 2450
Wire Wire Line
	9550 5250 9200 5250
Wire Wire Line
	9550 4650 9550 5050
Wire Wire Line
	9550 5050 9200 5050
Wire Notes Line
	550  500  550  1650
Wire Notes Line
	550  1650 1850 1650
Wire Notes Line
	1850 1650 1850 500 
Wire Notes Line
	1850 500  550  500 
Wire Notes Line
	1950 500  1950 1000
Wire Notes Line
	1950 1000 3000 1000
Wire Notes Line
	3000 1000 3000 500 
Wire Notes Line
	3000 500  1950 500 
Wire Wire Line
	5450 1100 6800 1100
Connection ~ 6350 1100
Wire Wire Line
	6350 1200 6600 1200
Wire Wire Line
	5250 1200 5450 1200
Wire Notes Line
	1400 4850 1600 4850
Wire Notes Line
	1400 4900 1600 4900
Wire Notes Line
	1400 5100 1600 5100
Wire Notes Line
	1400 5150 1600 5150
Wire Notes Line
	1500 4900 1500 5100
Wire Notes Line
	1500 5000 1800 5000
Wire Notes Line
	1800 5000 1800 5050
Wire Notes Line
	1700 5050 1900 5050
Wire Notes Line
	1750 5100 1850 5100
Wire Notes Line
	1500 5150 1500 5250
Wire Notes Line
	1500 4850 1500 4750
Text Notes 1400 4750 0    60   ~ 0
Vin+
Text Notes 1400 5350 0    60   ~ 0
Vin-
Wire Wire Line
	850  4650 700  4650
Wire Wire Line
	850  4850 700  4850
$Sheet
S 850  5950 1400 1000
U 5DC23DEC
F0 "PosNeg5Vreg" 60
F1 "PosNeg5Vreg.sch" 60
F2 "Vin+" I L 850 6200 60 
F3 "Vin-" I L 850 6700 60 
F4 "+5V" O R 2250 6200 60 
F5 "-5V" O R 2250 6700 60 
$EndSheet
Text Label 1350 750  0    60   ~ 0
Vin+
Text Label 1350 1500 0    60   ~ 0
Vin-
Text Label 700  4650 2    60   ~ 0
Vin+
Text Label 700  4850 2    60   ~ 0
Vin-
Wire Wire Line
	850  6200 700  6200
Wire Wire Line
	850  6700 700  6700
Text Label 700  6200 2    60   ~ 0
Vin+
Text Label 700  6700 2    60   ~ 0
Vin-
Wire Wire Line
	2250 6200 2450 6200
Wire Wire Line
	2250 6700 2450 6700
Text Label 2450 6200 0    60   ~ 0
+5Vreg
Text Label 2450 6700 0    60   ~ 0
-5Vreg
Text Label 8050 3500 3    60   ~ 0
Vin-
Text Label 8050 2600 1    60   ~ 0
Vin+
Text Label 9650 2450 1    60   ~ 0
Vin+
Text Label 8850 4500 1    60   ~ 0
Vin+
Wire Notes Line
	1300 6200 1400 6200
Wire Notes Line
	1400 6100 1400 6300
Wire Notes Line
	1400 6100 1750 6100
Wire Notes Line
	1750 6100 1750 6300
Wire Notes Line
	1750 6300 1400 6300
Wire Notes Line
	1750 6200 1850 6200
Wire Notes Line
	1300 6700 1400 6700
Wire Notes Line
	1400 6600 1400 6800
Wire Notes Line
	1400 6600 1750 6600
Wire Notes Line
	1750 6600 1750 6800
Wire Notes Line
	1750 6800 1400 6800
Wire Notes Line
	1750 6700 1850 6700
$Sheet
S 5350 2400 1300 1000
U 5DC29624
F0 "AddVoltOffset" 60
F1 "AddVoltOffset.sch" 60
F2 "V+" I L 5350 2600 60 
F3 "V-" I L 5350 3200 60 
F4 "Vout" O R 6650 2900 60 
F5 "Voffset" I L 5350 3000 60 
F6 "VoltAddOffset" I L 5350 2800 60 
$EndSheet
Wire Wire Line
	5350 2600 5150 2600
Wire Wire Line
	5350 3200 5150 3200
Wire Wire Line
	6650 2900 7300 2900
Wire Wire Line
	4900 2800 5350 2800
Wire Wire Line
	5350 3000 5150 3000
Text Label 5150 3000 2    60   ~ 0
-5Vreg
Text Label 5150 3200 2    60   ~ 0
Vin-
Text Label 5150 2600 2    60   ~ 0
Vin+
Wire Wire Line
	8700 3050 9150 3050
Wire Wire Line
	6950 5150 7750 5150
Wire Wire Line
	5250 1200 5250 1550
Wire Wire Line
	6600 1200 6600 1550
Wire Wire Line
	5250 1550 5300 1550
Wire Wire Line
	6600 1550 6650 1550
Text Label 5300 1550 0    60   ~ 0
SDA
Text Label 6650 1550 0    60   ~ 0
SCL
$Comp
L GND #PWR?
U 1 1 5DC319DE
P 3850 2150
F 0 "#PWR?" H 3850 1900 50  0001 C CNN
F 1 "GND" H 3850 2000 50  0000 C CNN
F 2 "" H 3850 2150 50  0001 C CNN
F 3 "" H 3850 2150 50  0001 C CNN
	1    3850 2150
	1    0    0    -1  
$EndComp
Wire Wire Line
	3700 2200 3700 2100
Wire Wire Line
	3700 2100 3850 2100
Wire Wire Line
	3850 2100 3850 2150
Wire Wire Line
	4000 2200 4000 2000
Wire Wire Line
	4000 2000 4200 2000
Wire Wire Line
	3600 2200 3600 2100
Wire Wire Line
	3600 2100 3500 2100
Wire Wire Line
	6350 1300 6400 1300
Wire Wire Line
	6400 1300 6400 1700
Wire Wire Line
	6400 1700 6650 1700
Text Label 6650 1700 0    60   ~ 0
Vdd
Text Label 3500 2100 2    60   ~ 0
Vdd
Wire Wire Line
	7300 3200 6950 3200
Connection ~ 7600 5150
Wire Wire Line
	10450 3050 10850 3050
Wire Wire Line
	10550 5800 10550 6400
Wire Wire Line
	10550 6400 10250 6400
Wire Wire Line
	10550 4750 10550 4850
Wire Wire Line
	10550 4750 9550 4750
Connection ~ 9550 4750
Wire Wire Line
	10850 5800 10850 5950
Wire Wire Line
	10850 5950 10100 5950
Wire Wire Line
	10100 5950 10100 5650
Wire Wire Line
	9550 5250 9550 5750
Wire Wire Line
	10100 5650 9550 5650
Connection ~ 9550 5650
Text Label 10250 6400 2    60   ~ 0
LOAD
Text Label 2400 750  0    60   ~ 0
LOAD
$Comp
L MAX5217 U?
U 1 1 5DC31505
P 3750 2850
F 0 "U?" H 4300 2550 60  0000 C CNN
F 1 "MAX5217" H 4450 3250 60  0000 C CNN
F 2 "" H 4300 2550 60  0001 C CNN
F 3 "" H 4300 2550 60  0001 C CNN
	1    3750 2850
	1    0    0    -1  
$EndComp
$Comp
L 10k-CD R?
U 1 1 5DC3735E
P 2750 2550
F 0 "R?" H 2750 2746 60  0000 C CNN
F 1 "10k-CD" H 2650 2650 60  0000 C CNN
F 2 "Resistors:R0805" H 2750 2550 60  0001 C CNN
F 3 "" H 2850 2700 60  0000 C CNN
F 4 "A103142CT-ND" H 2768 2818 60  0001 C CNN "DigikeyPN"
F 5 "0.1%" H 3000 2650 60  0000 C CNN "Precision"
	1    2750 2550
	0    -1   -1   0   
$EndComp
$Comp
L 10k-CD R?
U 1 1 5DC37437
P 1600 2550
F 0 "R?" H 1600 2746 60  0000 C CNN
F 1 "10k-CD" H 1500 2650 60  0000 C CNN
F 2 "Resistors:R0805" H 1600 2550 60  0001 C CNN
F 3 "" H 1700 2700 60  0000 C CNN
F 4 "A103142CT-ND" H 1618 2818 60  0001 C CNN "DigikeyPN"
F 5 "0.1%" H 1850 2650 60  0000 C CNN "Precision"
	1    1600 2550
	0    -1   -1   0   
$EndComp
$Comp
L 10k-CD R?
U 1 1 5DC374C9
P 2200 2550
F 0 "R?" H 2200 2746 60  0000 C CNN
F 1 "10k-CD" H 2100 2650 60  0000 C CNN
F 2 "Resistors:R0805" H 2200 2550 60  0001 C CNN
F 3 "" H 2300 2700 60  0000 C CNN
F 4 "A103142CT-ND" H 2218 2818 60  0001 C CNN "DigikeyPN"
F 5 "0.1%" H 2450 2650 60  0000 C CNN "Precision"
	1    2200 2550
	0    -1   -1   0   
$EndComp
Wire Wire Line
	3200 3500 3200 3400
Wire Wire Line
	2700 3500 3200 3500
Wire Wire Line
	2750 3500 2750 2750
Connection ~ 2750 3500
$Comp
L GND #PWR?
U 1 1 5DC378DE
P 3500 3550
F 0 "#PWR?" H 3500 3300 50  0001 C CNN
F 1 "GND" H 3500 3400 50  0000 C CNN
F 2 "" H 3500 3550 50  0001 C CNN
F 3 "" H 3500 3550 50  0001 C CNN
	1    3500 3550
	1    0    0    -1  
$EndComp
Wire Wire Line
	3500 3400 3500 3550
Wire Wire Line
	3300 3700 3300 3400
Wire Wire Line
	2150 3700 3300 3700
Wire Wire Line
	2200 3700 2200 2750
Connection ~ 2200 3700
Wire Wire Line
	3400 3900 3400 3400
Wire Wire Line
	1550 3900 3400 3900
Wire Wire Line
	1600 3900 1600 2750
Connection ~ 1600 3900
Wire Wire Line
	1600 2350 1600 2000
Wire Wire Line
	1600 2000 2750 2000
Wire Wire Line
	2750 2000 2750 2350
Wire Wire Line
	2200 1750 2200 2350
Connection ~ 2200 2000
Wire Wire Line
	2200 1750 2050 1750
Text Label 1550 3900 2    60   ~ 0
SDA
Text Label 2150 3700 2    60   ~ 0
SCL
Text Label 2050 1750 2    60   ~ 0
Vdd
Wire Wire Line
	10850 3050 10850 4850
Wire Wire Line
	6950 3200 6950 5150
$EndSCHEMATC
