EESchema Schematic File Version 2
LIBS:power
LIBS:device
LIBS:transistors
LIBS:conn
LIBS:linear
LIBS:regul
LIBS:74xx
LIBS:cmos4000
LIBS:adc-dac
LIBS:memory
LIBS:xilinx
LIBS:microcontrollers
LIBS:dsp
LIBS:microchip
LIBS:analog_switches
LIBS:motorola
LIBS:texas
LIBS:intel
LIBS:audio
LIBS:interface
LIBS:digital-audio
LIBS:philips
LIBS:display
LIBS:cypress
LIBS:siliconi
LIBS:opto
LIBS:atmel
LIBS:contrib
LIBS:valves
LIBS:Capacitors
LIBS:Connectors
LIBS:Discretes
LIBS:ICs
LIBS:Inductors
LIBS:Allegro
LIBS:Resistors
LIBS:TestPoints
LIBS:Current_Driver-cache
EELAYER 25 0
EELAYER END
$Descr A4 11693 8268
encoding utf-8
Sheet 3 4
Title ""
Date ""
Rev ""
Comp ""
Comment1 ""
Comment2 ""
Comment3 ""
Comment4 ""
$EndDescr
$Comp
L LT3032 U?
U 1 1 5DC23FF1
P 5200 3550
F 0 "U?" H 5450 2850 60  0000 C CNN
F 1 "LT3032" H 5550 4250 60  0000 C CNN
F 2 "" H 5450 2850 60  0001 C CNN
F 3 "" H 5450 2850 60  0001 C CNN
	1    5200 3550
	1    0    0    -1  
$EndComp
$Comp
L GND #PWR?
U 1 1 5DC23FF8
P 5200 4500
F 0 "#PWR?" H 5200 4250 50  0001 C CNN
F 1 "GND" H 5200 4350 50  0000 C CNN
F 2 "" H 5200 4500 50  0001 C CNN
F 3 "" H 5200 4500 50  0001 C CNN
	1    5200 4500
	1    0    0    -1  
$EndComp
$Comp
L GND #PWR?
U 1 1 5DC23FFE
P 4950 2700
F 0 "#PWR?" H 4950 2450 50  0001 C CNN
F 1 "GND" H 4950 2550 50  0000 C CNN
F 2 "" H 4950 2700 50  0001 C CNN
F 3 "" H 4950 2700 50  0001 C CNN
	1    4950 2700
	1    0    0    -1  
$EndComp
$Comp
L 10u-FC C?
U 1 1 5DC24006
P 4400 2850
F 0 "C?" H 4560 2960 60  0000 C CNN
F 1 "10u-FC" H 4656 2870 60  0000 C CNN
F 2 "Capacitors:C0603" H 4400 3140 60  0001 C CNN
F 3 "" H 4400 2852 60  0000 C CNN
F 4 "490-9970-1-ND" H 4716 3054 60  0001 C CNN "DigikeyPN"
F 5 "63V" H 4592 2786 60  0000 C CNN "MaxVoltage"
	1    4400 2850
	-1   0    0    1   
$EndComp
$Comp
L 10u-FC C?
U 1 1 5DC2400F
P 4400 4250
F 0 "C?" H 4560 4360 60  0000 C CNN
F 1 "10u-FC" H 4656 4270 60  0000 C CNN
F 2 "Capacitors:C0603" H 4400 4540 60  0001 C CNN
F 3 "" H 4400 4252 60  0000 C CNN
F 4 "490-9970-1-ND" H 4716 4454 60  0001 C CNN "DigikeyPN"
F 5 "63V" H 4592 4186 60  0000 C CNN "MaxVoltage"
	1    4400 4250
	-1   0    0    1   
$EndComp
NoConn ~ 5300 2700
NoConn ~ 5950 4050
NoConn ~ 5950 3050
$Comp
L 10u-FC C?
U 1 1 5DC2401B
P 7100 3300
F 0 "C?" H 7260 3410 60  0000 C CNN
F 1 "10u-FC" H 7356 3320 60  0000 C CNN
F 2 "Capacitors:C0603" H 7100 3590 60  0001 C CNN
F 3 "" H 7100 3302 60  0000 C CNN
F 4 "490-9970-1-ND" H 7416 3504 60  0001 C CNN "DigikeyPN"
F 5 "63V" H 7292 3236 60  0000 C CNN "MaxVoltage"
	1    7100 3300
	-1   0    0    1   
$EndComp
$Comp
L GND #PWR?
U 1 1 5DC24022
P 7300 3150
F 0 "#PWR?" H 7300 2900 50  0001 C CNN
F 1 "GND" H 7300 3000 50  0000 C CNN
F 2 "" H 7300 3150 50  0001 C CNN
F 3 "" H 7300 3150 50  0001 C CNN
	1    7300 3150
	1    0    0    -1  
$EndComp
$Comp
L 10n-AC C?
U 1 1 5DC2402A
P 6450 3300
F 0 "C?" H 6610 3410 60  0000 C CNN
F 1 "10n-AC" H 6726 3334 60  0000 C CNN
F 2 "" H 6450 3302 60  0000 C CNN
F 3 "" H 6450 3302 60  0000 C CNN
F 4 "490-4516-1-ND" H 6766 3504 60  0001 C CNN "DigikeyPN"
F 5 "50V" H 6642 3236 60  0000 C CNN "MaxVoltage"
	1    6450 3300
	-1   0    0    1   
$EndComp
$Comp
L 10u-FC C?
U 1 1 5DC24033
P 7100 3850
F 0 "C?" H 7260 3960 60  0000 C CNN
F 1 "10u-FC" H 7356 3870 60  0000 C CNN
F 2 "Capacitors:C0603" H 7100 4140 60  0001 C CNN
F 3 "" H 7100 3852 60  0000 C CNN
F 4 "490-9970-1-ND" H 7416 4054 60  0001 C CNN "DigikeyPN"
F 5 "63V" H 7292 3786 60  0000 C CNN "MaxVoltage"
	1    7100 3850
	-1   0    0    1   
$EndComp
$Comp
L GND #PWR?
U 1 1 5DC2403A
P 7100 4100
F 0 "#PWR?" H 7100 3850 50  0001 C CNN
F 1 "GND" H 7100 3950 50  0000 C CNN
F 2 "" H 7100 4100 50  0001 C CNN
F 3 "" H 7100 4100 50  0001 C CNN
	1    7100 4100
	1    0    0    -1  
$EndComp
$Comp
L 10n-AC C?
U 1 1 5DC24042
P 6450 3800
F 0 "C?" H 6610 3910 60  0000 C CNN
F 1 "10n-AC" H 6726 3834 60  0000 C CNN
F 2 "" H 6450 3802 60  0000 C CNN
F 3 "" H 6450 3802 60  0000 C CNN
F 4 "490-4516-1-ND" H 6766 4004 60  0001 C CNN "DigikeyPN"
F 5 "50V" H 6642 3736 60  0000 C CNN "MaxVoltage"
	1    6450 3800
	-1   0    0    1   
$EndComp
Text Notes 4250 2400 0    60   ~ 0
+-5V Regulator (Reference)
$Comp
L Bare_TP TP?
U 1 1 5DC2404E
P 8300 3650
F 0 "TP?" H 8450 3900 60  0000 C CNN
F 1 "Bare_TP" H 8150 3900 60  0000 C CNN
F 2 "" H 8300 3650 60  0000 C CNN
F 3 "" H 8300 3650 60  0000 C CNN
	1    8300 3650
	-1   0    0    1   
$EndComp
$Comp
L Bare_TP TP?
U 1 1 5DC24055
P 8300 3450
F 0 "TP?" H 8450 3700 60  0000 C CNN
F 1 "Bare_TP" H 8150 3700 60  0000 C CNN
F 2 "" H 8300 3450 60  0000 C CNN
F 3 "" H 8300 3450 60  0000 C CNN
	1    8300 3450
	1    0    0    -1  
$EndComp
Wire Wire Line
	5200 4400 5200 4500
Wire Wire Line
	5200 2650 5200 2700
Wire Wire Line
	3350 3350 4450 3350
Wire Wire Line
	4400 3000 4400 3350
Wire Wire Line
	4400 3050 4450 3050
Connection ~ 4400 3350
Wire Wire Line
	3350 3750 4450 3750
Wire Wire Line
	4400 3550 4400 4100
Wire Wire Line
	4400 3550 4450 3550
Wire Wire Line
	4400 4050 4450 4050
Connection ~ 4400 3750
Wire Wire Line
	4400 2650 5200 2650
Wire Wire Line
	4950 2650 4950 2700
Wire Wire Line
	5200 4450 4400 4450
Connection ~ 5200 4450
Wire Wire Line
	4400 4450 4400 4400
Connection ~ 4400 4050
Connection ~ 4400 3050
Wire Wire Line
	4400 2650 4400 2700
Connection ~ 4950 2650
Wire Wire Line
	7300 3150 7300 3100
Wire Wire Line
	7300 3100 7100 3100
Wire Wire Line
	7100 3100 7100 3150
Wire Wire Line
	7100 3650 7100 3700
Wire Wire Line
	7100 4000 7100 4100
Wire Wire Line
	6450 3950 6450 4000
Wire Wire Line
	6050 4000 6050 3900
Wire Wire Line
	6450 4000 6050 4000
Wire Wire Line
	6100 3150 6450 3150
Wire Wire Line
	6100 3200 6100 3150
Wire Wire Line
	5950 3200 6100 3200
Wire Wire Line
	6050 3900 5950 3900
Wire Wire Line
	5950 3450 9450 3450
Wire Wire Line
	5950 3650 9450 3650
Connection ~ 6450 3650
Connection ~ 6450 3450
Connection ~ 7100 3450
Connection ~ 7100 3650
Connection ~ 8300 3650
Connection ~ 8300 3450
Text HLabel 3350 3350 0    60   Input ~ 0
Vin+
Text HLabel 3350 3750 0    60   Input ~ 0
Vin-
Text HLabel 9450 3450 2    60   Output ~ 0
+5V
Text HLabel 9450 3650 2    60   Output ~ 0
-5V
$EndSCHEMATC
