EESchema Schematic File Version 2
LIBS:power
LIBS:device
LIBS:transistors
LIBS:conn
LIBS:linear
LIBS:regul
LIBS:74xx
LIBS:cmos4000
LIBS:adc-dac
LIBS:memory
LIBS:xilinx
LIBS:microcontrollers
LIBS:dsp
LIBS:microchip
LIBS:analog_switches
LIBS:motorola
LIBS:texas
LIBS:intel
LIBS:audio
LIBS:interface
LIBS:digital-audio
LIBS:philips
LIBS:display
LIBS:cypress
LIBS:siliconi
LIBS:opto
LIBS:atmel
LIBS:contrib
LIBS:valves
LIBS:Capacitors
LIBS:Connectors
LIBS:Discretes
LIBS:ICs
LIBS:Inductors
LIBS:Allegro
LIBS:Resistors
LIBS:TestPoints
LIBS:Current_Driver-cache
EELAYER 25 0
EELAYER END
$Descr A4 11693 8268
encoding utf-8
Sheet 2 4
Title ""
Date ""
Rev ""
Comp ""
Comment1 ""
Comment2 ""
Comment3 ""
Comment4 ""
$EndDescr
$Comp
L 1u-BD C?
U 1 1 5DC1BA12
P 2450 4650
F 0 "C?" H 2610 4760 60  0000 C CNN
F 1 "1u-BD" H 2706 4670 60  0000 C CNN
F 2 "" H 2450 4652 60  0000 C CNN
F 3 "" H 2450 4652 60  0000 C CNN
F 4 "490-3897-1-ND" H 2766 4854 60  0001 C CNN "DigikeyPN"
F 5 "25V" H 2642 4586 60  0000 C CNN "MaxVoltage"
	1    2450 4650
	1    0    0    -1  
$EndComp
$Comp
L 1n-AC C?
U 1 1 5DC1BA1B
P 1900 4650
F 0 "C?" H 2060 4760 60  0000 C CNN
F 1 "1n-AC" H 2156 4670 60  0000 C CNN
F 2 "" H 1900 4652 60  0000 C CNN
F 3 "" H 1900 4652 60  0000 C CNN
F 4 "490-1303-1-ND" H 2216 4854 60  0001 C CNN "DigikeyPN"
F 5 "50V" H 2092 4586 60  0000 C CNN "MaxVoltage"
	1    1900 4650
	1    0    0    -1  
$EndComp
$Comp
L 10u-FC C?
U 1 1 5DC1BA24
P 3050 4650
F 0 "C?" H 3210 4760 60  0000 C CNN
F 1 "10u-FC" H 3306 4670 60  0000 C CNN
F 2 "Capacitors:C0603" H 3050 4940 60  0001 C CNN
F 3 "" H 3050 4652 60  0000 C CNN
F 4 "490-9970-1-ND" H 3366 4854 60  0001 C CNN "DigikeyPN"
F 5 "63V" H 3242 4586 60  0000 C CNN "MaxVoltage"
	1    3050 4650
	1    0    0    -1  
$EndComp
$Comp
L 1u-BD C?
U 1 1 5DC1BA37
P 4350 4650
F 0 "C?" H 4510 4760 60  0000 C CNN
F 1 "1u-BD" H 4606 4670 60  0000 C CNN
F 2 "" H 4350 4652 60  0000 C CNN
F 3 "" H 4350 4652 60  0000 C CNN
F 4 "490-3897-1-ND" H 4666 4854 60  0001 C CNN "DigikeyPN"
F 5 "25V" H 4542 4586 60  0000 C CNN "MaxVoltage"
	1    4350 4650
	1    0    0    -1  
$EndComp
$Comp
L 1n-AC C?
U 1 1 5DC1BA40
P 3800 4650
F 0 "C?" H 3960 4760 60  0000 C CNN
F 1 "1n-AC" H 4056 4670 60  0000 C CNN
F 2 "" H 3800 4652 60  0000 C CNN
F 3 "" H 3800 4652 60  0000 C CNN
F 4 "490-1303-1-ND" H 4116 4854 60  0001 C CNN "DigikeyPN"
F 5 "50V" H 3992 4586 60  0000 C CNN "MaxVoltage"
	1    3800 4650
	1    0    0    -1  
$EndComp
$Comp
L 10u-FC C?
U 1 1 5DC1BA49
P 4950 4650
F 0 "C?" H 5110 4760 60  0000 C CNN
F 1 "10u-FC" H 5206 4670 60  0000 C CNN
F 2 "Capacitors:C0603" H 4950 4940 60  0001 C CNN
F 3 "" H 4950 4652 60  0000 C CNN
F 4 "490-9970-1-ND" H 5266 4854 60  0001 C CNN "DigikeyPN"
F 5 "63V" H 5142 4586 60  0000 C CNN "MaxVoltage"
	1    4950 4650
	1    0    0    -1  
$EndComp
$Comp
L 1u-BD C?
U 1 1 5DC1BA5C
P 6250 4650
F 0 "C?" H 6410 4760 60  0000 C CNN
F 1 "1u-BD" H 6506 4670 60  0000 C CNN
F 2 "" H 6250 4652 60  0000 C CNN
F 3 "" H 6250 4652 60  0000 C CNN
F 4 "490-3897-1-ND" H 6566 4854 60  0001 C CNN "DigikeyPN"
F 5 "25V" H 6442 4586 60  0000 C CNN "MaxVoltage"
	1    6250 4650
	1    0    0    -1  
$EndComp
$Comp
L 1n-AC C?
U 1 1 5DC1BA65
P 5700 4650
F 0 "C?" H 5860 4760 60  0000 C CNN
F 1 "1n-AC" H 5956 4670 60  0000 C CNN
F 2 "" H 5700 4652 60  0000 C CNN
F 3 "" H 5700 4652 60  0000 C CNN
F 4 "490-1303-1-ND" H 6016 4854 60  0001 C CNN "DigikeyPN"
F 5 "50V" H 5892 4586 60  0000 C CNN "MaxVoltage"
	1    5700 4650
	1    0    0    -1  
$EndComp
$Comp
L 10u-FC C?
U 1 1 5DC1BA6E
P 6850 4650
F 0 "C?" H 7010 4760 60  0000 C CNN
F 1 "10u-FC" H 7106 4670 60  0000 C CNN
F 2 "Capacitors:C0603" H 6850 4940 60  0001 C CNN
F 3 "" H 6850 4652 60  0000 C CNN
F 4 "490-9970-1-ND" H 7166 4854 60  0001 C CNN "DigikeyPN"
F 5 "63V" H 7042 4586 60  0000 C CNN "MaxVoltage"
	1    6850 4650
	1    0    0    -1  
$EndComp
$Comp
L 1u-BD C?
U 1 1 5DC1BA81
P 2550 2250
F 0 "C?" H 2710 2360 60  0000 C CNN
F 1 "1u-BD" H 2806 2270 60  0000 C CNN
F 2 "" H 2550 2252 60  0000 C CNN
F 3 "" H 2550 2252 60  0000 C CNN
F 4 "490-3897-1-ND" H 2866 2454 60  0001 C CNN "DigikeyPN"
F 5 "25V" H 2742 2186 60  0000 C CNN "MaxVoltage"
	1    2550 2250
	1    0    0    -1  
$EndComp
$Comp
L 1n-AC C?
U 1 1 5DC1BA8A
P 2000 2250
F 0 "C?" H 2160 2360 60  0000 C CNN
F 1 "1n-AC" H 2256 2270 60  0000 C CNN
F 2 "" H 2000 2252 60  0000 C CNN
F 3 "" H 2000 2252 60  0000 C CNN
F 4 "490-1303-1-ND" H 2316 2454 60  0001 C CNN "DigikeyPN"
F 5 "50V" H 2192 2186 60  0000 C CNN "MaxVoltage"
	1    2000 2250
	1    0    0    -1  
$EndComp
$Comp
L 10u-FC C?
U 1 1 5DC1BA93
P 3150 2250
F 0 "C?" H 3310 2360 60  0000 C CNN
F 1 "10u-FC" H 3406 2270 60  0000 C CNN
F 2 "Capacitors:C0603" H 3150 2540 60  0001 C CNN
F 3 "" H 3150 2252 60  0000 C CNN
F 4 "490-9970-1-ND" H 3466 2454 60  0001 C CNN "DigikeyPN"
F 5 "63V" H 3342 2186 60  0000 C CNN "MaxVoltage"
	1    3150 2250
	1    0    0    -1  
$EndComp
$Comp
L 1u-BD C?
U 1 1 5DC1BAA6
P 4450 2250
F 0 "C?" H 4610 2360 60  0000 C CNN
F 1 "1u-BD" H 4706 2270 60  0000 C CNN
F 2 "" H 4450 2252 60  0000 C CNN
F 3 "" H 4450 2252 60  0000 C CNN
F 4 "490-3897-1-ND" H 4766 2454 60  0001 C CNN "DigikeyPN"
F 5 "25V" H 4642 2186 60  0000 C CNN "MaxVoltage"
	1    4450 2250
	1    0    0    -1  
$EndComp
$Comp
L 1n-AC C?
U 1 1 5DC1BAAF
P 3900 2250
F 0 "C?" H 4060 2360 60  0000 C CNN
F 1 "1n-AC" H 4156 2270 60  0000 C CNN
F 2 "" H 3900 2252 60  0000 C CNN
F 3 "" H 3900 2252 60  0000 C CNN
F 4 "490-1303-1-ND" H 4216 2454 60  0001 C CNN "DigikeyPN"
F 5 "50V" H 4092 2186 60  0000 C CNN "MaxVoltage"
	1    3900 2250
	1    0    0    -1  
$EndComp
$Comp
L 10u-FC C?
U 1 1 5DC1BAB8
P 5050 2250
F 0 "C?" H 5210 2360 60  0000 C CNN
F 1 "10u-FC" H 5306 2270 60  0000 C CNN
F 2 "Capacitors:C0603" H 5050 2540 60  0001 C CNN
F 3 "" H 5050 2252 60  0000 C CNN
F 4 "490-9970-1-ND" H 5366 2454 60  0001 C CNN "DigikeyPN"
F 5 "63V" H 5242 2186 60  0000 C CNN "MaxVoltage"
	1    5050 2250
	1    0    0    -1  
$EndComp
$Comp
L 1u-BD C?
U 1 1 5DC1BACB
P 6350 2250
F 0 "C?" H 6510 2360 60  0000 C CNN
F 1 "1u-BD" H 6606 2270 60  0000 C CNN
F 2 "" H 6350 2252 60  0000 C CNN
F 3 "" H 6350 2252 60  0000 C CNN
F 4 "490-3897-1-ND" H 6666 2454 60  0001 C CNN "DigikeyPN"
F 5 "25V" H 6542 2186 60  0000 C CNN "MaxVoltage"
	1    6350 2250
	1    0    0    -1  
$EndComp
$Comp
L 1n-AC C?
U 1 1 5DC1BAD4
P 5800 2250
F 0 "C?" H 5960 2360 60  0000 C CNN
F 1 "1n-AC" H 6056 2270 60  0000 C CNN
F 2 "" H 5800 2252 60  0000 C CNN
F 3 "" H 5800 2252 60  0000 C CNN
F 4 "490-1303-1-ND" H 6116 2454 60  0001 C CNN "DigikeyPN"
F 5 "50V" H 5992 2186 60  0000 C CNN "MaxVoltage"
	1    5800 2250
	1    0    0    -1  
$EndComp
$Comp
L 10u-FC C?
U 1 1 5DC1BADD
P 6950 2250
F 0 "C?" H 7110 2360 60  0000 C CNN
F 1 "10u-FC" H 7206 2270 60  0000 C CNN
F 2 "Capacitors:C0603" H 6950 2540 60  0001 C CNN
F 3 "" H 6950 2252 60  0000 C CNN
F 4 "490-9970-1-ND" H 7266 2454 60  0001 C CNN "DigikeyPN"
F 5 "63V" H 7142 2186 60  0000 C CNN "MaxVoltage"
	1    6950 2250
	1    0    0    -1  
$EndComp
$Comp
L GND #PWR?
U 1 1 5DC1BAEE
P 2450 5100
F 0 "#PWR?" H 2450 4850 50  0001 C CNN
F 1 "GND" H 2450 4950 50  0000 C CNN
F 2 "" H 2450 5100 50  0001 C CNN
F 3 "" H 2450 5100 50  0001 C CNN
	1    2450 5100
	1    0    0    -1  
$EndComp
$Comp
L GND #PWR?
U 1 1 5DC1BAF4
P 4350 5100
F 0 "#PWR?" H 4350 4850 50  0001 C CNN
F 1 "GND" H 4350 4950 50  0000 C CNN
F 2 "" H 4350 5100 50  0001 C CNN
F 3 "" H 4350 5100 50  0001 C CNN
	1    4350 5100
	1    0    0    -1  
$EndComp
$Comp
L GND #PWR?
U 1 1 5DC1BAFA
P 6250 5100
F 0 "#PWR?" H 6250 4850 50  0001 C CNN
F 1 "GND" H 6250 4950 50  0000 C CNN
F 2 "" H 6250 5100 50  0001 C CNN
F 3 "" H 6250 5100 50  0001 C CNN
	1    6250 5100
	1    0    0    -1  
$EndComp
$Comp
L GND #PWR?
U 1 1 5DC1BB00
P 6200 1850
F 0 "#PWR?" H 6200 1600 50  0001 C CNN
F 1 "GND" H 6200 1700 50  0000 C CNN
F 2 "" H 6200 1850 50  0001 C CNN
F 3 "" H 6200 1850 50  0001 C CNN
	1    6200 1850
	1    0    0    -1  
$EndComp
$Comp
L GND #PWR?
U 1 1 5DC1BB06
P 4300 1850
F 0 "#PWR?" H 4300 1600 50  0001 C CNN
F 1 "GND" H 4300 1700 50  0000 C CNN
F 2 "" H 4300 1850 50  0001 C CNN
F 3 "" H 4300 1850 50  0001 C CNN
	1    4300 1850
	1    0    0    -1  
$EndComp
$Comp
L GND #PWR?
U 1 1 5DC1BB0C
P 2400 1850
F 0 "#PWR?" H 2400 1600 50  0001 C CNN
F 1 "GND" H 2400 1700 50  0000 C CNN
F 2 "" H 2400 1850 50  0001 C CNN
F 3 "" H 2400 1850 50  0001 C CNN
	1    2400 1850
	1    0    0    -1  
$EndComp
Text Notes 650  900  0    60   ~ 0
- 3 different caps for different frequencies to filter\n- 1 set of Caps per source (e.i. 1 amp = 6 caps)
Text Notes 1150 3500 0    60   ~ 0
Negtive Rail Caps
Text Notes 1100 3900 0    60   ~ 0
Positive Rail Caps
Text HLabel 1050 4200 0    60   Input ~ 0
V+
Text HLabel 1050 2800 0    60   Input ~ 0
V-
Wire Wire Line
	1900 4800 1900 5000
Wire Wire Line
	1900 5000 3050 5000
Wire Wire Line
	3050 5000 3050 4800
Wire Wire Line
	2450 4800 2450 5100
Connection ~ 2450 5000
Wire Wire Line
	1900 4500 1900 4450
Wire Wire Line
	1900 4450 3050 4450
Wire Wire Line
	3050 4450 3050 4500
Connection ~ 2450 4450
Wire Wire Line
	3800 4800 3800 5000
Wire Wire Line
	3800 5000 4950 5000
Wire Wire Line
	4950 5000 4950 4800
Wire Wire Line
	4350 4800 4350 5100
Connection ~ 4350 5000
Wire Wire Line
	3800 4500 3800 4450
Wire Wire Line
	3800 4450 4950 4450
Wire Wire Line
	4950 4450 4950 4500
Wire Wire Line
	4350 4200 4350 4500
Connection ~ 4350 4450
Wire Wire Line
	5700 4800 5700 5000
Wire Wire Line
	5700 5000 6850 5000
Wire Wire Line
	6850 5000 6850 4800
Wire Wire Line
	6250 4800 6250 5100
Connection ~ 6250 5000
Wire Wire Line
	5700 4500 5700 4450
Wire Wire Line
	5700 4450 6850 4450
Wire Wire Line
	6850 4450 6850 4500
Wire Wire Line
	6250 4200 6250 4500
Connection ~ 6250 4450
Wire Wire Line
	2000 2400 2000 2600
Wire Wire Line
	2000 2600 3150 2600
Wire Wire Line
	3150 2600 3150 2400
Wire Wire Line
	2550 2400 2550 2800
Connection ~ 2550 2600
Wire Wire Line
	2000 2100 2000 2050
Wire Wire Line
	2000 2050 3150 2050
Wire Wire Line
	3150 2050 3150 2100
Wire Wire Line
	2550 1800 2550 2100
Connection ~ 2550 2050
Wire Wire Line
	3900 2400 3900 2600
Wire Wire Line
	3900 2600 5050 2600
Wire Wire Line
	5050 2600 5050 2400
Wire Wire Line
	4450 2800 4450 2400
Connection ~ 4450 2600
Wire Wire Line
	3900 2100 3900 2050
Wire Wire Line
	3900 2050 5050 2050
Wire Wire Line
	5050 2050 5050 2100
Wire Wire Line
	4450 1800 4450 2100
Connection ~ 4450 2050
Wire Wire Line
	5800 2400 5800 2600
Wire Wire Line
	5800 2600 6950 2600
Wire Wire Line
	6950 2600 6950 2400
Wire Wire Line
	6350 2800 6350 2400
Connection ~ 6350 2600
Wire Wire Line
	5800 2100 5800 2050
Wire Wire Line
	5800 2050 6950 2050
Wire Wire Line
	6950 2050 6950 2100
Wire Wire Line
	6350 1800 6350 2100
Connection ~ 6350 2050
Wire Wire Line
	2550 1800 2400 1800
Wire Wire Line
	2400 1800 2400 1850
Wire Wire Line
	4450 1800 4300 1800
Wire Wire Line
	4300 1800 4300 1850
Wire Wire Line
	6350 1800 6200 1800
Wire Wire Line
	6200 1800 6200 1850
Wire Notes Line
	900  3600 10850 3600
Wire Wire Line
	2450 4200 2450 4500
Wire Wire Line
	1050 2800 8250 2800
Connection ~ 2550 2800
Connection ~ 4450 2800
Wire Wire Line
	1050 4200 8100 4200
Connection ~ 4350 4200
Connection ~ 2450 4200
$Comp
L 1u-BD C?
U 1 1 5DC38C7C
P 8250 2250
F 0 "C?" H 8410 2360 60  0000 C CNN
F 1 "1u-BD" H 8506 2270 60  0000 C CNN
F 2 "" H 8250 2252 60  0000 C CNN
F 3 "" H 8250 2252 60  0000 C CNN
F 4 "490-3897-1-ND" H 8566 2454 60  0001 C CNN "DigikeyPN"
F 5 "25V" H 8442 2186 60  0000 C CNN "MaxVoltage"
	1    8250 2250
	1    0    0    -1  
$EndComp
$Comp
L 1n-AC C?
U 1 1 5DC38C84
P 7700 2250
F 0 "C?" H 7860 2360 60  0000 C CNN
F 1 "1n-AC" H 7956 2270 60  0000 C CNN
F 2 "" H 7700 2252 60  0000 C CNN
F 3 "" H 7700 2252 60  0000 C CNN
F 4 "490-1303-1-ND" H 8016 2454 60  0001 C CNN "DigikeyPN"
F 5 "50V" H 7892 2186 60  0000 C CNN "MaxVoltage"
	1    7700 2250
	1    0    0    -1  
$EndComp
$Comp
L 10u-FC C?
U 1 1 5DC38C8C
P 8850 2250
F 0 "C?" H 9010 2360 60  0000 C CNN
F 1 "10u-FC" H 9106 2270 60  0000 C CNN
F 2 "Capacitors:C0603" H 8850 2540 60  0001 C CNN
F 3 "" H 8850 2252 60  0000 C CNN
F 4 "490-9970-1-ND" H 9166 2454 60  0001 C CNN "DigikeyPN"
F 5 "63V" H 9042 2186 60  0000 C CNN "MaxVoltage"
	1    8850 2250
	1    0    0    -1  
$EndComp
$Comp
L GND #PWR?
U 1 1 5DC38C92
P 8100 1850
F 0 "#PWR?" H 8100 1600 50  0001 C CNN
F 1 "GND" H 8100 1700 50  0000 C CNN
F 2 "" H 8100 1850 50  0001 C CNN
F 3 "" H 8100 1850 50  0001 C CNN
	1    8100 1850
	1    0    0    -1  
$EndComp
Wire Wire Line
	7700 2400 7700 2600
Wire Wire Line
	7700 2600 8850 2600
Wire Wire Line
	8850 2600 8850 2400
Wire Wire Line
	8250 2800 8250 2400
Connection ~ 8250 2600
Wire Wire Line
	7700 2100 7700 2050
Wire Wire Line
	7700 2050 8850 2050
Wire Wire Line
	8850 2050 8850 2100
Wire Wire Line
	8250 1800 8250 2100
Connection ~ 8250 2050
Wire Wire Line
	8250 1800 8100 1800
Wire Wire Line
	8100 1800 8100 1850
$Comp
L 1u-BD C?
U 1 1 5DC38D76
P 8100 4650
F 0 "C?" H 8260 4760 60  0000 C CNN
F 1 "1u-BD" H 8356 4670 60  0000 C CNN
F 2 "" H 8100 4652 60  0000 C CNN
F 3 "" H 8100 4652 60  0000 C CNN
F 4 "490-3897-1-ND" H 8416 4854 60  0001 C CNN "DigikeyPN"
F 5 "25V" H 8292 4586 60  0000 C CNN "MaxVoltage"
	1    8100 4650
	1    0    0    -1  
$EndComp
$Comp
L 1n-AC C?
U 1 1 5DC38D7E
P 7550 4650
F 0 "C?" H 7710 4760 60  0000 C CNN
F 1 "1n-AC" H 7806 4670 60  0000 C CNN
F 2 "" H 7550 4652 60  0000 C CNN
F 3 "" H 7550 4652 60  0000 C CNN
F 4 "490-1303-1-ND" H 7866 4854 60  0001 C CNN "DigikeyPN"
F 5 "50V" H 7742 4586 60  0000 C CNN "MaxVoltage"
	1    7550 4650
	1    0    0    -1  
$EndComp
$Comp
L 10u-FC C?
U 1 1 5DC38D86
P 8700 4650
F 0 "C?" H 8860 4760 60  0000 C CNN
F 1 "10u-FC" H 8956 4670 60  0000 C CNN
F 2 "Capacitors:C0603" H 8700 4940 60  0001 C CNN
F 3 "" H 8700 4652 60  0000 C CNN
F 4 "490-9970-1-ND" H 9016 4854 60  0001 C CNN "DigikeyPN"
F 5 "63V" H 8892 4586 60  0000 C CNN "MaxVoltage"
	1    8700 4650
	1    0    0    -1  
$EndComp
$Comp
L GND #PWR?
U 1 1 5DC38D8C
P 8100 5100
F 0 "#PWR?" H 8100 4850 50  0001 C CNN
F 1 "GND" H 8100 4950 50  0000 C CNN
F 2 "" H 8100 5100 50  0001 C CNN
F 3 "" H 8100 5100 50  0001 C CNN
	1    8100 5100
	1    0    0    -1  
$EndComp
Wire Wire Line
	7550 4800 7550 5000
Wire Wire Line
	7550 5000 8700 5000
Wire Wire Line
	8700 5000 8700 4800
Wire Wire Line
	8100 4800 8100 5100
Connection ~ 8100 5000
Wire Wire Line
	7550 4500 7550 4450
Wire Wire Line
	7550 4450 8700 4450
Wire Wire Line
	8700 4450 8700 4500
Wire Wire Line
	8100 4200 8100 4500
Connection ~ 8100 4450
Connection ~ 6250 4200
Connection ~ 6350 2800
$EndSCHEMATC
