EESchema Schematic File Version 2
LIBS:Capacitors
LIBS:Connectors
LIBS:Discretes
LIBS:ICs
LIBS:Allegro
LIBS:Resistors
LIBS:TestPoints
LIBS:AS20_Daughter_Card_Calibrator-cache
EELAYER 25 0
EELAYER END
$Descr A4 11693 8268
encoding utf-8
Sheet 1 1
Title ""
Date ""
Rev ""
Comp ""
Comment1 ""
Comment2 ""
Comment3 ""
Comment4 ""
$EndDescr
$Comp
L DMG1012T Q2
U 1 1 55821D16
P 2650 1550
F 0 "Q2" H 2774 1604 60  0000 C CNN
F 1 "DMG1012T" H 2930 1494 60  0000 C CNN
F 2 "Discretes:SOT523" H 2400 1700 60  0001 C CNN
F 3 "" H 2400 1700 60  0000 C CNN
F 4 "DMG1012T-7DICT-ND" H 3150 1700 60  0001 C CNN "DigikeyPN"
	1    2650 1550
	1    0    0    -1  
$EndComp
$Comp
L 2M-CD R3
U 1 1 5582345C
P 3000 2850
F 0 "R3" H 3000 3046 60  0000 C CNN
F 1 "2M-CD" H 2900 2950 60  0000 C CNN
F 2 "Resistors:R0805" H 3000 2850 60  0001 C CNN
F 3 "" H 3100 3000 60  0000 C CNN
F 4 "A103803CT-ND" H 3018 3118 60  0001 C CNN "DigikeyPN"
F 5 "0.1%" H 3250 2950 60  0000 C CNN "Precision"
	1    3000 2850
	1    0    0    -1  
$EndComp
$Comp
L 2M-CD R5
U 1 1 5582356D
P 3650 2850
F 0 "R5" H 3650 3046 60  0000 C CNN
F 1 "2M-CD" H 3550 2950 60  0000 C CNN
F 2 "Resistors:R0805" H 3650 2850 60  0001 C CNN
F 3 "" H 3750 3000 60  0000 C CNN
F 4 "A103803CT-ND" H 3668 3118 60  0001 C CNN "DigikeyPN"
F 5 "0.1%" H 3900 2950 60  0000 C CNN "Precision"
	1    3650 2850
	1    0    0    -1  
$EndComp
$Comp
L 2M-CD R6
U 1 1 558236E4
P 4300 2850
F 0 "R6" H 4300 3046 60  0000 C CNN
F 1 "2M-CD" H 4200 2950 60  0000 C CNN
F 2 "Resistors:R0805" H 4300 2850 60  0001 C CNN
F 3 "" H 4400 3000 60  0000 C CNN
F 4 "A103803CT-ND" H 4318 3118 60  0001 C CNN "DigikeyPN"
F 5 "0.1%" H 4550 2950 60  0000 C CNN "Precision"
	1    4300 2850
	1    0    0    -1  
$EndComp
$Comp
L 2M-CD R10
U 1 1 558236EC
P 4950 2850
F 0 "R10" H 4950 3046 60  0000 C CNN
F 1 "2M-CD" H 4850 2950 60  0000 C CNN
F 2 "Resistors:R0805" H 4950 2850 60  0001 C CNN
F 3 "" H 5050 3000 60  0000 C CNN
F 4 "A103803CT-ND" H 4968 3118 60  0001 C CNN "DigikeyPN"
F 5 "0.1%" H 5200 2950 60  0000 C CNN "Precision"
	1    4950 2850
	1    0    0    -1  
$EndComp
$Comp
L 1.3M-CD R12
U 1 1 55823BBE
P 5650 2850
F 0 "R12" H 5650 3046 60  0000 C CNN
F 1 "1.3M-CD" H 5550 2950 60  0000 C CNN
F 2 "Resistors:R0805" H 5650 2850 60  0001 C CNN
F 3 "" H 5750 3000 60  0000 C CNN
F 4 "A103798CT-ND" H 5668 3118 60  0001 C CNN "DigikeyPN"
F 5 "0.1%" H 5900 2950 60  0000 C CNN "Precision"
	1    5650 2850
	1    0    0    -1  
$EndComp
$Comp
L 390k-CD R2
U 1 1 55823E3B
P 3000 2450
F 0 "R2" H 3000 2646 60  0000 C CNN
F 1 "390k-CD" H 2900 2550 60  0000 C CNN
F 2 "Resistors:R0805" H 3000 2450 60  0001 C CNN
F 3 "" H 3100 2600 60  0000 C CNN
F 4 "A103092CT-ND" H 3018 2718 60  0001 C CNN "DigikeyPN"
F 5 "0.1%" H 3250 2550 60  0000 C CNN "Precision"
	1    3000 2450
	1    0    0    -1  
$EndComp
$Comp
L 10k-CD R4
U 1 1 5582416D
P 3650 2450
F 0 "R4" H 3650 2646 60  0000 C CNN
F 1 "10k-CD" H 3550 2550 60  0000 C CNN
F 2 "Resistors:R0805" H 3650 2450 60  0001 C CNN
F 3 "" H 3750 2600 60  0000 C CNN
F 4 "A103142CT-ND" H 3668 2718 60  0001 C CNN "DigikeyPN"
F 5 "0.1%" H 3900 2550 60  0000 C CNN "Precision"
	1    3650 2450
	1    0    0    -1  
$EndComp
$Comp
L 100k-CD R1
U 1 1 558242E8
P 3000 2050
F 0 "R1" H 3000 2246 60  0000 C CNN
F 1 "100k-CD" H 2900 2150 60  0000 C CNN
F 2 "Resistors:R0805" H 3000 2050 60  0001 C CNN
F 3 "" H 3100 2200 60  0000 C CNN
F 4 "P100KDACT-ND" H 3018 2318 60  0001 C CNN "DigikeyPN"
F 5 "0.1%" H 3250 2150 60  0000 C CNN "Precision"
	1    3000 2050
	1    0    0    -1  
$EndComp
Wire Wire Line
	2650 2850 2800 2850
Wire Wire Line
	3200 2850 3450 2850
Wire Wire Line
	3850 2850 4100 2850
Wire Wire Line
	4500 2850 4750 2850
Wire Wire Line
	5150 2850 5450 2850
Wire Wire Line
	5850 2850 6150 2850
Wire Wire Line
	3200 2450 3450 2450
$Comp
L 100k-CD R13
U 1 1 55824DBA
P 6350 2850
F 0 "R13" H 6350 3046 60  0000 C CNN
F 1 "100k-CD" H 6250 2950 60  0000 C CNN
F 2 "Resistors:R0805" H 6350 2850 60  0001 C CNN
F 3 "" H 6450 3000 60  0000 C CNN
F 4 "P100KDACT-ND" H 6368 3118 60  0001 C CNN "DigikeyPN"
F 5 "0.1%" H 6600 2950 60  0000 C CNN "Precision"
	1    6350 2850
	1    0    0    -1  
$EndComp
$Comp
L DMG1012T Q1
U 1 1 55825A24
P 1750 3150
F 0 "Q1" H 1874 3204 60  0000 C CNN
F 1 "DMG1012T" H 2030 3094 60  0000 C CNN
F 2 "Discretes:SOT523" H 1500 3300 60  0001 C CNN
F 3 "" H 1500 3300 60  0000 C CNN
F 4 "DMG1012T-7DICT-ND" H 2250 3300 60  0001 C CNN "DigikeyPN"
	1    1750 3150
	1    0    0    -1  
$EndComp
$Comp
L DMG1012T Q3
U 1 1 55825C97
P 2650 3150
F 0 "Q3" H 2774 3204 60  0000 C CNN
F 1 "DMG1012T" H 2930 3094 60  0000 C CNN
F 2 "Discretes:SOT523" H 2400 3300 60  0001 C CNN
F 3 "" H 2400 3300 60  0000 C CNN
F 4 "DMG1012T-7DICT-ND" H 3150 3300 60  0001 C CNN "DigikeyPN"
	1    2650 3150
	1    0    0    -1  
$EndComp
Wire Wire Line
	2650 1750 2650 2050
Wire Wire Line
	2650 2050 2800 2050
Wire Wire Line
	3200 2200 3200 2050
Wire Wire Line
	1750 2200 3200 2200
Wire Wire Line
	2650 2200 2650 2450
Wire Wire Line
	2650 2450 2800 2450
Wire Wire Line
	3850 2450 3850 2600
Wire Wire Line
	3850 2600 2650 2600
Wire Wire Line
	2650 2600 2650 2950
Wire Wire Line
	1750 2950 1750 2200
Connection ~ 2650 2200
Connection ~ 2650 2850
Wire Wire Line
	6550 3500 6550 2850
Wire Wire Line
	1750 3500 6550 3500
Wire Wire Line
	1750 3500 1750 3350
Wire Wire Line
	2650 3350 2650 3500
Connection ~ 2650 3500
Wire Wire Line
	2000 3150 2450 3150
Wire Wire Line
	1100 3150 1550 3150
Text Label 1100 3150 0    60   ~ 0
GPIO1_int
Text Label 2000 3150 0    60   ~ 0
GPIO2_int
Wire Wire Line
	2450 1550 2150 1550
Text Label 2150 1550 0    60   ~ 0
DACin
Text Label 2650 1100 3    60   ~ 0
IDDQ
Wire Wire Line
	2650 1350 2650 1100
Text Label 3850 3500 0    60   ~ 0
GND
Text Notes 3400 2100 0    60   ~ 0
100k for 1uA to 20uA
Text Notes 3950 2550 0    60   ~ 0
500k for 200nA to 4uA
Text Notes 4000 3050 0    60   ~ 0
10M for 10nA to 200nA
Text Label 2650 2050 1    60   ~ 0
Sense1
$Comp
L AD1582 U1
U 1 1 55827ECC
P 1950 5900
F 0 "U1" H 2330 5934 60  0000 C CNN
F 1 "AD1582" H 1892 6216 60  0000 C CNN
F 2 "ICs:SOT233" H 2020 5826 60  0001 C CNN
F 3 "" H 2020 5826 60  0000 C CNN
F 4 "AD1582BRTZREEL7CT-ND" H 2344 6490 60  0001 C CNN "DigikeyPN"
F 5 "2.50V" H 1952 5908 39  0000 C CNN "Voltage"
	1    1950 5900
	1    0    0    -1  
$EndComp
Text Label 1950 6350 1    60   ~ 0
GND
Wire Wire Line
	1950 6100 1950 6350
Wire Wire Line
	2350 5750 2750 5750
Text Label 2750 5750 2    60   ~ 0
2p5V_ref
$Comp
L LMP2022 U2
U 1 1 5582F525
P 5400 4750
F 0 "U2" H 5050 4900 60  0000 C CNN
F 1 "LMP2022" H 5200 5150 60  0000 C CNN
F 2 "ICs:8-TSSOP" H 5450 5050 60  0001 C CNN
F 3 "" H 5550 5150 60  0000 C CNN
F 4 "LMP2022MME/NOPBCT-ND" H 5650 5250 60  0001 C CNN "DigikeyPN"
	1    5400 4750
	1    0    0    -1  
$EndComp
$Comp
L LMP2022 U2
U 2 1 5582F5DD
P 5800 5500
F 0 "U2" H 5800 5300 60  0000 C CNN
F 1 "LMP2022" H 5650 5750 60  0000 C CNN
F 2 "ICs:8-TSSOP" H 5850 5800 60  0001 C CNN
F 3 "" H 5950 5900 60  0000 C CNN
F 4 "LMP2022MME/NOPBCT-ND" H 6050 6000 60  0001 C CNN "DigikeyPN"
	2    5800 5500
	-1   0    0    -1  
$EndComp
Wire Wire Line
	6150 5300 6150 5450
Wire Wire Line
	5100 5300 6150 5300
Wire Wire Line
	5450 5300 5450 5500
$Comp
L 100k-CD R7
U 1 1 5582F930
P 4300 4700
F 0 "R7" H 4300 4896 60  0000 C CNN
F 1 "100k-CD" H 4200 4800 60  0000 C CNN
F 2 "Resistors:R0805" H 4300 4700 60  0001 C CNN
F 3 "" H 4400 4850 60  0000 C CNN
F 4 "P100KDACT-ND" H 4318 4968 60  0001 C CNN "DigikeyPN"
F 5 "0.1%" H 4550 4800 60  0000 C CNN "Precision"
	1    4300 4700
	1    0    0    -1  
$EndComp
$Comp
L 100k-CD R8
U 1 1 5582F9E5
P 4300 4800
F 0 "R8" H 4300 4996 60  0000 C CNN
F 1 "100k-CD" H 4200 4900 60  0000 C CNN
F 2 "Resistors:R0805" H 4300 4800 60  0001 C CNN
F 3 "" H 4400 4950 60  0000 C CNN
F 4 "P100KDACT-ND" H 4318 5068 60  0001 C CNN "DigikeyPN"
F 5 "0.1%" H 4550 4900 60  0000 C CNN "Precision"
	1    4300 4800
	-1   0    0    1   
$EndComp
Wire Wire Line
	4500 4700 5050 4700
Wire Wire Line
	5050 4800 4500 4800
$Comp
L 100k-CD R11
U 1 1 5582FAF6
P 5350 4150
F 0 "R11" H 5350 4346 60  0000 C CNN
F 1 "100k-CD" H 5250 4250 60  0000 C CNN
F 2 "Resistors:R0805" H 5350 4150 60  0001 C CNN
F 3 "" H 5450 4300 60  0000 C CNN
F 4 "P100KDACT-ND" H 5368 4418 60  0001 C CNN "DigikeyPN"
F 5 "0.1%" H 5600 4250 60  0000 C CNN "Precision"
	1    5350 4150
	1    0    0    -1  
$EndComp
Wire Wire Line
	5150 4150 4850 4150
Wire Wire Line
	4850 4150 4850 4700
Connection ~ 4850 4700
Wire Wire Line
	5550 4150 7800 4150
Wire Wire Line
	5750 4750 6200 4750
Text Label 3650 4800 0    60   ~ 0
2p5V_ref
Wire Wire Line
	4100 4800 3650 4800
Wire Wire Line
	4100 4700 3650 4700
Text Label 3650 4700 0    60   ~ 0
GND
$Comp
L 100k-CD R9
U 1 1 55830334
P 4900 5300
F 0 "R9" H 4900 5496 60  0000 C CNN
F 1 "100k-CD" H 4800 5400 60  0000 C CNN
F 2 "Resistors:R0805" H 4900 5300 60  0001 C CNN
F 3 "" H 5000 5450 60  0000 C CNN
F 4 "P100KDACT-ND" H 4918 5568 60  0001 C CNN "DigikeyPN"
F 5 "0.1%" H 5150 5400 60  0000 C CNN "Precision"
	1    4900 5300
	-1   0    0    1   
$EndComp
Connection ~ 5450 5300
Wire Wire Line
	4700 5300 4650 5300
Wire Wire Line
	4650 5300 4650 4800
Connection ~ 4650 4800
$Comp
L 200-BD R16
U 1 1 5583054F
P 7800 4450
F 0 "R16" H 7800 4646 60  0000 C CNN
F 1 "200-BD" H 7700 4550 60  0000 C CNN
F 2 "Resistors:R0603" H 7800 4450 60  0001 C CNN
F 3 "" H 7900 4600 60  0000 C CNN
F 4 "P200DBCT-ND" H 7818 4718 60  0001 C CNN "DigikeyPN"
F 5 "0.1%" H 8000 4550 60  0000 C CNN "Precision"
	1    7800 4450
	0    1    1    0   
$EndComp
Text Label 7450 5550 2    60   ~ 0
toGNDpin
Wire Wire Line
	6150 5550 7800 5550
Wire Wire Line
	7800 4150 7800 4250
Wire Wire Line
	5600 4500 5900 4500
Text Label 2150 5200 3    60   ~ 0
5v0Pwr
Wire Wire Line
	5600 5000 5900 5000
Wire Wire Line
	2150 5550 2150 5200
Text Label 5900 4500 2    60   ~ 0
5v0Pwr
Text Label 5900 5000 2    60   ~ 0
GND
$Comp
L UM5K1N Q6
U 1 1 5583595F
P 9150 2800
F 0 "Q6" H 9118 2976 60  0000 C CNN
F 1 "UM5K1N" H 9148 2872 60  0000 C CNN
F 2 "Discretes:SOT353" H 9150 2800 60  0001 C CNN
F 3 "" H 9150 2800 60  0000 C CNN
F 4 "UM5K1NCT-ND" H 9148 3100 60  0001 C CNN "DigikeyPN"
	1    9150 2800
	1    0    0    -1  
$EndComp
Text Label 9150 3250 1    60   ~ 0
GND
Wire Wire Line
	9150 3000 9150 3250
$Comp
L 100k-AF R17
U 1 1 55836856
P 8950 1800
F 0 "R17" H 8950 1996 60  0000 C CNN
F 1 "100k-AF" H 8850 1900 60  0000 C CNN
F 2 "Resistors:R0402" H 8950 1800 60  0001 C CNN
F 3 "" H 9050 1950 60  0000 C CNN
F 4 "P100KJCT-ND" H 8968 2068 60  0001 C CNN "DigikeyPN"
F 5 "5%" H 9150 1900 60  0000 C CNN "Precision"
	1    8950 1800
	0    -1   -1   0   
$EndComp
$Comp
L 100k-AF R18
U 1 1 55836A47
P 9350 1800
F 0 "R18" H 9350 1996 60  0000 C CNN
F 1 "100k-AF" H 9250 1900 60  0000 C CNN
F 2 "Resistors:R0402" H 9350 1800 60  0001 C CNN
F 3 "" H 9450 1950 60  0000 C CNN
F 4 "P100KJCT-ND" H 9368 2068 60  0001 C CNN "DigikeyPN"
F 5 "5%" H 9550 1900 60  0000 C CNN "Precision"
	1    9350 1800
	0    1    1    0   
$EndComp
Wire Wire Line
	8950 2000 8950 2550
Wire Wire Line
	9350 2000 9350 2550
Wire Wire Line
	8950 1600 8950 1550
Wire Wire Line
	8950 1550 9350 1550
Wire Wire Line
	9350 1550 9350 1600
Text Label 8950 2550 1    60   ~ 0
GPIO1_int
Text Label 9350 2550 1    60   ~ 0
GPIO2_int
Text Label 9300 1550 2    60   ~ 0
5v0Pwr
Wire Wire Line
	8700 2800 8400 2800
Text Label 1150 1800 1    60   ~ 0
GPIO2n
Text Label 9950 2800 2    60   ~ 0
GPIO2n
Wire Wire Line
	9600 2800 9950 2800
Text Label 6100 5050 0    60   ~ 0
GPIO2_int
Wire Wire Line
	6550 5050 6100 5050
Text Label 7100 5150 0    60   ~ 0
GPIO1_int
Wire Wire Line
	7550 5150 7100 5150
Wire Wire Line
	6200 4750 6200 4150
Connection ~ 6200 4150
Text Notes 8050 4600 0    60   ~ 0
When selected \nwill source 12.5mA
Text Notes 6850 4600 0    60   ~ 0
When selected \nwill source 1mA
Connection ~ 6800 5550
$Comp
L DMN3026LVT Q5
U 1 1 5583C5FF
P 7750 5150
F 0 "Q5" H 7900 5100 60  0000 C CNN
F 1 "DMN3026LVT" H 8100 5200 60  0000 C CNN
F 2 "Discretes:TSOT236" H 8062 5180 60  0001 C CNN
F 3 "" H 8062 5180 60  0000 C CNN
F 4 "DMN3026LVT-7DICT-ND" H 8172 5752 60  0001 C CNN "DigikeyPN"
	1    7750 5150
	1    0    0    -1  
$EndComp
Wire Wire Line
	7600 4750 7900 4750
Connection ~ 7800 4750
Wire Wire Line
	7700 4750 7700 4900
Connection ~ 7700 4750
Wire Wire Line
	7800 4650 7800 4900
Connection ~ 7900 4750
Wire Wire Line
	7600 4750 7600 4900
$Comp
L DMN3026LVT Q4
U 1 1 5583D1DD
P 6750 5050
F 0 "Q4" H 6900 5000 60  0000 C CNN
F 1 "DMN3026LVT" H 7100 5100 60  0000 C CNN
F 2 "Discretes:TSOT236" H 7062 5080 60  0001 C CNN
F 3 "" H 7062 5080 60  0000 C CNN
F 4 "DMN3026LVT-7DICT-ND" H 7172 5652 60  0001 C CNN "DigikeyPN"
	1    6750 5050
	1    0    0    -1  
$EndComp
Wire Wire Line
	7900 4750 7900 4900
Wire Wire Line
	7800 5550 7800 5350
$Comp
L 2.49k-BD R14
U 1 1 55840743
P 6350 4350
F 0 "R14" H 6350 4546 60  0000 C CNN
F 1 "2.49k-BD" H 6250 4450 60  0000 C CNN
F 2 "Resistors:R0603" H 6350 4350 60  0001 C CNN
F 3 "" H 6450 4500 60  0000 C CNN
F 4 "P2.49KDBCT-ND" H 6368 4618 60  0001 C CNN "DigikeyPN"
F 5 "0.1%" H 6600 4450 60  0000 C CNN "Precision"
	1    6350 4350
	0    -1   -1   0   
$EndComp
$Comp
L 10-BD R15
U 1 1 558407D2
P 6600 4450
F 0 "R15" H 6600 4646 60  0000 C CNN
F 1 "10-BD" H 6500 4550 60  0000 C CNN
F 2 "Resistors:R0603" H 6600 4450 60  0001 C CNN
F 3 "" H 6700 4600 60  0000 C CNN
F 4 "TNP10.0AACT-ND" H 6618 4718 60  0001 C CNN "DigikeyPN"
F 5 "0.1%" H 6800 4550 60  0000 C CNN "Precision"
	1    6600 4450
	0    1    1    0   
$EndComp
Wire Wire Line
	6350 4550 6500 4550
Wire Wire Line
	6500 4550 6500 4250
Wire Wire Line
	6500 4250 6600 4250
Wire Wire Line
	6600 4650 6600 4800
Wire Wire Line
	6700 4800 6700 4750
Wire Wire Line
	6600 4750 6900 4750
Connection ~ 6600 4750
Wire Wire Line
	6800 4750 6800 4800
Connection ~ 6700 4750
Wire Wire Line
	6900 4750 6900 4800
Connection ~ 6800 4750
Wire Wire Line
	6800 5250 6800 5550
Wire Wire Line
	6200 4150 6350 4150
Connection ~ 6350 4150
Text Label 1150 1150 1    60   ~ 0
IDDQ
$Comp
L 5009K TP4
U 1 1 5593FCC0
P 1150 850
F 0 "TP4" H 1250 900 60  0000 C CNN
F 1 "IDDQ" H 1150 1100 60  0000 C CNN
F 2 "TestPoints:TP_1p6mm" H 1150 850 60  0001 C CNN
F 3 "" H 1300 1100 60  0000 C CNN
F 4 "5009K-ND" H 1400 1200 60  0001 C CNN "DigikeyPN"
	1    1150 850 
	1    0    0    -1  
$EndComp
Wire Wire Line
	1150 850  1150 1150
$Comp
L 5009K TP7
U 1 1 5594002B
P 1550 850
F 0 "TP7" H 1650 900 60  0000 C CNN
F 1 "DAC3" H 1550 1100 60  0000 C CNN
F 2 "TestPoints:TP_1p6mm" H 1550 850 60  0001 C CNN
F 3 "" H 1700 1100 60  0000 C CNN
F 4 "5009K-ND" H 1800 1200 60  0001 C CNN "DigikeyPN"
	1    1550 850 
	1    0    0    -1  
$EndComp
Wire Wire Line
	1550 850  1550 1150
Text Label 1550 1150 1    60   ~ 0
DACin
$Comp
L 5009K TP5
U 1 1 559401EC
P 1150 1500
F 0 "TP5" H 1250 1550 60  0000 C CNN
F 1 "GPIO2" H 1150 1750 60  0000 C CNN
F 2 "TestPoints:TP_1p6mm" H 1150 1500 60  0001 C CNN
F 3 "" H 1300 1750 60  0000 C CNN
F 4 "5009K-ND" H 1400 1850 60  0001 C CNN "DigikeyPN"
	1    1150 1500
	1    0    0    -1  
$EndComp
Wire Wire Line
	1150 1500 1150 1800
$Comp
L 5009K TP8
U 1 1 559401F4
P 1550 1500
F 0 "TP8" H 1650 1550 60  0000 C CNN
F 1 "Sense1" H 1550 1750 60  0000 C CNN
F 2 "TestPoints:TP_1p6mm" H 1550 1500 60  0001 C CNN
F 3 "" H 1700 1750 60  0000 C CNN
F 4 "5009K-ND" H 1800 1850 60  0001 C CNN "DigikeyPN"
	1    1550 1500
	1    0    0    -1  
$EndComp
Wire Wire Line
	1550 1500 1550 1800
Text Label 1550 1800 1    60   ~ 0
Sense1
Text Label 750  1150 1    60   ~ 0
GPIO1n
$Comp
L 5009K TP1
U 1 1 55940ED7
P 750 850
F 0 "TP1" H 850 900 60  0000 C CNN
F 1 "GPIO1" H 750 1100 60  0000 C CNN
F 2 "TestPoints:TP_1p6mm" H 750 850 60  0001 C CNN
F 3 "" H 900 1100 60  0000 C CNN
F 4 "5009K-ND" H 1000 1200 60  0001 C CNN "DigikeyPN"
	1    750  850 
	1    0    0    -1  
$EndComp
Wire Wire Line
	750  850  750  1150
Text Label 8400 2800 0    60   ~ 0
GPIO1n
$Comp
L 5009K TP2
U 1 1 55941F04
P 750 1500
F 0 "TP2" H 850 1550 60  0000 C CNN
F 1 "GNDpin" H 750 1750 60  0000 C CNN
F 2 "TestPoints:TP_1p6mm" H 750 1500 60  0001 C CNN
F 3 "" H 900 1750 60  0000 C CNN
F 4 "5009K-ND" H 1000 1850 60  0001 C CNN "DigikeyPN"
	1    750  1500
	1    0    0    -1  
$EndComp
Wire Wire Line
	750  1500 750  1900
Text Label 750  1900 1    60   ~ 0
toGNDpin
$Comp
L 5009K TP3
U 1 1 55945D1E
P 750 2350
F 0 "TP3" H 850 2400 60  0000 C CNN
F 1 "5Vpwr" H 750 2600 60  0000 C CNN
F 2 "TestPoints:TP_1p6mm" H 750 2350 60  0001 C CNN
F 3 "" H 900 2600 60  0000 C CNN
F 4 "5009K-ND" H 1000 2700 60  0001 C CNN "DigikeyPN"
	1    750  2350
	1    0    0    -1  
$EndComp
Wire Wire Line
	750  2350 750  2650
$Comp
L 5009K TP6
U 1 1 55945DFC
P 1150 2350
F 0 "TP6" H 1250 2400 60  0000 C CNN
F 1 "GND" H 1150 2600 60  0000 C CNN
F 2 "TestPoints:TP_1p6mm" H 1150 2350 60  0001 C CNN
F 3 "" H 1300 2600 60  0000 C CNN
F 4 "5009K-ND" H 1400 2700 60  0001 C CNN "DigikeyPN"
	1    1150 2350
	1    0    0    -1  
$EndComp
Wire Wire Line
	1150 2350 1150 2650
Text Label 1150 2650 1    60   ~ 0
GND
Text Label 750  2650 1    60   ~ 0
5v0Pwr
$EndSCHEMATC
