EESchema Schematic File Version 2
LIBS:power
LIBS:device
LIBS:transistors
LIBS:conn
LIBS:linear
LIBS:regul
LIBS:74xx
LIBS:cmos4000
LIBS:adc-dac
LIBS:memory
LIBS:xilinx
LIBS:microcontrollers
LIBS:dsp
LIBS:microchip
LIBS:analog_switches
LIBS:motorola
LIBS:texas
LIBS:intel
LIBS:audio
LIBS:interface
LIBS:digital-audio
LIBS:philips
LIBS:display
LIBS:cypress
LIBS:siliconi
LIBS:opto
LIBS:atmel
LIBS:contrib
LIBS:valves
LIBS:Capacitors
LIBS:Connectors
LIBS:Discretes
LIBS:ICs
LIBS:Allegro
LIBS:Resistors
LIBS:TestPoints
LIBS:sixteen_one-cache
EELAYER 26 0
EELAYER END
$Descr A4 11693 8268
encoding utf-8
Sheet 4 4
Title ""
Date ""
Rev ""
Comp ""
Comment1 ""
Comment2 ""
Comment3 ""
Comment4 ""
$EndDescr
$Comp
L LAA710 U18
U 1 1 57B757D9
P 3110 2460
F 0 "U18" H 3115 2957 60  0000 C CNN
F 1 "LAA710" H 3115 2851 60  0000 C CNN
F 2 "ICs:LAA710S" H 3100 2820 60  0001 C CNN
F 3 "" H 3100 2820 60  0001 C CNN
F 4 "LAA710S-ND" H 3110 2460 60  0001 C CNN "DigikeyPN"
	1    3110 2460
	1    0    0    -1  
$EndComp
$Comp
L LAA710 U19
U 1 1 57B757DF
P 3110 3770
F 0 "U19" H 3115 4267 60  0000 C CNN
F 1 "LAA710" H 3115 4161 60  0000 C CNN
F 2 "ICs:LAA710S" H 3100 4130 60  0001 C CNN
F 3 "" H 3100 4130 60  0001 C CNN
F 4 "LAA710S-ND" H 3110 3770 60  0001 C CNN "DigikeyPN"
	1    3110 3770
	1    0    0    -1  
$EndComp
$Comp
L LAA710 U22
U 1 1 57B75A05
P 4110 2460
F 0 "U22" H 4115 2957 60  0000 C CNN
F 1 "LAA710" H 4115 2851 60  0000 C CNN
F 2 "ICs:LAA710S" H 4100 2820 60  0001 C CNN
F 3 "" H 4100 2820 60  0001 C CNN
F 4 "LAA710S-ND" H 4110 2460 60  0001 C CNN "DigikeyPN"
	1    4110 2460
	1    0    0    -1  
$EndComp
$Comp
L LAA710 U23
U 1 1 57B75A0B
P 4110 3770
F 0 "U23" H 4115 4267 60  0000 C CNN
F 1 "LAA710" H 4115 4161 60  0000 C CNN
F 2 "ICs:LAA710S" H 4100 4130 60  0001 C CNN
F 3 "" H 4100 4130 60  0001 C CNN
F 4 "LAA710S-ND" H 4110 3770 60  0001 C CNN "DigikeyPN"
	1    4110 3770
	1    0    0    -1  
$EndComp
$Comp
L LAA710 U26
U 1 1 57B75A11
P 5110 2460
F 0 "U26" H 5115 2957 60  0000 C CNN
F 1 "LAA710" H 5115 2851 60  0000 C CNN
F 2 "ICs:LAA710S" H 5100 2820 60  0001 C CNN
F 3 "" H 5100 2820 60  0001 C CNN
F 4 "LAA710S-ND" H 5110 2460 60  0001 C CNN "DigikeyPN"
	1    5110 2460
	1    0    0    -1  
$EndComp
$Comp
L LAA710 U27
U 1 1 57B75A17
P 5110 3770
F 0 "U27" H 5115 4267 60  0000 C CNN
F 1 "LAA710" H 5115 4161 60  0000 C CNN
F 2 "ICs:LAA710S" H 5100 4130 60  0001 C CNN
F 3 "" H 5100 4130 60  0001 C CNN
F 4 "LAA710S-ND" H 5110 3770 60  0001 C CNN "DigikeyPN"
	1    5110 3770
	1    0    0    -1  
$EndComp
$Comp
L LAA710 U30
U 1 1 57B75D85
P 6110 2460
F 0 "U30" H 6115 2957 60  0000 C CNN
F 1 "LAA710" H 6115 2851 60  0000 C CNN
F 2 "ICs:LAA710S" H 6100 2820 60  0001 C CNN
F 3 "" H 6100 2820 60  0001 C CNN
F 4 "LAA710S-ND" H 6110 2460 60  0001 C CNN "DigikeyPN"
	1    6110 2460
	1    0    0    -1  
$EndComp
$Comp
L LAA710 U34
U 1 1 57B75D91
P 7110 2460
F 0 "U34" H 7115 2957 60  0000 C CNN
F 1 "LAA710" H 7115 2851 60  0000 C CNN
F 2 "ICs:LAA710S" H 7100 2820 60  0001 C CNN
F 3 "" H 7100 2820 60  0001 C CNN
F 4 "LAA710S-ND" H 7110 2460 60  0001 C CNN "DigikeyPN"
	1    7110 2460
	1    0    0    -1  
$EndComp
$Comp
L LAA710 U35
U 1 1 57B75D97
P 7110 3770
F 0 "U35" H 7115 4267 60  0000 C CNN
F 1 "LAA710" H 7115 4161 60  0000 C CNN
F 2 "ICs:LAA710S" H 7100 4130 60  0001 C CNN
F 3 "" H 7100 4130 60  0001 C CNN
F 4 "LAA710S-ND" H 7110 3770 60  0001 C CNN "DigikeyPN"
	1    7110 3770
	1    0    0    -1  
$EndComp
$Comp
L LAA710 U38
U 1 1 57B75D9D
P 8110 2460
F 0 "U38" H 8115 2957 60  0000 C CNN
F 1 "LAA710" H 8115 2851 60  0000 C CNN
F 2 "ICs:LAA710S" H 8100 2820 60  0001 C CNN
F 3 "" H 8100 2820 60  0001 C CNN
F 4 "LAA710S-ND" H 8110 2460 60  0001 C CNN "DigikeyPN"
	1    8110 2460
	1    0    0    -1  
$EndComp
$Comp
L LAA710 U39
U 1 1 57B75DA3
P 8110 3770
F 0 "U39" H 8115 4267 60  0000 C CNN
F 1 "LAA710" H 8115 4161 60  0000 C CNN
F 2 "ICs:LAA710S" H 8100 4130 60  0001 C CNN
F 3 "" H 8100 4130 60  0001 C CNN
F 4 "LAA710S-ND" H 8110 3770 60  0001 C CNN "DigikeyPN"
	1    8110 3770
	1    0    0    -1  
$EndComp
$Comp
L LAA710 U42
U 1 1 57B75DA9
P 9110 2460
F 0 "U42" H 9115 2957 60  0000 C CNN
F 1 "LAA710" H 9115 2851 60  0000 C CNN
F 2 "ICs:LAA710S" H 9100 2820 60  0001 C CNN
F 3 "" H 9100 2820 60  0001 C CNN
F 4 "LAA710S-ND" H 9110 2460 60  0001 C CNN "DigikeyPN"
	1    9110 2460
	1    0    0    -1  
$EndComp
$Comp
L LAA710 U43
U 1 1 57B75DAF
P 9110 3770
F 0 "U43" H 9115 4267 60  0000 C CNN
F 1 "LAA710" H 9115 4161 60  0000 C CNN
F 2 "ICs:LAA710S" H 9100 4130 60  0001 C CNN
F 3 "" H 9100 4130 60  0001 C CNN
F 4 "LAA710S-ND" H 9110 3770 60  0001 C CNN "DigikeyPN"
	1    9110 3770
	1    0    0    -1  
$EndComp
$Comp
L LAA710 U20
U 1 1 57B76391
P 3110 5160
F 0 "U20" H 3115 5657 60  0000 C CNN
F 1 "LAA710" H 3115 5551 60  0000 C CNN
F 2 "ICs:LAA710S" H 3100 5520 60  0001 C CNN
F 3 "" H 3100 5520 60  0001 C CNN
F 4 "LAA710S-ND" H 3110 5160 60  0001 C CNN "DigikeyPN"
	1    3110 5160
	1    0    0    -1  
$EndComp
$Comp
L LAA710 U24
U 1 1 57B7639D
P 4110 5160
F 0 "U24" H 4115 5657 60  0000 C CNN
F 1 "LAA710" H 4115 5551 60  0000 C CNN
F 2 "ICs:LAA710S" H 4100 5520 60  0001 C CNN
F 3 "" H 4100 5520 60  0001 C CNN
F 4 "LAA710S-ND" H 4110 5160 60  0001 C CNN "DigikeyPN"
	1    4110 5160
	1    0    0    -1  
$EndComp
$Comp
L LAA710 U28
U 1 1 57B763A9
P 5110 5160
F 0 "U28" H 5115 5657 60  0000 C CNN
F 1 "LAA710" H 5115 5551 60  0000 C CNN
F 2 "ICs:LAA710S" H 5100 5520 60  0001 C CNN
F 3 "" H 5100 5520 60  0001 C CNN
F 4 "LAA710S-ND" H 5110 5160 60  0001 C CNN "DigikeyPN"
	1    5110 5160
	1    0    0    -1  
$EndComp
$Comp
L LAA710 U48
U 1 1 57B763BB
P 10110 5160
F 0 "U48" H 10115 5657 60  0000 C CNN
F 1 "LAA710" H 10115 5551 60  0000 C CNN
F 2 "ICs:LAA710S" H 10100 5520 60  0001 C CNN
F 3 "" H 10100 5520 60  0001 C CNN
F 4 "LAA710S-ND" H 10110 5160 60  0001 C CNN "DigikeyPN"
	1    10110 5160
	1    0    0    -1  
$EndComp
$Comp
L LAA710 U47
U 1 1 57B763C7
P 10110 3770
F 0 "U47" H 10115 4267 60  0000 C CNN
F 1 "LAA710" H 10115 4161 60  0000 C CNN
F 2 "ICs:LAA710S" H 10100 4130 60  0001 C CNN
F 3 "" H 10100 4130 60  0001 C CNN
F 4 "LAA710S-ND" H 10110 3770 60  0001 C CNN "DigikeyPN"
	1    10110 3770
	1    0    0    -1  
$EndComp
$Comp
L LAA710 U44
U 1 1 57B763D9
P 9110 5160
F 0 "U44" H 9115 5657 60  0000 C CNN
F 1 "LAA710" H 9115 5551 60  0000 C CNN
F 2 "ICs:LAA710S" H 9100 5520 60  0001 C CNN
F 3 "" H 9100 5520 60  0001 C CNN
F 4 "LAA710S-ND" H 9110 5160 60  0001 C CNN "DigikeyPN"
	1    9110 5160
	1    0    0    -1  
$EndComp
$Comp
L LAA710 U45
U 1 1 57B763DF
P 10110 1250
F 0 "U45" H 10115 1747 60  0000 C CNN
F 1 "LAA710" H 10115 1641 60  0000 C CNN
F 2 "ICs:LAA710S" H 10100 1610 60  0001 C CNN
F 3 "" H 10100 1610 60  0001 C CNN
F 4 "LAA710S-ND" H 10110 1250 60  0001 C CNN "DigikeyPN"
	1    10110 1250
	1    0    0    -1  
$EndComp
$Comp
L LAA710 U21
U 1 1 57BB2AEC
P 4110 1250
F 0 "U21" H 4115 1747 60  0000 C CNN
F 1 "LAA710" H 4115 1641 60  0000 C CNN
F 2 "ICs:LAA710S" H 4100 1610 60  0001 C CNN
F 3 "" H 4100 1610 60  0001 C CNN
F 4 "LAA710S-ND" H 4110 1250 60  0001 C CNN "DigikeyPN"
	1    4110 1250
	1    0    0    -1  
$EndComp
$Comp
L LAA710 U25
U 1 1 57BB2AF2
P 5110 1250
F 0 "U25" H 5115 1747 60  0000 C CNN
F 1 "LAA710" H 5115 1641 60  0000 C CNN
F 2 "ICs:LAA710S" H 5100 1610 60  0001 C CNN
F 3 "" H 5100 1610 60  0001 C CNN
F 4 "LAA710S-ND" H 5110 1250 60  0001 C CNN "DigikeyPN"
	1    5110 1250
	1    0    0    -1  
$EndComp
$Comp
L LAA710 U29
U 1 1 57BB2AF8
P 6110 1250
F 0 "U29" H 6115 1747 60  0000 C CNN
F 1 "LAA710" H 6115 1641 60  0000 C CNN
F 2 "ICs:LAA710S" H 6100 1610 60  0001 C CNN
F 3 "" H 6100 1610 60  0001 C CNN
F 4 "LAA710S-ND" H 6110 1250 60  0001 C CNN "DigikeyPN"
	1    6110 1250
	1    0    0    -1  
$EndComp
$Comp
L LAA710 U37
U 1 1 57BB2B04
P 8110 1250
F 0 "U37" H 8115 1747 60  0000 C CNN
F 1 "LAA710" H 8115 1641 60  0000 C CNN
F 2 "ICs:LAA710S" H 8100 1610 60  0001 C CNN
F 3 "" H 8100 1610 60  0001 C CNN
F 4 "LAA710S-ND" H 8110 1250 60  0001 C CNN "DigikeyPN"
	1    8110 1250
	1    0    0    -1  
$EndComp
$Comp
L LAA710 U41
U 1 1 57BB2B0A
P 9110 1250
F 0 "U41" H 9115 1747 60  0000 C CNN
F 1 "LAA710" H 9115 1641 60  0000 C CNN
F 2 "ICs:LAA710S" H 9100 1610 60  0001 C CNN
F 3 "" H 9100 1610 60  0001 C CNN
F 4 "LAA710S-ND" H 9110 1250 60  0001 C CNN "DigikeyPN"
	1    9110 1250
	1    0    0    -1  
$EndComp
Text Notes 7390 7500 0    79   ~ 0
16 Site GTS Board Controller\n
Text Notes 8160 7640 0    60   ~ 0
8/26/16
Text Notes 10590 7640 0    60   ~ 0
1.5\n
$Comp
L LAA710 U32
U 1 1 57B763B5
P 6110 5160
F 0 "U32" H 6115 5657 60  0000 C CNN
F 1 "LAA710" H 6115 5551 60  0000 C CNN
F 2 "ICs:LAA710S" H 6100 5520 60  0001 C CNN
F 3 "" H 6100 5520 60  0001 C CNN
F 4 "LAA710S-ND" H 6110 5160 60  0001 C CNN "DigikeyPN"
	1    6110 5160
	1    0    0    -1  
$EndComp
$Comp
L LAA710 U31
U 1 1 57B75D8B
P 6110 3770
F 0 "U31" H 6115 4267 60  0000 C CNN
F 1 "LAA710" H 6115 4161 60  0000 C CNN
F 2 "ICs:LAA710S" H 6100 4130 60  0001 C CNN
F 3 "" H 6100 4130 60  0001 C CNN
F 4 "LAA710S-ND" H 6110 3770 60  0001 C CNN "DigikeyPN"
	1    6110 3770
	1    0    0    -1  
$EndComp
$Comp
L LAA710 U36
U 1 1 57B763C1
P 7110 5160
F 0 "U36" H 7115 5657 60  0000 C CNN
F 1 "LAA710" H 7115 5551 60  0000 C CNN
F 2 "ICs:LAA710S" H 7100 5520 60  0001 C CNN
F 3 "" H 7100 5520 60  0001 C CNN
F 4 "LAA710S-ND" H 7110 5160 60  0001 C CNN "DigikeyPN"
	1    7110 5160
	1    0    0    -1  
$EndComp
$Comp
L LAA710 U33
U 1 1 57BB2AFE
P 7110 1250
F 0 "U33" H 7115 1747 60  0000 C CNN
F 1 "LAA710" H 7115 1641 60  0000 C CNN
F 2 "ICs:LAA710S" H 7100 1610 60  0001 C CNN
F 3 "" H 7100 1610 60  0001 C CNN
F 4 "LAA710S-ND" H 7110 1250 60  0001 C CNN "DigikeyPN"
	1    7110 1250
	1    0    0    -1  
$EndComp
$Comp
L LAA710 U40
U 1 1 57B763CD
P 8110 5160
F 0 "U40" H 8115 5657 60  0000 C CNN
F 1 "LAA710" H 8115 5551 60  0000 C CNN
F 2 "ICs:LAA710S" H 8100 5520 60  0001 C CNN
F 3 "" H 8100 5520 60  0001 C CNN
F 4 "LAA710S-ND" H 8110 5160 60  0001 C CNN "DigikeyPN"
	1    8110 5160
	1    0    0    -1  
$EndComp
$Comp
L LAA710 U46
U 1 1 57B763D3
P 10110 2460
F 0 "U46" H 10115 2957 60  0000 C CNN
F 1 "LAA710" H 10115 2851 60  0000 C CNN
F 2 "ICs:LAA710S" H 10100 2820 60  0001 C CNN
F 3 "" H 10100 2820 60  0001 C CNN
F 4 "LAA710S-ND" H 10110 2460 60  0001 C CNN "DigikeyPN"
	1    10110 2460
	1    0    0    -1  
$EndComp
Text HLabel 9180 6900 0    39   Input ~ 0
D15_en
Text HLabel 8180 6530 0    39   Input ~ 0
D13_en
Text HLabel 7180 6900 0    39   Input ~ 0
D11_en
Text HLabel 6180 6540 0    39   Input ~ 0
D9_en
Text HLabel 5170 6900 0    39   Input ~ 0
D7_en
Text HLabel 4180 6540 0    39   Input ~ 0
D5_en
Text HLabel 3180 6900 0    39   Input ~ 0
D3_en
Text HLabel 2170 6540 0    39   Input ~ 0
D1_en
Text HLabel 3440 1060 0    39   Input ~ 0
P1_mid
Text HLabel 3400 1350 2    39   Output ~ 0
P1_D1
Text HLabel 3400 1650 2    39   Output ~ 0
P1_D2
Text HLabel 4400 1350 2    39   Output ~ 0
P1_D3
Text HLabel 4400 1650 2    39   Output ~ 0
P1_D4
Text HLabel 5400 1350 2    39   Output ~ 0
P1_D5
Text HLabel 5400 1650 2    39   Output ~ 0
P1_D6
Text HLabel 6400 1350 2    39   Output ~ 0
P1_D7
Text HLabel 6400 1650 2    39   Output ~ 0
P1_D8
Text HLabel 7400 1650 2    39   Output ~ 0
P1_D10
Text HLabel 7400 1350 2    39   Output ~ 0
P1_D9
Text HLabel 8400 1650 2    39   Output ~ 0
P1_D12
Text HLabel 8400 1350 2    39   Output ~ 0
P1_D11
Text HLabel 9400 1650 2    39   Output ~ 0
P1_D14
Text HLabel 9510 1350 2    39   Output ~ 0
P1_D13
Text HLabel 10400 1350 2    39   Output ~ 0
P1_D15
Text HLabel 10400 1650 2    39   Output ~ 0
P1_D16
Text HLabel 10400 2560 2    39   Output ~ 0
P2_D15
Text HLabel 10400 2860 2    39   Output ~ 0
P2_D16
Text HLabel 10080 6900 2    39   Input ~ 0
D16_en
Text HLabel 9080 6530 2    39   Input ~ 0
D14_en
Text HLabel 9400 2860 2    39   Output ~ 0
P2_D14
Text HLabel 9400 2560 2    39   Output ~ 0
P2_D13
Text HLabel 8400 2560 2    39   Output ~ 0
P2_D11
Text HLabel 8400 2860 2    39   Output ~ 0
P2_D12
Text HLabel 8080 6900 2    39   Input ~ 0
D12_en
Text HLabel 7080 6540 2    39   Input ~ 0
D10_en
Text HLabel 7400 2860 2    39   Output ~ 0
P2_D10
Text HLabel 7400 2560 2    39   Output ~ 0
P2_D9
Text HLabel 6400 2560 2    39   Output ~ 0
P2_D7
Text HLabel 6400 2860 2    39   Output ~ 0
P2_D8
Text HLabel 6070 6900 2    39   Input ~ 0
D8_en
Text HLabel 5080 6540 2    39   Input ~ 0
D6_en
Text HLabel 5400 2860 2    39   Output ~ 0
P2_D6
Text HLabel 5400 2560 2    39   Output ~ 0
P2_D5
Text HLabel 4400 2860 2    39   Output ~ 0
P2_D4
Text HLabel 4080 6900 2    39   Input ~ 0
D4_en
Text HLabel 3070 6540 2    39   Input ~ 0
D2_en
Text HLabel 3400 2560 2    39   Output ~ 0
P2_D1
Text HLabel 3440 2280 0    39   Input ~ 0
P2_mid
Text HLabel 10400 3870 2    39   Output ~ 0
P3_D15
Text HLabel 10400 4170 2    39   Output ~ 0
P3_D16
Text HLabel 9400 4170 2    39   Output ~ 0
P3_D14
Text HLabel 9400 3870 2    39   Output ~ 0
P3_D13
Text HLabel 8400 3870 2    39   Output ~ 0
P3_D11
Text HLabel 8400 4170 2    39   Output ~ 0
P3_D12
Text HLabel 7400 4170 2    39   Output ~ 0
P3_D10
Text HLabel 7400 3870 2    39   Output ~ 0
P3_D9
Text HLabel 6400 3870 2    39   Output ~ 0
P3_D7
Text HLabel 6400 4170 2    39   Output ~ 0
P3_D8
Text HLabel 5400 4170 2    39   Output ~ 0
P3_D6
Text HLabel 5400 3870 2    39   Output ~ 0
P3_D5
Text HLabel 4400 3870 2    39   Output ~ 0
P3_D3
Text HLabel 4400 4170 2    39   Output ~ 0
P3_D4
Text HLabel 3400 4170 2    39   Output ~ 0
P3_D2
Text HLabel 3400 3870 2    39   Output ~ 0
P3_D1
Text HLabel 3400 3580 0    39   Input ~ 0
P3_mid
Text HLabel 3450 4960 0    39   Input ~ 0
P4_mid
Text HLabel 3400 5260 2    60   Output ~ 0
P4_D1
Text HLabel 3400 5560 2    60   Output ~ 0
P4_D2
Text HLabel 10400 5560 2    60   Output ~ 0
P4_D16
Text HLabel 10400 5260 2    60   Output ~ 0
P4_D15
Text HLabel 9400 5260 2    60   Output ~ 0
P4_D13
Text HLabel 9400 5560 2    60   Output ~ 0
P4_D14
Text HLabel 8400 5560 2    60   Output ~ 0
P4_D12
Text HLabel 8400 5260 2    60   Output ~ 0
P4_D11
Text HLabel 7400 5260 2    60   Output ~ 0
P4_D9
Text HLabel 7400 5560 2    60   Output ~ 0
P4_D10
Text HLabel 6400 5260 2    60   Output ~ 0
P4_D7
Text HLabel 6400 5560 2    60   Output ~ 0
P4_D8
Text HLabel 5400 5560 2    60   Output ~ 0
P4_D6
Text HLabel 5400 5260 2    60   Output ~ 0
P4_D5
Text HLabel 4400 5260 2    60   Output ~ 0
P4_D3
Text HLabel 4400 5560 2    60   Output ~ 0
P4_D4
Text HLabel 2280 7200 0    60   Input ~ 0
GND
Text HLabel 1340 520  0    60   Input ~ 0
5V
Text HLabel 3400 2860 2    39   Output ~ 0
P2_D2
Text HLabel 4400 2560 2    39   Output ~ 0
P2_D3
$Comp
L LAA710 U17
U 2 1 58D377A9
P 3110 1550
F 0 "U17" H 3090 1730 60  0000 C CNN
F 1 "LAA710" H 3090 1830 60  0000 C CNN
F 2 "ICs:LAA710S" H 3090 1730 60  0001 C CNN
F 3 "" H 3090 1730 60  0001 C CNN
	2    3110 1550
	1    0    0    -1  
$EndComp
$Comp
L LAA710 U18
U 2 1 58D3A269
P 3110 2760
F 0 "U18" H 3090 2940 60  0000 C CNN
F 1 "LAA710" H 3090 3040 60  0000 C CNN
F 2 "ICs:LAA710S" H 3090 2940 60  0001 C CNN
F 3 "" H 3090 2940 60  0001 C CNN
	2    3110 2760
	1    0    0    -1  
$EndComp
$Comp
L LAA710 U19
U 2 1 58D3A864
P 3110 4070
F 0 "U19" H 3090 4250 60  0000 C CNN
F 1 "LAA710" H 3090 4350 60  0000 C CNN
F 2 "ICs:LAA710S" H 3090 4250 60  0001 C CNN
F 3 "" H 3090 4250 60  0001 C CNN
	2    3110 4070
	1    0    0    -1  
$EndComp
$Comp
L LAA710 U20
U 2 1 58D3B389
P 3110 5460
F 0 "U20" H 3090 5640 60  0000 C CNN
F 1 "LAA710" H 3090 5740 60  0000 C CNN
F 2 "ICs:LAA710S" H 3090 5640 60  0001 C CNN
F 3 "" H 3090 5640 60  0001 C CNN
	2    3110 5460
	1    0    0    -1  
$EndComp
$Comp
L LAA710 U24
U 2 1 58D3B5E9
P 4110 5460
F 0 "U24" H 4090 5640 60  0000 C CNN
F 1 "LAA710" H 4090 5740 60  0000 C CNN
F 2 "ICs:LAA710S" H 4090 5640 60  0001 C CNN
F 3 "" H 4090 5640 60  0001 C CNN
	2    4110 5460
	1    0    0    -1  
$EndComp
$Comp
L LAA710 U23
U 2 1 58D3B71E
P 4110 4070
F 0 "U23" H 4090 4250 60  0000 C CNN
F 1 "LAA710" H 4090 4350 60  0000 C CNN
F 2 "ICs:LAA710S" H 4090 4250 60  0001 C CNN
F 3 "" H 4090 4250 60  0001 C CNN
	2    4110 4070
	1    0    0    -1  
$EndComp
$Comp
L LAA710 U22
U 2 1 58D3B84C
P 4110 2760
F 0 "U22" H 4090 2940 60  0000 C CNN
F 1 "LAA710" H 4090 3040 60  0000 C CNN
F 2 "ICs:LAA710S" H 4090 2940 60  0001 C CNN
F 3 "" H 4090 2940 60  0001 C CNN
	2    4110 2760
	1    0    0    -1  
$EndComp
$Comp
L LAA710 U21
U 2 1 58D3BFCB
P 4110 1550
F 0 "U21" H 4090 1730 60  0000 C CNN
F 1 "LAA710" H 4090 1830 60  0000 C CNN
F 2 "ICs:LAA710S" H 4090 1730 60  0001 C CNN
F 3 "" H 4090 1730 60  0001 C CNN
	2    4110 1550
	1    0    0    -1  
$EndComp
$Comp
L LAA710 U25
U 2 1 58D3C88D
P 5110 1550
F 0 "U25" H 5090 1730 60  0000 C CNN
F 1 "LAA710" H 5090 1830 60  0000 C CNN
F 2 "ICs:LAA710S" H 5090 1730 60  0001 C CNN
F 3 "" H 5090 1730 60  0001 C CNN
	2    5110 1550
	1    0    0    -1  
$EndComp
$Comp
L LAA710 U26
U 2 1 58D3D2ED
P 5110 2760
F 0 "U26" H 5090 2940 60  0000 C CNN
F 1 "LAA710" H 5090 3040 60  0000 C CNN
F 2 "ICs:LAA710S" H 5090 2940 60  0001 C CNN
F 3 "" H 5090 2940 60  0001 C CNN
	2    5110 2760
	1    0    0    -1  
$EndComp
$Comp
L LAA710 U27
U 2 1 58D3E141
P 5110 4070
F 0 "U27" H 5090 4250 60  0000 C CNN
F 1 "LAA710" H 5090 4350 60  0000 C CNN
F 2 "ICs:LAA710S" H 5090 4250 60  0001 C CNN
F 3 "" H 5090 4250 60  0001 C CNN
	2    5110 4070
	1    0    0    -1  
$EndComp
$Comp
L LAA710 U28
U 2 1 58D3ED31
P 5110 5460
F 0 "U28" H 5090 5640 60  0000 C CNN
F 1 "LAA710" H 5090 5740 60  0000 C CNN
F 2 "ICs:LAA710S" H 5090 5640 60  0001 C CNN
F 3 "" H 5090 5640 60  0001 C CNN
	2    5110 5460
	1    0    0    -1  
$EndComp
$Comp
L LAA710 U32
U 2 1 58D403E5
P 6110 5460
F 0 "U32" H 6090 5640 60  0000 C CNN
F 1 "LAA710" H 6090 5740 60  0000 C CNN
F 2 "ICs:LAA710S" H 6090 5640 60  0001 C CNN
F 3 "" H 6090 5640 60  0001 C CNN
	2    6110 5460
	1    0    0    -1  
$EndComp
$Comp
L LAA710 U31
U 2 1 58D4116D
P 6110 4070
F 0 "U31" H 6090 4250 60  0000 C CNN
F 1 "LAA710" H 6090 4350 60  0000 C CNN
F 2 "ICs:LAA710S" H 6090 4250 60  0001 C CNN
F 3 "" H 6090 4250 60  0001 C CNN
	2    6110 4070
	1    0    0    -1  
$EndComp
$Comp
L LAA710 U30
U 2 1 58D41E31
P 6110 2760
F 0 "U30" H 6090 2940 60  0000 C CNN
F 1 "LAA710" H 6090 3040 60  0000 C CNN
F 2 "ICs:LAA710S" H 6090 2940 60  0001 C CNN
F 3 "" H 6090 2940 60  0001 C CNN
	2    6110 2760
	1    0    0    -1  
$EndComp
$Comp
L LAA710 U29
U 2 1 58D42A15
P 6110 1550
F 0 "U29" H 6090 1730 60  0000 C CNN
F 1 "LAA710" H 6090 1830 60  0000 C CNN
F 2 "ICs:LAA710S" H 6090 1730 60  0001 C CNN
F 3 "" H 6090 1730 60  0001 C CNN
	2    6110 1550
	1    0    0    -1  
$EndComp
$Comp
L LAA710 U33
U 2 1 58D43B27
P 7110 1550
F 0 "U33" H 7090 1730 60  0000 C CNN
F 1 "LAA710" H 7090 1830 60  0000 C CNN
F 2 "ICs:LAA710S" H 7090 1730 60  0001 C CNN
F 3 "" H 7090 1730 60  0001 C CNN
	2    7110 1550
	1    0    0    -1  
$EndComp
$Comp
L LAA710 U34
U 2 1 58D449EF
P 7110 2760
F 0 "U34" H 7090 2940 60  0000 C CNN
F 1 "LAA710" H 7090 3040 60  0000 C CNN
F 2 "ICs:LAA710S" H 7090 2940 60  0001 C CNN
F 3 "" H 7090 2940 60  0001 C CNN
	2    7110 2760
	1    0    0    -1  
$EndComp
$Comp
L LAA710 U35
U 2 1 58D457D7
P 7110 4070
F 0 "U35" H 7090 4250 60  0000 C CNN
F 1 "LAA710" H 7090 4350 60  0000 C CNN
F 2 "ICs:LAA710S" H 7090 4250 60  0001 C CNN
F 3 "" H 7090 4250 60  0001 C CNN
	2    7110 4070
	1    0    0    -1  
$EndComp
$Comp
L LAA710 U36
U 2 1 58D45D62
P 7110 5460
F 0 "U36" H 7090 5640 60  0000 C CNN
F 1 "LAA710" H 7090 5740 60  0000 C CNN
F 2 "ICs:LAA710S" H 7090 5640 60  0001 C CNN
F 3 "" H 7090 5640 60  0001 C CNN
	2    7110 5460
	1    0    0    -1  
$EndComp
$Comp
L LAA710 U40
U 2 1 58D46C0A
P 8110 5460
F 0 "U40" H 8090 5640 60  0000 C CNN
F 1 "LAA710" H 8090 5740 60  0000 C CNN
F 2 "ICs:LAA710S" H 8090 5640 60  0001 C CNN
F 3 "" H 8090 5640 60  0001 C CNN
	2    8110 5460
	1    0    0    -1  
$EndComp
$Comp
L LAA710 U39
U 2 1 58D47E7C
P 8110 4070
F 0 "U39" H 8090 4250 60  0000 C CNN
F 1 "LAA710" H 8090 4350 60  0000 C CNN
F 2 "ICs:LAA710S" H 8090 4250 60  0001 C CNN
F 3 "" H 8090 4250 60  0001 C CNN
	2    8110 4070
	1    0    0    -1  
$EndComp
$Comp
L LAA710 U38
U 2 1 58D48D42
P 8110 2760
F 0 "U38" H 8090 2940 60  0000 C CNN
F 1 "LAA710" H 8090 3040 60  0000 C CNN
F 2 "ICs:LAA710S" H 8090 2940 60  0001 C CNN
F 3 "" H 8090 2940 60  0001 C CNN
	2    8110 2760
	1    0    0    -1  
$EndComp
$Comp
L LAA710 U37
U 2 1 58D49E35
P 8110 1550
F 0 "U37" H 8090 1730 60  0000 C CNN
F 1 "LAA710" H 8090 1830 60  0000 C CNN
F 2 "ICs:LAA710S" H 8090 1730 60  0001 C CNN
F 3 "" H 8090 1730 60  0001 C CNN
	2    8110 1550
	1    0    0    -1  
$EndComp
$Comp
L LAA710 U41
U 2 1 58D4ABAF
P 9110 1550
F 0 "U41" H 9090 1730 60  0000 C CNN
F 1 "LAA710" H 9090 1830 60  0000 C CNN
F 2 "ICs:LAA710S" H 9090 1730 60  0001 C CNN
F 3 "" H 9090 1730 60  0001 C CNN
	2    9110 1550
	1    0    0    -1  
$EndComp
$Comp
L LAA710 U42
U 2 1 58D4BA4D
P 9110 2760
F 0 "U42" H 9090 2940 60  0000 C CNN
F 1 "LAA710" H 9090 3040 60  0000 C CNN
F 2 "ICs:LAA710S" H 9090 2940 60  0001 C CNN
F 3 "" H 9090 2940 60  0001 C CNN
	2    9110 2760
	1    0    0    -1  
$EndComp
$Comp
L LAA710 U43
U 2 1 58D4D1FD
P 9110 4070
F 0 "U43" H 9090 4250 60  0000 C CNN
F 1 "LAA710" H 9090 4350 60  0000 C CNN
F 2 "ICs:LAA710S" H 9090 4250 60  0001 C CNN
F 3 "" H 9090 4250 60  0001 C CNN
	2    9110 4070
	1    0    0    -1  
$EndComp
$Comp
L LAA710 U44
U 2 1 58D4E0E7
P 9110 5460
F 0 "U44" H 9090 5640 60  0000 C CNN
F 1 "LAA710" H 9090 5740 60  0000 C CNN
F 2 "ICs:LAA710S" H 9090 5640 60  0001 C CNN
F 3 "" H 9090 5640 60  0001 C CNN
	2    9110 5460
	1    0    0    -1  
$EndComp
$Comp
L LAA710 U48
U 2 1 58D4EB53
P 10110 5460
F 0 "U48" H 10090 5640 60  0000 C CNN
F 1 "LAA710" H 10090 5740 60  0000 C CNN
F 2 "ICs:LAA710S" H 10090 5640 60  0001 C CNN
F 3 "" H 10090 5640 60  0001 C CNN
	2    10110 5460
	1    0    0    -1  
$EndComp
$Comp
L LAA710 U47
U 2 1 58D4F439
P 10110 4070
F 0 "U47" H 10090 4250 60  0000 C CNN
F 1 "LAA710" H 10090 4350 60  0000 C CNN
F 2 "ICs:LAA710S" H 10090 4250 60  0001 C CNN
F 3 "" H 10090 4250 60  0001 C CNN
	2    10110 4070
	1    0    0    -1  
$EndComp
$Comp
L LAA710 U46
U 2 1 58D50409
P 10110 2760
F 0 "U46" H 10090 2940 60  0000 C CNN
F 1 "LAA710" H 10090 3040 60  0000 C CNN
F 2 "ICs:LAA710S" H 10090 2940 60  0001 C CNN
F 3 "" H 10090 2940 60  0001 C CNN
	2    10110 2760
	1    0    0    -1  
$EndComp
$Comp
L LAA710 U45
U 2 1 58D5175A
P 10110 1550
F 0 "U45" H 10090 1730 60  0000 C CNN
F 1 "LAA710" H 10090 1830 60  0000 C CNN
F 2 "ICs:LAA710S" H 10090 1730 60  0001 C CNN
F 3 "" H 10090 1730 60  0001 C CNN
	2    10110 1550
	1    0    0    -1  
$EndComp
$Comp
L Clear-BR D1
U 1 1 590E70EA
P 1920 1120
F 0 "D1" H 1920 1230 50  0000 L CNN
F 1 "Clear-BR" H 1745 1020 50  0000 L CNN
F 2 "Discretes:D0603" V 1940 1120 50  0001 C CNN
F 3 "" V 1940 1120 50  0000 C CNN
F 4 "160-1436-1-ND" H 1920 1120 60  0001 C CNN "DigikeyPN"
	1    1920 1120
	1    0    0    -1  
$EndComp
$Comp
L 1k-BE R40
U 1 1 5910F49A
P 2770 790
F 0 "R40" H 2770 986 60  0000 C CNN
F 1 "1.3k-BF" H 2670 890 60  0000 C CNN
F 2 "Resistors:R0603" H 2770 790 60  0001 C CNN
F 3 "" H 2870 940 60  0000 C CNN
F 4 "RMCF0603JT1K30TR-ND" H 2788 1058 60  0001 C CNN "DigikeyPN"
F 5 "1%" H 2970 890 60  0000 C CNN "Precision"
	1    2770 790 
	0    -1   1    0   
$EndComp
Entry Wire Line
	2320 6010 2420 6110
Entry Wire Line
	2720 6010 2820 6110
Entry Wire Line
	3500 6010 3600 6110
Entry Wire Line
	3630 6010 3730 6110
Entry Wire Line
	4330 6010 4430 6110
Entry Wire Line
	4730 6010 4830 6110
Entry Wire Line
	5430 6010 5530 6110
Entry Wire Line
	5630 6010 5730 6110
Entry Wire Line
	6330 6010 6430 6110
Entry Wire Line
	6730 6010 6830 6110
Entry Wire Line
	7450 6010 7550 6110
Entry Wire Line
	7630 6010 7730 6110
Entry Wire Line
	8330 6010 8430 6110
Entry Wire Line
	8730 6010 8830 6110
Entry Wire Line
	9440 6010 9540 6110
Entry Wire Line
	9630 6010 9730 6110
Entry Wire Line
	2050 5380 2150 5480
Entry Wire Line
	2050 1120 2150 1220
Entry Wire Line
	2050 5100 2150 5200
Entry Wire Line
	2050 4820 2150 4920
Entry Wire Line
	2050 4550 2150 4650
Entry Wire Line
	2050 4260 2150 4360
Entry Wire Line
	2050 3980 2150 4080
Entry Wire Line
	2050 3700 2150 3800
Entry Wire Line
	2050 3420 2150 3520
Entry Wire Line
	2050 3150 2150 3250
Entry Wire Line
	2050 2870 2150 2970
Entry Wire Line
	2050 2590 2150 2690
Entry Wire Line
	2050 2280 2150 2380
Entry Wire Line
	2050 1400 2150 1500
Entry Wire Line
	2050 1700 2150 1800
Entry Wire Line
	2050 1990 2150 2090
Wire Wire Line
	3400 1150 3440 1150
Wire Wire Line
	3440 1450 3400 1450
Wire Wire Line
	3440 2660 3400 2660
Wire Wire Line
	3400 2360 3440 2360
Wire Wire Line
	3450 5360 3400 5360
Wire Wire Line
	3400 5060 3450 5060
Wire Wire Line
	4470 5360 4400 5360
Wire Wire Line
	4400 5060 4470 5060
Wire Wire Line
	4440 2660 4400 2660
Wire Wire Line
	4400 2360 4440 2360
Wire Wire Line
	4430 1450 4400 1450
Wire Wire Line
	4400 1150 4430 1150
Wire Wire Line
	5400 3670 5430 3670
Wire Wire Line
	5430 3970 5400 3970
Wire Wire Line
	5400 5060 5490 5060
Wire Wire Line
	5490 5360 5400 5360
Wire Wire Line
	5490 2660 5400 2660
Wire Wire Line
	5400 2360 5490 2360
Wire Wire Line
	5430 1450 5400 1450
Wire Wire Line
	5400 1150 5430 1150
Wire Wire Line
	6400 1150 6430 1150
Wire Wire Line
	6430 1450 6400 1450
Wire Wire Line
	6400 2360 6480 2360
Wire Wire Line
	6480 2660 6400 2660
Wire Wire Line
	6400 3670 6430 3670
Wire Wire Line
	6430 3970 6400 3970
Wire Wire Line
	6400 5060 6480 5060
Wire Wire Line
	6480 5360 6400 5360
Wire Wire Line
	7490 5360 7400 5360
Wire Wire Line
	7400 5060 7490 5060
Wire Wire Line
	8400 5060 8460 5060
Wire Wire Line
	8460 5360 8400 5360
Wire Wire Line
	7430 3970 7400 3970
Wire Wire Line
	8430 3970 8400 3970
Wire Wire Line
	8400 3670 8430 3670
Wire Wire Line
	7400 3670 7430 3670
Wire Wire Line
	9470 5360 9400 5360
Wire Wire Line
	10470 5360 10400 5360
Wire Wire Line
	10400 5060 10470 5060
Wire Wire Line
	9400 5060 9470 5060
Wire Wire Line
	9440 3970 9400 3970
Wire Wire Line
	10440 3970 10400 3970
Wire Wire Line
	10400 3670 10440 3670
Wire Wire Line
	9400 3670 9440 3670
Wire Wire Line
	7470 2660 7400 2660
Wire Wire Line
	7400 2360 7470 2360
Wire Wire Line
	8400 2360 8460 2360
Wire Wire Line
	8460 2660 8400 2660
Wire Wire Line
	9400 2360 9420 2360
Wire Wire Line
	9420 2660 9400 2660
Wire Wire Line
	8460 1450 8400 1450
Wire Wire Line
	8400 1150 8460 1150
Wire Wire Line
	9400 1150 9460 1150
Wire Wire Line
	9460 1450 9400 1450
Wire Wire Line
	10460 1450 10400 1450
Wire Wire Line
	10400 1150 10460 1150
Wire Wire Line
	3450 4960 3450 5360
Connection ~ 3450 5060
Wire Wire Line
	4470 4960 4470 5360
Wire Wire Line
	3450 4960 10470 4960
Connection ~ 4470 5060
Wire Wire Line
	10470 4960 10470 5360
Connection ~ 4470 4960
Connection ~ 10470 5060
Wire Wire Line
	9470 4960 9470 5360
Connection ~ 9470 4960
Connection ~ 9470 5060
Wire Wire Line
	8460 4960 8460 5360
Connection ~ 8460 4960
Connection ~ 8460 5060
Wire Wire Line
	7490 4960 7490 5360
Connection ~ 7490 4960
Connection ~ 7490 5060
Wire Wire Line
	6480 4960 6480 5360
Connection ~ 6480 4960
Wire Wire Line
	6480 5060 6480 5070
Connection ~ 6480 5070
Wire Wire Line
	5490 4960 5490 5360
Connection ~ 5490 4960
Connection ~ 5490 5060
Wire Wire Line
	3400 3580 10440 3580
Wire Wire Line
	10440 3580 10440 3970
Connection ~ 10440 3670
Wire Wire Line
	9440 3580 9440 3970
Connection ~ 9440 3580
Connection ~ 9440 3670
Wire Wire Line
	8430 3580 8430 3970
Connection ~ 8430 3580
Connection ~ 8430 3670
Wire Wire Line
	7430 3580 7430 3970
Connection ~ 7430 3580
Connection ~ 7430 3670
Wire Wire Line
	6430 3580 6430 3970
Connection ~ 6430 3580
Connection ~ 6430 3670
Wire Wire Line
	5430 3580 5430 3970
Connection ~ 5430 3580
Connection ~ 5430 3670
Wire Wire Line
	3440 2280 3440 2660
Connection ~ 3440 2360
Wire Wire Line
	3440 2280 10470 2280
Wire Wire Line
	10470 2280 10470 2660
Wire Wire Line
	10470 2360 10400 2360
Wire Wire Line
	10470 2660 10400 2660
Connection ~ 10470 2360
Wire Wire Line
	9420 2280 9420 2660
Connection ~ 9420 2280
Connection ~ 9420 2360
Wire Wire Line
	8460 2280 8460 2660
Connection ~ 8460 2280
Connection ~ 8460 2360
Wire Wire Line
	7470 2280 7470 2660
Connection ~ 7470 2280
Connection ~ 7470 2360
Wire Wire Line
	6480 2280 6480 2660
Connection ~ 6480 2280
Connection ~ 6480 2360
Wire Wire Line
	5490 2280 5490 2660
Connection ~ 5490 2280
Connection ~ 5490 2360
Wire Wire Line
	4440 2280 4440 2660
Connection ~ 4440 2280
Connection ~ 4440 2360
Wire Wire Line
	3440 1060 3440 1450
Connection ~ 3440 1150
Wire Wire Line
	3440 1060 10460 1060
Wire Wire Line
	10460 1060 10460 1450
Connection ~ 10460 1150
Wire Wire Line
	9460 1060 9460 1450
Connection ~ 9460 1060
Connection ~ 9460 1150
Wire Wire Line
	8460 1060 8460 1450
Connection ~ 8460 1060
Connection ~ 8460 1150
Wire Wire Line
	7440 1450 7400 1450
Wire Wire Line
	7440 1060 7440 1450
Connection ~ 7440 1060
Wire Wire Line
	7400 1150 7440 1150
Connection ~ 7440 1150
Wire Wire Line
	6430 1060 6430 1450
Connection ~ 6430 1060
Connection ~ 6430 1150
Wire Wire Line
	5430 1060 5430 1450
Connection ~ 5430 1060
Connection ~ 5430 1150
Wire Wire Line
	4430 1060 4430 1450
Connection ~ 4430 1060
Connection ~ 4430 1150
Wire Wire Line
	9400 1350 9510 1350
Wire Wire Line
	2830 1650 2810 1650
Wire Wire Line
	2810 4170 2830 4170
Wire Wire Line
	2770 3870 2830 3870
Wire Wire Line
	2770 1350 2830 1350
Wire Wire Line
	3830 4170 3810 4170
Wire Wire Line
	3770 3870 3830 3870
Wire Wire Line
	3830 1650 3810 1650
Wire Wire Line
	4770 1350 4830 1350
Wire Wire Line
	4810 4170 4830 4170
Wire Wire Line
	4770 3870 4830 3870
Wire Wire Line
	4830 1650 4810 1650
Wire Wire Line
	5770 1350 5830 1350
Wire Wire Line
	5830 1650 5810 1650
Wire Wire Line
	6830 1650 6810 1650
Wire Wire Line
	6830 4170 6810 4170
Wire Wire Line
	7770 1350 7830 1350
Wire Wire Line
	8770 1350 8830 1350
Wire Wire Line
	8810 1650 8830 1650
Wire Wire Line
	7810 1650 7830 1650
Wire Wire Line
	8770 3870 8830 3870
Wire Wire Line
	8830 4170 8810 4170
Wire Wire Line
	7810 4170 7830 4170
Wire Wire Line
	9770 1350 9830 1350
Wire Wire Line
	9830 1650 9810 1650
Wire Wire Line
	9770 3870 9830 3870
Wire Wire Line
	9830 4170 9810 4170
Wire Wire Line
	3490 1450 3830 1450
Wire Wire Line
	4500 1450 4830 1450
Wire Wire Line
	5830 1450 5500 1450
Wire Wire Line
	6500 1450 6830 1450
Wire Wire Line
	7490 1450 7830 1450
Wire Wire Line
	8500 1450 8830 1450
Wire Wire Line
	9830 1450 9500 1450
Wire Wire Line
	9830 3970 9500 3970
Wire Wire Line
	2500 1450 2830 1450
Wire Wire Line
	2830 3970 2610 3970
Wire Wire Line
	3830 3970 3490 3970
Wire Wire Line
	4830 3970 4500 3970
Wire Wire Line
	5830 3970 5500 3970
Wire Wire Line
	6500 3970 6830 3970
Wire Wire Line
	6810 5360 6830 5360
Wire Wire Line
	7830 3970 7500 3970
Wire Wire Line
	8830 3970 8500 3970
Wire Wire Line
	9770 5060 9830 5060
Wire Wire Line
	9800 1150 9830 1150
Wire Wire Line
	9770 2360 9830 2360
Wire Wire Line
	8770 5060 8830 5060
Wire Wire Line
	7770 5060 7830 5060
Wire Wire Line
	6770 5060 6830 5060
Wire Wire Line
	5770 5060 5830 5060
Wire Wire Line
	4770 5060 4830 5060
Wire Wire Line
	3770 5060 3830 5060
Wire Wire Line
	2770 990  2770 1150
Wire Wire Line
	2770 5060 2830 5060
Wire Wire Line
	2800 3670 2830 3670
Wire Wire Line
	4810 3670 4830 3670
Wire Wire Line
	3810 3670 3830 3670
Wire Wire Line
	6800 3670 6830 3670
Wire Wire Line
	7810 3670 7830 3670
Wire Wire Line
	8810 3670 8830 3670
Wire Wire Line
	9810 3670 9830 3670
Wire Wire Line
	8770 2360 8830 2360
Wire Wire Line
	7770 2360 7830 2360
Wire Wire Line
	6770 2360 6830 2360
Wire Wire Line
	5770 2360 5830 2360
Wire Wire Line
	4770 2360 4830 2360
Wire Wire Line
	3770 2360 3830 2360
Wire Wire Line
	2770 2360 2830 2360
Wire Wire Line
	2770 1150 2830 1150
Wire Wire Line
	3790 1150 3830 1150
Wire Wire Line
	4820 1150 4830 1150
Wire Wire Line
	5800 1150 5830 1150
Wire Wire Line
	6800 1150 6830 1150
Wire Wire Line
	7800 1150 7830 1150
Wire Wire Line
	8800 1150 8830 1150
Wire Wire Line
	2500 1450 2500 1770
Wire Wire Line
	3490 1450 3490 1770
Wire Wire Line
	4500 3970 4500 4330
Wire Wire Line
	4500 1450 4500 1770
Wire Wire Line
	5500 3970 5500 4370
Wire Wire Line
	5500 1450 5500 1770
Wire Wire Line
	6500 1450 6500 1770
Wire Wire Line
	7500 3970 7500 4370
Wire Wire Line
	8500 3970 8500 4370
Wire Wire Line
	8500 1450 8500 1770
Wire Wire Line
	9500 1450 9500 1780
Wire Wire Line
	9500 3970 9500 4380
Wire Wire Line
	5810 3670 5830 3670
Wire Wire Line
	2800 3390 2800 3670
Wire Wire Line
	2770 1350 2770 2360
Wire Wire Line
	2770 3870 2770 5060
Wire Wire Line
	2610 3970 2610 4360
Wire Wire Line
	2810 4170 2810 5360
Wire Wire Line
	2810 5360 2830 5360
Wire Wire Line
	2810 1650 2810 2660
Wire Wire Line
	2810 2660 2830 2660
Wire Wire Line
	3790 980  3790 1150
Wire Wire Line
	3770 1350 3770 2360
Wire Wire Line
	3490 3970 3490 4370
Wire Wire Line
	3830 5360 3810 5360
Wire Wire Line
	3810 5360 3810 4170
Wire Wire Line
	3810 3400 3810 3670
Wire Wire Line
	3770 3870 3770 5060
Wire Wire Line
	3810 1650 3810 2660
Wire Wire Line
	3810 2660 3830 2660
Wire Wire Line
	4770 2360 4770 1350
Wire Wire Line
	4820 990  4820 1150
Wire Wire Line
	4810 1650 4810 2660
Wire Wire Line
	4810 2660 4830 2660
Wire Wire Line
	4770 5060 4770 3870
Wire Wire Line
	4810 3420 4810 3670
Wire Wire Line
	4810 4170 4810 5360
Wire Wire Line
	4810 5360 4830 5360
Wire Wire Line
	5830 4170 5810 4170
Wire Wire Line
	5810 4170 5810 5360
Wire Wire Line
	5810 5360 5830 5360
Wire Wire Line
	5800 980  5800 1150
Wire Wire Line
	5770 1350 5770 2360
Wire Wire Line
	5830 2660 5810 2660
Wire Wire Line
	5810 2660 5810 1650
Wire Wire Line
	5810 3420 5810 3670
Wire Wire Line
	5830 3870 5770 3870
Wire Wire Line
	5770 3870 5770 5060
Wire Wire Line
	6800 3390 6800 3670
Wire Wire Line
	6830 3870 6770 3870
Wire Wire Line
	6770 3870 6770 5060
Wire Wire Line
	6500 3970 6500 4360
Wire Wire Line
	6810 4170 6810 5360
Wire Wire Line
	6810 1650 6810 2660
Wire Wire Line
	6810 2660 6830 2660
Wire Wire Line
	6800 1000 6800 1150
Wire Wire Line
	6770 1350 6770 2360
Wire Wire Line
	6830 1350 6770 1350
Wire Wire Line
	7770 1350 7770 2360
Wire Wire Line
	7800 980  7800 1150
Wire Wire Line
	7490 1450 7490 1770
Wire Wire Line
	7830 2660 7810 2660
Wire Wire Line
	7810 2660 7810 1650
Wire Wire Line
	7810 5360 7830 5360
Wire Wire Line
	7810 4170 7810 5360
Wire Wire Line
	7770 5060 7770 3870
Wire Wire Line
	7770 3870 7830 3870
Wire Wire Line
	7810 3400 7810 3670
Wire Wire Line
	8770 5060 8770 3870
Wire Wire Line
	8810 3420 8810 3670
Wire Wire Line
	8810 4170 8810 5360
Wire Wire Line
	8810 5360 8830 5360
Wire Wire Line
	8770 1350 8770 2360
Wire Wire Line
	8810 1650 8810 2660
Wire Wire Line
	8810 2660 8830 2660
Wire Wire Line
	8800 980  8800 1150
Wire Wire Line
	9830 5360 9810 5360
Wire Wire Line
	9810 5360 9810 4170
Wire Wire Line
	9770 5060 9770 3870
Wire Wire Line
	9810 3420 9810 3670
Wire Wire Line
	9810 1650 9810 2660
Wire Wire Line
	9810 2660 9830 2660
Wire Wire Line
	9770 1350 9770 2360
Wire Wire Line
	9800 970  9800 1150
Wire Wire Line
	1340 520  9800 520 
Connection ~ 8800 520 
Connection ~ 7800 520 
Connection ~ 6800 520 
Connection ~ 5800 520 
Connection ~ 4820 520 
Connection ~ 3790 520 
Connection ~ 2770 520 
Wire Wire Line
	2320 2190 9500 2190
Wire Wire Line
	2320 520  2320 4820
Connection ~ 2320 520 
Connection ~ 2500 2190
Connection ~ 3490 2190
Connection ~ 4500 2190
Connection ~ 5500 2190
Connection ~ 6500 2190
Connection ~ 7490 2190
Connection ~ 8500 2190
Wire Wire Line
	2320 2940 9810 2940
Connection ~ 2320 2190
Wire Wire Line
	2320 4820 9500 4820
Connection ~ 2800 2940
Connection ~ 3810 2940
Connection ~ 4810 2940
Connection ~ 5810 2940
Connection ~ 6800 2940
Connection ~ 7810 2940
Connection ~ 8810 2940
Connection ~ 8500 4820
Connection ~ 7500 4820
Connection ~ 6500 4820
Connection ~ 5500 4820
Connection ~ 4500 4820
Connection ~ 3490 4820
Connection ~ 2610 4820
Wire Wire Line
	2830 2560 2420 2560
Wire Wire Line
	2420 2560 2420 6290
Wire Wire Line
	2820 5560 2820 6290
Wire Wire Line
	2820 5560 2830 5560
Wire Wire Line
	2830 5260 2420 5260
Connection ~ 2420 5260
Wire Wire Line
	2830 2860 2520 2860
Wire Wire Line
	2520 2860 2520 5640
Wire Wire Line
	2520 5640 2820 5640
Connection ~ 2820 5640
Wire Wire Line
	3830 2860 3730 2860
Wire Wire Line
	3730 2860 3730 6400
Wire Wire Line
	3730 6400 3830 6400
Wire Wire Line
	3830 5560 3830 6650
Wire Wire Line
	4830 5560 4830 6290
Wire Wire Line
	4830 2860 4730 2860
Wire Wire Line
	4730 2860 4730 5640
Wire Wire Line
	4730 5640 4830 5640
Connection ~ 4830 5640
Wire Wire Line
	5830 2860 5730 2860
Wire Wire Line
	5730 2860 5730 6400
Wire Wire Line
	5730 6400 5820 6400
Wire Wire Line
	5820 5560 5820 6650
Wire Wire Line
	5830 5560 5820 5560
Wire Wire Line
	6830 5560 6830 6290
Wire Wire Line
	6830 2860 6730 2860
Wire Wire Line
	6730 2860 6730 5650
Wire Wire Line
	6730 5650 6830 5650
Connection ~ 6830 5650
Wire Wire Line
	7830 2860 7730 2860
Wire Wire Line
	7730 2860 7730 6380
Wire Wire Line
	7830 5560 7830 6650
Wire Wire Line
	8830 2860 8730 2860
Wire Wire Line
	8730 2860 8730 5630
Wire Wire Line
	8730 5630 8830 5630
Wire Wire Line
	8830 5560 8830 6280
Connection ~ 8830 5630
Wire Wire Line
	9830 2860 9730 2860
Wire Wire Line
	9730 2860 9730 6400
Wire Wire Line
	9730 6400 9830 6400
Wire Wire Line
	9830 5560 9830 6650
Connection ~ 9830 6400
Wire Wire Line
	9630 7200 9630 7100
Wire Wire Line
	2280 7200 9630 7200
Wire Wire Line
	2620 6740 2620 7200
Connection ~ 2620 7200
Wire Wire Line
	3630 7100 3630 7200
Connection ~ 3630 7200
Wire Wire Line
	5620 7100 5620 7200
Connection ~ 5620 7200
Wire Wire Line
	7630 7100 7630 7200
Connection ~ 7630 7200
Wire Wire Line
	8630 6730 8630 7200
Wire Wire Line
	8630 7200 8640 7200
Connection ~ 8640 7200
Wire Wire Line
	6630 6740 6630 7200
Connection ~ 6630 7200
Wire Wire Line
	4630 6740 4630 7200
Connection ~ 4630 7200
Wire Wire Line
	3430 3970 3400 3970
Wire Wire Line
	3430 3580 3430 3970
Wire Wire Line
	3430 3670 3400 3670
Wire Wire Line
	4400 3670 4430 3670
Wire Wire Line
	4430 3580 4430 3970
Wire Wire Line
	4430 3970 4400 3970
Connection ~ 2320 2940
Wire Wire Line
	3770 1350 3830 1350
Connection ~ 4430 3670
Connection ~ 4430 3580
Connection ~ 3430 3670
Connection ~ 3430 3580
Wire Wire Line
	3830 2560 3600 2560
Wire Wire Line
	3600 2560 3600 6400
Wire Wire Line
	3600 6400 3430 6400
Wire Wire Line
	3430 6400 3430 6650
Wire Wire Line
	3830 5260 3600 5260
Connection ~ 3600 5260
Wire Wire Line
	4830 2560 4570 2560
Wire Wire Line
	4570 2560 4570 5640
Wire Wire Line
	4570 5640 4430 5640
Wire Wire Line
	4430 5640 4430 6290
Wire Wire Line
	4830 5260 4570 5260
Connection ~ 4570 5260
Wire Wire Line
	5830 2560 5530 2560
Wire Wire Line
	5530 2560 5530 6410
Wire Wire Line
	5530 6410 5420 6410
Wire Wire Line
	5420 6410 5420 6650
Wire Wire Line
	5830 5260 5530 5260
Connection ~ 5530 5260
Wire Wire Line
	6830 2560 6540 2560
Wire Wire Line
	6540 2560 6540 5650
Wire Wire Line
	6540 5650 6430 5650
Wire Wire Line
	6430 5650 6430 6290
Wire Wire Line
	6830 5260 6540 5260
Connection ~ 6540 5260
Wire Wire Line
	7830 2560 7550 2560
Wire Wire Line
	7550 2560 7550 6390
Wire Wire Line
	7550 6390 7430 6390
Wire Wire Line
	7430 6390 7430 6650
Wire Wire Line
	7830 5260 7550 5260
Connection ~ 7550 5260
Wire Wire Line
	8830 2560 8530 2560
Wire Wire Line
	8530 2560 8530 5640
Wire Wire Line
	8530 5640 8430 5640
Wire Wire Line
	8430 5640 8430 6280
Wire Wire Line
	8830 5260 8530 5260
Connection ~ 8530 5260
Wire Wire Line
	9830 2560 9540 2560
Wire Wire Line
	9540 2560 9540 6400
Wire Wire Line
	9540 6400 9430 6400
Wire Wire Line
	9430 6400 9430 6650
Wire Wire Line
	9830 5260 9540 5260
Connection ~ 9540 5260
Wire Wire Line
	2770 520  2770 590 
Wire Wire Line
	3790 580  3790 520 
Wire Wire Line
	4820 590  4820 520 
Wire Wire Line
	9800 520  9800 570 
Wire Wire Line
	8800 580  8800 520 
Wire Wire Line
	7800 520  7800 580 
Wire Wire Line
	6800 600  6800 520 
Wire Wire Line
	5800 520  5800 580 
Wire Wire Line
	2500 2170 2500 2190
Wire Wire Line
	3490 2190 3490 2170
Wire Wire Line
	4500 2170 4500 2190
Wire Wire Line
	5500 2190 5500 2170
Wire Wire Line
	6500 2190 6500 2170
Wire Wire Line
	7490 2170 7490 2190
Wire Wire Line
	8500 2190 8500 2170
Wire Wire Line
	9500 2190 9500 2180
Wire Wire Line
	9810 2940 9810 3020
Wire Wire Line
	8810 3020 8810 2940
Wire Wire Line
	7810 3000 7810 2940
Wire Wire Line
	6800 2940 6800 2990
Wire Wire Line
	5810 3020 5810 2940
Wire Wire Line
	4810 3020 4810 2940
Wire Wire Line
	3810 2940 3810 3000
Wire Wire Line
	2800 2990 2800 2940
Wire Wire Line
	9500 4820 9500 4780
Wire Wire Line
	8500 4820 8500 4770
Wire Wire Line
	7500 4770 7500 4820
Wire Wire Line
	2610 4760 2610 4820
Wire Wire Line
	3490 4820 3490 4770
Wire Wire Line
	4500 4730 4500 4820
Wire Wire Line
	5500 4770 5500 4820
Wire Wire Line
	6500 4820 6500 4760
Wire Wire Line
	7730 6380 7830 6380
Connection ~ 3830 6400
Connection ~ 5820 6400
Connection ~ 7830 6380
Wire Bus Line
	2150 1220 2150 6010
Wire Bus Line
	2150 6010 9630 6010
Wire Wire Line
	1410 520  1410 5380
Connection ~ 1410 520 
Wire Wire Line
	1840 1120 1810 1120
Wire Wire Line
	1410 1120 1410 1120
Connection ~ 1410 1120
Wire Wire Line
	1840 1400 1810 1400
Wire Wire Line
	1840 1700 1810 1700
Wire Wire Line
	1840 1990 1810 1990
Wire Wire Line
	1840 2280 1810 2280
Connection ~ 1410 5100
Connection ~ 1410 4820
Connection ~ 1410 4550
Connection ~ 1410 4260
Connection ~ 1410 3980
Connection ~ 1410 3700
Connection ~ 1410 3420
Connection ~ 1410 3150
Connection ~ 1410 2870
Connection ~ 1410 2590
Connection ~ 1410 2280
Connection ~ 1410 1990
Connection ~ 1410 1700
Connection ~ 1410 1400
Wire Wire Line
	2050 5380 2040 5380
Wire Wire Line
	1840 5380 1810 5380
Wire Wire Line
	1810 5100 1840 5100
Wire Wire Line
	2040 5100 2050 5100
Wire Wire Line
	2050 4820 2040 4820
Wire Wire Line
	1840 4820 1810 4820
Wire Wire Line
	2050 4550 2040 4550
Wire Wire Line
	1840 4550 1810 4550
Wire Wire Line
	2050 4260 2040 4260
Wire Wire Line
	1840 4260 1810 4260
Wire Wire Line
	2050 3980 2040 3980
Wire Wire Line
	1840 3980 1810 3980
Wire Wire Line
	2050 3700 2040 3700
Wire Wire Line
	1840 3700 1810 3700
Wire Wire Line
	2050 3420 2040 3420
Wire Wire Line
	1840 3420 1810 3420
Wire Wire Line
	1810 3150 1840 3150
Wire Wire Line
	2040 3150 2050 3150
Wire Wire Line
	2050 2870 2040 2870
Wire Wire Line
	1840 2870 1810 2870
Wire Wire Line
	1810 2590 1840 2590
Wire Wire Line
	2050 2590 2040 2590
Wire Wire Line
	2040 2280 2050 2280
Wire Wire Line
	2050 1990 2040 1990
Wire Wire Line
	2050 1700 2040 1700
Wire Wire Line
	2050 1400 2040 1400
Wire Wire Line
	2050 1120 2040 1120
Text Label 2050 1120 0    60   ~ 0
d1
Text Label 2420 6170 0    60   ~ 0
d1
Text Label 2820 6170 0    60   ~ 0
d2
Text Label 3600 6160 0    60   ~ 0
d3
Text Label 3730 6160 0    60   ~ 0
d4
Text Label 4430 6160 0    60   ~ 0
d5
Text Label 4830 6160 0    60   ~ 0
d6
Text Label 5530 6170 0    60   ~ 0
d7
Text Label 5730 6170 0    60   ~ 0
d8
Text Label 6430 6170 0    60   ~ 0
d9
Text Label 6830 6170 0    60   ~ 0
d10
Text Label 7550 6170 0    60   ~ 0
d11
Text Label 7730 6170 0    60   ~ 0
d12
Text Label 8430 6170 0    60   ~ 0
d13
Text Label 8830 6170 0    60   ~ 0
d14
Text Label 9540 6170 0    60   ~ 0
d15
Text Label 9730 6170 0    60   ~ 0
d16
Text Label 2050 1400 0    60   ~ 0
d2
Text Label 2050 1700 0    60   ~ 0
d3
Text Label 2050 1990 0    60   ~ 0
d4
Text Label 2050 2280 0    60   ~ 0
d5
Text Label 2050 2590 0    60   ~ 0
d6
Text Label 2050 2870 0    60   ~ 0
d7
Text Label 2050 3150 0    60   ~ 0
d8
Text Label 2050 3420 0    60   ~ 0
d9
Text Label 2050 3700 0    60   ~ 0
d10
Text Label 2050 3980 0    60   ~ 0
d11
Text Label 2050 4260 0    60   ~ 0
d12
Text Label 2050 4550 0    60   ~ 0
d13
Text Label 2050 4820 0    60   ~ 0
d14
Text Label 2050 5100 0    60   ~ 0
d15
Text Label 2050 5380 0    60   ~ 0
d16
$Comp
L Clear-BR D2
U 1 1 590A1B34
P 1920 1400
F 0 "D2" H 1920 1510 50  0000 L CNN
F 1 "Clear-BR" H 1745 1300 50  0000 L CNN
F 2 "Discretes:D0603" V 1940 1400 50  0001 C CNN
F 3 "" V 1940 1400 50  0000 C CNN
F 4 "160-1436-1-ND" H 1920 1400 60  0001 C CNN "DigikeyPN"
	1    1920 1400
	1    0    0    -1  
$EndComp
$Comp
L Clear-BR D3
U 1 1 590A1D85
P 1920 1700
F 0 "D3" H 1920 1810 50  0000 L CNN
F 1 "Clear-BR" H 1745 1600 50  0000 L CNN
F 2 "Discretes:D0603" V 1940 1700 50  0001 C CNN
F 3 "" V 1940 1700 50  0000 C CNN
F 4 "160-1436-1-ND" H 1920 1700 60  0001 C CNN "DigikeyPN"
	1    1920 1700
	1    0    0    -1  
$EndComp
$Comp
L Clear-BR D4
U 1 1 590A3A27
P 1920 1990
F 0 "D4" H 1920 2100 50  0000 L CNN
F 1 "Clear-BR" H 1745 1890 50  0000 L CNN
F 2 "Discretes:D0603" V 1940 1990 50  0001 C CNN
F 3 "" V 1940 1990 50  0000 C CNN
F 4 "160-1436-1-ND" H 1920 1990 60  0001 C CNN "DigikeyPN"
	1    1920 1990
	1    0    0    -1  
$EndComp
$Comp
L Clear-BR D5
U 1 1 590A3BCB
P 1920 2280
F 0 "D5" H 1920 2390 50  0000 L CNN
F 1 "Clear-BR" H 1745 2180 50  0000 L CNN
F 2 "Discretes:D0603" V 1940 2280 50  0001 C CNN
F 3 "" V 1940 2280 50  0000 C CNN
F 4 "160-1436-1-ND" H 1920 2280 60  0001 C CNN "DigikeyPN"
	1    1920 2280
	1    0    0    -1  
$EndComp
$Comp
L Clear-BR D6
U 1 1 590A3F62
P 1920 2590
F 0 "D6" H 1920 2700 50  0000 L CNN
F 1 "Clear-BR" H 1745 2490 50  0000 L CNN
F 2 "Discretes:D0603" V 1940 2590 50  0001 C CNN
F 3 "" V 1940 2590 50  0000 C CNN
F 4 "160-1436-1-ND" H 1920 2590 60  0001 C CNN "DigikeyPN"
	1    1920 2590
	1    0    0    -1  
$EndComp
$Comp
L Clear-BR D7
U 1 1 590A4B5A
P 1920 2870
F 0 "D7" H 1920 2980 50  0000 L CNN
F 1 "Clear-BR" H 1745 2770 50  0000 L CNN
F 2 "Discretes:D0603" V 1940 2870 50  0001 C CNN
F 3 "" V 1940 2870 50  0000 C CNN
F 4 "160-1436-1-ND" H 1920 2870 60  0001 C CNN "DigikeyPN"
	1    1920 2870
	1    0    0    -1  
$EndComp
$Comp
L Clear-BR D8
U 1 1 590A5BE7
P 1920 3150
F 0 "D8" H 1920 3260 50  0000 L CNN
F 1 "Clear-BR" H 1745 3050 50  0000 L CNN
F 2 "Discretes:D0603" V 1940 3150 50  0001 C CNN
F 3 "" V 1940 3150 50  0000 C CNN
F 4 "160-1436-1-ND" H 1920 3150 60  0001 C CNN "DigikeyPN"
	1    1920 3150
	1    0    0    -1  
$EndComp
$Comp
L Clear-BR D9
U 1 1 590A5D8F
P 1920 3420
F 0 "D9" H 1920 3530 50  0000 L CNN
F 1 "Clear-BR" H 1745 3320 50  0000 L CNN
F 2 "Discretes:D0603" V 1940 3420 50  0001 C CNN
F 3 "" V 1940 3420 50  0000 C CNN
F 4 "160-1436-1-ND" H 1920 3420 60  0001 C CNN "DigikeyPN"
	1    1920 3420
	1    0    0    -1  
$EndComp
$Comp
L Clear-BR D10
U 1 1 590A5F2E
P 1920 3700
F 0 "D10" H 1920 3810 50  0000 L CNN
F 1 "Clear-BR" H 1745 3600 50  0000 L CNN
F 2 "Discretes:D0603" V 1940 3700 50  0001 C CNN
F 3 "" V 1940 3700 50  0000 C CNN
F 4 "160-1436-1-ND" H 1920 3700 60  0001 C CNN "DigikeyPN"
	1    1920 3700
	1    0    0    -1  
$EndComp
$Comp
L Clear-BR D11
U 1 1 590A60E2
P 1920 3980
F 0 "D11" H 1920 4090 50  0000 L CNN
F 1 "Clear-BR" H 1745 3880 50  0000 L CNN
F 2 "Discretes:D0603" V 1940 3980 50  0001 C CNN
F 3 "" V 1940 3980 50  0000 C CNN
F 4 "160-1436-1-ND" H 1920 3980 60  0001 C CNN "DigikeyPN"
	1    1920 3980
	1    0    0    -1  
$EndComp
$Comp
L Clear-BR D12
U 1 1 590A6D6E
P 1920 4260
F 0 "D12" H 1920 4370 50  0000 L CNN
F 1 "Clear-BR" H 1745 4160 50  0000 L CNN
F 2 "Discretes:D0603" V 1940 4260 50  0001 C CNN
F 3 "" V 1940 4260 50  0000 C CNN
F 4 "160-1436-1-ND" H 1920 4260 60  0001 C CNN "DigikeyPN"
	1    1920 4260
	1    0    0    -1  
$EndComp
$Comp
L Clear-BR D13
U 1 1 590A6F24
P 1920 4550
F 0 "D13" H 1920 4660 50  0000 L CNN
F 1 "Clear-BR" H 1745 4450 50  0000 L CNN
F 2 "Discretes:D0603" V 1940 4550 50  0001 C CNN
F 3 "" V 1940 4550 50  0000 C CNN
F 4 "160-1436-1-ND" H 1920 4550 60  0001 C CNN "DigikeyPN"
	1    1920 4550
	1    0    0    -1  
$EndComp
$Comp
L Clear-BR D14
U 1 1 590A838D
P 1920 4820
F 0 "D14" H 1920 4930 50  0000 L CNN
F 1 "Clear-BR" H 1745 4720 50  0000 L CNN
F 2 "Discretes:D0603" V 1940 4820 50  0001 C CNN
F 3 "" V 1940 4820 50  0000 C CNN
F 4 "160-1436-1-ND" H 1920 4820 60  0001 C CNN "DigikeyPN"
	1    1920 4820
	1    0    0    -1  
$EndComp
$Comp
L Clear-BR D15
U 1 1 590A936D
P 1920 5100
F 0 "D15" H 1920 5210 50  0000 L CNN
F 1 "Clear-BR" H 1745 5000 50  0000 L CNN
F 2 "Discretes:D0603" V 1940 5100 50  0001 C CNN
F 3 "" V 1940 5100 50  0000 C CNN
F 4 "160-1436-1-ND" H 1920 5100 60  0001 C CNN "DigikeyPN"
	1    1920 5100
	1    0    0    -1  
$EndComp
$Comp
L Clear-BR D16
U 1 1 590AA2E2
P 1920 5380
F 0 "D16" H 1920 5490 50  0000 L CNN
F 1 "Clear-BR" H 1745 5280 50  0000 L CNN
F 2 "Discretes:D0603" V 1940 5380 50  0001 C CNN
F 3 "" V 1940 5380 50  0000 C CNN
F 4 "160-1436-1-ND" H 1920 5380 60  0001 C CNN "DigikeyPN"
	1    1920 5380
	1    0    0    -1  
$EndComp
$Comp
L 1k-BE R22
U 1 1 590ACD25
P 1610 1120
F 0 "R22" H 1610 1316 60  0000 C CNN
F 1 "1k-BF" H 1510 1220 60  0000 C CNN
F 2 "Resistors:R0603" H 1610 1120 60  0001 C CNN
F 3 "" H 1710 1270 60  0000 C CNN
F 4 "RMCF0603JT1K00TR-ND" H 1628 1388 60  0001 C CNN "DigikeyPN"
F 5 "1%" H 1810 1220 60  0000 C CNN "Precision"
	1    1610 1120
	1    0    0    -1  
$EndComp
$Comp
L LAA710 U17
U 1 1 57BB2AE6
P 3110 1250
F 0 "U17" H 3090 1430 60  0000 C CNN
F 1 "LAA710" H 3090 1530 60  0000 C CNN
F 2 "ICs:LAA710S" H 3120 1070 60  0001 C CNN
F 3 "" H 3090 1430 60  0001 C CNN
F 4 "LAA710S-ND" H 3110 1250 60  0001 C CNN "DigikeyPN"
	1    3110 1250
	1    0    0    -1  
$EndComp
$Comp
L QS5K2 Q9
U 1 1 596F02B3
P 2620 6540
F 0 "Q9" H 2588 6716 60  0000 C CNN
F 1 "QS5K2" H 2618 6612 60  0000 C CNN
F 2 "Discretes:SOT25T" H 2620 6540 60  0001 C CNN
F 3 "" H 2620 6540 60  0000 C CNN
F 4 "QS5K2CT-ND" H 2618 6840 60  0001 C CNN "DigikeyPN"
	1    2620 6540
	1    0    0    -1  
$EndComp
$Comp
L QS5K2 Q10
U 1 1 596F16AF
P 3630 6900
F 0 "Q10" H 3598 7076 60  0000 C CNN
F 1 "QS5K2" H 3628 6972 60  0000 C CNN
F 2 "Discretes:SOT25T" H 3630 6900 60  0001 C CNN
F 3 "" H 3630 6900 60  0000 C CNN
F 4 "QS5K2CT-ND" H 3628 7200 60  0001 C CNN "DigikeyPN"
	1    3630 6900
	1    0    0    -1  
$EndComp
$Comp
L QS5K2 Q11
U 1 1 596F2435
P 4630 6540
F 0 "Q11" H 4598 6716 60  0000 C CNN
F 1 "QS5K2" H 4628 6612 60  0000 C CNN
F 2 "Discretes:SOT25T" H 4630 6540 60  0001 C CNN
F 3 "" H 4630 6540 60  0000 C CNN
F 4 "QS5K2CT-ND" H 4628 6840 60  0001 C CNN "DigikeyPN"
	1    4630 6540
	1    0    0    -1  
$EndComp
$Comp
L QS5K2 Q12
U 1 1 596F39AD
P 5620 6900
F 0 "Q12" H 5588 7076 60  0000 C CNN
F 1 "QS5K2" H 5618 6972 60  0000 C CNN
F 2 "Discretes:SOT25T" H 5620 6900 60  0001 C CNN
F 3 "" H 5620 6900 60  0000 C CNN
F 4 "QS5K2CT-ND" H 5618 7200 60  0001 C CNN "DigikeyPN"
	1    5620 6900
	1    0    0    -1  
$EndComp
$Comp
L QS5K2 Q13
U 1 1 596F461D
P 6630 6540
F 0 "Q13" H 6598 6716 60  0000 C CNN
F 1 "QS5K2" H 6628 6612 60  0000 C CNN
F 2 "Discretes:SOT25T" H 6630 6540 60  0001 C CNN
F 3 "" H 6630 6540 60  0000 C CNN
F 4 "QS5K2CT-ND" H 6628 6840 60  0001 C CNN "DigikeyPN"
	1    6630 6540
	1    0    0    -1  
$EndComp
$Comp
L QS5K2 Q14
U 1 1 596F5397
P 7630 6900
F 0 "Q14" H 7598 7076 60  0000 C CNN
F 1 "QS5K2" H 7628 6972 60  0000 C CNN
F 2 "Discretes:SOT25T" H 7630 6900 60  0001 C CNN
F 3 "" H 7630 6900 60  0000 C CNN
F 4 "QS5K2CT-ND" H 7628 7200 60  0001 C CNN "DigikeyPN"
	1    7630 6900
	1    0    0    -1  
$EndComp
$Comp
L QS5K2 Q15
U 1 1 596F59A9
P 8630 6530
F 0 "Q15" H 8598 6706 60  0000 C CNN
F 1 "QS5K2" H 8628 6602 60  0000 C CNN
F 2 "Discretes:SOT25T" H 8630 6530 60  0001 C CNN
F 3 "" H 8630 6530 60  0000 C CNN
F 4 "QS5K2CT-ND" H 8628 6830 60  0001 C CNN "DigikeyPN"
	1    8630 6530
	1    0    0    -1  
$EndComp
$Comp
L QS5K2 Q16
U 1 1 596F6BF7
P 9630 6900
F 0 "Q16" H 9598 7076 60  0000 C CNN
F 1 "QS5K2" H 9628 6972 60  0000 C CNN
F 2 "Discretes:SOT25T" H 9630 6900 60  0001 C CNN
F 3 "" H 9630 6900 60  0000 C CNN
F 4 "QS5K2CT-ND" H 9628 7200 60  0001 C CNN "DigikeyPN"
	1    9630 6900
	1    0    0    -1  
$EndComp
$Comp
L 1k-BE R23
U 1 1 599527F6
P 1610 1400
F 0 "R23" H 1610 1596 60  0000 C CNN
F 1 "1k-BF" H 1510 1500 60  0000 C CNN
F 2 "Resistors:R0603" H 1610 1400 60  0001 C CNN
F 3 "" H 1710 1550 60  0000 C CNN
F 4 "RMCF0603JT1K00TR-ND" H 1628 1668 60  0001 C CNN "DigikeyPN"
F 5 "1%" H 1810 1500 60  0000 C CNN "Precision"
	1    1610 1400
	1    0    0    -1  
$EndComp
$Comp
L 1k-BE R24
U 1 1 5995365A
P 1610 1700
F 0 "R24" H 1610 1896 60  0000 C CNN
F 1 "1k-BF" H 1510 1800 60  0000 C CNN
F 2 "Resistors:R0603" H 1610 1700 60  0001 C CNN
F 3 "" H 1710 1850 60  0000 C CNN
F 4 "RMCF0603JT1K00TR-ND" H 1628 1968 60  0001 C CNN "DigikeyPN"
F 5 "1%" H 1810 1800 60  0000 C CNN "Precision"
	1    1610 1700
	1    0    0    -1  
$EndComp
$Comp
L 1k-BE R25
U 1 1 599542A5
P 1610 1990
F 0 "R25" H 1610 2186 60  0000 C CNN
F 1 "1k-BF" H 1510 2090 60  0000 C CNN
F 2 "Resistors:R0603" H 1610 1990 60  0001 C CNN
F 3 "" H 1710 2140 60  0000 C CNN
F 4 "RMCF0603JT1K00TR-ND" H 1628 2258 60  0001 C CNN "DigikeyPN"
F 5 "1%" H 1810 2090 60  0000 C CNN "Precision"
	1    1610 1990
	1    0    0    -1  
$EndComp
$Comp
L 1k-BE R26
U 1 1 599549B5
P 1610 2280
F 0 "R26" H 1610 2476 60  0000 C CNN
F 1 "1k-BF" H 1510 2380 60  0000 C CNN
F 2 "Resistors:R0603" H 1610 2280 60  0001 C CNN
F 3 "" H 1710 2430 60  0000 C CNN
F 4 "RMCF0603JT1K00TR-ND" H 1628 2548 60  0001 C CNN "DigikeyPN"
F 5 "1%" H 1810 2380 60  0000 C CNN "Precision"
	1    1610 2280
	1    0    0    -1  
$EndComp
$Comp
L 1k-BE R27
U 1 1 5995582E
P 1610 2590
F 0 "R27" H 1610 2786 60  0000 C CNN
F 1 "1k-BF" H 1510 2690 60  0000 C CNN
F 2 "Resistors:R0603" H 1610 2590 60  0001 C CNN
F 3 "" H 1710 2740 60  0000 C CNN
F 4 "RMCF0603JT1K00TR-ND" H 1628 2858 60  0001 C CNN "DigikeyPN"
F 5 "1%" H 1810 2690 60  0000 C CNN "Precision"
	1    1610 2590
	1    0    0    -1  
$EndComp
$Comp
L 1k-BE R28
U 1 1 599568AE
P 1610 2870
F 0 "R28" H 1610 3066 60  0000 C CNN
F 1 "1k-BF" H 1510 2970 60  0000 C CNN
F 2 "Resistors:R0603" H 1610 2870 60  0001 C CNN
F 3 "" H 1710 3020 60  0000 C CNN
F 4 "RMCF0603JT1K00TR-ND" H 1628 3138 60  0001 C CNN "DigikeyPN"
F 5 "1%" H 1810 2970 60  0000 C CNN "Precision"
	1    1610 2870
	1    0    0    -1  
$EndComp
$Comp
L 1k-BE R29
U 1 1 5995754B
P 1610 3150
F 0 "R29" H 1610 3346 60  0000 C CNN
F 1 "1k-BF" H 1510 3250 60  0000 C CNN
F 2 "Resistors:R0603" H 1610 3150 60  0001 C CNN
F 3 "" H 1710 3300 60  0000 C CNN
F 4 "RMCF0603JT1K00TR-ND" H 1628 3418 60  0001 C CNN "DigikeyPN"
F 5 "1%" H 1810 3250 60  0000 C CNN "Precision"
	1    1610 3150
	1    0    0    -1  
$EndComp
$Comp
L 1k-BE R30
U 1 1 5995820B
P 1610 3420
F 0 "R30" H 1610 3616 60  0000 C CNN
F 1 "1k-BF" H 1510 3520 60  0000 C CNN
F 2 "Resistors:R0603" H 1610 3420 60  0001 C CNN
F 3 "" H 1710 3570 60  0000 C CNN
F 4 "RMCF0603JT1K00TR-ND" H 1628 3688 60  0001 C CNN "DigikeyPN"
F 5 "1%" H 1810 3520 60  0000 C CNN "Precision"
	1    1610 3420
	1    0    0    -1  
$EndComp
$Comp
L 1k-BE R31
U 1 1 59958C75
P 1610 3700
F 0 "R31" H 1610 3896 60  0000 C CNN
F 1 "1k-BF" H 1510 3800 60  0000 C CNN
F 2 "Resistors:R0603" H 1610 3700 60  0001 C CNN
F 3 "" H 1710 3850 60  0000 C CNN
F 4 "RMCF0603JT1K00TR-ND" H 1628 3968 60  0001 C CNN "DigikeyPN"
F 5 "1%" H 1810 3800 60  0000 C CNN "Precision"
	1    1610 3700
	1    0    0    -1  
$EndComp
$Comp
L 1k-BE R32
U 1 1 5995A193
P 1610 3980
F 0 "R32" H 1610 4176 60  0000 C CNN
F 1 "1k-BF" H 1510 4080 60  0000 C CNN
F 2 "Resistors:R0603" H 1610 3980 60  0001 C CNN
F 3 "" H 1710 4130 60  0000 C CNN
F 4 "RMCF0603JT1K00TR-ND" H 1628 4248 60  0001 C CNN "DigikeyPN"
F 5 "1%" H 1810 4080 60  0000 C CNN "Precision"
	1    1610 3980
	1    0    0    -1  
$EndComp
$Comp
L 1k-BE R33
U 1 1 5995AA9A
P 1610 4260
F 0 "R33" H 1610 4456 60  0000 C CNN
F 1 "1k-BF" H 1510 4360 60  0000 C CNN
F 2 "Resistors:R0603" H 1610 4260 60  0001 C CNN
F 3 "" H 1710 4410 60  0000 C CNN
F 4 "RMCF0603JT1K00TR-ND" H 1628 4528 60  0001 C CNN "DigikeyPN"
F 5 "1%" H 1810 4360 60  0000 C CNN "Precision"
	1    1610 4260
	1    0    0    -1  
$EndComp
$Comp
L 1k-BE R34
U 1 1 5995BCF0
P 1610 4550
F 0 "R34" H 1610 4746 60  0000 C CNN
F 1 "1k-BF" H 1510 4650 60  0000 C CNN
F 2 "Resistors:R0603" H 1610 4550 60  0001 C CNN
F 3 "" H 1710 4700 60  0000 C CNN
F 4 "RMCF0603JT1K00TR-ND" H 1628 4818 60  0001 C CNN "DigikeyPN"
F 5 "1%" H 1810 4650 60  0000 C CNN "Precision"
	1    1610 4550
	1    0    0    -1  
$EndComp
$Comp
L 1k-BE R35
U 1 1 5995CC71
P 1610 4820
F 0 "R35" H 1610 5016 60  0000 C CNN
F 1 "1k-BF" H 1510 4920 60  0000 C CNN
F 2 "Resistors:R0603" H 1610 4820 60  0001 C CNN
F 3 "" H 1710 4970 60  0000 C CNN
F 4 "RMCF0603JT1K00TR-ND" H 1628 5088 60  0001 C CNN "DigikeyPN"
F 5 "1%" H 1810 4920 60  0000 C CNN "Precision"
	1    1610 4820
	1    0    0    -1  
$EndComp
$Comp
L 1k-BE R36
U 1 1 5995DCF5
P 1610 5100
F 0 "R36" H 1610 5296 60  0000 C CNN
F 1 "1k-BF" H 1510 5200 60  0000 C CNN
F 2 "Resistors:R0603" H 1610 5100 60  0001 C CNN
F 3 "" H 1710 5250 60  0000 C CNN
F 4 "RMCF0603JT1K00TR-ND" H 1628 5368 60  0001 C CNN "DigikeyPN"
F 5 "1%" H 1810 5200 60  0000 C CNN "Precision"
	1    1610 5100
	1    0    0    -1  
$EndComp
$Comp
L 1k-BE R37
U 1 1 5995EBFD
P 1610 5380
F 0 "R37" H 1610 5576 60  0000 C CNN
F 1 "1k-BF" H 1510 5480 60  0000 C CNN
F 2 "Resistors:R0603" H 1610 5380 60  0001 C CNN
F 3 "" H 1710 5530 60  0000 C CNN
F 4 "RMCF0603JT1K00TR-ND" H 1628 5648 60  0001 C CNN "DigikeyPN"
F 5 "1%" H 1810 5480 60  0000 C CNN "Precision"
	1    1610 5380
	1    0    0    -1  
$EndComp
$Comp
L 1k-BE R44
U 1 1 59961871
P 3790 780
F 0 "R44" H 3790 976 60  0000 C CNN
F 1 "1.3k-BF" H 3690 880 60  0000 C CNN
F 2 "Resistors:R0603" H 3790 780 60  0001 C CNN
F 3 "" H 3890 930 60  0000 C CNN
F 4 "RMCF0603JT1K30TR-ND" H 3808 1048 60  0001 C CNN "DigikeyPN"
F 5 "1%" H 3990 880 60  0000 C CNN "Precision"
	1    3790 780 
	0    -1   1    0   
$EndComp
$Comp
L 1k-BE R49
U 1 1 599636E9
P 4820 790
F 0 "R49" H 4820 986 60  0000 C CNN
F 1 "1.3k-BF" H 4720 890 60  0000 C CNN
F 2 "Resistors:R0603" H 4820 790 60  0001 C CNN
F 3 "" H 4920 940 60  0000 C CNN
F 4 "RMCF0603JT1K30TR-ND" H 4838 1058 60  0001 C CNN "DigikeyPN"
F 5 "1%" H 5020 890 60  0000 C CNN "Precision"
	1    4820 790 
	0    -1   1    0   
$EndComp
$Comp
L 1k-BE R52
U 1 1 59963ECC
P 5800 780
F 0 "R52" H 5800 976 60  0000 C CNN
F 1 "1.3k-BF" H 5700 880 60  0000 C CNN
F 2 "Resistors:R0603" H 5800 780 60  0001 C CNN
F 3 "" H 5900 930 60  0000 C CNN
F 4 "RMCF0603JT1K30TR-ND" H 5818 1048 60  0001 C CNN "DigikeyPN"
F 5 "1%" H 6000 880 60  0000 C CNN "Precision"
	1    5800 780 
	0    -1   1    0   
$EndComp
$Comp
L 1k-BE R56
U 1 1 59964968
P 6800 800
F 0 "R56" H 6800 996 60  0000 C CNN
F 1 "1.3k-BF" H 6700 900 60  0000 C CNN
F 2 "Resistors:R0603" H 6800 800 60  0001 C CNN
F 3 "" H 6900 950 60  0000 C CNN
F 4 "RMCF0603JT1K30TR-ND" H 6818 1068 60  0001 C CNN "DigikeyPN"
F 5 "1%" H 7000 900 60  0000 C CNN "Precision"
	1    6800 800 
	0    -1   1    0   
$EndComp
$Comp
L 1k-BE R60
U 1 1 599657C5
P 7800 780
F 0 "R60" H 7800 976 60  0000 C CNN
F 1 "1.3k-BF" H 7700 880 60  0000 C CNN
F 2 "Resistors:R0603" H 7800 780 60  0001 C CNN
F 3 "" H 7900 930 60  0000 C CNN
F 4 "RMCF0603JT1K30TR-ND" H 7818 1048 60  0001 C CNN "DigikeyPN"
F 5 "1%" H 8000 880 60  0000 C CNN "Precision"
	1    7800 780 
	0    -1   1    0   
$EndComp
$Comp
L 1k-BE R64
U 1 1 59966311
P 8800 780
F 0 "R64" H 8800 976 60  0000 C CNN
F 1 "1.3k-BF" H 8700 880 60  0000 C CNN
F 2 "Resistors:R0603" H 8800 780 60  0001 C CNN
F 3 "" H 8900 930 60  0000 C CNN
F 4 "RMCF0603JT1K30TR-ND" H 8818 1048 60  0001 C CNN "DigikeyPN"
F 5 "1%" H 9000 880 60  0000 C CNN "Precision"
	1    8800 780 
	0    -1   1    0   
$EndComp
$Comp
L 1k-BE R68
U 1 1 59967113
P 9800 770
F 0 "R68" H 9800 966 60  0000 C CNN
F 1 "1.3k-BF" H 9700 870 60  0000 C CNN
F 2 "Resistors:R0603" H 9800 770 60  0001 C CNN
F 3 "" H 9900 920 60  0000 C CNN
F 4 "RMCF0603JT1K30TR-ND" H 9818 1038 60  0001 C CNN "DigikeyPN"
F 5 "1%" H 10000 870 60  0000 C CNN "Precision"
	1    9800 770 
	0    -1   1    0   
$EndComp
$Comp
L 1k-BE R42
U 1 1 59969A89
P 3490 1970
F 0 "R42" H 3490 2166 60  0000 C CNN
F 1 "1.3k-BF" H 3390 2070 60  0000 C CNN
F 2 "Resistors:R0603" H 3490 1970 60  0001 C CNN
F 3 "" H 3590 2120 60  0000 C CNN
F 4 "RMCF0603JT1K30TR-ND" H 3508 2238 60  0001 C CNN "DigikeyPN"
F 5 "1%" H 3690 2070 60  0000 C CNN "Precision"
	1    3490 1970
	0    -1   1    0   
$EndComp
$Comp
L 1k-BE R46
U 1 1 5996A493
P 4500 1970
F 0 "R46" H 4500 2166 60  0000 C CNN
F 1 "1.3k-BF" H 4400 2070 60  0000 C CNN
F 2 "Resistors:R0603" H 4500 1970 60  0001 C CNN
F 3 "" H 4600 2120 60  0000 C CNN
F 4 "RMCF0603JT1K30TR-ND" H 4518 2238 60  0001 C CNN "DigikeyPN"
F 5 "1%" H 4700 2070 60  0000 C CNN "Precision"
	1    4500 1970
	0    -1   1    0   
$EndComp
$Comp
L 1k-BE R50
U 1 1 5996AFA0
P 5500 1970
F 0 "R50" H 5500 2166 60  0000 C CNN
F 1 "1.3k-BF" H 5400 2070 60  0000 C CNN
F 2 "Resistors:R0603" H 5500 1970 60  0001 C CNN
F 3 "" H 5600 2120 60  0000 C CNN
F 4 "RMCF0603JT1K30TR-ND" H 5518 2238 60  0001 C CNN "DigikeyPN"
F 5 "1%" H 5700 2070 60  0000 C CNN "Precision"
	1    5500 1970
	0    -1   1    0   
$EndComp
$Comp
L 1k-BE R54
U 1 1 5996BE54
P 6500 1970
F 0 "R54" H 6500 2166 60  0000 C CNN
F 1 "1.3k-BF" H 6400 2070 60  0000 C CNN
F 2 "Resistors:R0603" H 6500 1970 60  0001 C CNN
F 3 "" H 6600 2120 60  0000 C CNN
F 4 "RMCF0603JT1K30TR-ND" H 6518 2238 60  0001 C CNN "DigikeyPN"
F 5 "1%" H 6700 2070 60  0000 C CNN "Precision"
	1    6500 1970
	0    -1   1    0   
$EndComp
$Comp
L 1k-BE R58
U 1 1 5996C989
P 7490 1970
F 0 "R58" H 7490 2166 60  0000 C CNN
F 1 "1.3k-BF" H 7390 2070 60  0000 C CNN
F 2 "Resistors:R0603" H 7490 1970 60  0001 C CNN
F 3 "" H 7590 2120 60  0000 C CNN
F 4 "RMCF0603JT1K30TR-ND" H 7508 2238 60  0001 C CNN "DigikeyPN"
F 5 "1%" H 7690 2070 60  0000 C CNN "Precision"
	1    7490 1970
	0    -1   1    0   
$EndComp
$Comp
L 1k-BE R62
U 1 1 5996D875
P 8500 1970
F 0 "R62" H 8500 2166 60  0000 C CNN
F 1 "1.3k-BF" H 8400 2070 60  0000 C CNN
F 2 "Resistors:R0603" H 8500 1970 60  0001 C CNN
F 3 "" H 8600 2120 60  0000 C CNN
F 4 "RMCF0603JT1K30TR-ND" H 8518 2238 60  0001 C CNN "DigikeyPN"
F 5 "1%" H 8700 2070 60  0000 C CNN "Precision"
	1    8500 1970
	0    -1   1    0   
$EndComp
$Comp
L 1k-BE R66
U 1 1 5996E677
P 9500 1980
F 0 "R66" H 9500 2176 60  0000 C CNN
F 1 "1.3k-BF" H 9400 2080 60  0000 C CNN
F 2 "Resistors:R0603" H 9500 1980 60  0001 C CNN
F 3 "" H 9600 2130 60  0000 C CNN
F 4 "RMCF0603JT1K30TR-ND" H 9518 2248 60  0001 C CNN "DigikeyPN"
F 5 "1%" H 9700 2080 60  0000 C CNN "Precision"
	1    9500 1980
	0    -1   1    0   
$EndComp
$Comp
L 1k-BE R69
U 1 1 5996F405
P 9810 3220
F 0 "R69" H 9810 3416 60  0000 C CNN
F 1 "1.3k-BF" H 9710 3320 60  0000 C CNN
F 2 "Resistors:R0603" H 9810 3220 60  0001 C CNN
F 3 "" H 9910 3370 60  0000 C CNN
F 4 "RMCF0603JT1K30TR-ND" H 9828 3488 60  0001 C CNN "DigikeyPN"
F 5 "1%" H 10010 3320 60  0000 C CNN "Precision"
	1    9810 3220
	0    -1   1    0   
$EndComp
$Comp
L 1k-BE R65
U 1 1 599726C1
P 8810 3220
F 0 "R65" H 8810 3416 60  0000 C CNN
F 1 "1.3k-BF" H 8710 3320 60  0000 C CNN
F 2 "Resistors:R0603" H 8810 3220 60  0001 C CNN
F 3 "" H 8910 3370 60  0000 C CNN
F 4 "RMCF0603JT1K30TR-ND" H 8828 3488 60  0001 C CNN "DigikeyPN"
F 5 "1%" H 9010 3320 60  0000 C CNN "Precision"
	1    8810 3220
	0    -1   1    0   
$EndComp
$Comp
L 1k-BE R61
U 1 1 59972F35
P 7810 3200
F 0 "R61" H 7810 3396 60  0000 C CNN
F 1 "1.3k-BF" H 7710 3300 60  0000 C CNN
F 2 "Resistors:R0603" H 7810 3200 60  0001 C CNN
F 3 "" H 7910 3350 60  0000 C CNN
F 4 "RMCF0603JT1K30TR-ND" H 7828 3468 60  0001 C CNN "DigikeyPN"
F 5 "1%" H 8010 3300 60  0000 C CNN "Precision"
	1    7810 3200
	0    -1   1    0   
$EndComp
$Comp
L 1k-BE R57
U 1 1 59973100
P 6800 3190
F 0 "R57" H 6800 3386 60  0000 C CNN
F 1 "1.3k-BF" H 6700 3290 60  0000 C CNN
F 2 "Resistors:R0603" H 6800 3190 60  0001 C CNN
F 3 "" H 6900 3340 60  0000 C CNN
F 4 "RMCF0603JT1K30TR-ND" H 6818 3458 60  0001 C CNN "DigikeyPN"
F 5 "1%" H 7000 3290 60  0000 C CNN "Precision"
	1    6800 3190
	0    -1   1    0   
$EndComp
$Comp
L 1k-BE R53
U 1 1 5997430C
P 5810 3220
F 0 "R53" H 5810 3416 60  0000 C CNN
F 1 "1.3k-BF" H 5710 3320 60  0000 C CNN
F 2 "Resistors:R0603" H 5810 3220 60  0001 C CNN
F 3 "" H 5910 3370 60  0000 C CNN
F 4 "RMCF0603JT1K30TR-ND" H 5828 3488 60  0001 C CNN "DigikeyPN"
F 5 "1%" H 6010 3320 60  0000 C CNN "Precision"
	1    5810 3220
	0    -1   1    0   
$EndComp
$Comp
L 1k-BE R48
U 1 1 59974ECA
P 4810 3220
F 0 "R48" H 4810 3416 60  0000 C CNN
F 1 "1.3k-BF" H 4710 3320 60  0000 C CNN
F 2 "Resistors:R0603" H 4810 3220 60  0001 C CNN
F 3 "" H 4910 3370 60  0000 C CNN
F 4 "RMCF0603JT1K30TR-ND" H 4828 3488 60  0001 C CNN "DigikeyPN"
F 5 "1%" H 5010 3320 60  0000 C CNN "Precision"
	1    4810 3220
	0    -1   1    0   
$EndComp
$Comp
L 1k-BE R45
U 1 1 59975A0A
P 3810 3200
F 0 "R45" H 3810 3396 60  0000 C CNN
F 1 "1.3k-BF" H 3710 3300 60  0000 C CNN
F 2 "Resistors:R0603" H 3810 3200 60  0001 C CNN
F 3 "" H 3910 3350 60  0000 C CNN
F 4 "RMCF0603JT1K30TR-ND" H 3828 3468 60  0001 C CNN "DigikeyPN"
F 5 "1%" H 4010 3300 60  0000 C CNN "Precision"
	1    3810 3200
	0    -1   1    0   
$EndComp
$Comp
L 1k-BE R41
U 1 1 59976ABB
P 2800 3190
F 0 "R41" H 2800 3386 60  0000 C CNN
F 1 "1.3k-BF" H 2700 3290 60  0000 C CNN
F 2 "Resistors:R0603" H 2800 3190 60  0001 C CNN
F 3 "" H 2900 3340 60  0000 C CNN
F 4 "RMCF0603JT1K30TR-ND" H 2818 3458 60  0001 C CNN "DigikeyPN"
F 5 "1%" H 3000 3290 60  0000 C CNN "Precision"
	1    2800 3190
	0    -1   1    0   
$EndComp
$Comp
L 1k-BE R39
U 1 1 59977C11
P 2610 4560
F 0 "R39" H 2610 4756 60  0000 C CNN
F 1 "1.3k-BF" H 2510 4660 60  0000 C CNN
F 2 "Resistors:R0603" H 2610 4560 60  0001 C CNN
F 3 "" H 2710 4710 60  0000 C CNN
F 4 "RMCF0603JT1K30TR-ND" H 2628 4828 60  0001 C CNN "DigikeyPN"
F 5 "1%" H 2810 4660 60  0000 C CNN "Precision"
	1    2610 4560
	0    -1   1    0   
$EndComp
$Comp
L 1k-BE R43
U 1 1 5997AFFA
P 3490 4570
F 0 "R43" H 3490 4766 60  0000 C CNN
F 1 "1.3k-BF" H 3390 4670 60  0000 C CNN
F 2 "Resistors:R0603" H 3490 4570 60  0001 C CNN
F 3 "" H 3590 4720 60  0000 C CNN
F 4 "RMCF0603JT1K30TR-ND" H 3508 4838 60  0001 C CNN "DigikeyPN"
F 5 "1%" H 3690 4670 60  0000 C CNN "Precision"
	1    3490 4570
	0    -1   1    0   
$EndComp
$Comp
L 1k-BE R47
U 1 1 5997B7CE
P 4500 4530
F 0 "R47" H 4500 4726 60  0000 C CNN
F 1 "1.3k-BF" H 4400 4630 60  0000 C CNN
F 2 "Resistors:R0603" H 4500 4530 60  0001 C CNN
F 3 "" H 4600 4680 60  0000 C CNN
F 4 "RMCF0603JT1K30TR-ND" H 4518 4798 60  0001 C CNN "DigikeyPN"
F 5 "1%" H 4700 4630 60  0000 C CNN "Precision"
	1    4500 4530
	0    -1   1    0   
$EndComp
$Comp
L 1k-BE R51
U 1 1 5997C4F9
P 5500 4570
F 0 "R51" H 5500 4766 60  0000 C CNN
F 1 "1.3k-BF" H 5400 4670 60  0000 C CNN
F 2 "Resistors:R0603" H 5500 4570 60  0001 C CNN
F 3 "" H 5600 4720 60  0000 C CNN
F 4 "RMCF0603JT1K30TR-ND" H 5518 4838 60  0001 C CNN "DigikeyPN"
F 5 "1%" H 5700 4670 60  0000 C CNN "Precision"
	1    5500 4570
	0    -1   1    0   
$EndComp
$Comp
L 1k-BE R55
U 1 1 5997D2C9
P 6500 4560
F 0 "R55" H 6500 4756 60  0000 C CNN
F 1 "1.3k-BF" H 6400 4660 60  0000 C CNN
F 2 "Resistors:R0603" H 6500 4560 60  0001 C CNN
F 3 "" H 6600 4710 60  0000 C CNN
F 4 "RMCF0603JT1K30TR-ND" H 6518 4828 60  0001 C CNN "DigikeyPN"
F 5 "1%" H 6700 4660 60  0000 C CNN "Precision"
	1    6500 4560
	0    -1   1    0   
$EndComp
$Comp
L 1k-BE R59
U 1 1 5997E4C5
P 7500 4570
F 0 "R59" H 7500 4766 60  0000 C CNN
F 1 "1.3k-BF" H 7400 4670 60  0000 C CNN
F 2 "Resistors:R0603" H 7500 4570 60  0001 C CNN
F 3 "" H 7600 4720 60  0000 C CNN
F 4 "RMCF0603JT1K30TR-ND" H 7518 4838 60  0001 C CNN "DigikeyPN"
F 5 "1%" H 7700 4670 60  0000 C CNN "Precision"
	1    7500 4570
	0    -1   1    0   
$EndComp
$Comp
L 1k-BE R63
U 1 1 5997F3CB
P 8500 4570
F 0 "R63" H 8500 4766 60  0000 C CNN
F 1 "1.3k-BF" H 8400 4670 60  0000 C CNN
F 2 "Resistors:R0603" H 8500 4570 60  0001 C CNN
F 3 "" H 8600 4720 60  0000 C CNN
F 4 "RMCF0603JT1K30TR-ND" H 8518 4838 60  0001 C CNN "DigikeyPN"
F 5 "1%" H 8700 4670 60  0000 C CNN "Precision"
	1    8500 4570
	0    -1   1    0   
$EndComp
$Comp
L 1k-BE R67
U 1 1 5997FC00
P 9500 4580
F 0 "R67" H 9500 4776 60  0000 C CNN
F 1 "1.3k-BF" H 9400 4680 60  0000 C CNN
F 2 "Resistors:R0603" H 9500 4580 60  0001 C CNN
F 3 "" H 9600 4730 60  0000 C CNN
F 4 "RMCF0603JT1K30TR-ND" H 9518 4848 60  0001 C CNN "DigikeyPN"
F 5 "1%" H 9700 4680 60  0000 C CNN "Precision"
	1    9500 4580
	0    -1   1    0   
$EndComp
$Comp
L 1k-BE R38
U 1 1 59C50ACE
P 2500 1970
F 0 "R38" H 2500 2166 60  0000 C CNN
F 1 "1.3k-BF" H 2400 2070 60  0000 C CNN
F 2 "Resistors:R0603" H 2500 1970 60  0001 C CNN
F 3 "" H 2600 2120 60  0000 C CNN
F 4 "RMCF0603JT1K30TR-ND" H 2518 2238 60  0001 C CNN "DigikeyPN"
F 5 "1%" H 2700 2070 60  0000 C CNN "Precision"
	1    2500 1970
	0    -1   1    0   
$EndComp
$EndSCHEMATC
