EESchema Schematic File Version 2
LIBS:power
LIBS:device
LIBS:transistors
LIBS:conn
LIBS:linear
LIBS:regul
LIBS:74xx
LIBS:cmos4000
LIBS:adc-dac
LIBS:memory
LIBS:xilinx
LIBS:microcontrollers
LIBS:dsp
LIBS:microchip
LIBS:analog_switches
LIBS:motorola
LIBS:texas
LIBS:intel
LIBS:audio
LIBS:interface
LIBS:digital-audio
LIBS:philips
LIBS:display
LIBS:cypress
LIBS:siliconi
LIBS:opto
LIBS:atmel
LIBS:contrib
LIBS:valves
LIBS:Capacitors
LIBS:Connectors
LIBS:Discretes
LIBS:ICs
LIBS:Allegro
LIBS:Resistors
LIBS:TestPoints
LIBS:sixteen_one-cache
EELAYER 26 0
EELAYER END
$Descr A4 11693 8268
encoding utf-8
Sheet 1 4
Title ""
Date ""
Rev ""
Comp ""
Comment1 ""
Comment2 ""
Comment3 ""
Comment4 ""
$EndDescr
NoConn ~ 1440 4590
NoConn ~ 2340 4190
NoConn ~ 1440 4190
Text Notes 7600 7450 0    79   ~ 0
16 Site GTS Board Controller\n
Text Notes 8370 7590 0    60   ~ 0
8/26/16
Text Notes 10800 7590 0    60   ~ 0
1.5\n
$Sheet
S 7290 770  1690 2050
U 58CC2A67
F0 "pin_select" 60
F1 "pin_select.sch" 60
F2 "VCC_pin1_en" I L 7290 990 30 
F3 "VCC_pin2_en" I L 7290 1060 30 
F4 "VCC_pin3_en" I L 7290 1130 30 
F5 "VCC_pin4_en" I L 7290 1190 30 
F6 "D_VCC" I L 7290 2195 30 
F7 "D_Mux2" I L 7290 2305 30 
F8 "Mux2_pin1_en" I L 7290 1570 30 
F9 "Mux2_pin2_en" I L 7290 1630 30 
F10 "Mux2_pin3_en" I L 7290 1690 30 
F11 "Mux2_pin4_en" I L 7290 1750 30 
F12 "P1_mid" O L 7290 2770 30 
F13 "P2_mid" O L 7290 2720 30 
F14 "P3_mid" O L 7290 2670 30 
F15 "P4_mid" O L 7290 2620 30 
F16 "D_Mux" I L 7290 2250 30 
F17 "D_GND" I L 7290 2360 30 
F18 "Mux_pin1_en" I L 7290 1290 30 
F19 "Mux_pin2_en" I L 7290 1350 30 
F20 "Mux_pin3_en" I L 7290 1410 30 
F21 "Mux_pin4_en" I L 7290 1470 30 
F22 "GND_pin1_en" I L 7290 1850 30 
F23 "GND_pin2_en" I L 7290 1910 30 
F24 "GND_pin3_en" I L 7290 1970 30 
F25 "GND_pin4_en" I L 7290 2030 30 
F26 "GND" I R 8980 2655 60 
F27 "5V" I R 8980 2535 60 
$EndSheet
$Sheet
S 2620 860  1660 2160
U 58CCAC78
F0 "Port_expander_decoder" 60
F1 "port_expander_decoder.sch" 60
F2 "SDA" I L 2620 1960 60 
F3 "SCL" I L 2620 1830 60 
F4 "VCC_pin1_en" O R 4280 990 30 
F5 "VCC_pin2_en" O R 4280 1060 30 
F6 "VCC_pin3_en" O R 4280 1130 30 
F7 "VCC_pin4_en" O R 4280 1190 30 
F8 "Mux_pin1_en" O R 4280 1290 30 
F9 "Mux_pin2_en" O R 4280 1350 30 
F10 "Mux_pin3_en" O R 4280 1410 30 
F11 "Mux_pin4_en" O R 4280 1470 30 
F12 "Mux2_pin1_en" O R 4280 1570 30 
F13 "Mux2_pin2_en" O R 4280 1630 30 
F14 "Mux2_pin3_en" O R 4280 1690 30 
F15 "Mux2_pin4_en" O R 4280 1750 30 
F16 "GND_pin1_en" O R 4280 1850 30 
F17 "GND_pin2_en" O R 4280 1910 30 
F18 "GND_pin3_en" O R 4280 1970 30 
F19 "GND_pin4_en" O R 4280 2030 30 
F20 "D1_en" O R 4280 2120 30 
F21 "D2_en" O R 4280 2180 30 
F22 "D3_en" O R 4280 2240 30 
F23 "D4_en" O R 4280 2300 30 
F24 "D5_en" O R 4280 2350 30 
F25 "D6_en" O R 4280 2410 30 
F26 "D7_en" O R 4280 2470 30 
F27 "D8_en" O R 4280 2530 30 
F28 "D9_en" O R 4280 2590 30 
F29 "D10_en" O R 4280 2650 30 
F30 "D11_en" O R 4280 2710 30 
F31 "D12_en" O R 4280 2770 30 
F32 "D13_en" O R 4280 2830 30 
F33 "D14_en" O R 4280 2890 30 
F34 "D15_en" O R 4280 2940 30 
F35 "D16_en" O R 4280 2990 30 
F36 "5V" I L 2620 1050 30 
F37 "GND" I L 2620 1240 30 
$EndSheet
$Sheet
S 4820 3220 1870 4090
U 58CCA744
F0 "part_select" 60
F1 "part_select.sch" 60
F2 "D15_en" I L 4820 5200 60 
F3 "D13_en" I L 4820 4980 60 
F4 "D11_en" I L 4820 4740 60 
F5 "D9_en" I L 4820 4510 60 
F6 "D7_en" I L 4820 4310 60 
F7 "D5_en" I L 4820 4110 60 
F8 "D3_en" I L 4820 3900 60 
F9 "D1_en" I L 4820 3710 60 
F10 "P1_mid" I L 4820 3270 60 
F11 "P1_D1" O R 6690 3430 60 
F12 "P1_D2" O R 6690 3510 60 
F13 "P1_D3" O R 6690 3590 60 
F14 "P1_D4" O R 6690 3670 60 
F15 "P1_D5" O R 6690 3750 60 
F16 "P1_D6" O R 6690 3830 60 
F17 "P1_D7" O R 6690 3910 60 
F18 "P1_D8" O R 6690 3990 60 
F19 "P1_D10" O R 6690 4150 60 
F20 "P1_D9" O R 6690 4070 60 
F21 "P1_D12" O R 6690 4320 60 
F22 "P1_D11" O R 6690 4230 60 
F23 "P1_D14" O R 6690 4480 60 
F24 "P1_D13" O R 6690 4400 60 
F25 "P1_D15" O R 6690 4550 60 
F26 "P1_D16" O R 6690 4620 60 
F27 "P2_D15" O R 6690 5840 60 
F28 "P2_D16" O R 6690 5920 60 
F29 "D16_en" I L 4820 5300 60 
F30 "D14_en" I L 4820 5090 60 
F31 "P2_D14" O R 6690 5760 60 
F32 "P2_D13" O R 6690 5680 60 
F33 "P2_D11" O R 6690 5530 60 
F34 "P2_D12" O R 6690 5610 60 
F35 "D12_en" I L 4820 4870 60 
F36 "D10_en" I L 4820 4620 60 
F37 "P2_D10" O R 6690 5450 60 
F38 "P2_D9" O R 6690 5370 60 
F39 "P2_D7" O R 6690 5210 60 
F40 "P2_D8" O R 6690 5290 60 
F41 "D8_en" I L 4820 4410 60 
F42 "D6_en" I L 4820 4210 60 
F43 "P2_D6" O R 6690 5130 60 
F44 "P2_D5" O R 6690 5050 60 
F45 "P2_D3" O R 6690 4910 60 
F46 "P2_D4" O R 6690 4980 60 
F47 "D4_en" I L 4820 4000 60 
F48 "D2_en" I L 4820 3800 60 
F49 "P2_D2" O R 6690 4840 60 
F50 "P2_D1" O R 6690 4770 60 
F51 "P2_mid" I L 4820 3370 60 
F52 "P3_D15" O R 6690 7210 60 
F53 "P3_D16" O R 6690 7290 60 
F54 "P3_D14" O R 6690 7120 60 
F55 "P3_D13" O R 6690 7030 60 
F56 "P3_D11" O R 6690 6860 60 
F57 "P3_D12" O R 6690 6950 60 
F58 "P3_D10" O R 6690 6780 60 
F59 "P3_D9" O R 6690 6700 60 
F60 "P3_D7" O R 6690 6550 60 
F61 "P3_D8" O R 6690 6630 60 
F62 "P3_D6" O R 6690 6460 60 
F63 "P3_D5" O R 6690 6380 60 
F64 "P3_D3" O R 6690 6220 60 
F65 "P3_D4" O R 6690 6300 60 
F66 "P3_D2" O R 6690 6140 60 
F67 "P3_D1" O R 6690 6060 60 
F68 "P3_mid" I L 4820 3470 60 
F69 "P4_mid" I L 4820 3560 60 
F70 "P4_D1" O L 4820 6110 60 
F71 "P4_D2" O L 4820 6190 60 
F72 "P4_D16" O L 4820 7210 60 
F73 "P4_D15" O L 4820 7140 60 
F74 "P4_D13" O L 4820 6980 60 
F75 "P4_D14" O L 4820 7060 60 
F76 "P4_D12" O L 4820 6910 60 
F77 "P4_D11" O L 4820 6840 60 
F78 "P4_D9" O L 4820 6700 60 
F79 "P4_D10" O L 4820 6770 60 
F80 "P4_D7" O L 4820 6560 60 
F81 "P4_D8" O L 4820 6630 60 
F82 "P4_D6" O L 4820 6490 60 
F83 "P4_D5" O L 4820 6420 60 
F84 "P4_D3" O L 4820 6270 60 
F85 "P4_D4" O L 4820 6340 60 
F86 "5V" I L 4820 5720 60 
F87 "GND" I L 4820 5950 60 
$EndSheet
Text Label 10660 2070 0    30   ~ 0
P1_D8
Text Label 10660 1370 0    30   ~ 0
P1_D7
Text Label 10660 1970 0    30   ~ 0
P1_D6
Text Label 10660 1470 0    30   ~ 0
P1_D5
Text Label 10660 1870 0    30   ~ 0
P1_D4
Text Label 10660 1570 0    30   ~ 0
P1_D3
Text Label 10660 1770 0    30   ~ 0
P1_D2
Text Label 10660 1670 0    30   ~ 0
P1_D1
Text Label 9760 6205 2    30   ~ 0
P4_D10
Text Label 9760 5505 2    30   ~ 0
P4_D9
Text Label 10685 4500 0    30   ~ 0
P3_D2
Text Label 10685 4400 0    30   ~ 0
P3_D1
Text Label 10685 4600 0    30   ~ 0
P3_D4
Text Label 10685 4300 0    30   ~ 0
P3_D3
Text Label 10685 4700 0    30   ~ 0
P3_D6
Text Label 10685 4200 0    30   ~ 0
P3_D5
Text Label 10685 4800 0    30   ~ 0
P3_D8
Text Label 10685 4100 0    30   ~ 0
P3_D7
Text Label 9785 4800 2    30   ~ 0
P3_D10
Text Label 9785 4100 2    30   ~ 0
P3_D9
Text Label 9785 4700 2    30   ~ 0
P3_D12
Text Label 9785 4200 2    30   ~ 0
P3_D11
Text Label 9785 4600 2    30   ~ 0
P3_D14
Text Label 9785 4300 2    30   ~ 0
P3_D13
Text Label 9785 4500 2    30   ~ 0
P3_D16
Text Label 9760 1670 2    30   ~ 0
P1_D15
Text Label 9760 1770 2    30   ~ 0
P1_D16
Text Label 9760 1570 2    30   ~ 0
P1_D13
Text Label 9760 1870 2    30   ~ 0
P1_D14
Text Label 9760 1470 2    30   ~ 0
P1_D11
Text Label 9760 1970 2    30   ~ 0
P1_D12
Text Label 9760 1370 2    30   ~ 0
P1_D9
Text Label 9760 2070 2    30   ~ 0
P1_D10
Text Label 9755 3025 2    30   ~ 0
P2_D15
Text Label 9755 3125 2    30   ~ 0
P2_D16
Text Label 9755 2925 2    30   ~ 0
P2_D13
Text Label 9755 3225 2    30   ~ 0
P2_D14
Text Label 9755 2825 2    30   ~ 0
P2_D11
Text Label 9755 3325 2    30   ~ 0
P2_D12
Text Label 9755 2725 2    30   ~ 0
P2_D9
Text Label 9755 3425 2    30   ~ 0
P2_D10
Text Label 10655 2725 0    30   ~ 0
P2_D7
Text Label 10655 3425 0    30   ~ 0
P2_D8
Text Label 10655 2825 0    30   ~ 0
P2_D5
Text Label 10655 3325 0    30   ~ 0
P2_D6
Text Label 10655 2925 0    30   ~ 0
P2_D3
Text Label 10655 3225 0    30   ~ 0
P2_D4
Text Label 10655 3025 0    30   ~ 0
P2_D1
Text Label 10655 3125 0    30   ~ 0
P2_D2
Text Label 9785 4400 2    30   ~ 0
P3_D15
Text Label 10660 6005 0    30   ~ 0
P4_D4
Text Label 10660 5705 0    30   ~ 0
P4_D3
Text Label 10660 5905 0    30   ~ 0
P4_D2
Text Label 10660 5805 0    30   ~ 0
P4_D1
Text Label 9760 6105 2    30   ~ 0
P4_D12
Text Label 9760 5605 2    30   ~ 0
P4_D11
Text Label 9760 6005 2    30   ~ 0
P4_D14
Text Label 9760 5705 2    30   ~ 0
P4_D13
Text Label 9760 5905 2    30   ~ 0
P4_D16
Text Label 9760 5805 2    30   ~ 0
P4_D15
Text Label 10660 6205 0    30   ~ 0
P4_D8
Text Label 10660 5505 0    30   ~ 0
P4_D7
Text Label 10660 6105 0    30   ~ 0
P4_D6
Text Label 10660 5605 0    30   ~ 0
P4_D5
Text Label 6780 4620 0    30   ~ 0
P1_D16
Text Label 6780 4770 0    30   ~ 0
P2_D1
Text Label 6780 4840 0    30   ~ 0
P2_D2
Text Label 6780 4910 0    30   ~ 0
P2_D3
Text Label 6780 4980 0    30   ~ 0
P2_D4
Text Label 6780 5050 0    30   ~ 0
P2_D5
Text Label 6780 5130 0    30   ~ 0
P2_D6
Text Label 6780 5210 0    30   ~ 0
P2_D7
Text Label 6780 5290 0    30   ~ 0
P2_D8
Text Label 6780 5370 0    30   ~ 0
P2_D9
Text Label 6780 5450 0    30   ~ 0
P2_D10
Text Label 6780 5530 0    30   ~ 0
P2_D11
Text Label 6780 5610 0    30   ~ 0
P2_D12
Text Label 6780 5680 0    30   ~ 0
P2_D13
Text Label 6780 5760 0    30   ~ 0
P2_D14
Text Label 6780 5840 0    30   ~ 0
P2_D15
Text Label 6780 5920 0    30   ~ 0
P2_D16
Text Label 4720 6190 2    30   ~ 0
P4_D2
Text Label 4710 6340 2    30   ~ 0
P4_D4
Text Label 4710 6490 2    30   ~ 0
P4_D6
Text Label 4710 6630 2    30   ~ 0
P4_D8
Text Label 4710 6770 2    30   ~ 0
P4_D10
Text Label 4710 6910 2    30   ~ 0
P4_D12
Text Label 4710 7060 2    30   ~ 0
P4_D14
Text Label 4710 7210 2    30   ~ 0
P4_D16
Text Label 6780 4550 0    30   ~ 0
P1_D15
Text Label 6780 6060 0    30   ~ 0
P3_D1
Text Label 6780 6140 0    30   ~ 0
P3_D2
Text Label 6780 6220 0    30   ~ 0
P3_D3
Text Label 6780 6300 0    30   ~ 0
P3_D4
Text Label 6780 6380 0    30   ~ 0
P3_D5
Text Label 6780 6460 0    30   ~ 0
P3_D6
Text Label 6780 6550 0    30   ~ 0
P3_D7
Text Label 6780 6630 0    30   ~ 0
P3_D8
Text Label 6780 6700 0    30   ~ 0
P3_D9
Text Label 6780 6780 0    30   ~ 0
P3_D10
Text Label 6780 6860 0    30   ~ 0
P3_D11
Text Label 6780 6950 0    30   ~ 0
P3_D12
Text Label 6780 7030 0    30   ~ 0
P3_D13
Text Label 6780 7120 0    30   ~ 0
P3_D14
Text Label 6780 7210 0    30   ~ 0
P3_D15
Text Label 6780 7290 0    30   ~ 0
P3_D16
Text Label 4720 6110 2    30   ~ 0
P4_D1
Text Label 4710 6270 2    30   ~ 0
P4_D3
Text Label 4710 6420 2    30   ~ 0
P4_D5
Text Label 4710 6560 2    30   ~ 0
P4_D7
Text Label 4710 6700 2    30   ~ 0
P4_D9
Text Label 4710 6840 2    30   ~ 0
P4_D11
Text Label 4710 6980 2    30   ~ 0
P4_D13
Text Label 4710 7140 2    30   ~ 0
P4_D15
Text Label 6780 4400 0    30   ~ 0
P1_D13
Text Label 6780 4230 0    30   ~ 0
P1_D11
Text Label 6780 4070 0    30   ~ 0
P1_D9
Text Label 6780 3910 0    30   ~ 0
P1_D7
Text Label 6780 3750 0    30   ~ 0
P1_D5
Text Label 6780 3590 0    30   ~ 0
P1_D3
Text Label 6780 3430 0    30   ~ 0
P1_D1
Text Label 6780 3510 0    30   ~ 0
P1_D2
Text Label 6780 3670 0    30   ~ 0
P1_D4
Text Label 6780 3830 0    30   ~ 0
P1_D6
Text Label 6780 3990 0    30   ~ 0
P1_D8
Text Label 6780 4150 0    30   ~ 0
P1_D10
Text Label 6780 4320 0    30   ~ 0
P1_D12
Text Label 6780 4480 0    30   ~ 0
P1_D14
Text Label 2390 4140 0    30   ~ 0
D_GND
Text Label 1440 4290 2    30   ~ 0
D_Mux
$Comp
L 5006K P4
U 1 1 58D04F4E
P 1105 4290
F 0 "P4" H 1375 4450 60  0000 C CNN
F 1 "5006" H 1285 4340 60  0000 C CNN
F 2 "TestPoints:TP_1p6mm" H 1155 4630 60  0001 C CNN
F 3 "" H 1105 4290 60  0000 C CNN
F 4 "36-5006-ND" H 1355 4640 60  0001 C CNN "DigikeyPN"
	1    1105 4290
	-1   0    0    1   
$EndComp
$Comp
L 5007K P2
U 1 1 58D05F18
P 6255 2565
F 0 "P2" H 5995 2715 60  0000 C CNN
F 1 "5007" H 6055 2615 60  0000 C CNN
F 2 "TestPoints:TP_1p6mm" H 6065 2515 60  0001 C CNN
F 3 "" H 6255 2565 60  0000 C CNN
F 4 "36-5007-ND" H 6505 2915 60  0001 C CNN "DigikeyPN"
	1    6255 2565
	1    0    0    -1  
$EndComp
$Comp
L 5121K P3
U 1 1 58D062D0
P 2905 4290
F 0 "P3" H 3215 4440 60  0000 C CNN
F 1 "5121" H 3085 4330 60  0000 C CNN
F 2 "TestPoints:TP_1p6mm" H 3415 4250 60  0001 C CNN
F 3 "" H 3055 4540 60  0000 C CNN
F 4 "36-5121-ND" H 3155 4640 60  0001 C CNN "DigikeyPN"
	1    2905 4290
	1    0    0    1   
$EndComp
Text Label 7020 2360 0    30   ~ 0
D_GND
Text Label 7020 2195 0    30   ~ 0
D_VCC
Text Label 7020 2305 0    30   ~ 0
D_Mux2
Text Label 7020 2250 0    30   ~ 0
D_Mux
Text Label 3330 4925 0    60   ~ 0
5V
Text Label 2390 4390 0    60   ~ 0
GND
Text Label 2400 1240 0    60   ~ 0
GND
Text Label 2460 1050 0    60   ~ 0
5V
Text Label 4380 5950 0    60   ~ 0
GND
Text Label 4570 5720 0    60   ~ 0
5V
Text Label 9155 2535 2    60   ~ 0
5V
Text Label 9190 2655 2    60   ~ 0
GND
$Comp
L ASEK3_Conn J1
U 1 1 58D854D2
P 1890 4240
F 0 "J1" H 1890 4540 60  0000 C CNN
F 1 "ASEK3_Conn" H 1890 4640 60  0000 C CNN
F 2 "Connectors:MOL0878311420" H 1870 4710 60  0001 C CNN
F 3 "" H 1890 4540 60  0000 C CNN
F 4 "WM17469-ND" H 1890 4740 60  0001 C CNN "DigikeyPN"
	1    1890 4240
	1    0    0    -1  
$EndComp
$Comp
L ASEK3_Conn J2
U 1 1 59B8AF7C
P 1895 5400
F 0 "J2" H 1895 5700 60  0000 C CNN
F 1 "ASEK3_Conn" H 1895 5800 60  0000 C CNN
F 2 "Connectors:MOL0878311420" H 1875 5870 60  0001 C CNN
F 3 "" H 1895 5700 60  0000 C CNN
F 4 "WM17469-ND" H 1895 5900 60  0001 C CNN "DigikeyPN"
	1    1895 5400
	1    0    0    -1  
$EndComp
Text Label 1955 1830 0    60   ~ 0
SCL
Text Label 2010 1960 0    60   ~ 0
SDA
Text Label 2345 5650 0    60   ~ 0
SCL
Text Label 1445 5650 2    60   ~ 0
SDA
Text Label 1400 5150 2    30   ~ 0
D_VCC
Text Label 1445 5450 2    30   ~ 0
D_Mux
NoConn ~ 1445 5750
NoConn ~ 1445 5350
NoConn ~ 2345 5350
Text Label 2375 5550 0    60   ~ 0
GND
Text Label 2345 5450 0    30   ~ 0
D_Mux2
Text Label 2355 5250 0    30   ~ 0
D_GND
$Comp
L MOL0878311620 J5
U 1 1 59B97553
P 10235 4450
F 0 "J5" H 10235 4855 60  0000 C CNN
F 1 "MOL0878311620" H 10235 5087 60  0000 C CNN
F 2 "Connectors:MOL0878311620" H 10235 4981 60  0000 C CNN
F 3 "" H 10235 4850 60  0000 C CNN
F 4 "WM18562-ND" H 10235 5050 60  0001 C CNN "DigikeyPN"
	1    10235 4450
	-1   0    0    1   
$EndComp
$Comp
L MOL0878311620 J6
U 1 1 59B99674
P 10210 5855
F 0 "J6" H 10210 6255 60  0000 C CNN
F 1 "MOL0878311620" H 10210 6492 60  0000 C CNN
F 2 "Connectors:MOL0878311620" H 10210 6386 60  0000 C CNN
F 3 "" H 10210 6255 60  0000 C CNN
F 4 "WM18562-ND" H 10210 6455 60  0001 C CNN "DigikeyPN"
	1    10210 5855
	-1   0    0    1   
$EndComp
$Comp
L MOL0878311620 J3
U 1 1 59B99A24
P 10210 1720
F 0 "J3" H 10210 2125 60  0000 C CNN
F 1 "MOL0878311620" H 10210 2357 60  0000 C CNN
F 2 "Connectors:MOL0878311620" H 10210 2251 60  0000 C CNN
F 3 "" H 10210 2120 60  0000 C CNN
F 4 "WM18562-ND" H 10210 2320 60  0001 C CNN "DigikeyPN"
	1    10210 1720
	-1   0    0    1   
$EndComp
$Comp
L MOL0878311620 J4
U 1 1 59B99DD8
P 10205 3075
F 0 "J4" H 10205 3475 60  0000 C CNN
F 1 "MOL0878311620" H 10205 3712 60  0000 C CNN
F 2 "Connectors:MOL0878311620" H 10205 3606 60  0000 C CNN
F 3 "" H 10205 3475 60  0000 C CNN
F 4 "WM18562-ND" H 10205 3675 60  0001 C CNN "DigikeyPN"
	1    10205 3075
	-1   0    0    1   
$EndComp
Wire Wire Line
	6690 4770 6780 4770
Wire Wire Line
	6690 4840 6780 4840
Wire Wire Line
	6690 4910 6780 4910
Wire Wire Line
	6780 4980 6690 4980
Wire Wire Line
	6780 5050 6690 5050
Wire Wire Line
	6780 5130 6690 5130
Wire Wire Line
	6690 5210 6780 5210
Wire Wire Line
	6780 5290 6690 5290
Wire Wire Line
	6690 5370 6780 5370
Wire Wire Line
	6780 5450 6690 5450
Wire Wire Line
	6690 5530 6780 5530
Wire Wire Line
	6780 5610 6690 5610
Wire Wire Line
	6690 5680 6780 5680
Wire Wire Line
	6780 5760 6690 5760
Wire Wire Line
	6690 5840 6780 5840
Wire Wire Line
	6690 5920 6780 5920
Wire Wire Line
	6690 3430 6780 3430
Wire Wire Line
	6780 3510 6690 3510
Wire Wire Line
	6690 3590 6780 3590
Wire Wire Line
	6690 3670 6780 3670
Wire Wire Line
	6690 3750 6780 3750
Wire Wire Line
	6690 3830 6780 3830
Wire Wire Line
	6690 3910 6780 3910
Wire Wire Line
	6690 3990 6780 3990
Wire Wire Line
	6780 4070 6690 4070
Wire Wire Line
	6690 4150 6780 4150
Wire Wire Line
	6780 4230 6690 4230
Wire Wire Line
	6690 4320 6780 4320
Wire Wire Line
	6780 4400 6690 4400
Wire Wire Line
	6690 4480 6780 4480
Wire Wire Line
	6780 4550 6690 4550
Wire Wire Line
	6690 4620 6780 4620
Wire Wire Line
	6780 7290 6690 7290
Wire Wire Line
	6690 7210 6780 7210
Wire Wire Line
	6780 7120 6690 7120
Wire Wire Line
	6690 7030 6780 7030
Wire Wire Line
	6780 6950 6690 6950
Wire Wire Line
	6690 6860 6780 6860
Wire Wire Line
	6780 6780 6690 6780
Wire Wire Line
	6690 6700 6780 6700
Wire Wire Line
	6780 6630 6690 6630
Wire Wire Line
	6690 6550 6780 6550
Wire Wire Line
	6780 6460 6690 6460
Wire Wire Line
	6690 6380 6780 6380
Wire Wire Line
	6780 6300 6690 6300
Wire Wire Line
	6690 6220 6780 6220
Wire Wire Line
	6690 6140 6780 6140
Wire Wire Line
	6780 6060 6690 6060
Wire Wire Line
	4710 7210 4820 7210
Wire Wire Line
	4820 7140 4710 7140
Wire Wire Line
	4710 7060 4820 7060
Wire Wire Line
	4820 6980 4710 6980
Wire Wire Line
	4710 6910 4820 6910
Wire Wire Line
	4820 6840 4710 6840
Wire Wire Line
	4710 6770 4820 6770
Wire Wire Line
	4820 6700 4710 6700
Wire Wire Line
	4710 6630 4820 6630
Wire Wire Line
	4820 6560 4710 6560
Wire Wire Line
	4710 6490 4820 6490
Wire Wire Line
	4820 6420 4710 6420
Wire Wire Line
	4710 6340 4820 6340
Wire Wire Line
	4820 6270 4710 6270
Wire Wire Line
	4720 6190 4820 6190
Wire Wire Line
	4820 6110 4720 6110
Wire Wire Line
	4820 5300 4300 5300
Wire Wire Line
	4300 5300 4300 2990
Wire Wire Line
	4300 2990 4280 2990
Wire Wire Line
	4280 2940 4320 2940
Wire Wire Line
	4320 2940 4320 5200
Wire Wire Line
	4320 5200 4820 5200
Wire Wire Line
	4820 5090 4340 5090
Wire Wire Line
	4340 5090 4340 2890
Wire Wire Line
	4340 2890 4280 2890
Wire Wire Line
	4280 2830 4360 2830
Wire Wire Line
	4360 2830 4360 4980
Wire Wire Line
	4360 4980 4820 4980
Wire Wire Line
	4820 4870 4380 4870
Wire Wire Line
	4380 4870 4380 2770
Wire Wire Line
	4380 2770 4280 2770
Wire Wire Line
	4280 2710 4400 2710
Wire Wire Line
	4400 2710 4400 4740
Wire Wire Line
	4400 4740 4820 4740
Wire Wire Line
	4820 4620 4420 4620
Wire Wire Line
	4420 4620 4420 2650
Wire Wire Line
	4420 2650 4280 2650
Wire Wire Line
	4280 2590 4440 2590
Wire Wire Line
	4440 2590 4440 4510
Wire Wire Line
	4440 4510 4820 4510
Wire Wire Line
	4820 4410 4460 4410
Wire Wire Line
	4460 4410 4460 2530
Wire Wire Line
	4460 2530 4280 2530
Wire Wire Line
	4280 2470 4480 2470
Wire Wire Line
	4480 2470 4480 4310
Wire Wire Line
	4480 4310 4820 4310
Wire Wire Line
	4820 4210 4500 4210
Wire Wire Line
	4500 4210 4500 2410
Wire Wire Line
	4500 2410 4280 2410
Wire Wire Line
	4280 2350 4520 2350
Wire Wire Line
	4520 2350 4520 4110
Wire Wire Line
	4520 4110 4820 4110
Wire Wire Line
	4820 4000 4540 4000
Wire Wire Line
	4540 4000 4540 2300
Wire Wire Line
	4540 2300 4280 2300
Wire Wire Line
	4280 2240 4560 2240
Wire Wire Line
	4560 2240 4560 3900
Wire Wire Line
	4560 3900 4820 3900
Wire Wire Line
	4820 3800 4580 3800
Wire Wire Line
	4580 3800 4580 2180
Wire Wire Line
	4580 2180 4280 2180
Wire Wire Line
	4280 2120 4600 2120
Wire Wire Line
	4600 2120 4600 3710
Wire Wire Line
	4600 3710 4820 3710
Wire Wire Line
	4820 5950 4380 5950
Wire Wire Line
	2620 1050 2460 1050
Wire Wire Line
	2400 1240 2620 1240
Wire Wire Line
	4280 990  7290 990 
Wire Wire Line
	4280 1060 7290 1060
Wire Wire Line
	4280 1130 7290 1130
Wire Wire Line
	4280 1190 7290 1190
Wire Wire Line
	4280 1290 7290 1290
Wire Wire Line
	4280 1350 7290 1350
Wire Wire Line
	4280 1410 7290 1410
Wire Wire Line
	4280 1470 7290 1470
Wire Wire Line
	4280 1570 7290 1570
Wire Wire Line
	4280 1630 7290 1630
Wire Wire Line
	4280 1690 7290 1690
Wire Wire Line
	4280 1750 7290 1750
Wire Wire Line
	4280 1850 7290 1850
Wire Wire Line
	4280 1910 7290 1910
Wire Wire Line
	4280 1970 7290 1970
Wire Wire Line
	4280 2030 7290 2030
Wire Wire Line
	4790 2770 7290 2770
Wire Wire Line
	4790 2770 4790 3270
Wire Wire Line
	4790 3270 4820 3270
Wire Wire Line
	4820 3370 4770 3370
Wire Wire Line
	4770 3370 4770 2720
Wire Wire Line
	4770 2720 7290 2720
Wire Wire Line
	4750 2670 7290 2670
Wire Wire Line
	4750 2670 4750 3470
Wire Wire Line
	4750 3470 4820 3470
Wire Wire Line
	4820 3560 4730 3560
Wire Wire Line
	4730 3560 4730 2620
Wire Wire Line
	4730 2620 7290 2620
Wire Wire Line
	7290 2195 7020 2195
Wire Wire Line
	7020 2250 7290 2250
Wire Wire Line
	7290 2305 7020 2305
Wire Wire Line
	7020 2360 7290 2360
Wire Wire Line
	1950 1830 2620 1830
Wire Wire Line
	1440 4490 1380 4490
Wire Wire Line
	1810 1960 2620 1960
Wire Wire Line
	1440 4390 1380 4390
Wire Wire Line
	1380 4390 1380 4440
Wire Wire Line
	2340 4390 2390 4390
Wire Wire Line
	2390 4390 2390 4440
Wire Wire Line
	1380 4090 1380 4140
Wire Wire Line
	2340 3990 2390 3990
Wire Wire Line
	2390 3990 2390 4040
Wire Wire Line
	1380 4040 1380 3990
Wire Wire Line
	1380 3990 1440 3990
Wire Wire Line
	1380 4490 1380 4540
Wire Wire Line
	1380 4540 1810 4540
Wire Wire Line
	1810 4540 1810 1960
Wire Wire Line
	2340 4490 2390 4490
Wire Wire Line
	2390 4490 2390 4540
Wire Wire Line
	2390 4540 1950 4540
Wire Wire Line
	1950 4540 1950 1830
Wire Wire Line
	4820 5720 4570 5720
Wire Wire Line
	2390 4090 2340 4090
Wire Wire Line
	1380 4090 1440 4090
Wire Wire Line
	2390 4090 2390 4140
Wire Wire Line
	6905 2585 6905 2620
Connection ~ 6905 2620
Wire Wire Line
	6425 2565 6425 2670
Connection ~ 6425 2670
Wire Wire Line
	6255 2565 6255 2720
Connection ~ 6255 2720
Wire Wire Line
	5775 2565 5775 2770
Connection ~ 5775 2770
Wire Wire Line
	2690 5750 2690 4590
Wire Wire Line
	2690 4925 2930 4925
Wire Wire Line
	2345 5750 2690 5750
Wire Wire Line
	1445 5550 1425 5550
Wire Wire Line
	1425 5550 1425 5585
Wire Wire Line
	1425 5585 2375 5585
Wire Wire Line
	2375 5585 2375 5550
Wire Wire Line
	1445 5250 1425 5250
Wire Wire Line
	1425 5250 1425 5270
Wire Wire Line
	1425 5270 2355 5270
Wire Wire Line
	2355 5270 2355 5250
Wire Wire Line
	2345 5150 2375 5150
Wire Wire Line
	2375 5150 2375 5175
Wire Wire Line
	2375 5175 1400 5175
Wire Wire Line
	1400 5175 1400 5150
Wire Wire Line
	8980 2655 9190 2655
Wire Wire Line
	8980 2535 9155 2535
Wire Wire Line
	2690 4590 2340 4590
Wire Wire Line
	1400 5150 1445 5150
Wire Wire Line
	2375 5550 2345 5550
Wire Wire Line
	2355 5250 2345 5250
Wire Wire Line
	2390 4440 1380 4440
Wire Wire Line
	1380 4140 2845 4140
Text Label 1380 4040 2    30   ~ 0
D_VCC
Wire Wire Line
	2390 4040 1380 4040
Connection ~ 2690 4925
$Comp
L 0.0-BF R1
U 1 1 5908F7A0
P 3130 4925
F 0 "R1" H 3150 4825 60  0000 C CNN
F 1 "0.0-BF" H 3160 5025 60  0000 C CNN
F 2 "TestPoints:PROBEGND" H 3030 5021 60  0001 C CNN
F 3 "" H 3230 5075 60  0000 C CNN
	1    3130 4925
	1    0    0    -1  
$EndComp
Text Label 2340 4290 0    30   ~ 0
D_Mux2
$Comp
L Bare_TP TP19
U 1 1 59C30C66
P 1050 6820
F 0 "TP19" H 1128 7020 60  0000 L CNN
F 1 "Mount" H 1128 6914 60  0000 L CNN
F 2 "connectors:1pin" H 1128 6808 60  0000 L CNN
F 3 "" H 1050 6820 60  0000 C CNN
	1    1050 6820
	1    0    0    -1  
$EndComp
$Comp
L Bare_TP TP20
U 1 1 59C34512
P 1500 6810
F 0 "TP20" H 1578 7010 60  0000 L CNN
F 1 "Mount" H 1578 6904 60  0000 L CNN
F 2 "connectors:1pin" H 1578 6798 60  0000 L CNN
F 3 "" H 1500 6810 60  0000 C CNN
	1    1500 6810
	1    0    0    -1  
$EndComp
$Comp
L Bare_TP TP21
U 1 1 59C348CC
P 1890 6780
F 0 "TP21" H 1968 6980 60  0000 L CNN
F 1 "Mount" H 1968 6874 60  0000 L CNN
F 2 "connectors:1pin" H 1968 6768 60  0000 L CNN
F 3 "" H 1890 6780 60  0000 C CNN
	1    1890 6780
	1    0    0    -1  
$EndComp
$Comp
L Bare_TP TP22
U 1 1 59C34C80
P 2295 6795
F 0 "TP22" H 2373 6995 60  0000 L CNN
F 1 "Mount" H 2373 6889 60  0000 L CNN
F 2 "connectors:1pin" H 2373 6783 60  0000 L CNN
F 3 "" H 2295 6795 60  0000 C CNN
	1    2295 6795
	1    0    0    -1  
$EndComp
$Comp
L Bare_TP TP23
U 1 1 59C35036
P 2655 6780
F 0 "TP23" H 2733 6980 60  0000 L CNN
F 1 "Mount" H 2733 6874 60  0000 L CNN
F 2 "connectors:1pin" H 2733 6768 60  0000 L CNN
F 3 "" H 2655 6780 60  0000 C CNN
	1    2655 6780
	1    0    0    -1  
$EndComp
$Comp
L Bare_TP TP24
U 1 1 59C353EA
P 3055 6775
F 0 "TP24" H 3133 6975 60  0000 L CNN
F 1 "Mount" H 3133 6869 60  0000 L CNN
F 2 "connectors:1pin" H 3133 6763 60  0000 L CNN
F 3 "" H 3055 6775 60  0000 C CNN
	1    3055 6775
	1    0    0    -1  
$EndComp
$Comp
L LOGO #G1
U 1 1 59C357B9
P 8035 4980
F 0 "#G1" H 8035 4316 60  0001 C CNN
F 1 "LOGO" H 8035 5644 60  0001 C CNN
F 2 "Modules:Allegro" H 8035 4980 60  0001 C CNN
F 3 "" H 8035 4980 60  0001 C CNN
	1    8035 4980
	1    0    0    -1  
$EndComp
$Comp
L 5005K P1
U 1 1 5C816300
P 2640 3960
F 0 "P1" H 2450 4120 60  0000 C CNN
F 1 "5005" H 2450 4010 60  0000 C CNN
F 2 "TestPoints:TP_1p6mm" H 2590 4320 60  0001 C CNN
F 3 "" H 2640 3960 60  0000 C CNN
F 4 "36-5005-ND" H 2890 4310 60  0001 C CNN "DigikeyPN"
	1    2640 3960
	1    0    0    -1  
$EndComp
$Comp
L 5007K P6
U 1 1 5C816ED9
P 5775 2565
F 0 "P6" H 5515 2715 60  0000 C CNN
F 1 "5007" H 5575 2615 60  0000 C CNN
F 2 "TestPoints:TP_1p6mm" H 5585 2515 60  0001 C CNN
F 3 "" H 5775 2565 60  0000 C CNN
F 4 "36-5007-ND" H 6025 2915 60  0001 C CNN "DigikeyPN"
	1    5775 2565
	1    0    0    -1  
$EndComp
$Comp
L 5007K P5
U 1 1 5C81A7B5
P 2845 4085
F 0 "P5" H 2585 4235 60  0000 C CNN
F 1 "5007" H 2645 4135 60  0000 C CNN
F 2 "TestPoints:TP_1p6mm" H 2655 4035 60  0001 C CNN
F 3 "" H 2845 4085 60  0000 C CNN
F 4 "36-5007-ND" H 3095 4435 60  0001 C CNN "DigikeyPN"
	1    2845 4085
	-1   0    0    -1  
$EndComp
$Comp
L 5007K P7
U 1 1 5C81AB8C
P 6425 2565
F 0 "P7" H 6165 2715 60  0000 C CNN
F 1 "5007" H 6225 2615 60  0000 C CNN
F 2 "TestPoints:TP_1p6mm" H 6235 2515 60  0001 C CNN
F 3 "" H 6425 2565 60  0000 C CNN
F 4 "36-5007-ND" H 6675 2915 60  0001 C CNN "DigikeyPN"
	1    6425 2565
	1    0    0    -1  
$EndComp
$Comp
L 5007K P8
U 1 1 5C81BA6A
P 6905 2585
F 0 "P8" H 6645 2735 60  0000 C CNN
F 1 "5007" H 6705 2635 60  0000 C CNN
F 2 "TestPoints:TP_1p6mm" H 6715 2535 60  0001 C CNN
F 3 "" H 6905 2585 60  0000 C CNN
F 4 "36-5007-ND" H 7155 2935 60  0001 C CNN "DigikeyPN"
	1    6905 2585
	1    0    0    -1  
$EndComp
Wire Wire Line
	2845 4140 2845 4085
Connection ~ 2390 4140
Wire Wire Line
	2640 3960 2640 4015
Wire Wire Line
	2640 4015 2390 4015
Connection ~ 2390 4015
Wire Wire Line
	2905 4290 2340 4290
Wire Wire Line
	1440 4290 1105 4290
$EndSCHEMATC
