EESchema Schematic File Version 2
LIBS:Capacitors
LIBS:Connectors
LIBS:Discretes
LIBS:ICs
LIBS:Allegro
LIBS:Resistors
LIBS:TestPoints
LIBS:IDDQ op amp-cache
EELAYER 25 0
EELAYER END
$Descr A4 11693 8268
encoding utf-8
Sheet 1 1
Title ""
Date ""
Rev ""
Comp ""
Comment1 ""
Comment2 ""
Comment3 ""
Comment4 ""
$EndDescr
$Comp
L AD8532 U2
U 1 1 55D76DA2
P 4550 3600
F 0 "U2" H 4700 4000 60  0000 C CNN
F 1 "AD8532" H 4350 4000 60  0000 C CNN
F 2 "ICs:8-TSSOP" H 4600 3900 60  0001 C CNN
F 3 "" H 4700 4000 60  0000 C CNN
F 4 "AD8532ARMZ-REELCT-ND" H 4800 4100 60  0001 C CNN "DigikeyPN"
	1    4550 3600
	1    0    0    -1  
$EndComp
$Comp
L AD8532 U2
U 2 1 55D76E4D
P 6500 3650
F 0 "U2" H 6650 4050 60  0000 C CNN
F 1 "AD8532" H 6300 4050 60  0000 C CNN
F 2 "ICs:8-TSSOP" H 6550 3950 60  0001 C CNN
F 3 "" H 6650 4050 60  0000 C CNN
F 4 "AD8532ARMZ-REELCT-ND" H 6750 4150 60  0001 C CNN "DigikeyPN"
	2    6500 3650
	1    0    0    -1  
$EndComp
$Comp
L AD8532 U1
U 1 1 55D76E97
P 3550 2450
F 0 "U1" H 3700 2850 60  0000 C CNN
F 1 "AD8532" H 3350 2850 60  0000 C CNN
F 2 "ICs:8-TSSOP" H 3600 2750 60  0001 C CNN
F 3 "" H 3700 2850 60  0000 C CNN
F 4 "AD8532ARMZ-REELCT-ND" H 3800 2950 60  0001 C CNN "DigikeyPN"
	1    3550 2450
	-1   0    0    1   
$EndComp
$Comp
L AD8532 U1
U 2 1 55D76F13
P 4400 1250
F 0 "U1" H 4550 1650 60  0000 C CNN
F 1 "AD8532" H 4200 1650 60  0000 C CNN
F 2 "ICs:8-TSSOP" H 4450 1550 60  0001 C CNN
F 3 "" H 4550 1650 60  0000 C CNN
F 4 "AD8532ARMZ-REELCT-ND" H 4650 1750 60  0001 C CNN "DigikeyPN"
	2    4400 1250
	1    0    0    -1  
$EndComp
NoConn ~ 4750 1250
NoConn ~ 4050 1200
NoConn ~ 4050 1300
$Comp
L 1.3M-CD R2
U 1 1 55D771D8
P 4500 3000
F 0 "R2" H 4500 3196 60  0000 C CNN
F 1 "1.3M-CD" H 4400 3100 60  0000 C CNN
F 2 "Resistors:R0805" H 4500 3000 60  0001 C CNN
F 3 "" H 4600 3150 60  0000 C CNN
F 4 "A103798CT-ND" H 4518 3268 60  0001 C CNN "DigikeyPN"
F 5 "0.1%" H 4750 3100 60  0000 C CNN "Precision"
	1    4500 3000
	1    0    0    -1  
$EndComp
$Comp
L 1.3M-CD R4
U 1 1 55D77215
P 5400 3600
F 0 "R4" H 5400 3796 60  0000 C CNN
F 1 "1.3M-CD" H 5300 3700 60  0000 C CNN
F 2 "Resistors:R0805" H 5400 3600 60  0001 C CNN
F 3 "" H 5500 3750 60  0000 C CNN
F 4 "A103798CT-ND" H 5418 3868 60  0001 C CNN "DigikeyPN"
F 5 "0.1%" H 5650 3700 60  0000 C CNN "Precision"
	1    5400 3600
	1    0    0    -1  
$EndComp
$Comp
L 1.3M-CD R3
U 1 1 55D77274
P 5400 4150
F 0 "R3" H 5400 4346 60  0000 C CNN
F 1 "1.3M-CD" H 5300 4250 60  0000 C CNN
F 2 "Resistors:R0805" H 5400 4150 60  0001 C CNN
F 3 "" H 5500 4300 60  0000 C CNN
F 4 "A103798CT-ND" H 5418 4418 60  0001 C CNN "DigikeyPN"
F 5 "0.1%" H 5650 4250 60  0000 C CNN "Precision"
	1    5400 4150
	1    0    0    -1  
$EndComp
$Comp
L 1.3M-CD R5
U 1 1 55D772C3
P 6400 3000
F 0 "R5" H 6400 3196 60  0000 C CNN
F 1 "1.3M-CD" H 6300 3100 60  0000 C CNN
F 2 "Resistors:R0805" H 6400 3000 60  0001 C CNN
F 3 "" H 6500 3150 60  0000 C CNN
F 4 "A103798CT-ND" H 6418 3268 60  0001 C CNN "DigikeyPN"
F 5 "0.1%" H 6650 3100 60  0000 C CNN "Precision"
	1    6400 3000
	1    0    0    -1  
$EndComp
$Comp
L 1.3M-CD R6
U 1 1 55D7731A
P 6050 4500
F 0 "R6" H 6050 4696 60  0000 C CNN
F 1 "1.3M-CD" H 5950 4600 60  0000 C CNN
F 2 "Resistors:R0805" H 6050 4500 60  0001 C CNN
F 3 "" H 6150 4650 60  0000 C CNN
F 4 "A103798CT-ND" H 6068 4768 60  0001 C CNN "DigikeyPN"
F 5 "0.1%" H 6300 4600 60  0000 C CNN "Precision"
	1    6050 4500
	0    1    1    0   
$EndComp
$Comp
L 1.3M-CD R1
U 1 1 55D7777F
P 3000 2450
F 0 "R1" H 3000 2646 60  0000 C CNN
F 1 "1.3M-CD" H 2900 2550 60  0000 C CNN
F 2 "Resistors:R0805" H 3000 2450 60  0001 C CNN
F 3 "" H 3100 2600 60  0000 C CNN
F 4 "A103798CT-ND" H 3018 2718 60  0001 C CNN "DigikeyPN"
F 5 "0.1%" H 3250 2550 60  0000 C CNN "Precision"
	1    3000 2450
	1    0    0    -1  
$EndComp
$Comp
L DMG1012T Q1
U 1 1 55D777D8
P 2600 2450
F 0 "Q1" H 2724 2504 60  0000 C CNN
F 1 "DMG1012T" H 2880 2394 60  0000 C CNN
F 2 "Discretes:SOT523" H 2350 2600 60  0001 C CNN
F 3 "" H 2350 2600 60  0000 C CNN
F 4 "DMG1012T-7DICT-ND" H 3100 2600 60  0001 C CNN "DigikeyPN"
	1    2600 2450
	-1   0    0    -1  
$EndComp
$Comp
L 5005K TP1
U 1 1 55D77A2B
P 700 1650
F 0 "TP1" H 850 1900 60  0000 C CNN
F 1 "Vref" H 550 1900 60  0000 C CNN
F 2 "" H 700 1650 60  0000 C CNN
F 3 "" H 700 1650 60  0000 C CNN
F 4 "5005K-ND" H 950 2000 60  0001 C CNN "DigikeyPN"
	1    700  1650
	1    0    0    -1  
$EndComp
Text Notes 750  1600 0    60   ~ 0
add resitor divider
$Comp
L 1.3M-CD R?
U 1 1 55D77E84
P 3650 1750
F 0 "R?" H 3650 1946 60  0000 C CNN
F 1 "1.3M-CD" H 3550 1850 60  0000 C CNN
F 2 "Resistors:R0805" H 3650 1750 60  0001 C CNN
F 3 "" H 3750 1900 60  0000 C CNN
F 4 "A103798CT-ND" H 3668 2018 60  0001 C CNN "DigikeyPN"
F 5 "0.1%" H 3900 1850 60  0000 C CNN "Precision"
	1    3650 1750
	-1   0    0    1   
$EndComp
$Comp
L 1.3M-CD R?
U 1 1 55D77EEF
P 4300 1750
F 0 "R?" H 4300 1946 60  0000 C CNN
F 1 "1.3M-CD" H 4200 1850 60  0000 C CNN
F 2 "Resistors:R0805" H 4300 1750 60  0001 C CNN
F 3 "" H 4400 1900 60  0000 C CNN
F 4 "A103798CT-ND" H 4318 2018 60  0001 C CNN "DigikeyPN"
F 5 "0.1%" H 4550 1850 60  0000 C CNN "Precision"
	1    4300 1750
	-1   0    0    1   
$EndComp
$Comp
L 5005K TP?
U 1 1 55D7BB6A
P 1050 1900
F 0 "TP?" H 1200 2150 60  0000 C CNN
F 1 "5005K" H 900 2150 60  0000 C CNN
F 2 "" H 1050 1900 60  0000 C CNN
F 3 "" H 1050 1900 60  0000 C CNN
F 4 "5005K-ND" H 1300 2250 60  0001 C CNN "DigikeyPN"
	1    1050 1900
	1    0    0    -1  
$EndComp
$Comp
L 5005K TP?
U 1 1 55D7BBCA
P 1400 2050
F 0 "TP?" H 1550 2300 60  0000 C CNN
F 1 "5005K" H 1250 2300 60  0000 C CNN
F 2 "" H 1400 2050 60  0000 C CNN
F 3 "" H 1400 2050 60  0000 C CNN
F 4 "5005K-ND" H 1650 2400 60  0001 C CNN "DigikeyPN"
	1    1400 2050
	1    0    0    -1  
$EndComp
$Comp
L 5005K TP?
U 1 1 55D7BC2E
P 1750 2200
F 0 "TP?" H 1900 2450 60  0000 C CNN
F 1 "5005K" H 1600 2450 60  0000 C CNN
F 2 "" H 1750 2200 60  0000 C CNN
F 3 "" H 1750 2200 60  0000 C CNN
F 4 "5005K-ND" H 2000 2550 60  0001 C CNN "DigikeyPN"
	1    1750 2200
	1    0    0    -1  
$EndComp
Text Label 1050 2050 0    60   ~ 0
Gnd
Text Label 700  1900 0    60   ~ 0
Vref
Text Label 1400 2200 0    60   ~ 0
VCC
Text Label 1750 2350 0    60   ~ 0
IDDQ
Text Label 3250 2200 0    60   ~ 0
GND
Text Label 3250 2700 0    60   ~ 0
VCC
Text Label 3250 1750 0    60   ~ 0
Vref
Text Label 4700 1750 0    60   ~ 0
Gnd
Text Label 4850 3350 0    60   ~ 0
VCC
Text Label 4850 3850 0    60   ~ 0
Gnd
Text Label 6050 4850 0    60   ~ 0
Gnd
Text Label 2600 3900 0    60   ~ 0
Gnd
$Comp
L 5005K TP?
U 1 1 55F32DDB
P 2050 2350
F 0 "TP?" H 2200 2600 60  0000 C CNN
F 1 "5005K" H 1900 2600 60  0000 C CNN
F 2 "" H 2050 2350 60  0000 C CNN
F 3 "" H 2050 2350 60  0000 C CNN
F 4 "5005K-ND" H 2300 2700 60  0001 C CNN "DigikeyPN"
	1    2050 2350
	1    0    0    -1  
$EndComp
Text Label 2050 2500 0    60   ~ 0
Out
Text Label 7200 3650 0    60   ~ 0
Out
$Comp
L 1u-BD C?
U 1 1 55F326A7
P 1300 5550
F 0 "C?" H 1460 5660 60  0000 C CNN
F 1 "1u-BD" H 1556 5570 60  0000 C CNN
F 2 "" H 1300 5552 60  0000 C CNN
F 3 "" H 1300 5552 60  0000 C CNN
F 4 "490-3897-1-ND" H 1616 5754 60  0001 C CNN "DigikeyPN"
F 5 "25V" H 1492 5486 60  0000 C CNN "MaxVoltage"
	1    1300 5550
	1    0    0    -1  
$EndComp
$Comp
L 10u-BD C?
U 1 1 55F32760
P 1750 5550
F 0 "C?" H 1910 5660 60  0000 C CNN
F 1 "10u-BD" H 2006 5570 60  0000 C CNN
F 2 "" H 1750 5552 60  0000 C CNN
F 3 "" H 1750 5552 60  0000 C CNN
F 4 "490-7200-1-ND" H 2066 5754 60  0001 C CNN "DigikeyPN"
F 5 "10V" H 1942 5486 60  0000 C CNN "MaxVoltage"
	1    1750 5550
	1    0    0    -1  
$EndComp
$Comp
L 1n-AC C?
U 1 1 55F327F3
P 2200 5550
F 0 "C?" H 2360 5660 60  0000 C CNN
F 1 "1n-AC" H 2456 5570 60  0000 C CNN
F 2 "" H 2200 5552 60  0000 C CNN
F 3 "" H 2200 5552 60  0000 C CNN
F 4 "490-1303-1-ND" H 2516 5754 60  0001 C CNN "DigikeyPN"
F 5 "50V" H 2392 5486 60  0000 C CNN "MaxVoltage"
	1    2200 5550
	1    0    0    -1  
$EndComp
$Comp
L 1u-BD C?
U 1 1 55F32AFA
P 2200 4650
F 0 "C?" H 2360 4760 60  0000 C CNN
F 1 "1u-BD" H 2456 4670 60  0000 C CNN
F 2 "" H 2200 4652 60  0000 C CNN
F 3 "" H 2200 4652 60  0000 C CNN
F 4 "490-3897-1-ND" H 2516 4854 60  0001 C CNN "DigikeyPN"
F 5 "25V" H 2392 4586 60  0000 C CNN "MaxVoltage"
	1    2200 4650
	-1   0    0    1   
$EndComp
$Comp
L 10u-BD C?
U 1 1 55F32B02
P 1750 4650
F 0 "C?" H 1910 4760 60  0000 C CNN
F 1 "10u-BD" H 2006 4670 60  0000 C CNN
F 2 "" H 1750 4652 60  0000 C CNN
F 3 "" H 1750 4652 60  0000 C CNN
F 4 "490-7200-1-ND" H 2066 4854 60  0001 C CNN "DigikeyPN"
F 5 "10V" H 1942 4586 60  0000 C CNN "MaxVoltage"
	1    1750 4650
	-1   0    0    1   
$EndComp
$Comp
L 1n-AC C?
U 1 1 55F32B0A
P 1300 4650
F 0 "C?" H 1460 4760 60  0000 C CNN
F 1 "1n-AC" H 1556 4670 60  0000 C CNN
F 2 "" H 1300 4652 60  0000 C CNN
F 3 "" H 1300 4652 60  0000 C CNN
F 4 "490-1303-1-ND" H 1616 4854 60  0001 C CNN "DigikeyPN"
F 5 "50V" H 1492 4586 60  0000 C CNN "MaxVoltage"
	1    1300 4650
	-1   0    0    1   
$EndComp
Text Label 850  4350 0    60   ~ 0
Gnd
Text Label 900  5750 0    60   ~ 0
Gnd
Text Label 900  4900 0    60   ~ 0
VCC
Text Label 900  5150 0    60   ~ 0
VCC
Text Label 2600 2100 0    60   ~ 0
VCC
$Comp
L 10u-BD C?
U 1 1 55F36AB4
P 4500 2500
F 0 "C?" H 4660 2610 60  0000 C CNN
F 1 "10u-BD" H 4756 2520 60  0000 C CNN
F 2 "" H 4500 2502 60  0000 C CNN
F 3 "" H 4500 2502 60  0000 C CNN
F 4 "490-7200-1-ND" H 4816 2704 60  0001 C CNN "DigikeyPN"
F 5 "10V" H 4692 2436 60  0000 C CNN "MaxVoltage"
	1    4500 2500
	0    1    1    0   
$EndComp
$Comp
L 10u-BD C?
U 1 1 55F36C89
P 6400 2500
F 0 "C?" H 6560 2610 60  0000 C CNN
F 1 "10u-BD" H 6656 2520 60  0000 C CNN
F 2 "" H 6400 2502 60  0000 C CNN
F 3 "" H 6400 2502 60  0000 C CNN
F 4 "490-7200-1-ND" H 6716 2704 60  0001 C CNN "DigikeyPN"
F 5 "10V" H 6592 2436 60  0000 C CNN "MaxVoltage"
	1    6400 2500
	0    1    1    0   
$EndComp
Connection ~ 4000 3550
Wire Wire Line
	4000 2500 4000 3550
Wire Wire Line
	4000 3000 4300 3000
Wire Wire Line
	2600 3550 4200 3550
Wire Wire Line
	2600 2650 2600 3900
Wire Wire Line
	700  1650 700  1900
Wire Wire Line
	4000 1750 4000 2400
Wire Wire Line
	3900 2500 4350 2500
Connection ~ 4000 3000
Connection ~ 2600 3550
Wire Wire Line
	4000 2400 3900 2400
Wire Wire Line
	3850 1750 4100 1750
Connection ~ 4000 1750
Wire Wire Line
	3250 2200 3350 2200
Wire Wire Line
	3250 2700 3350 2700
Wire Wire Line
	3250 1750 3450 1750
Wire Wire Line
	4700 1750 4500 1750
Wire Wire Line
	1050 2050 1050 1900
Wire Wire Line
	1400 2200 1400 2050
Wire Wire Line
	1750 2350 1750 2200
Wire Wire Line
	4900 3600 5200 3600
Wire Wire Line
	5600 3600 6150 3600
Wire Wire Line
	4700 3000 5000 3000
Wire Wire Line
	5000 2500 5000 3600
Connection ~ 5000 3600
Wire Wire Line
	4200 3650 4000 3650
Wire Wire Line
	4000 3650 4000 4150
Wire Wire Line
	4000 4150 5200 4150
Wire Wire Line
	4850 3850 4750 3850
Wire Wire Line
	4850 3350 4750 3350
Wire Wire Line
	6050 3700 6050 4300
Wire Wire Line
	6050 4150 5600 4150
Connection ~ 6050 4150
Wire Wire Line
	6050 4850 6050 4700
Wire Wire Line
	2600 2100 2600 2250
Wire Wire Line
	6950 2500 6950 3650
Wire Wire Line
	6950 3000 6600 3000
Wire Wire Line
	6200 3000 6050 3000
Wire Wire Line
	6050 2500 6050 3600
Connection ~ 6050 3600
Wire Wire Line
	2050 2350 2050 2500
Connection ~ 6950 3650
Wire Wire Line
	6750 3650 7200 3650
Wire Wire Line
	6150 3700 6050 3700
Wire Wire Line
	850  4350 2200 4350
Wire Wire Line
	1300 4350 1300 4500
Wire Wire Line
	1750 4350 1750 4500
Connection ~ 1300 4350
Wire Wire Line
	2200 4350 2200 4500
Connection ~ 1750 4350
Wire Wire Line
	2200 5150 2200 5400
Wire Wire Line
	2200 5150 900  5150
Wire Wire Line
	1750 5400 1750 5150
Connection ~ 1750 5150
Wire Wire Line
	1300 5400 1300 5150
Connection ~ 1300 5150
Wire Wire Line
	2200 5750 900  5750
Wire Wire Line
	2200 5750 2200 5700
Wire Wire Line
	1750 5700 1750 5750
Connection ~ 1750 5750
Wire Wire Line
	1300 5700 1300 5750
Connection ~ 1300 5750
Wire Wire Line
	2200 4800 2200 4900
Wire Wire Line
	1300 4800 1300 4900
Connection ~ 1300 4900
Wire Wire Line
	1750 4800 1750 4900
Connection ~ 1750 4900
Wire Wire Line
	2200 4900 900  4900
Connection ~ 4000 2500
Wire Wire Line
	4650 2500 5000 2500
Connection ~ 5000 3000
Wire Wire Line
	6250 2500 6050 2500
Connection ~ 6050 3000
Wire Wire Line
	6550 2500 6950 2500
Connection ~ 6950 3000
$EndSCHEMATC
