G04 #@! TF.GenerationSoftware,KiCad,Pcbnew,(2017-08-23 revision 57619956e)-makepkg*
G04 #@! TF.CreationDate,2018-06-29T13:43:24-04:00*
G04 #@! TF.ProjectId,PowerAmp,506F776572416D702E6B696361645F70,rev?*
G04 #@! TF.SameCoordinates,Original*
G04 #@! TF.FileFunction,Copper,L1,Top,Signal*
G04 #@! TF.FilePolarity,Positive*
%FSLAX46Y46*%
G04 Gerber Fmt 4.6, Leading zero omitted, Abs format (unit mm)*
G04 Created by KiCad (PCBNEW (2017-08-23 revision 57619956e)-makepkg) date 06/29/18 13:43:24*
%MOMM*%
%LPD*%
G01*
G04 APERTURE LIST*
%ADD10R,2.000000X2.000000*%
%ADD11C,3.100000*%
%ADD12C,6.000000*%
%ADD13C,8.000000*%
%ADD14C,4.064000*%
%ADD15C,10.400000*%
%ADD16C,3.733800*%
%ADD17C,2.000000*%
%ADD18C,3.000000*%
%ADD19C,0.600000*%
%ADD20C,0.254000*%
G04 APERTURE END LIST*
D10*
X107950000Y-106045000D03*
X107950000Y-103505000D03*
X107950000Y-100965000D03*
D11*
X152394395Y-96969217D03*
X151270095Y-101162360D03*
X147713348Y-103658447D03*
X143385854Y-103276609D03*
X140317011Y-100207766D03*
X139935173Y-95880272D03*
X142431260Y-92323525D03*
X146624403Y-91199225D03*
D12*
X135413225Y-108180395D03*
X156732495Y-86861125D03*
D13*
X146072860Y-97520760D03*
D14*
X190840360Y-77193140D03*
X101033580Y-77124560D03*
X101119940Y-123700540D03*
X190822580Y-123860560D03*
D15*
X147370800Y-66573400D03*
D16*
X165100000Y-78486000D03*
X165100000Y-116586000D03*
X127000000Y-116586000D03*
X127000000Y-78486000D03*
D17*
X113131600Y-111518700D03*
X115671600Y-111518700D03*
D18*
X108051600Y-116618700D03*
X118211600Y-116598700D03*
D17*
X178866800Y-111531400D03*
X181406800Y-111531400D03*
D18*
X173786800Y-116631400D03*
X183946800Y-116611400D03*
D15*
X108127800Y-66573400D03*
X185267600Y-66802000D03*
D19*
X146991665Y-112750000D03*
X145594999Y-112770000D03*
X144198333Y-112730000D03*
X147689998Y-113660000D03*
X146293332Y-113690000D03*
X144896666Y-113670000D03*
X143500000Y-113660000D03*
D20*
G36*
X194997000Y-127687000D02*
X97103000Y-127687000D01*
X97103000Y-124203561D01*
X98579500Y-124203561D01*
X98965377Y-125137455D01*
X99679267Y-125852592D01*
X100612486Y-126240099D01*
X101622961Y-126240980D01*
X102556855Y-125855103D01*
X103271992Y-125141213D01*
X103594893Y-124363581D01*
X188282140Y-124363581D01*
X188668017Y-125297475D01*
X189381907Y-126012612D01*
X190315126Y-126400119D01*
X191325601Y-126401000D01*
X192259495Y-126015123D01*
X192974632Y-125301233D01*
X193362139Y-124368014D01*
X193363020Y-123357539D01*
X192977143Y-122423645D01*
X192263253Y-121708508D01*
X191330034Y-121321001D01*
X190319559Y-121320120D01*
X189385665Y-121705997D01*
X188670528Y-122419887D01*
X188283021Y-123353106D01*
X188282140Y-124363581D01*
X103594893Y-124363581D01*
X103659499Y-124207994D01*
X103660380Y-123197519D01*
X103274503Y-122263625D01*
X102560613Y-121548488D01*
X101627394Y-121160981D01*
X100616919Y-121160100D01*
X99683025Y-121545977D01*
X98967888Y-122259867D01*
X98580381Y-123193086D01*
X98579500Y-124203561D01*
X97103000Y-124203561D01*
X97103000Y-117182079D01*
X123989579Y-117182079D01*
X124446843Y-118288744D01*
X125292803Y-119136181D01*
X126398667Y-119595376D01*
X127596079Y-119596421D01*
X128702744Y-119139157D01*
X129550181Y-118293197D01*
X130009376Y-117187333D01*
X130010421Y-115989921D01*
X129553157Y-114883256D01*
X128707197Y-114035819D01*
X127601333Y-113576624D01*
X126403921Y-113575579D01*
X125297256Y-114032843D01*
X124449819Y-114878803D01*
X123990624Y-115984667D01*
X123989579Y-117182079D01*
X97103000Y-117182079D01*
X97103000Y-111817344D01*
X111623339Y-111817344D01*
X111852435Y-112371797D01*
X112276272Y-112796374D01*
X112830324Y-113026437D01*
X113430244Y-113026961D01*
X113984697Y-112797865D01*
X114409274Y-112374028D01*
X114639337Y-111819976D01*
X114639861Y-111220056D01*
X114410765Y-110665603D01*
X113986928Y-110241026D01*
X113432876Y-110010963D01*
X112832956Y-110010439D01*
X112278503Y-110239535D01*
X111853926Y-110663372D01*
X111623863Y-111217424D01*
X111623339Y-111817344D01*
X97103000Y-111817344D01*
X97103000Y-108875118D01*
X131904617Y-108875118D01*
X132437553Y-110164921D01*
X133423508Y-111152599D01*
X134712379Y-111687785D01*
X136107948Y-111689003D01*
X137397751Y-111156067D01*
X138385429Y-110170112D01*
X138920615Y-108881241D01*
X138921806Y-107516475D01*
X139284985Y-107776375D01*
X139308471Y-107792211D01*
X139912991Y-108175751D01*
X139949683Y-108196938D01*
X140469085Y-108468625D01*
X141166900Y-109803286D01*
X142055716Y-117111332D01*
X142091649Y-117246751D01*
X142202593Y-117411005D01*
X142367950Y-117520299D01*
X142562544Y-117557994D01*
X148552544Y-117527994D01*
X148701776Y-117504797D01*
X148875747Y-117409812D01*
X149000125Y-117255481D01*
X149021681Y-117182079D01*
X162089579Y-117182079D01*
X162546843Y-118288744D01*
X163392803Y-119136181D01*
X164498667Y-119595376D01*
X165696079Y-119596421D01*
X166802744Y-119139157D01*
X167650181Y-118293197D01*
X168109376Y-117187333D01*
X168110421Y-115989921D01*
X167653157Y-114883256D01*
X166807197Y-114035819D01*
X165701333Y-113576624D01*
X164503921Y-113575579D01*
X163397256Y-114032843D01*
X162549819Y-114878803D01*
X162090624Y-115984667D01*
X162089579Y-117182079D01*
X149021681Y-117182079D01*
X149055976Y-117065301D01*
X149524697Y-111830044D01*
X177358539Y-111830044D01*
X177587635Y-112384497D01*
X178011472Y-112809074D01*
X178565524Y-113039137D01*
X179165444Y-113039661D01*
X179719897Y-112810565D01*
X180144474Y-112386728D01*
X180374537Y-111832676D01*
X180375061Y-111232756D01*
X180145965Y-110678303D01*
X179722128Y-110253726D01*
X179168076Y-110023663D01*
X178568156Y-110023139D01*
X178013703Y-110252235D01*
X177589126Y-110676072D01*
X177359063Y-111230124D01*
X177358539Y-111830044D01*
X149524697Y-111830044D01*
X149699771Y-109874602D01*
X150050396Y-108947394D01*
X150594501Y-108703979D01*
X151491278Y-108405053D01*
X152112548Y-108224446D01*
X152246075Y-108163553D01*
X153376375Y-107434573D01*
X153431798Y-107393229D01*
X154468118Y-106504229D01*
X154494970Y-106479463D01*
X155069010Y-105910503D01*
X155101026Y-105875669D01*
X155855406Y-104973969D01*
X155880988Y-104940688D01*
X156317868Y-104320928D01*
X156330750Y-104301742D01*
X156681270Y-103753102D01*
X156701531Y-103718441D01*
X157135871Y-102903101D01*
X157155290Y-102862388D01*
X157584550Y-101848928D01*
X157596183Y-101818838D01*
X157768903Y-101326078D01*
X157778386Y-101296078D01*
X157900306Y-100864278D01*
X157904159Y-100849821D01*
X158102279Y-100059881D01*
X158112055Y-100010747D01*
X158233975Y-99187787D01*
X158236547Y-99167663D01*
X158355927Y-98057683D01*
X158358827Y-98007015D01*
X158363907Y-97300895D01*
X158362024Y-97253394D01*
X158273124Y-96227234D01*
X158270662Y-96204683D01*
X158166522Y-95414743D01*
X158158602Y-95370129D01*
X158011282Y-94712269D01*
X158008291Y-94699668D01*
X157825411Y-93970688D01*
X157808335Y-93915929D01*
X157572115Y-93286009D01*
X157571276Y-93283788D01*
X157345216Y-92689428D01*
X157329205Y-92651933D01*
X157059965Y-92085513D01*
X157052466Y-92070389D01*
X156778146Y-91539529D01*
X156762446Y-91511376D01*
X156533846Y-91130376D01*
X156526012Y-91117742D01*
X156277092Y-90729122D01*
X156264548Y-90710460D01*
X156020183Y-90363754D01*
X156031649Y-90368515D01*
X157427218Y-90369733D01*
X158717021Y-89836797D01*
X159704699Y-88850842D01*
X160239885Y-87561971D01*
X160241103Y-86166402D01*
X159708167Y-84876599D01*
X158722212Y-83888921D01*
X157433341Y-83353735D01*
X156037772Y-83352517D01*
X154747969Y-83885453D01*
X153760291Y-84871408D01*
X153225105Y-86160279D01*
X153223887Y-87555848D01*
X153239371Y-87593321D01*
X153201049Y-87564061D01*
X153172077Y-87543502D01*
X152465957Y-87078682D01*
X152441630Y-87063632D01*
X151872670Y-86733432D01*
X151836937Y-86714553D01*
X151306077Y-86460553D01*
X151295846Y-86455797D01*
X150772606Y-86219577D01*
X150753401Y-86211377D01*
X150217461Y-85995477D01*
X150170729Y-85979248D01*
X149106469Y-85666828D01*
X149070922Y-85657774D01*
X148367342Y-85505374D01*
X148338002Y-85499915D01*
X147636962Y-85390695D01*
X147614679Y-85387727D01*
X146834899Y-85301367D01*
X146790479Y-85298410D01*
X146117379Y-85283170D01*
X146089501Y-85283304D01*
X145302101Y-85308704D01*
X145263323Y-85311443D01*
X144216843Y-85425743D01*
X144169534Y-85433181D01*
X142800474Y-85715121D01*
X142737276Y-85732451D01*
X141500296Y-86159171D01*
X141457652Y-86176073D01*
X140525472Y-86595173D01*
X140482473Y-86617015D01*
X139656973Y-87086915D01*
X139629715Y-87103588D01*
X139009955Y-87509988D01*
X138971399Y-87537940D01*
X137871579Y-88416780D01*
X137834065Y-88449912D01*
X137326065Y-88945212D01*
X137303564Y-88968598D01*
X136833664Y-89489298D01*
X136829588Y-89493870D01*
X136491768Y-89877410D01*
X136465055Y-89910423D01*
X135982455Y-90560663D01*
X135961735Y-90590789D01*
X135522315Y-91281669D01*
X135505605Y-91309917D01*
X135119525Y-92013497D01*
X135103838Y-92044562D01*
X134788878Y-92725282D01*
X134775354Y-92757352D01*
X134442614Y-93628572D01*
X134427848Y-93673372D01*
X134281895Y-94196789D01*
X134151282Y-94631329D01*
X134142789Y-94663331D01*
X134005629Y-95257691D01*
X133997633Y-95300728D01*
X133880793Y-96126228D01*
X133877382Y-96157102D01*
X133813882Y-96954662D01*
X133812400Y-96983939D01*
X133799700Y-97568139D01*
X133799887Y-97596839D01*
X133830367Y-98473139D01*
X133833356Y-98513258D01*
X133919716Y-99267638D01*
X133923268Y-99292990D01*
X134012168Y-99828930D01*
X134019692Y-99865779D01*
X134286392Y-100963059D01*
X134298089Y-101003724D01*
X134513989Y-101651424D01*
X134522849Y-101675895D01*
X134820029Y-102435355D01*
X134834878Y-102469549D01*
X135289538Y-103419509D01*
X135310610Y-103458973D01*
X135572230Y-103900933D01*
X135592656Y-103932686D01*
X136108779Y-104673000D01*
X134718502Y-104671787D01*
X133428699Y-105204723D01*
X132441021Y-106190678D01*
X131905835Y-107479549D01*
X131904617Y-108875118D01*
X97103000Y-108875118D01*
X97103000Y-99965000D01*
X106432048Y-99965000D01*
X106432048Y-101965000D01*
X106471475Y-102163212D01*
X106519442Y-102235000D01*
X106471475Y-102306788D01*
X106432048Y-102505000D01*
X106432048Y-104505000D01*
X106471475Y-104703212D01*
X106519442Y-104775000D01*
X106471475Y-104846788D01*
X106432048Y-105045000D01*
X106432048Y-107045000D01*
X106471475Y-107243212D01*
X106583753Y-107411247D01*
X106751788Y-107523525D01*
X106950000Y-107562952D01*
X108950000Y-107562952D01*
X109148212Y-107523525D01*
X109316247Y-107411247D01*
X109428525Y-107243212D01*
X109467952Y-107045000D01*
X109467952Y-105045000D01*
X109428525Y-104846788D01*
X109380558Y-104775000D01*
X109428525Y-104703212D01*
X109467952Y-104505000D01*
X109467952Y-102505000D01*
X109428525Y-102306788D01*
X109380558Y-102235000D01*
X109428525Y-102163212D01*
X109467952Y-101965000D01*
X109467952Y-99965000D01*
X109428525Y-99766788D01*
X109316247Y-99598753D01*
X109148212Y-99486475D01*
X108950000Y-99447048D01*
X106950000Y-99447048D01*
X106751788Y-99486475D01*
X106583753Y-99598753D01*
X106471475Y-99766788D01*
X106432048Y-99965000D01*
X97103000Y-99965000D01*
X97103000Y-77627581D01*
X98493140Y-77627581D01*
X98879017Y-78561475D01*
X99592907Y-79276612D01*
X100526126Y-79664119D01*
X101536601Y-79665000D01*
X102470495Y-79279123D01*
X102667883Y-79082079D01*
X123989579Y-79082079D01*
X124446843Y-80188744D01*
X125292803Y-81036181D01*
X126398667Y-81495376D01*
X127596079Y-81496421D01*
X128702744Y-81039157D01*
X129550181Y-80193197D01*
X130009376Y-79087333D01*
X130009380Y-79082079D01*
X162089579Y-79082079D01*
X162546843Y-80188744D01*
X163392803Y-81036181D01*
X164498667Y-81495376D01*
X165696079Y-81496421D01*
X166802744Y-81039157D01*
X167650181Y-80193197D01*
X168109376Y-79087333D01*
X168110421Y-77889921D01*
X168030362Y-77696161D01*
X188299920Y-77696161D01*
X188685797Y-78630055D01*
X189399687Y-79345192D01*
X190332906Y-79732699D01*
X191343381Y-79733580D01*
X192277275Y-79347703D01*
X192992412Y-78633813D01*
X193379919Y-77700594D01*
X193380800Y-76690119D01*
X192994923Y-75756225D01*
X192281033Y-75041088D01*
X191347814Y-74653581D01*
X190337339Y-74652700D01*
X189403445Y-75038577D01*
X188688308Y-75752467D01*
X188300801Y-76685686D01*
X188299920Y-77696161D01*
X168030362Y-77696161D01*
X167653157Y-76783256D01*
X166807197Y-75935819D01*
X165701333Y-75476624D01*
X164503921Y-75475579D01*
X163397256Y-75932843D01*
X162549819Y-76778803D01*
X162090624Y-77884667D01*
X162089579Y-79082079D01*
X130009380Y-79082079D01*
X130010421Y-77889921D01*
X129553157Y-76783256D01*
X128707197Y-75935819D01*
X127601333Y-75476624D01*
X126403921Y-75475579D01*
X125297256Y-75932843D01*
X124449819Y-76778803D01*
X123990624Y-77884667D01*
X123989579Y-79082079D01*
X102667883Y-79082079D01*
X103185632Y-78565233D01*
X103573139Y-77632014D01*
X103574020Y-76621539D01*
X103188143Y-75687645D01*
X102474253Y-74972508D01*
X101541034Y-74585001D01*
X100530559Y-74584120D01*
X99596665Y-74969997D01*
X98881528Y-75683887D01*
X98494021Y-76617106D01*
X98493140Y-77627581D01*
X97103000Y-77627581D01*
X97103000Y-67703810D01*
X102418812Y-67703810D01*
X103285972Y-69802498D01*
X104890256Y-71409585D01*
X106987428Y-72280407D01*
X109258210Y-72282388D01*
X111356898Y-71415228D01*
X112963985Y-69810944D01*
X113744020Y-67932410D01*
X179558612Y-67932410D01*
X180425772Y-70031098D01*
X182030056Y-71638185D01*
X184127228Y-72509007D01*
X186398010Y-72510988D01*
X188496698Y-71643828D01*
X190103785Y-70039544D01*
X190974607Y-67942372D01*
X190976588Y-65671590D01*
X190109428Y-63572902D01*
X188505144Y-61965815D01*
X186407972Y-61094993D01*
X184137190Y-61093012D01*
X182038502Y-61960172D01*
X180431415Y-63564456D01*
X179560593Y-65661628D01*
X179558612Y-67932410D01*
X113744020Y-67932410D01*
X113834807Y-67713772D01*
X113836788Y-65442990D01*
X112969628Y-63344302D01*
X111365344Y-61737215D01*
X109268172Y-60866393D01*
X106997390Y-60864412D01*
X104898702Y-61731572D01*
X103291615Y-63335856D01*
X102420793Y-65433028D01*
X102418812Y-67703810D01*
X97103000Y-67703810D01*
X97103000Y-57733000D01*
X194997000Y-57733000D01*
X194997000Y-127687000D01*
X194997000Y-127687000D01*
G37*
X194997000Y-127687000D02*
X97103000Y-127687000D01*
X97103000Y-124203561D01*
X98579500Y-124203561D01*
X98965377Y-125137455D01*
X99679267Y-125852592D01*
X100612486Y-126240099D01*
X101622961Y-126240980D01*
X102556855Y-125855103D01*
X103271992Y-125141213D01*
X103594893Y-124363581D01*
X188282140Y-124363581D01*
X188668017Y-125297475D01*
X189381907Y-126012612D01*
X190315126Y-126400119D01*
X191325601Y-126401000D01*
X192259495Y-126015123D01*
X192974632Y-125301233D01*
X193362139Y-124368014D01*
X193363020Y-123357539D01*
X192977143Y-122423645D01*
X192263253Y-121708508D01*
X191330034Y-121321001D01*
X190319559Y-121320120D01*
X189385665Y-121705997D01*
X188670528Y-122419887D01*
X188283021Y-123353106D01*
X188282140Y-124363581D01*
X103594893Y-124363581D01*
X103659499Y-124207994D01*
X103660380Y-123197519D01*
X103274503Y-122263625D01*
X102560613Y-121548488D01*
X101627394Y-121160981D01*
X100616919Y-121160100D01*
X99683025Y-121545977D01*
X98967888Y-122259867D01*
X98580381Y-123193086D01*
X98579500Y-124203561D01*
X97103000Y-124203561D01*
X97103000Y-117182079D01*
X123989579Y-117182079D01*
X124446843Y-118288744D01*
X125292803Y-119136181D01*
X126398667Y-119595376D01*
X127596079Y-119596421D01*
X128702744Y-119139157D01*
X129550181Y-118293197D01*
X130009376Y-117187333D01*
X130010421Y-115989921D01*
X129553157Y-114883256D01*
X128707197Y-114035819D01*
X127601333Y-113576624D01*
X126403921Y-113575579D01*
X125297256Y-114032843D01*
X124449819Y-114878803D01*
X123990624Y-115984667D01*
X123989579Y-117182079D01*
X97103000Y-117182079D01*
X97103000Y-111817344D01*
X111623339Y-111817344D01*
X111852435Y-112371797D01*
X112276272Y-112796374D01*
X112830324Y-113026437D01*
X113430244Y-113026961D01*
X113984697Y-112797865D01*
X114409274Y-112374028D01*
X114639337Y-111819976D01*
X114639861Y-111220056D01*
X114410765Y-110665603D01*
X113986928Y-110241026D01*
X113432876Y-110010963D01*
X112832956Y-110010439D01*
X112278503Y-110239535D01*
X111853926Y-110663372D01*
X111623863Y-111217424D01*
X111623339Y-111817344D01*
X97103000Y-111817344D01*
X97103000Y-108875118D01*
X131904617Y-108875118D01*
X132437553Y-110164921D01*
X133423508Y-111152599D01*
X134712379Y-111687785D01*
X136107948Y-111689003D01*
X137397751Y-111156067D01*
X138385429Y-110170112D01*
X138920615Y-108881241D01*
X138921806Y-107516475D01*
X139284985Y-107776375D01*
X139308471Y-107792211D01*
X139912991Y-108175751D01*
X139949683Y-108196938D01*
X140469085Y-108468625D01*
X141166900Y-109803286D01*
X142055716Y-117111332D01*
X142091649Y-117246751D01*
X142202593Y-117411005D01*
X142367950Y-117520299D01*
X142562544Y-117557994D01*
X148552544Y-117527994D01*
X148701776Y-117504797D01*
X148875747Y-117409812D01*
X149000125Y-117255481D01*
X149021681Y-117182079D01*
X162089579Y-117182079D01*
X162546843Y-118288744D01*
X163392803Y-119136181D01*
X164498667Y-119595376D01*
X165696079Y-119596421D01*
X166802744Y-119139157D01*
X167650181Y-118293197D01*
X168109376Y-117187333D01*
X168110421Y-115989921D01*
X167653157Y-114883256D01*
X166807197Y-114035819D01*
X165701333Y-113576624D01*
X164503921Y-113575579D01*
X163397256Y-114032843D01*
X162549819Y-114878803D01*
X162090624Y-115984667D01*
X162089579Y-117182079D01*
X149021681Y-117182079D01*
X149055976Y-117065301D01*
X149524697Y-111830044D01*
X177358539Y-111830044D01*
X177587635Y-112384497D01*
X178011472Y-112809074D01*
X178565524Y-113039137D01*
X179165444Y-113039661D01*
X179719897Y-112810565D01*
X180144474Y-112386728D01*
X180374537Y-111832676D01*
X180375061Y-111232756D01*
X180145965Y-110678303D01*
X179722128Y-110253726D01*
X179168076Y-110023663D01*
X178568156Y-110023139D01*
X178013703Y-110252235D01*
X177589126Y-110676072D01*
X177359063Y-111230124D01*
X177358539Y-111830044D01*
X149524697Y-111830044D01*
X149699771Y-109874602D01*
X150050396Y-108947394D01*
X150594501Y-108703979D01*
X151491278Y-108405053D01*
X152112548Y-108224446D01*
X152246075Y-108163553D01*
X153376375Y-107434573D01*
X153431798Y-107393229D01*
X154468118Y-106504229D01*
X154494970Y-106479463D01*
X155069010Y-105910503D01*
X155101026Y-105875669D01*
X155855406Y-104973969D01*
X155880988Y-104940688D01*
X156317868Y-104320928D01*
X156330750Y-104301742D01*
X156681270Y-103753102D01*
X156701531Y-103718441D01*
X157135871Y-102903101D01*
X157155290Y-102862388D01*
X157584550Y-101848928D01*
X157596183Y-101818838D01*
X157768903Y-101326078D01*
X157778386Y-101296078D01*
X157900306Y-100864278D01*
X157904159Y-100849821D01*
X158102279Y-100059881D01*
X158112055Y-100010747D01*
X158233975Y-99187787D01*
X158236547Y-99167663D01*
X158355927Y-98057683D01*
X158358827Y-98007015D01*
X158363907Y-97300895D01*
X158362024Y-97253394D01*
X158273124Y-96227234D01*
X158270662Y-96204683D01*
X158166522Y-95414743D01*
X158158602Y-95370129D01*
X158011282Y-94712269D01*
X158008291Y-94699668D01*
X157825411Y-93970688D01*
X157808335Y-93915929D01*
X157572115Y-93286009D01*
X157571276Y-93283788D01*
X157345216Y-92689428D01*
X157329205Y-92651933D01*
X157059965Y-92085513D01*
X157052466Y-92070389D01*
X156778146Y-91539529D01*
X156762446Y-91511376D01*
X156533846Y-91130376D01*
X156526012Y-91117742D01*
X156277092Y-90729122D01*
X156264548Y-90710460D01*
X156020183Y-90363754D01*
X156031649Y-90368515D01*
X157427218Y-90369733D01*
X158717021Y-89836797D01*
X159704699Y-88850842D01*
X160239885Y-87561971D01*
X160241103Y-86166402D01*
X159708167Y-84876599D01*
X158722212Y-83888921D01*
X157433341Y-83353735D01*
X156037772Y-83352517D01*
X154747969Y-83885453D01*
X153760291Y-84871408D01*
X153225105Y-86160279D01*
X153223887Y-87555848D01*
X153239371Y-87593321D01*
X153201049Y-87564061D01*
X153172077Y-87543502D01*
X152465957Y-87078682D01*
X152441630Y-87063632D01*
X151872670Y-86733432D01*
X151836937Y-86714553D01*
X151306077Y-86460553D01*
X151295846Y-86455797D01*
X150772606Y-86219577D01*
X150753401Y-86211377D01*
X150217461Y-85995477D01*
X150170729Y-85979248D01*
X149106469Y-85666828D01*
X149070922Y-85657774D01*
X148367342Y-85505374D01*
X148338002Y-85499915D01*
X147636962Y-85390695D01*
X147614679Y-85387727D01*
X146834899Y-85301367D01*
X146790479Y-85298410D01*
X146117379Y-85283170D01*
X146089501Y-85283304D01*
X145302101Y-85308704D01*
X145263323Y-85311443D01*
X144216843Y-85425743D01*
X144169534Y-85433181D01*
X142800474Y-85715121D01*
X142737276Y-85732451D01*
X141500296Y-86159171D01*
X141457652Y-86176073D01*
X140525472Y-86595173D01*
X140482473Y-86617015D01*
X139656973Y-87086915D01*
X139629715Y-87103588D01*
X139009955Y-87509988D01*
X138971399Y-87537940D01*
X137871579Y-88416780D01*
X137834065Y-88449912D01*
X137326065Y-88945212D01*
X137303564Y-88968598D01*
X136833664Y-89489298D01*
X136829588Y-89493870D01*
X136491768Y-89877410D01*
X136465055Y-89910423D01*
X135982455Y-90560663D01*
X135961735Y-90590789D01*
X135522315Y-91281669D01*
X135505605Y-91309917D01*
X135119525Y-92013497D01*
X135103838Y-92044562D01*
X134788878Y-92725282D01*
X134775354Y-92757352D01*
X134442614Y-93628572D01*
X134427848Y-93673372D01*
X134281895Y-94196789D01*
X134151282Y-94631329D01*
X134142789Y-94663331D01*
X134005629Y-95257691D01*
X133997633Y-95300728D01*
X133880793Y-96126228D01*
X133877382Y-96157102D01*
X133813882Y-96954662D01*
X133812400Y-96983939D01*
X133799700Y-97568139D01*
X133799887Y-97596839D01*
X133830367Y-98473139D01*
X133833356Y-98513258D01*
X133919716Y-99267638D01*
X133923268Y-99292990D01*
X134012168Y-99828930D01*
X134019692Y-99865779D01*
X134286392Y-100963059D01*
X134298089Y-101003724D01*
X134513989Y-101651424D01*
X134522849Y-101675895D01*
X134820029Y-102435355D01*
X134834878Y-102469549D01*
X135289538Y-103419509D01*
X135310610Y-103458973D01*
X135572230Y-103900933D01*
X135592656Y-103932686D01*
X136108779Y-104673000D01*
X134718502Y-104671787D01*
X133428699Y-105204723D01*
X132441021Y-106190678D01*
X131905835Y-107479549D01*
X131904617Y-108875118D01*
X97103000Y-108875118D01*
X97103000Y-99965000D01*
X106432048Y-99965000D01*
X106432048Y-101965000D01*
X106471475Y-102163212D01*
X106519442Y-102235000D01*
X106471475Y-102306788D01*
X106432048Y-102505000D01*
X106432048Y-104505000D01*
X106471475Y-104703212D01*
X106519442Y-104775000D01*
X106471475Y-104846788D01*
X106432048Y-105045000D01*
X106432048Y-107045000D01*
X106471475Y-107243212D01*
X106583753Y-107411247D01*
X106751788Y-107523525D01*
X106950000Y-107562952D01*
X108950000Y-107562952D01*
X109148212Y-107523525D01*
X109316247Y-107411247D01*
X109428525Y-107243212D01*
X109467952Y-107045000D01*
X109467952Y-105045000D01*
X109428525Y-104846788D01*
X109380558Y-104775000D01*
X109428525Y-104703212D01*
X109467952Y-104505000D01*
X109467952Y-102505000D01*
X109428525Y-102306788D01*
X109380558Y-102235000D01*
X109428525Y-102163212D01*
X109467952Y-101965000D01*
X109467952Y-99965000D01*
X109428525Y-99766788D01*
X109316247Y-99598753D01*
X109148212Y-99486475D01*
X108950000Y-99447048D01*
X106950000Y-99447048D01*
X106751788Y-99486475D01*
X106583753Y-99598753D01*
X106471475Y-99766788D01*
X106432048Y-99965000D01*
X97103000Y-99965000D01*
X97103000Y-77627581D01*
X98493140Y-77627581D01*
X98879017Y-78561475D01*
X99592907Y-79276612D01*
X100526126Y-79664119D01*
X101536601Y-79665000D01*
X102470495Y-79279123D01*
X102667883Y-79082079D01*
X123989579Y-79082079D01*
X124446843Y-80188744D01*
X125292803Y-81036181D01*
X126398667Y-81495376D01*
X127596079Y-81496421D01*
X128702744Y-81039157D01*
X129550181Y-80193197D01*
X130009376Y-79087333D01*
X130009380Y-79082079D01*
X162089579Y-79082079D01*
X162546843Y-80188744D01*
X163392803Y-81036181D01*
X164498667Y-81495376D01*
X165696079Y-81496421D01*
X166802744Y-81039157D01*
X167650181Y-80193197D01*
X168109376Y-79087333D01*
X168110421Y-77889921D01*
X168030362Y-77696161D01*
X188299920Y-77696161D01*
X188685797Y-78630055D01*
X189399687Y-79345192D01*
X190332906Y-79732699D01*
X191343381Y-79733580D01*
X192277275Y-79347703D01*
X192992412Y-78633813D01*
X193379919Y-77700594D01*
X193380800Y-76690119D01*
X192994923Y-75756225D01*
X192281033Y-75041088D01*
X191347814Y-74653581D01*
X190337339Y-74652700D01*
X189403445Y-75038577D01*
X188688308Y-75752467D01*
X188300801Y-76685686D01*
X188299920Y-77696161D01*
X168030362Y-77696161D01*
X167653157Y-76783256D01*
X166807197Y-75935819D01*
X165701333Y-75476624D01*
X164503921Y-75475579D01*
X163397256Y-75932843D01*
X162549819Y-76778803D01*
X162090624Y-77884667D01*
X162089579Y-79082079D01*
X130009380Y-79082079D01*
X130010421Y-77889921D01*
X129553157Y-76783256D01*
X128707197Y-75935819D01*
X127601333Y-75476624D01*
X126403921Y-75475579D01*
X125297256Y-75932843D01*
X124449819Y-76778803D01*
X123990624Y-77884667D01*
X123989579Y-79082079D01*
X102667883Y-79082079D01*
X103185632Y-78565233D01*
X103573139Y-77632014D01*
X103574020Y-76621539D01*
X103188143Y-75687645D01*
X102474253Y-74972508D01*
X101541034Y-74585001D01*
X100530559Y-74584120D01*
X99596665Y-74969997D01*
X98881528Y-75683887D01*
X98494021Y-76617106D01*
X98493140Y-77627581D01*
X97103000Y-77627581D01*
X97103000Y-67703810D01*
X102418812Y-67703810D01*
X103285972Y-69802498D01*
X104890256Y-71409585D01*
X106987428Y-72280407D01*
X109258210Y-72282388D01*
X111356898Y-71415228D01*
X112963985Y-69810944D01*
X113744020Y-67932410D01*
X179558612Y-67932410D01*
X180425772Y-70031098D01*
X182030056Y-71638185D01*
X184127228Y-72509007D01*
X186398010Y-72510988D01*
X188496698Y-71643828D01*
X190103785Y-70039544D01*
X190974607Y-67942372D01*
X190976588Y-65671590D01*
X190109428Y-63572902D01*
X188505144Y-61965815D01*
X186407972Y-61094993D01*
X184137190Y-61093012D01*
X182038502Y-61960172D01*
X180431415Y-63564456D01*
X179560593Y-65661628D01*
X179558612Y-67932410D01*
X113744020Y-67932410D01*
X113834807Y-67713772D01*
X113836788Y-65442990D01*
X112969628Y-63344302D01*
X111365344Y-61737215D01*
X109268172Y-60866393D01*
X106997390Y-60864412D01*
X104898702Y-61731572D01*
X103291615Y-63335856D01*
X102420793Y-65433028D01*
X102418812Y-67703810D01*
X97103000Y-67703810D01*
X97103000Y-57733000D01*
X194997000Y-57733000D01*
X194997000Y-127687000D01*
G36*
X146770534Y-85933121D02*
X147541988Y-86018559D01*
X148236549Y-86126769D01*
X148932017Y-86277412D01*
X149985926Y-86586794D01*
X150513709Y-86799408D01*
X151033271Y-87033967D01*
X151558303Y-87285179D01*
X152119799Y-87611047D01*
X152819223Y-88071459D01*
X153329217Y-88460863D01*
X153738377Y-88801008D01*
X153756823Y-88845651D01*
X154742778Y-89833329D01*
X154799459Y-89856865D01*
X154987422Y-90066242D01*
X155450172Y-90657254D01*
X155743898Y-91073994D01*
X155990282Y-91458655D01*
X156215869Y-91834632D01*
X156487364Y-92360025D01*
X156753509Y-92919935D01*
X156977622Y-93509177D01*
X157211245Y-94132170D01*
X157391980Y-94852601D01*
X157537710Y-95503361D01*
X157640740Y-96284879D01*
X157728880Y-97302271D01*
X157723889Y-97996095D01*
X157605459Y-99097238D01*
X157484830Y-99911486D01*
X157288686Y-100693548D01*
X157168351Y-101119732D01*
X156998263Y-101604984D01*
X156572777Y-102609534D01*
X156143450Y-103415464D01*
X155797201Y-103957419D01*
X155365000Y-104570540D01*
X154617799Y-105463659D01*
X154051193Y-106025251D01*
X153024928Y-106905626D01*
X151917485Y-107619864D01*
X151304548Y-107798049D01*
X151299839Y-107799517D01*
X150369839Y-108109517D01*
X150358138Y-108114072D01*
X149598138Y-108454072D01*
X149557722Y-108482743D01*
X149531210Y-108525079D01*
X149081210Y-109715079D01*
X149073506Y-109748675D01*
X148433811Y-116893581D01*
X142672421Y-116922436D01*
X141786071Y-109634667D01*
X141772545Y-109591157D01*
X140958085Y-108033397D01*
X140927000Y-107994807D01*
X140904404Y-107979706D01*
X140248707Y-107636726D01*
X139651653Y-107257923D01*
X138846559Y-106681778D01*
X138446106Y-106334326D01*
X138388897Y-106195869D01*
X137402942Y-105208191D01*
X137263098Y-105150123D01*
X136923728Y-104731611D01*
X136116261Y-103573401D01*
X135859895Y-103140316D01*
X135409673Y-102199630D01*
X135115374Y-101447531D01*
X134902176Y-100807938D01*
X134637838Y-99720376D01*
X134550232Y-99192238D01*
X134464808Y-98446032D01*
X134434628Y-97578356D01*
X134447170Y-97001399D01*
X134503982Y-96287838D01*
X137876816Y-96287838D01*
X138189468Y-97044513D01*
X138767887Y-97623943D01*
X139524015Y-97937914D01*
X140342739Y-97938629D01*
X141099414Y-97625977D01*
X141565172Y-97161032D01*
X141564079Y-98413523D01*
X141656077Y-98636175D01*
X141484297Y-98464095D01*
X140728169Y-98150124D01*
X139909445Y-98149409D01*
X139152770Y-98462061D01*
X138573340Y-99040480D01*
X138259369Y-99796608D01*
X138258654Y-100615332D01*
X138571306Y-101372007D01*
X139149725Y-101951437D01*
X139905853Y-102265408D01*
X140724577Y-102266123D01*
X141481252Y-101953471D01*
X142060682Y-101375052D01*
X142374653Y-100618924D01*
X142375021Y-100197307D01*
X143394549Y-101218616D01*
X142978288Y-101218252D01*
X142221613Y-101530904D01*
X141642183Y-102109323D01*
X141328212Y-102865451D01*
X141327497Y-103684175D01*
X141640149Y-104440850D01*
X142218568Y-105020280D01*
X142974696Y-105334251D01*
X143793420Y-105334966D01*
X144550095Y-105022314D01*
X145129525Y-104443895D01*
X145443496Y-103687767D01*
X145444211Y-102869043D01*
X145131559Y-102112368D01*
X144958877Y-101939385D01*
X145172229Y-102027976D01*
X146432570Y-102029076D01*
X145969677Y-102491161D01*
X145655706Y-103247289D01*
X145654991Y-104066013D01*
X145967643Y-104822688D01*
X146546062Y-105402118D01*
X147302190Y-105716089D01*
X148120914Y-105716804D01*
X148877589Y-105404152D01*
X149457019Y-104825733D01*
X149770990Y-104069605D01*
X149771705Y-103250881D01*
X149459053Y-102494206D01*
X148880634Y-101914776D01*
X148124506Y-101600805D01*
X148003499Y-101600699D01*
X148623101Y-101344685D01*
X149212448Y-100756365D01*
X149211738Y-101569926D01*
X149524390Y-102326601D01*
X150102809Y-102906031D01*
X150858937Y-103220002D01*
X151677661Y-103220717D01*
X152434336Y-102908065D01*
X153013766Y-102329646D01*
X153327737Y-101573518D01*
X153328452Y-100754794D01*
X153015800Y-99998119D01*
X152437381Y-99418689D01*
X151681253Y-99104718D01*
X150862529Y-99104003D01*
X150179430Y-99386254D01*
X150580076Y-98421391D01*
X150580471Y-97968356D01*
X150648690Y-98133458D01*
X151227109Y-98712888D01*
X151983237Y-99026859D01*
X152801961Y-99027574D01*
X153558636Y-98714922D01*
X154138066Y-98136503D01*
X154452037Y-97380375D01*
X154452752Y-96561651D01*
X154140100Y-95804976D01*
X153561681Y-95225546D01*
X152805553Y-94911575D01*
X151986829Y-94910860D01*
X151230154Y-95223512D01*
X150650724Y-95801931D01*
X150445015Y-96297336D01*
X149896785Y-94970519D01*
X148629771Y-93701292D01*
X146973491Y-93013544D01*
X145180097Y-93011979D01*
X144206762Y-93414153D01*
X144488902Y-92734683D01*
X144489617Y-91915959D01*
X144176965Y-91159284D01*
X143598546Y-90579854D01*
X142842418Y-90265883D01*
X142023694Y-90265168D01*
X141267019Y-90577820D01*
X140687589Y-91156239D01*
X140373618Y-91912367D01*
X140372903Y-92731091D01*
X140685555Y-93487766D01*
X141263974Y-94067196D01*
X142020102Y-94381167D01*
X142836378Y-94381880D01*
X142253392Y-94963849D01*
X141993428Y-95589912D01*
X141993530Y-95472706D01*
X141680878Y-94716031D01*
X141102459Y-94136601D01*
X140346331Y-93822630D01*
X139527607Y-93821915D01*
X138770932Y-94134567D01*
X138191502Y-94712986D01*
X137877531Y-95469114D01*
X137876816Y-96287838D01*
X134503982Y-96287838D01*
X134510070Y-96211382D01*
X134625600Y-95395140D01*
X134760596Y-94810156D01*
X134891485Y-94374698D01*
X134892193Y-94372252D01*
X135037926Y-93849622D01*
X135367014Y-92987965D01*
X135678306Y-92315172D01*
X136060327Y-91618989D01*
X136495088Y-90935435D01*
X136971795Y-90293134D01*
X137305595Y-89914159D01*
X137772260Y-89397044D01*
X138272877Y-88908942D01*
X139363144Y-88037735D01*
X139974577Y-87636796D01*
X140791359Y-87171858D01*
X141712806Y-86757584D01*
X142936594Y-86335415D01*
X144291751Y-86056338D01*
X145327432Y-85943217D01*
X146106499Y-85918086D01*
X146770534Y-85933121D01*
X146770534Y-85933121D01*
G37*
X146770534Y-85933121D02*
X147541988Y-86018559D01*
X148236549Y-86126769D01*
X148932017Y-86277412D01*
X149985926Y-86586794D01*
X150513709Y-86799408D01*
X151033271Y-87033967D01*
X151558303Y-87285179D01*
X152119799Y-87611047D01*
X152819223Y-88071459D01*
X153329217Y-88460863D01*
X153738377Y-88801008D01*
X153756823Y-88845651D01*
X154742778Y-89833329D01*
X154799459Y-89856865D01*
X154987422Y-90066242D01*
X155450172Y-90657254D01*
X155743898Y-91073994D01*
X155990282Y-91458655D01*
X156215869Y-91834632D01*
X156487364Y-92360025D01*
X156753509Y-92919935D01*
X156977622Y-93509177D01*
X157211245Y-94132170D01*
X157391980Y-94852601D01*
X157537710Y-95503361D01*
X157640740Y-96284879D01*
X157728880Y-97302271D01*
X157723889Y-97996095D01*
X157605459Y-99097238D01*
X157484830Y-99911486D01*
X157288686Y-100693548D01*
X157168351Y-101119732D01*
X156998263Y-101604984D01*
X156572777Y-102609534D01*
X156143450Y-103415464D01*
X155797201Y-103957419D01*
X155365000Y-104570540D01*
X154617799Y-105463659D01*
X154051193Y-106025251D01*
X153024928Y-106905626D01*
X151917485Y-107619864D01*
X151304548Y-107798049D01*
X151299839Y-107799517D01*
X150369839Y-108109517D01*
X150358138Y-108114072D01*
X149598138Y-108454072D01*
X149557722Y-108482743D01*
X149531210Y-108525079D01*
X149081210Y-109715079D01*
X149073506Y-109748675D01*
X148433811Y-116893581D01*
X142672421Y-116922436D01*
X141786071Y-109634667D01*
X141772545Y-109591157D01*
X140958085Y-108033397D01*
X140927000Y-107994807D01*
X140904404Y-107979706D01*
X140248707Y-107636726D01*
X139651653Y-107257923D01*
X138846559Y-106681778D01*
X138446106Y-106334326D01*
X138388897Y-106195869D01*
X137402942Y-105208191D01*
X137263098Y-105150123D01*
X136923728Y-104731611D01*
X136116261Y-103573401D01*
X135859895Y-103140316D01*
X135409673Y-102199630D01*
X135115374Y-101447531D01*
X134902176Y-100807938D01*
X134637838Y-99720376D01*
X134550232Y-99192238D01*
X134464808Y-98446032D01*
X134434628Y-97578356D01*
X134447170Y-97001399D01*
X134503982Y-96287838D01*
X137876816Y-96287838D01*
X138189468Y-97044513D01*
X138767887Y-97623943D01*
X139524015Y-97937914D01*
X140342739Y-97938629D01*
X141099414Y-97625977D01*
X141565172Y-97161032D01*
X141564079Y-98413523D01*
X141656077Y-98636175D01*
X141484297Y-98464095D01*
X140728169Y-98150124D01*
X139909445Y-98149409D01*
X139152770Y-98462061D01*
X138573340Y-99040480D01*
X138259369Y-99796608D01*
X138258654Y-100615332D01*
X138571306Y-101372007D01*
X139149725Y-101951437D01*
X139905853Y-102265408D01*
X140724577Y-102266123D01*
X141481252Y-101953471D01*
X142060682Y-101375052D01*
X142374653Y-100618924D01*
X142375021Y-100197307D01*
X143394549Y-101218616D01*
X142978288Y-101218252D01*
X142221613Y-101530904D01*
X141642183Y-102109323D01*
X141328212Y-102865451D01*
X141327497Y-103684175D01*
X141640149Y-104440850D01*
X142218568Y-105020280D01*
X142974696Y-105334251D01*
X143793420Y-105334966D01*
X144550095Y-105022314D01*
X145129525Y-104443895D01*
X145443496Y-103687767D01*
X145444211Y-102869043D01*
X145131559Y-102112368D01*
X144958877Y-101939385D01*
X145172229Y-102027976D01*
X146432570Y-102029076D01*
X145969677Y-102491161D01*
X145655706Y-103247289D01*
X145654991Y-104066013D01*
X145967643Y-104822688D01*
X146546062Y-105402118D01*
X147302190Y-105716089D01*
X148120914Y-105716804D01*
X148877589Y-105404152D01*
X149457019Y-104825733D01*
X149770990Y-104069605D01*
X149771705Y-103250881D01*
X149459053Y-102494206D01*
X148880634Y-101914776D01*
X148124506Y-101600805D01*
X148003499Y-101600699D01*
X148623101Y-101344685D01*
X149212448Y-100756365D01*
X149211738Y-101569926D01*
X149524390Y-102326601D01*
X150102809Y-102906031D01*
X150858937Y-103220002D01*
X151677661Y-103220717D01*
X152434336Y-102908065D01*
X153013766Y-102329646D01*
X153327737Y-101573518D01*
X153328452Y-100754794D01*
X153015800Y-99998119D01*
X152437381Y-99418689D01*
X151681253Y-99104718D01*
X150862529Y-99104003D01*
X150179430Y-99386254D01*
X150580076Y-98421391D01*
X150580471Y-97968356D01*
X150648690Y-98133458D01*
X151227109Y-98712888D01*
X151983237Y-99026859D01*
X152801961Y-99027574D01*
X153558636Y-98714922D01*
X154138066Y-98136503D01*
X154452037Y-97380375D01*
X154452752Y-96561651D01*
X154140100Y-95804976D01*
X153561681Y-95225546D01*
X152805553Y-94911575D01*
X151986829Y-94910860D01*
X151230154Y-95223512D01*
X150650724Y-95801931D01*
X150445015Y-96297336D01*
X149896785Y-94970519D01*
X148629771Y-93701292D01*
X146973491Y-93013544D01*
X145180097Y-93011979D01*
X144206762Y-93414153D01*
X144488902Y-92734683D01*
X144489617Y-91915959D01*
X144176965Y-91159284D01*
X143598546Y-90579854D01*
X142842418Y-90265883D01*
X142023694Y-90265168D01*
X141267019Y-90577820D01*
X140687589Y-91156239D01*
X140373618Y-91912367D01*
X140372903Y-92731091D01*
X140685555Y-93487766D01*
X141263974Y-94067196D01*
X142020102Y-94381167D01*
X142836378Y-94381880D01*
X142253392Y-94963849D01*
X141993428Y-95589912D01*
X141993530Y-95472706D01*
X141680878Y-94716031D01*
X141102459Y-94136601D01*
X140346331Y-93822630D01*
X139527607Y-93821915D01*
X138770932Y-94134567D01*
X138191502Y-94712986D01*
X137877531Y-95469114D01*
X137876816Y-96287838D01*
X134503982Y-96287838D01*
X134510070Y-96211382D01*
X134625600Y-95395140D01*
X134760596Y-94810156D01*
X134891485Y-94374698D01*
X134892193Y-94372252D01*
X135037926Y-93849622D01*
X135367014Y-92987965D01*
X135678306Y-92315172D01*
X136060327Y-91618989D01*
X136495088Y-90935435D01*
X136971795Y-90293134D01*
X137305595Y-89914159D01*
X137772260Y-89397044D01*
X138272877Y-88908942D01*
X139363144Y-88037735D01*
X139974577Y-87636796D01*
X140791359Y-87171858D01*
X141712806Y-86757584D01*
X142936594Y-86335415D01*
X144291751Y-86056338D01*
X145327432Y-85943217D01*
X146106499Y-85918086D01*
X146770534Y-85933121D01*
M02*
