EESchema Schematic File Version 2
LIBS:Capacitors
LIBS:Connectors
LIBS:Discretes
LIBS:ICs
LIBS:Inductors
LIBS:Allegro
LIBS:Resistors
LIBS:TestPoints
LIBS:Cerdip_breakout-cache
EELAYER 26 0
EELAYER END
$Descr A4 11693 8268
encoding utf-8
Sheet 1 1
Title ""
Date ""
Rev ""
Comp ""
Comment1 ""
Comment2 ""
Comment3 ""
Comment4 ""
$EndDescr
$Comp
L TEST_1P J1_3
U 1 1 5B3260E6
P 1830 1225
F 0 "J1_3" V 1860 1275 50  0000 C CNN
F 1 "TEST_1P" V 1830 1540 50  0000 C CNN
F 2 "TestPoints:TP_1p0mm" H 2030 1225 50  0001 C CNN
F 3 "" H 2030 1225 50  0001 C CNN
	1    1830 1225
	0    -1   -1   0   
$EndComp
$Comp
L DIL16 J33
U 1 1 5B32602F
P 5290 3150
F 0 "J33" H 5290 3715 50  0000 C CNN
F 1 "DIL16" H 5290 3624 50  0000 C CNN
F 2 "ICs:16-DIP_socket" H 5290 3150 50  0001 C CNN
F 3 "" H 5290 3150 50  0001 C CNN
	1    5290 3150
	1    0    0    -1  
$EndComp
Text Label 5850 3500 0    60   ~ 0
pin9
Text Label 5850 3400 0    60   ~ 0
pin10
Text Label 5850 3300 0    60   ~ 0
pin11
Text Label 5850 3200 0    60   ~ 0
pin12
Text Label 5850 3100 0    60   ~ 0
pin13
Text Label 5850 3000 0    60   ~ 0
pin14
Text Label 5850 2900 0    60   ~ 0
pin15
Text Label 5850 2800 0    60   ~ 0
pin16
Text Label 3680 4655 0    60   ~ 0
pin8
Text Label 2240 4620 0    60   ~ 0
pin7
Text Label 3740 3610 0    60   ~ 0
pin6
Text Label 2180 3605 0    60   ~ 0
pin5
Text Label 3770 2375 0    60   ~ 0
pin4
Text Label 2180 2385 0    60   ~ 0
pin3
Text Label 3795 1420 0    60   ~ 0
pin2
Text Label 2205 1400 0    60   ~ 0
pin1
Text Label 4745 3500 2    60   ~ 0
pin8
Text Label 4745 3400 2    60   ~ 0
pin7
Text Label 4745 3300 2    60   ~ 0
pin6
Text Label 4745 3200 2    60   ~ 0
pin5
Text Label 4745 3100 2    60   ~ 0
pin4
Text Label 4745 3000 2    60   ~ 0
pin3
Text Label 4745 2900 2    60   ~ 0
pin2
Text Label 4745 2800 2    60   ~ 0
pin1
$Comp
L TEST_1P J1_4
U 1 1 5B32B2C1
P 1825 1380
F 0 "J1_4" V 1855 1430 50  0000 C CNN
F 1 "TEST_1P" V 1825 1695 50  0000 C CNN
F 2 "TestPoints:TP_1p0mm" H 2025 1380 50  0001 C CNN
F 3 "" H 2025 1380 50  0001 C CNN
	1    1825 1380
	0    -1   -1   0   
$EndComp
$Comp
L TEST_1P J1_5
U 1 1 5B32B2FD
P 1820 1540
F 0 "J1_5" V 1850 1590 50  0000 C CNN
F 1 "TEST_1P" V 1820 1855 50  0000 C CNN
F 2 "TestPoints:TP_1p6mm" H 2020 1540 50  0001 C CNN
F 3 "" H 2020 1540 50  0001 C CNN
	1    1820 1540
	0    -1   -1   0   
$EndComp
$Comp
L TEST_1P J1_6
U 1 1 5B32B32D
P 1830 1700
F 0 "J1_6" V 1860 1750 50  0000 C CNN
F 1 "TEST_1P" V 1830 2015 50  0000 C CNN
F 2 "TestPoints:TP_1p6mm" H 2030 1700 50  0001 C CNN
F 3 "" H 2030 1700 50  0001 C CNN
	1    1830 1700
	0    -1   -1   0   
$EndComp
$Comp
L TEST_1P J2_3
U 1 1 5B32B417
P 3425 1190
F 0 "J2_3" V 3455 1240 50  0000 C CNN
F 1 "TEST_1P" V 3425 1505 50  0000 C CNN
F 2 "TestPoints:TP_1p0mm" H 3625 1190 50  0001 C CNN
F 3 "" H 3625 1190 50  0001 C CNN
	1    3425 1190
	0    -1   -1   0   
$EndComp
$Comp
L TEST_1P J2_4
U 1 1 5B32B41D
P 3420 1345
F 0 "J2_4" V 3450 1395 50  0000 C CNN
F 1 "TEST_1P" V 3420 1660 50  0000 C CNN
F 2 "TestPoints:TP_1p0mm" H 3620 1345 50  0001 C CNN
F 3 "" H 3620 1345 50  0001 C CNN
	1    3420 1345
	0    -1   -1   0   
$EndComp
$Comp
L TEST_1P J2_5
U 1 1 5B32B423
P 3415 1505
F 0 "J2_5" V 3445 1555 50  0000 C CNN
F 1 "TEST_1P" V 3415 1820 50  0000 C CNN
F 2 "TestPoints:TP_1p6mm" H 3615 1505 50  0001 C CNN
F 3 "" H 3615 1505 50  0001 C CNN
	1    3415 1505
	0    -1   -1   0   
$EndComp
$Comp
L TEST_1P J2_6
U 1 1 5B32B429
P 3425 1665
F 0 "J2_6" V 3455 1715 50  0000 C CNN
F 1 "TEST_1P" V 3425 1980 50  0000 C CNN
F 2 "TestPoints:TP_1p6mm" H 3625 1665 50  0001 C CNN
F 3 "" H 3625 1665 50  0001 C CNN
	1    3425 1665
	0    -1   -1   0   
$EndComp
$Comp
L TEST_1P J4_3
U 1 1 5B32B4AB
P 3350 2180
F 0 "J4_3" V 3380 2230 50  0000 C CNN
F 1 "TEST_1P" V 3350 2495 50  0000 C CNN
F 2 "TestPoints:TP_1p0mm" H 3550 2180 50  0001 C CNN
F 3 "" H 3550 2180 50  0001 C CNN
	1    3350 2180
	0    -1   -1   0   
$EndComp
$Comp
L TEST_1P J4_4
U 1 1 5B32B4B1
P 3345 2335
F 0 "J4_4" V 3375 2385 50  0000 C CNN
F 1 "TEST_1P" V 3345 2650 50  0000 C CNN
F 2 "TestPoints:TP_1p0mm" H 3545 2335 50  0001 C CNN
F 3 "" H 3545 2335 50  0001 C CNN
	1    3345 2335
	0    -1   -1   0   
$EndComp
$Comp
L TEST_1P J4_5
U 1 1 5B32B4B7
P 3340 2495
F 0 "J4_5" V 3370 2545 50  0000 C CNN
F 1 "TEST_1P" V 3340 2810 50  0000 C CNN
F 2 "TestPoints:TP_1p6mm" H 3540 2495 50  0001 C CNN
F 3 "" H 3540 2495 50  0001 C CNN
	1    3340 2495
	0    -1   -1   0   
$EndComp
$Comp
L TEST_1P J4_6
U 1 1 5B32B4BD
P 3350 2655
F 0 "J4_6" V 3380 2705 50  0000 C CNN
F 1 "TEST_1P" V 3350 2970 50  0000 C CNN
F 2 "TestPoints:TP_1p6mm" H 3550 2655 50  0001 C CNN
F 3 "" H 3550 2655 50  0001 C CNN
	1    3350 2655
	0    -1   -1   0   
$EndComp
$Comp
L TEST_1P J3_3
U 1 1 5B32B53A
P 1795 2190
F 0 "J3_3" V 1825 2240 50  0000 C CNN
F 1 "TEST_1P" V 1795 2505 50  0000 C CNN
F 2 "TestPoints:TP_1p0mm" H 1995 2190 50  0001 C CNN
F 3 "" H 1995 2190 50  0001 C CNN
	1    1795 2190
	0    -1   -1   0   
$EndComp
$Comp
L TEST_1P J3_4
U 1 1 5B32B540
P 1790 2345
F 0 "J3_4" V 1820 2395 50  0000 C CNN
F 1 "TEST_1P" V 1790 2660 50  0000 C CNN
F 2 "TestPoints:TP_1p0mm" H 1990 2345 50  0001 C CNN
F 3 "" H 1990 2345 50  0001 C CNN
	1    1790 2345
	0    -1   -1   0   
$EndComp
$Comp
L TEST_1P J3_5
U 1 1 5B32B546
P 1785 2505
F 0 "J3_5" V 1815 2555 50  0000 C CNN
F 1 "TEST_1P" V 1785 2820 50  0000 C CNN
F 2 "TestPoints:TP_1p6mm" H 1985 2505 50  0001 C CNN
F 3 "" H 1985 2505 50  0001 C CNN
	1    1785 2505
	0    -1   -1   0   
$EndComp
$Comp
L TEST_1P J3_6
U 1 1 5B32B54C
P 1795 2665
F 0 "J3_6" V 1825 2715 50  0000 C CNN
F 1 "TEST_1P" V 1795 2980 50  0000 C CNN
F 2 "TestPoints:TP_1p6mm" H 1995 2665 50  0001 C CNN
F 3 "" H 1995 2665 50  0001 C CNN
	1    1795 2665
	0    -1   -1   0   
$EndComp
$Comp
L TEST_1P J5_3
U 1 1 5B32B738
P 1750 3285
F 0 "J5_3" V 1780 3335 50  0000 C CNN
F 1 "TEST_1P" V 1750 3600 50  0000 C CNN
F 2 "TestPoints:TP_1p0mm" H 1950 3285 50  0001 C CNN
F 3 "" H 1950 3285 50  0001 C CNN
	1    1750 3285
	0    -1   -1   0   
$EndComp
$Comp
L TEST_1P J5_4
U 1 1 5B32B73E
P 1745 3440
F 0 "J5_4" V 1775 3490 50  0000 C CNN
F 1 "TEST_1P" V 1745 3755 50  0000 C CNN
F 2 "TestPoints:TP_1p0mm" H 1945 3440 50  0001 C CNN
F 3 "" H 1945 3440 50  0001 C CNN
	1    1745 3440
	0    -1   -1   0   
$EndComp
$Comp
L TEST_1P J5_5
U 1 1 5B32B744
P 1740 3600
F 0 "J5_5" V 1770 3650 50  0000 C CNN
F 1 "TEST_1P" V 1740 3915 50  0000 C CNN
F 2 "TestPoints:TP_1p6mm" H 1940 3600 50  0001 C CNN
F 3 "" H 1940 3600 50  0001 C CNN
	1    1740 3600
	0    -1   -1   0   
$EndComp
$Comp
L TEST_1P J5_6
U 1 1 5B32B74A
P 1750 3760
F 0 "J5_6" V 1780 3810 50  0000 C CNN
F 1 "TEST_1P" V 1750 4075 50  0000 C CNN
F 2 "TestPoints:TP_1p6mm" H 1950 3760 50  0001 C CNN
F 3 "" H 1950 3760 50  0001 C CNN
	1    1750 3760
	0    -1   -1   0   
$EndComp
$Comp
L TEST_1P J6_3
U 1 1 5B32B7EE
P 3360 3340
F 0 "J6_3" V 3390 3390 50  0000 C CNN
F 1 "TEST_1P" V 3360 3655 50  0000 C CNN
F 2 "TestPoints:TP_1p0mm" H 3560 3340 50  0001 C CNN
F 3 "" H 3560 3340 50  0001 C CNN
	1    3360 3340
	0    -1   -1   0   
$EndComp
$Comp
L TEST_1P J6_4
U 1 1 5B32B7F4
P 3355 3495
F 0 "J6_4" V 3385 3545 50  0000 C CNN
F 1 "TEST_1P" V 3355 3810 50  0000 C CNN
F 2 "TestPoints:TP_1p0mm" H 3555 3495 50  0001 C CNN
F 3 "" H 3555 3495 50  0001 C CNN
	1    3355 3495
	0    -1   -1   0   
$EndComp
$Comp
L TEST_1P J6_5
U 1 1 5B32B7FA
P 3350 3655
F 0 "J6_5" V 3380 3705 50  0000 C CNN
F 1 "TEST_1P" V 3350 3970 50  0000 C CNN
F 2 "TestPoints:TP_1p6mm" H 3550 3655 50  0001 C CNN
F 3 "" H 3550 3655 50  0001 C CNN
	1    3350 3655
	0    -1   -1   0   
$EndComp
$Comp
L TEST_1P J6_6
U 1 1 5B32B800
P 3360 3815
F 0 "J6_6" V 3390 3865 50  0000 C CNN
F 1 "TEST_1P" V 3360 4130 50  0000 C CNN
F 2 "TestPoints:TP_1p6mm" H 3560 3815 50  0001 C CNN
F 3 "" H 3560 3815 50  0001 C CNN
	1    3360 3815
	0    -1   -1   0   
$EndComp
$Comp
L TEST_1P J8_3
U 1 1 5B32B97F
P 3305 4440
F 0 "J8_3" V 3335 4490 50  0000 C CNN
F 1 "TEST_1P" V 3305 4755 50  0000 C CNN
F 2 "TestPoints:TP_1p0mm" H 3505 4440 50  0001 C CNN
F 3 "" H 3505 4440 50  0001 C CNN
	1    3305 4440
	0    -1   -1   0   
$EndComp
$Comp
L TEST_1P J8_4
U 1 1 5B32B985
P 3300 4595
F 0 "J8_4" V 3330 4645 50  0000 C CNN
F 1 "TEST_1P" V 3300 4910 50  0000 C CNN
F 2 "TestPoints:TP_1p0mm" H 3500 4595 50  0001 C CNN
F 3 "" H 3500 4595 50  0001 C CNN
	1    3300 4595
	0    -1   -1   0   
$EndComp
$Comp
L TEST_1P J8_5
U 1 1 5B32B98B
P 3295 4755
F 0 "J8_5" V 3325 4805 50  0000 C CNN
F 1 "TEST_1P" V 3295 5070 50  0000 C CNN
F 2 "TestPoints:TP_1p6mm" H 3495 4755 50  0001 C CNN
F 3 "" H 3495 4755 50  0001 C CNN
	1    3295 4755
	0    -1   -1   0   
$EndComp
$Comp
L TEST_1P J8_6
U 1 1 5B32B991
P 3305 4915
F 0 "J8_6" V 3335 4965 50  0000 C CNN
F 1 "TEST_1P" V 3305 5230 50  0000 C CNN
F 2 "TestPoints:TP_1p6mm" H 3505 4915 50  0001 C CNN
F 3 "" H 3505 4915 50  0001 C CNN
	1    3305 4915
	0    -1   -1   0   
$EndComp
$Comp
L TEST_1P J7_3
U 1 1 5B32BAAD
P 1840 4365
F 0 "J7_3" V 1870 4415 50  0000 C CNN
F 1 "TEST_1P" V 1840 4680 50  0000 C CNN
F 2 "TestPoints:TP_1p0mm" H 2040 4365 50  0001 C CNN
F 3 "" H 2040 4365 50  0001 C CNN
	1    1840 4365
	0    -1   -1   0   
$EndComp
$Comp
L TEST_1P J7_4
U 1 1 5B32BAB3
P 1835 4520
F 0 "J7_4" V 1865 4570 50  0000 C CNN
F 1 "TEST_1P" V 1835 4835 50  0000 C CNN
F 2 "TestPoints:TP_1p0mm" H 2035 4520 50  0001 C CNN
F 3 "" H 2035 4520 50  0001 C CNN
	1    1835 4520
	0    -1   -1   0   
$EndComp
$Comp
L TEST_1P J7_5
U 1 1 5B32BAB9
P 1830 4680
F 0 "J7_5" V 1860 4730 50  0000 C CNN
F 1 "TEST_1P" V 1830 4995 50  0000 C CNN
F 2 "TestPoints:TP_1p6mm" H 2030 4680 50  0001 C CNN
F 3 "" H 2030 4680 50  0001 C CNN
	1    1830 4680
	0    -1   -1   0   
$EndComp
$Comp
L TEST_1P J7_6
U 1 1 5B32BABF
P 1840 4840
F 0 "J7_6" V 1870 4890 50  0000 C CNN
F 1 "TEST_1P" V 1840 5155 50  0000 C CNN
F 2 "TestPoints:TP_1p6mm" H 2040 4840 50  0001 C CNN
F 3 "" H 2040 4840 50  0001 C CNN
	1    1840 4840
	0    -1   -1   0   
$EndComp
$Comp
L TEST_1P J16_3
U 1 1 5B32C8A2
P 9290 1240
F 0 "J16_3" V 9320 1290 50  0000 C CNN
F 1 "TEST_1P" V 9290 1555 50  0000 C CNN
F 2 "TestPoints:TP_1p0mm" H 9490 1240 50  0001 C CNN
F 3 "" H 9490 1240 50  0001 C CNN
	1    9290 1240
	0    1    -1   0   
$EndComp
Text Label 7440 4670 2    60   ~ 0
pin9
Text Label 8880 4635 2    60   ~ 0
pin10
Text Label 7380 3625 2    60   ~ 0
pin11
Text Label 8940 3620 2    60   ~ 0
pin12
Text Label 7350 2390 2    60   ~ 0
pin13
Text Label 8940 2400 2    60   ~ 0
pin14
Text Label 7325 1435 2    60   ~ 0
pin15
Text Label 8915 1415 2    60   ~ 0
pin16
$Comp
L TEST_1P J16_4
U 1 1 5B32C8B8
P 9295 1395
F 0 "J16_4" V 9325 1445 50  0000 C CNN
F 1 "TEST_1P" V 9295 1710 50  0000 C CNN
F 2 "TestPoints:TP_1p0mm" H 9495 1395 50  0001 C CNN
F 3 "" H 9495 1395 50  0001 C CNN
	1    9295 1395
	0    1    -1   0   
$EndComp
$Comp
L TEST_1P J16_5
U 1 1 5B32C8BE
P 9300 1555
F 0 "J16_5" V 9330 1605 50  0000 C CNN
F 1 "TEST_1P" V 9300 1870 50  0000 C CNN
F 2 "TestPoints:TP_1p6mm" H 9500 1555 50  0001 C CNN
F 3 "" H 9500 1555 50  0001 C CNN
	1    9300 1555
	0    1    -1   0   
$EndComp
$Comp
L TEST_1P J16_6
U 1 1 5B32C8C4
P 9290 1715
F 0 "J16_6" V 9320 1765 50  0000 C CNN
F 1 "TEST_1P" V 9290 2030 50  0000 C CNN
F 2 "TestPoints:TP_1p6mm" H 9490 1715 50  0001 C CNN
F 3 "" H 9490 1715 50  0001 C CNN
	1    9290 1715
	0    1    -1   0   
$EndComp
$Comp
L TEST_1P J15_3
U 1 1 5B32C8CA
P 7695 1205
F 0 "J15_3" V 7725 1255 50  0000 C CNN
F 1 "TEST_1P" V 7695 1520 50  0000 C CNN
F 2 "TestPoints:TP_1p0mm" H 7895 1205 50  0001 C CNN
F 3 "" H 7895 1205 50  0001 C CNN
	1    7695 1205
	0    1    -1   0   
$EndComp
$Comp
L TEST_1P J15_4
U 1 1 5B32C8D0
P 7700 1360
F 0 "J15_4" V 7730 1410 50  0000 C CNN
F 1 "TEST_1P" V 7700 1675 50  0000 C CNN
F 2 "TestPoints:TP_1p0mm" H 7900 1360 50  0001 C CNN
F 3 "" H 7900 1360 50  0001 C CNN
	1    7700 1360
	0    1    -1   0   
$EndComp
$Comp
L TEST_1P J15_5
U 1 1 5B32C8D6
P 7705 1520
F 0 "J15_5" V 7735 1570 50  0000 C CNN
F 1 "TEST_1P" V 7705 1835 50  0000 C CNN
F 2 "TestPoints:TP_1p6mm" H 7905 1520 50  0001 C CNN
F 3 "" H 7905 1520 50  0001 C CNN
	1    7705 1520
	0    1    -1   0   
$EndComp
$Comp
L TEST_1P J15_6
U 1 1 5B32C8DC
P 7695 1680
F 0 "J15_6" V 7725 1730 50  0000 C CNN
F 1 "TEST_1P" V 7695 1995 50  0000 C CNN
F 2 "TestPoints:TP_1p6mm" H 7895 1680 50  0001 C CNN
F 3 "" H 7895 1680 50  0001 C CNN
	1    7695 1680
	0    1    -1   0   
$EndComp
$Comp
L TEST_1P J13_3
U 1 1 5B32C8E2
P 7770 2195
F 0 "J13_3" V 7800 2245 50  0000 C CNN
F 1 "TEST_1P" V 7770 2510 50  0000 C CNN
F 2 "TestPoints:TP_1p0mm" H 7970 2195 50  0001 C CNN
F 3 "" H 7970 2195 50  0001 C CNN
	1    7770 2195
	0    1    -1   0   
$EndComp
$Comp
L TEST_1P J13_4
U 1 1 5B32C8E8
P 7775 2350
F 0 "J13_4" V 7805 2400 50  0000 C CNN
F 1 "TEST_1P" V 7775 2665 50  0000 C CNN
F 2 "TestPoints:TP_1p0mm" H 7975 2350 50  0001 C CNN
F 3 "" H 7975 2350 50  0001 C CNN
	1    7775 2350
	0    1    -1   0   
$EndComp
$Comp
L TEST_1P J13_5
U 1 1 5B32C8EE
P 7780 2510
F 0 "J13_5" V 7810 2560 50  0000 C CNN
F 1 "TEST_1P" V 7780 2825 50  0000 C CNN
F 2 "TestPoints:TP_1p6mm" H 7980 2510 50  0001 C CNN
F 3 "" H 7980 2510 50  0001 C CNN
	1    7780 2510
	0    1    -1   0   
$EndComp
$Comp
L TEST_1P J13_6
U 1 1 5B32C8F4
P 7770 2670
F 0 "J13_6" V 7800 2720 50  0000 C CNN
F 1 "TEST_1P" V 7770 2985 50  0000 C CNN
F 2 "TestPoints:TP_1p6mm" H 7970 2670 50  0001 C CNN
F 3 "" H 7970 2670 50  0001 C CNN
	1    7770 2670
	0    1    -1   0   
$EndComp
$Comp
L TEST_1P J14_3
U 1 1 5B32C8FA
P 9325 2205
F 0 "J14_3" V 9355 2255 50  0000 C CNN
F 1 "TEST_1P" V 9325 2520 50  0000 C CNN
F 2 "TestPoints:TP_1p0mm" H 9525 2205 50  0001 C CNN
F 3 "" H 9525 2205 50  0001 C CNN
	1    9325 2205
	0    1    -1   0   
$EndComp
$Comp
L TEST_1P J14_4
U 1 1 5B32C900
P 9330 2360
F 0 "J14_4" V 9360 2410 50  0000 C CNN
F 1 "TEST_1P" V 9330 2675 50  0000 C CNN
F 2 "TestPoints:TP_1p0mm" H 9530 2360 50  0001 C CNN
F 3 "" H 9530 2360 50  0001 C CNN
	1    9330 2360
	0    1    -1   0   
$EndComp
$Comp
L TEST_1P J14_5
U 1 1 5B32C906
P 9335 2520
F 0 "J14_5" V 9365 2570 50  0000 C CNN
F 1 "TEST_1P" V 9335 2835 50  0000 C CNN
F 2 "TestPoints:TP_1p6mm" H 9535 2520 50  0001 C CNN
F 3 "" H 9535 2520 50  0001 C CNN
	1    9335 2520
	0    1    -1   0   
$EndComp
$Comp
L TEST_1P J14_6
U 1 1 5B32C90C
P 9325 2680
F 0 "J14_6" V 9355 2730 50  0000 C CNN
F 1 "TEST_1P" V 9325 2995 50  0000 C CNN
F 2 "TestPoints:TP_1p6mm" H 9525 2680 50  0001 C CNN
F 3 "" H 9525 2680 50  0001 C CNN
	1    9325 2680
	0    1    -1   0   
$EndComp
$Comp
L TEST_1P J12_3
U 1 1 5B32C912
P 9370 3300
F 0 "J12_3" V 9400 3350 50  0000 C CNN
F 1 "TEST_1P" V 9370 3615 50  0000 C CNN
F 2 "TestPoints:TP_1p0mm" H 9570 3300 50  0001 C CNN
F 3 "" H 9570 3300 50  0001 C CNN
	1    9370 3300
	0    1    -1   0   
$EndComp
$Comp
L TEST_1P J12_4
U 1 1 5B32C918
P 9375 3455
F 0 "J12_4" V 9405 3505 50  0000 C CNN
F 1 "TEST_1P" V 9375 3770 50  0000 C CNN
F 2 "TestPoints:TP_1p0mm" H 9575 3455 50  0001 C CNN
F 3 "" H 9575 3455 50  0001 C CNN
	1    9375 3455
	0    1    -1   0   
$EndComp
$Comp
L TEST_1P J12_5
U 1 1 5B32C91E
P 9380 3615
F 0 "J12_5" V 9410 3665 50  0000 C CNN
F 1 "TEST_1P" V 9380 3930 50  0000 C CNN
F 2 "TestPoints:TP_1p6mm" H 9580 3615 50  0001 C CNN
F 3 "" H 9580 3615 50  0001 C CNN
	1    9380 3615
	0    1    -1   0   
$EndComp
$Comp
L TEST_1P J12_6
U 1 1 5B32C924
P 9370 3775
F 0 "J12_6" V 9400 3825 50  0000 C CNN
F 1 "TEST_1P" V 9370 4090 50  0000 C CNN
F 2 "TestPoints:TP_1p6mm" H 9570 3775 50  0001 C CNN
F 3 "" H 9570 3775 50  0001 C CNN
	1    9370 3775
	0    1    -1   0   
$EndComp
$Comp
L TEST_1P J11_3
U 1 1 5B32C92A
P 7760 3355
F 0 "J11_3" V 7790 3405 50  0000 C CNN
F 1 "TEST_1P" V 7760 3670 50  0000 C CNN
F 2 "TestPoints:TP_1p0mm" H 7960 3355 50  0001 C CNN
F 3 "" H 7960 3355 50  0001 C CNN
	1    7760 3355
	0    1    -1   0   
$EndComp
$Comp
L TEST_1P J11_4
U 1 1 5B32C930
P 7765 3510
F 0 "J11_4" V 7795 3560 50  0000 C CNN
F 1 "TEST_1P" V 7765 3825 50  0000 C CNN
F 2 "TestPoints:TP_1p0mm" H 7965 3510 50  0001 C CNN
F 3 "" H 7965 3510 50  0001 C CNN
	1    7765 3510
	0    1    -1   0   
$EndComp
$Comp
L TEST_1P J11_5
U 1 1 5B32C936
P 7770 3670
F 0 "J11_5" V 7800 3720 50  0000 C CNN
F 1 "TEST_1P" V 7770 3985 50  0000 C CNN
F 2 "TestPoints:TP_1p6mm" H 7970 3670 50  0001 C CNN
F 3 "" H 7970 3670 50  0001 C CNN
	1    7770 3670
	0    1    -1   0   
$EndComp
$Comp
L TEST_1P J11_6
U 1 1 5B32C93C
P 7760 3830
F 0 "J11_6" V 7790 3880 50  0000 C CNN
F 1 "TEST_1P" V 7760 4145 50  0000 C CNN
F 2 "TestPoints:TP_1p6mm" H 7960 3830 50  0001 C CNN
F 3 "" H 7960 3830 50  0001 C CNN
	1    7760 3830
	0    1    -1   0   
$EndComp
$Comp
L TEST_1P J9_3
U 1 1 5B32C942
P 7815 4455
F 0 "J9_3" V 7845 4505 50  0000 C CNN
F 1 "TEST_1P" V 7815 4770 50  0000 C CNN
F 2 "TestPoints:TP_1p0mm" H 8015 4455 50  0001 C CNN
F 3 "" H 8015 4455 50  0001 C CNN
	1    7815 4455
	0    1    -1   0   
$EndComp
$Comp
L TEST_1P J9_4
U 1 1 5B32C948
P 7820 4610
F 0 "J9_4" V 7850 4660 50  0000 C CNN
F 1 "TEST_1P" V 7820 4925 50  0000 C CNN
F 2 "TestPoints:TP_1p0mm" H 8020 4610 50  0001 C CNN
F 3 "" H 8020 4610 50  0001 C CNN
	1    7820 4610
	0    1    -1   0   
$EndComp
$Comp
L TEST_1P J9_5
U 1 1 5B32C94E
P 7825 4770
F 0 "J9_5" V 7855 4820 50  0000 C CNN
F 1 "TEST_1P" V 7825 5085 50  0000 C CNN
F 2 "TestPoints:TP_1p6mm" H 8025 4770 50  0001 C CNN
F 3 "" H 8025 4770 50  0001 C CNN
	1    7825 4770
	0    1    -1   0   
$EndComp
$Comp
L TEST_1P J9_6
U 1 1 5B32C954
P 7815 4930
F 0 "J9_6" V 7845 4980 50  0000 C CNN
F 1 "TEST_1P" V 7815 5245 50  0000 C CNN
F 2 "TestPoints:TP_1p6mm" H 8015 4930 50  0001 C CNN
F 3 "" H 8015 4930 50  0001 C CNN
	1    7815 4930
	0    1    -1   0   
$EndComp
$Comp
L TEST_1P J10_3
U 1 1 5B32C95A
P 9280 4380
F 0 "J10_3" V 9310 4430 50  0000 C CNN
F 1 "TEST_1P" V 9280 4695 50  0000 C CNN
F 2 "TestPoints:TP_1p0mm" H 9480 4380 50  0001 C CNN
F 3 "" H 9480 4380 50  0001 C CNN
	1    9280 4380
	0    1    -1   0   
$EndComp
$Comp
L TEST_1P J10_4
U 1 1 5B32C960
P 9285 4535
F 0 "J10_4" V 9315 4585 50  0000 C CNN
F 1 "TEST_1P" V 9285 4850 50  0000 C CNN
F 2 "TestPoints:TP_1p0mm" H 9485 4535 50  0001 C CNN
F 3 "" H 9485 4535 50  0001 C CNN
	1    9285 4535
	0    1    -1   0   
$EndComp
$Comp
L TEST_1P J10_5
U 1 1 5B32C966
P 9290 4695
F 0 "J10_5" V 9320 4745 50  0000 C CNN
F 1 "TEST_1P" V 9290 5010 50  0000 C CNN
F 2 "TestPoints:TP_1p6mm" H 9490 4695 50  0001 C CNN
F 3 "" H 9490 4695 50  0001 C CNN
	1    9290 4695
	0    1    -1   0   
$EndComp
$Comp
L TEST_1P J10_6
U 1 1 5B32C96C
P 9280 4855
F 0 "J10_6" V 9310 4905 50  0000 C CNN
F 1 "TEST_1P" V 9280 5170 50  0000 C CNN
F 2 "TestPoints:TP_1p6mm" H 9480 4855 50  0001 C CNN
F 3 "" H 9480 4855 50  0001 C CNN
	1    9280 4855
	0    1    -1   0   
$EndComp
Wire Wire Line
	1925 1400 2205 1400
Wire Wire Line
	3415 4655 3680 4655
Wire Wire Line
	1990 4620 2240 4620
Wire Wire Line
	3485 3610 3740 3610
Wire Wire Line
	1905 3605 2180 3605
Wire Wire Line
	3500 2375 3770 2375
Wire Wire Line
	1920 2385 2180 2385
Wire Wire Line
	3545 1420 3795 1420
Wire Wire Line
	5640 2800 5850 2800
Wire Wire Line
	5850 3500 5640 3500
Wire Wire Line
	5640 3400 5850 3400
Wire Wire Line
	5640 3300 5850 3300
Wire Wire Line
	5640 3200 5850 3200
Wire Wire Line
	5640 3100 5850 3100
Wire Wire Line
	5640 3000 5850 3000
Wire Wire Line
	5640 2900 5850 2900
Wire Wire Line
	4940 2800 4745 2800
Wire Wire Line
	4940 3500 4745 3500
Wire Wire Line
	4745 3400 4940 3400
Wire Wire Line
	4940 3300 4745 3300
Wire Wire Line
	4940 3200 4745 3200
Wire Wire Line
	4940 3100 4745 3100
Wire Wire Line
	4940 3000 4745 3000
Wire Wire Line
	4940 2900 4745 2900
Wire Wire Line
	8915 1415 9245 1415
Wire Wire Line
	7440 4670 7750 4670
Wire Wire Line
	8880 4635 9225 4635
Wire Wire Line
	7380 3625 7705 3625
Wire Wire Line
	9320 3620 8940 3620
Wire Wire Line
	7350 2390 7725 2390
Wire Wire Line
	8940 2400 9260 2400
Wire Wire Line
	7325 1435 7605 1435
Wire Wire Line
	1830 1225 2010 1225
Wire Wire Line
	2010 1225 2010 1700
Wire Wire Line
	2010 1700 1830 1700
Connection ~ 2010 1400
Wire Wire Line
	1825 1380 1925 1380
Wire Wire Line
	1925 1380 1925 1540
Wire Wire Line
	1925 1540 1820 1540
Connection ~ 1925 1400
Wire Wire Line
	1795 2190 1985 2190
Wire Wire Line
	1985 2190 1985 2665
Wire Wire Line
	1985 2665 1795 2665
Connection ~ 1985 2385
Wire Wire Line
	1920 2505 1785 2505
Wire Wire Line
	1920 2345 1920 2505
Wire Wire Line
	1790 2345 1920 2345
Connection ~ 1920 2385
Wire Wire Line
	1750 3285 1985 3285
Wire Wire Line
	1985 3285 1985 3760
Wire Wire Line
	1745 3440 1905 3440
Wire Wire Line
	1905 3440 1905 3605
Connection ~ 1985 3605
Wire Wire Line
	1740 3600 1905 3600
Connection ~ 1905 3600
Wire Wire Line
	1985 3760 1750 3760
Wire Wire Line
	3360 3340 3545 3340
Wire Wire Line
	3545 3340 3545 3815
Wire Wire Line
	3355 3495 3485 3495
Wire Wire Line
	3485 3495 3485 3655
Connection ~ 3545 3610
Wire Wire Line
	3485 3655 3350 3655
Connection ~ 3485 3610
Wire Wire Line
	3545 3815 3360 3815
Wire Wire Line
	3485 4440 3485 4915
Wire Wire Line
	3485 4440 3305 4440
Wire Wire Line
	3300 4595 3415 4595
Wire Wire Line
	3415 4595 3415 4755
Connection ~ 3485 4655
Wire Wire Line
	3415 4755 3295 4755
Connection ~ 3415 4655
Wire Wire Line
	3485 4915 3305 4915
Wire Wire Line
	2045 4840 1840 4840
Wire Wire Line
	2045 4365 2045 4840
Wire Wire Line
	2045 4365 1840 4365
Connection ~ 2045 4620
Wire Wire Line
	1835 4520 1990 4520
Wire Wire Line
	1990 4520 1990 4620
Wire Wire Line
	1830 4680 1990 4680
Wire Wire Line
	1990 4680 1990 4615
Connection ~ 1990 4615
Wire Wire Line
	3575 2180 3575 2655
Wire Wire Line
	3575 2180 3350 2180
Wire Wire Line
	3575 2655 3350 2655
Connection ~ 3575 2375
Wire Wire Line
	3345 2335 3500 2335
Wire Wire Line
	3500 2335 3500 2495
Wire Wire Line
	3500 2495 3340 2495
Connection ~ 3500 2375
Wire Wire Line
	3600 1190 3600 1665
Wire Wire Line
	3600 1665 3425 1665
Wire Wire Line
	3600 1190 3425 1190
Connection ~ 3600 1420
Wire Wire Line
	3420 1345 3545 1345
Wire Wire Line
	3545 1345 3545 1505
Wire Wire Line
	3545 1505 3415 1505
Connection ~ 3545 1420
Wire Wire Line
	7520 1205 7520 1680
Wire Wire Line
	7520 1205 7695 1205
Wire Wire Line
	7520 1680 7695 1680
Connection ~ 7520 1435
Wire Wire Line
	7700 1360 7605 1360
Wire Wire Line
	7605 1360 7605 1520
Wire Wire Line
	7605 1520 7705 1520
Connection ~ 7605 1435
Wire Wire Line
	9295 1395 9245 1395
Wire Wire Line
	9245 1395 9245 1555
Wire Wire Line
	9245 1555 9300 1555
Wire Wire Line
	9110 1715 9290 1715
Wire Wire Line
	9110 1240 9110 1715
Wire Wire Line
	9110 1240 9290 1240
Connection ~ 9110 1415
Connection ~ 9245 1415
Wire Wire Line
	9330 2360 9260 2360
Wire Wire Line
	9260 2360 9260 2520
Wire Wire Line
	9260 2520 9335 2520
Wire Wire Line
	9325 2205 9135 2205
Wire Wire Line
	9135 2205 9135 2680
Wire Wire Line
	9135 2680 9325 2680
Connection ~ 9135 2400
Connection ~ 9260 2400
Wire Wire Line
	7775 2350 7725 2350
Wire Wire Line
	7725 2350 7725 2510
Wire Wire Line
	7725 2510 7780 2510
Wire Wire Line
	7770 2195 7545 2195
Wire Wire Line
	7545 2195 7545 2670
Connection ~ 7725 2390
Connection ~ 7545 2390
Wire Wire Line
	7545 2670 7770 2670
Wire Wire Line
	7765 3510 7705 3510
Wire Wire Line
	7705 3510 7705 3670
Wire Wire Line
	7705 3670 7770 3670
Wire Wire Line
	7760 3355 7575 3355
Wire Wire Line
	7575 3355 7575 3830
Connection ~ 7705 3625
Connection ~ 7575 3625
Wire Wire Line
	7575 3830 7760 3830
Wire Wire Line
	9320 3455 9375 3455
Wire Wire Line
	9320 3455 9320 3620
Wire Wire Line
	9320 3615 9380 3615
Wire Wire Line
	9135 3300 9135 3775
Connection ~ 9320 3615
Connection ~ 9135 3620
Wire Wire Line
	9135 3775 9370 3775
Wire Wire Line
	9285 4535 9225 4535
Wire Wire Line
	9225 4535 9225 4695
Wire Wire Line
	9225 4695 9290 4695
Wire Wire Line
	9075 4855 9280 4855
Wire Wire Line
	9075 4380 9075 4855
Wire Wire Line
	9075 4380 9280 4380
Connection ~ 9075 4635
Connection ~ 9225 4635
Wire Wire Line
	7820 4610 7750 4610
Wire Wire Line
	7750 4610 7750 4770
Wire Wire Line
	7750 4770 7825 4770
Wire Wire Line
	7635 4930 7815 4930
Wire Wire Line
	7635 4455 7635 4930
Wire Wire Line
	7635 4455 7815 4455
Connection ~ 7635 4670
Connection ~ 7750 4670
Wire Wire Line
	9370 3300 9135 3300
$Comp
L TEST_1P J1_1
U 1 1 5B33A9A4
P 1820 1015
F 0 "J1_1" V 1850 1065 50  0000 C CNN
F 1 "TEST_1P" V 1820 1330 50  0000 C CNN
F 2 "TestPoints:TP_1p0mm" H 2020 1015 50  0001 C CNN
F 3 "" H 2020 1015 50  0001 C CNN
	1    1820 1015
	0    -1   -1   0   
$EndComp
$Comp
L TEST_1P J2_2
U 1 1 5B33AA5E
P 3405 1805
F 0 "J2_2" V 3435 1855 50  0000 C CNN
F 1 "TEST_1P" V 3405 2120 50  0000 C CNN
F 2 "TestPoints:TP_1p0mm" H 3605 1805 50  0001 C CNN
F 3 "" H 3605 1805 50  0001 C CNN
	1    3405 1805
	0    -1   -1   0   
$EndComp
$Comp
L TEST_1P J3_1
U 1 1 5B33AB04
P 1795 2025
F 0 "J3_1" V 1825 2075 50  0000 C CNN
F 1 "TEST_1P" V 1795 2340 50  0000 C CNN
F 2 "TestPoints:TP_1p0mm" H 1995 2025 50  0001 C CNN
F 3 "" H 1995 2025 50  0001 C CNN
	1    1795 2025
	0    -1   -1   0   
$EndComp
$Comp
L TEST_1P J3_2
U 1 1 5B33ABC4
P 1805 2810
F 0 "J3_2" V 1835 2860 50  0000 C CNN
F 1 "TEST_1P" V 1805 3125 50  0000 C CNN
F 2 "TestPoints:TP_1p0mm" H 2005 2810 50  0001 C CNN
F 3 "" H 2005 2810 50  0001 C CNN
	1    1805 2810
	0    -1   -1   0   
$EndComp
$Comp
L TEST_1P J5_1
U 1 1 5B33ACF9
P 1745 3115
F 0 "J5_1" V 1775 3165 50  0000 C CNN
F 1 "TEST_1P" V 1745 3430 50  0000 C CNN
F 2 "TestPoints:TP_1p0mm" H 1945 3115 50  0001 C CNN
F 3 "" H 1945 3115 50  0001 C CNN
	1    1745 3115
	0    -1   -1   0   
$EndComp
$Comp
L TEST_1P J5-2
U 1 1 5B33AE91
P 1750 3900
F 0 "J5-2" V 1780 3950 50  0000 C CNN
F 1 "TEST_1P" V 1750 4215 50  0000 C CNN
F 2 "TestPoints:TP_1p0mm" H 1950 3900 50  0001 C CNN
F 3 "" H 1950 3900 50  0001 C CNN
	1    1750 3900
	0    -1   -1   0   
$EndComp
$Comp
L TEST_1P J4_2
U 1 1 5B33AF51
P 3350 2825
F 0 "J4_2" V 3380 2875 50  0000 C CNN
F 1 "TEST_1P" V 3350 3140 50  0000 C CNN
F 2 "TestPoints:TP_1p0mm" H 3550 2825 50  0001 C CNN
F 3 "" H 3550 2825 50  0001 C CNN
	1    3350 2825
	0    -1   -1   0   
$EndComp
$Comp
L TEST_1P J1_2
U 1 1 5B33B051
P 1820 1845
F 0 "J1_2" V 1850 1895 50  0000 C CNN
F 1 "TEST_1P" V 1820 2160 50  0000 C CNN
F 2 "TestPoints:TP_1p0mm" H 2020 1845 50  0001 C CNN
F 3 "" H 2020 1845 50  0001 C CNN
	1    1820 1845
	0    -1   -1   0   
$EndComp
$Comp
L TEST_1P J6_1
U 1 1 5B33B119
P 3350 3200
F 0 "J6_1" V 3380 3250 50  0000 C CNN
F 1 "TEST_1P" V 3350 3515 50  0000 C CNN
F 2 "TestPoints:TP_1p0mm" H 3550 3200 50  0001 C CNN
F 3 "" H 3550 3200 50  0001 C CNN
	1    3350 3200
	0    -1   -1   0   
$EndComp
$Comp
L TEST_1P J6_2
U 1 1 5B33B235
P 3365 3960
F 0 "J6_2" V 3395 4010 50  0000 C CNN
F 1 "TEST_1P" V 3365 4275 50  0000 C CNN
F 2 "TestPoints:TP_1p0mm" H 3565 3960 50  0001 C CNN
F 3 "" H 3565 3960 50  0001 C CNN
	1    3365 3960
	0    -1   -1   0   
$EndComp
$Comp
L TEST_1P J8_1
U 1 1 5B33B2FD
P 3300 4240
F 0 "J8_1" V 3330 4290 50  0000 C CNN
F 1 "TEST_1P" V 3300 4555 50  0000 C CNN
F 2 "TestPoints:TP_1p0mm" H 3500 4240 50  0001 C CNN
F 3 "" H 3500 4240 50  0001 C CNN
	1    3300 4240
	0    -1   -1   0   
$EndComp
$Comp
L TEST_1P J8_2
U 1 1 5B33B3FD
P 3315 5080
F 0 "J8_2" V 3345 5130 50  0000 C CNN
F 1 "TEST_1P" V 3315 5395 50  0000 C CNN
F 2 "TestPoints:TP_1p0mm" H 3515 5080 50  0001 C CNN
F 3 "" H 3515 5080 50  0001 C CNN
	1    3315 5080
	0    -1   -1   0   
$EndComp
$Comp
L TEST_1P J7_1
U 1 1 5B33B517
P 1840 4205
F 0 "J7_1" V 1870 4255 50  0000 C CNN
F 1 "TEST_1P" V 1840 4520 50  0000 C CNN
F 2 "TestPoints:TP_1p0mm" H 2040 4205 50  0001 C CNN
F 3 "" H 2040 4205 50  0001 C CNN
	1    1840 4205
	0    -1   -1   0   
$EndComp
$Comp
L TEST_1P J7_2
U 1 1 5B33B637
P 1825 5010
F 0 "J7_2" V 1855 5060 50  0000 C CNN
F 1 "TEST_1P" V 1825 5325 50  0000 C CNN
F 2 "TestPoints:TP_1p0mm" H 2025 5010 50  0001 C CNN
F 3 "" H 2025 5010 50  0001 C CNN
	1    1825 5010
	0    -1   -1   0   
$EndComp
$Comp
L TEST_1P J2_1
U 1 1 5B33CD0B
P 3430 1020
F 0 "J2_1" V 3460 1070 50  0000 C CNN
F 1 "TEST_1P" V 3430 1335 50  0000 C CNN
F 2 "TestPoints:TP_1p0mm" H 3630 1020 50  0001 C CNN
F 3 "" H 3630 1020 50  0001 C CNN
	1    3430 1020
	0    -1   -1   0   
$EndComp
$Comp
L TEST_1P J4_1
U 1 1 5B33CE09
P 3330 2015
F 0 "J4_1" V 3360 2065 50  0000 C CNN
F 1 "TEST_1P" V 3330 2330 50  0000 C CNN
F 2 "TestPoints:TP_1p0mm" H 3530 2015 50  0001 C CNN
F 3 "" H 3530 2015 50  0001 C CNN
	1    3330 2015
	0    -1   -1   0   
$EndComp
$Comp
L TEST_1P J15_1
U 1 1 5B33D0CF
P 7695 1060
F 0 "J15_1" V 7725 1110 50  0000 C CNN
F 1 "TEST_1P" V 7695 1375 50  0000 C CNN
F 2 "TestPoints:TP_1p0mm" H 7895 1060 50  0001 C CNN
F 3 "" H 7895 1060 50  0001 C CNN
	1    7695 1060
	0    1    -1   0   
$EndComp
$Comp
L TEST_1P J15_2
U 1 1 5B33D1B7
P 7680 1795
F 0 "J15_2" V 7710 1845 50  0000 C CNN
F 1 "TEST_1P" V 7680 2110 50  0000 C CNN
F 2 "TestPoints:TP_1p0mm" H 7880 1795 50  0001 C CNN
F 3 "" H 7880 1795 50  0001 C CNN
	1    7680 1795
	0    1    -1   0   
$EndComp
$Comp
L TEST_1P J13_1
U 1 1 5B33D2AB
P 7760 2060
F 0 "J13_1" V 7790 2110 50  0000 C CNN
F 1 "TEST_1P" V 7760 2375 50  0000 C CNN
F 2 "TestPoints:TP_1p0mm" H 7960 2060 50  0001 C CNN
F 3 "" H 7960 2060 50  0001 C CNN
	1    7760 2060
	0    1    -1   0   
$EndComp
$Comp
L TEST_1P J13_2
U 1 1 5B33D37B
P 7775 2820
F 0 "J13_2" V 7805 2870 50  0000 C CNN
F 1 "TEST_1P" V 7775 3135 50  0000 C CNN
F 2 "TestPoints:TP_1p0mm" H 7975 2820 50  0001 C CNN
F 3 "" H 7975 2820 50  0001 C CNN
	1    7775 2820
	0    1    -1   0   
$EndComp
$Comp
L TEST_1P J16_1
U 1 1 5B33D473
P 9295 1120
F 0 "J16_1" V 9325 1170 50  0000 C CNN
F 1 "TEST_1P" V 9295 1435 50  0000 C CNN
F 2 "TestPoints:TP_1p0mm" H 9495 1120 50  0001 C CNN
F 3 "" H 9495 1120 50  0001 C CNN
	1    9295 1120
	0    1    -1   0   
$EndComp
$Comp
L TEST_1P J16_2
U 1 1 5B33D56B
P 9295 1820
F 0 "J16_2" V 9325 1870 50  0000 C CNN
F 1 "TEST_1P" V 9295 2135 50  0000 C CNN
F 2 "TestPoints:TP_1p0mm" H 9495 1820 50  0001 C CNN
F 3 "" H 9495 1820 50  0001 C CNN
	1    9295 1820
	0    1    -1   0   
$EndComp
$Comp
L TEST_1P J14_1
U 1 1 5B33D653
P 9340 2070
F 0 "J14_1" V 9370 2120 50  0000 C CNN
F 1 "TEST_1P" V 9340 2385 50  0000 C CNN
F 2 "TestPoints:TP_1p0mm" H 9540 2070 50  0001 C CNN
F 3 "" H 9540 2070 50  0001 C CNN
	1    9340 2070
	0    1    -1   0   
$EndComp
$Comp
L TEST_1P J14_2
U 1 1 5B33D72D
P 9335 2800
F 0 "J14_2" V 9365 2850 50  0000 C CNN
F 1 "TEST_1P" V 9335 3115 50  0000 C CNN
F 2 "TestPoints:TP_1p0mm" H 9535 2800 50  0001 C CNN
F 3 "" H 9535 2800 50  0001 C CNN
	1    9335 2800
	0    1    -1   0   
$EndComp
$Comp
L TEST_1P J12_1
U 1 1 5B33D825
P 9375 3185
F 0 "J12_1" V 9405 3235 50  0000 C CNN
F 1 "TEST_1P" V 9375 3500 50  0000 C CNN
F 2 "TestPoints:TP_1p0mm" H 9575 3185 50  0001 C CNN
F 3 "" H 9575 3185 50  0001 C CNN
	1    9375 3185
	0    1    -1   0   
$EndComp
$Comp
L TEST_1P J12_2
U 1 1 5B33DA85
P 9370 3890
F 0 "J12_2" V 9400 3940 50  0000 C CNN
F 1 "TEST_1P" V 9370 4205 50  0000 C CNN
F 2 "TestPoints:TP_1p0mm" H 9570 3890 50  0001 C CNN
F 3 "" H 9570 3890 50  0001 C CNN
	1    9370 3890
	0    1    -1   0   
$EndComp
$Comp
L TEST_1P J11_1
U 1 1 5B33DB71
P 7760 3230
F 0 "J11_1" V 7790 3280 50  0000 C CNN
F 1 "TEST_1P" V 7760 3545 50  0000 C CNN
F 2 "TestPoints:TP_1p0mm" H 7960 3230 50  0001 C CNN
F 3 "" H 7960 3230 50  0001 C CNN
	1    7760 3230
	0    1    -1   0   
$EndComp
$Comp
L TEST_1P J11_2
U 1 1 5B33DC6F
P 7750 3950
F 0 "J11_2" V 7780 4000 50  0000 C CNN
F 1 "TEST_1P" V 7750 4265 50  0000 C CNN
F 2 "TestPoints:TP_1p0mm" H 7950 3950 50  0001 C CNN
F 3 "" H 7950 3950 50  0001 C CNN
	1    7750 3950
	0    1    -1   0   
$EndComp
$Comp
L TEST_1P J9_1
U 1 1 5B33DD5D
P 7820 4345
F 0 "J9_1" V 7850 4395 50  0000 C CNN
F 1 "TEST_1P" V 7820 4660 50  0000 C CNN
F 2 "TestPoints:TP_1p0mm" H 8020 4345 50  0001 C CNN
F 3 "" H 8020 4345 50  0001 C CNN
	1    7820 4345
	0    1    -1   0   
$EndComp
$Comp
L TEST_1P J10_1
U 1 1 5B33E03B
P 9280 4265
F 0 "J10_1" V 9310 4315 50  0000 C CNN
F 1 "TEST_1P" V 9280 4580 50  0000 C CNN
F 2 "TestPoints:TP_1p0mm" H 9480 4265 50  0001 C CNN
F 3 "" H 9480 4265 50  0001 C CNN
	1    9280 4265
	0    1    -1   0   
$EndComp
$Comp
L TEST_1P J10_2
U 1 1 5B33E1A6
P 9280 4955
F 0 "J10_2" V 9310 5005 50  0000 C CNN
F 1 "TEST_1P" V 9280 5270 50  0000 C CNN
F 2 "TestPoints:TP_1p0mm" H 9480 4955 50  0001 C CNN
F 3 "" H 9480 4955 50  0001 C CNN
	1    9280 4955
	0    1    -1   0   
$EndComp
$Comp
L TEST_1P J9_2
U 1 1 5B33E298
P 7810 5040
F 0 "J9_2" V 7840 5090 50  0000 C CNN
F 1 "TEST_1P" V 7810 5355 50  0000 C CNN
F 2 "TestPoints:TP_1p0mm" H 8010 5040 50  0001 C CNN
F 3 "" H 8010 5040 50  0001 C CNN
	1    7810 5040
	0    1    -1   0   
$EndComp
Wire Wire Line
	9280 4265 8595 4265
Wire Wire Line
	8595 4265 8595 4955
Wire Wire Line
	8595 4955 9280 4955
Wire Wire Line
	7810 5040 7220 5040
Wire Wire Line
	7220 5040 7220 4345
Wire Wire Line
	7220 4345 7820 4345
Wire Wire Line
	7750 3950 7090 3950
Wire Wire Line
	7090 3950 7090 3230
Wire Wire Line
	7090 3230 7760 3230
Wire Wire Line
	9375 3185 8655 3185
Wire Wire Line
	8655 3185 8655 3890
Wire Wire Line
	8655 3890 9370 3890
Wire Wire Line
	9335 2800 8630 2800
Wire Wire Line
	8630 2800 8630 2070
Wire Wire Line
	8630 2070 9340 2070
Wire Wire Line
	7760 2060 7080 2060
Wire Wire Line
	7080 2060 7080 2820
Wire Wire Line
	7080 2820 7775 2820
Wire Wire Line
	9295 1820 8640 1820
Wire Wire Line
	8640 1820 8640 1120
Wire Wire Line
	8640 1120 9295 1120
Wire Wire Line
	7695 1060 7030 1060
Wire Wire Line
	7030 1060 7030 1795
Wire Wire Line
	7030 1795 7680 1795
Wire Wire Line
	3430 1020 4080 1020
Wire Wire Line
	4080 1020 4080 1805
Wire Wire Line
	4080 1805 3405 1805
Wire Wire Line
	3330 2015 3990 2015
Wire Wire Line
	3990 2015 3990 2825
Wire Wire Line
	3990 2825 3350 2825
Wire Wire Line
	3350 3200 3980 3200
Wire Wire Line
	3980 3200 3980 3960
Wire Wire Line
	3980 3960 3365 3960
Wire Wire Line
	3300 4240 3975 4240
Wire Wire Line
	3975 4240 3975 5080
Wire Wire Line
	3975 5080 3315 5080
Wire Wire Line
	1825 5010 2450 5010
Wire Wire Line
	2450 5010 2450 4205
Wire Wire Line
	2450 4205 1840 4205
Wire Wire Line
	1750 3900 2420 3900
Wire Wire Line
	2420 3900 2420 3115
Wire Wire Line
	2420 3115 1745 3115
Wire Wire Line
	1805 2810 2440 2810
Wire Wire Line
	2440 2810 2440 2025
Wire Wire Line
	2440 2025 1795 2025
Wire Wire Line
	1820 1845 2455 1845
Wire Wire Line
	2455 1845 2455 1015
Wire Wire Line
	2455 1015 1820 1015
$Comp
L Bare_TP TP1
U 1 1 5B3582C8
P 1710 6285
F 0 "TP1" H 1788 6485 60  0000 L CNN
F 1 "Bare_TP" H 1788 6379 60  0000 L CNN
F 2 "connectors:1pin" H 1788 6273 60  0000 L CNN
F 3 "" H 1710 6285 60  0000 C CNN
	1    1710 6285
	1    0    0    -1  
$EndComp
$Comp
L Bare_TP TP2
U 1 1 5B358BC5
P 2855 6275
F 0 "TP2" H 2933 6475 60  0000 L CNN
F 1 "Bare_TP" H 2933 6369 60  0000 L CNN
F 2 "connectors:1pin" H 2933 6263 60  0000 L CNN
F 3 "" H 2855 6275 60  0000 C CNN
	1    2855 6275
	1    0    0    -1  
$EndComp
$Comp
L Bare_TP TP3
U 1 1 5B358CBF
P 3850 6255
F 0 "TP3" H 3928 6455 60  0000 L CNN
F 1 "Bare_TP" H 3928 6349 60  0000 L CNN
F 2 "connectors:1pin" H 3928 6243 60  0000 L CNN
F 3 "" H 3850 6255 60  0000 C CNN
	1    3850 6255
	1    0    0    -1  
$EndComp
$Comp
L Bare_TP TP4
U 1 1 5B358DB5
P 4750 6235
F 0 "TP4" H 4828 6435 60  0000 L CNN
F 1 "Bare_TP" H 4828 6329 60  0000 L CNN
F 2 "connectors:1pin" H 4828 6223 60  0000 L CNN
F 3 "" H 4750 6235 60  0000 C CNN
	1    4750 6235
	1    0    0    -1  
$EndComp
Wire Wire Line
	4750 6235 4750 6400
Wire Wire Line
	4750 6400 1710 6400
Wire Wire Line
	1710 6400 1710 6285
Wire Wire Line
	2855 6275 2855 6400
Connection ~ 2855 6400
Wire Wire Line
	3850 6255 3850 6400
Connection ~ 3850 6400
Text Label 4130 6400 0    60   ~ 0
GND
$EndSCHEMATC
