(module R2010 (layer F.Cu) (tedit 56435BA7)
  (fp_text reference VAL** (at 0 -4.05) (layer F.SilkS) hide
    (effects (font (size 1 1) (thickness 0.15)))
  )
  (fp_text value R2010 (at 0 -2.4) (layer F.SilkS)
    (effects (font (size 1 1) (thickness 0.15)))
  )
  (fp_line (start 0 1.59) (end -3 1.59) (layer F.SilkS) (width 0.15))
  (fp_line (start 0 1.59) (end 3 1.59) (layer F.SilkS) (width 0.15))
  (fp_line (start 0 -1.59) (end -3 -1.59) (layer F.SilkS) (width 0.15))
  (fp_line (start 0 -1.59) (end 3 -1.59) (layer F.SilkS) (width 0.15))
  (fp_line (start 0 -1.63) (end 2.88 -1.63) (layer F.CrtYd) (width 0.15))
  (fp_line (start 2.88 -1.63) (end 2.88 1.63) (layer F.CrtYd) (width 0.15))
  (fp_line (start 2.88 1.63) (end -2.88 1.63) (layer F.CrtYd) (width 0.15))
  (fp_line (start -2.88 1.63) (end -2.88 -1.63) (layer F.CrtYd) (width 0.15))
  (fp_line (start -2.88 -1.63) (end 0 -1.63) (layer F.CrtYd) (width 0.15))
  (fp_line (start 2.5 0) (end 2.5 -1.25) (layer F.Fab) (width 0.05))
  (fp_line (start 2.5 -1.25) (end -2.5 -1.25) (layer F.Fab) (width 0.05))
  (fp_line (start -2.5 -1.25) (end -2.5 1.25) (layer F.Fab) (width 0.05))
  (fp_line (start -2.5 1.25) (end 2.5 1.25) (layer F.Fab) (width 0.05))
  (fp_line (start 2.5 1.25) (end 2.5 0) (layer F.Fab) (width 0.05))
  (pad 2 smd rect (at 2.45 0) (size 1 2.5) (layers F.Cu F.Paste F.Mask))
  (pad 1 smd rect (at -2.45 0) (size 1 2.5) (layers F.Cu F.Paste F.Mask))
)
