(footprint "D0805" (version 20211014) (generator pcbnew)
  (layer "F.Cu")
  (tedit 602C0A35)
  (attr through_hole)
  (fp_text reference "D0805" (at 0 -1.75) (layer "F.SilkS")
    (effects (font (size 0.75 0.75) (thickness 0.15)))
    (tstamp 172ae989-f18a-436d-ad62-3f9bc3c2bece)
  )
  (fp_text value "VAL**" (at 0.05 -3.15) (layer "F.SilkS") hide
    (effects (font (size 0.75 0.75) (thickness 0.15)))
    (tstamp 044fcc53-7c28-4bed-8061-50f2e6bf789e)
  )
  (fp_line (start -1.65 -0.762) (end 1.7 -0.762) (layer "F.SilkS") (width 0.15) (tstamp 2cae4c50-5bc9-4e9e-8211-945dbffa066c))
  (fp_line (start 0.508 0.762) (end 0.508 1.016) (layer "F.SilkS") (width 0.15) (tstamp 337a3884-e8cf-488e-8647-8646144edb94))
  (fp_line (start 1.65 0.762) (end -1.65 0.762) (layer "F.SilkS") (width 0.15) (tstamp 6b67f87d-0e0d-427f-a5ff-a9276eef6b94))
  (fp_line (start 0.508 -0.762) (end 0.508 -1.016) (layer "F.SilkS") (width 0.15) (tstamp 84bdbf39-9469-479b-b721-410f261b08a9))
  (fp_line (start 1.5 -1.125) (end 1.5 1.125) (layer "F.CrtYd") (width 0.15) (tstamp 5b4a7c2e-f4be-462f-b255-cf9761844778))
  (fp_line (start 1.5 1.125) (end -1.5 1.125) (layer "F.CrtYd") (width 0.15) (tstamp dd4cbef3-f075-4079-a5ec-226bfc5c6a02))
  (fp_line (start -1.5 -1.125) (end 1.5 -1.125) (layer "F.CrtYd") (width 0.15) (tstamp edc58fc6-c575-4089-9570-5ec39b29972f))
  (fp_line (start -1.5 1.125) (end -1.5 -1.125) (layer "F.CrtYd") (width 0.15) (tstamp f0c25cad-3da6-4ed3-a8f0-95eed10915bb))
  (fp_line (start 1 0.625) (end -1 0.625) (layer "F.Fab") (width 0.05) (tstamp 4b44070f-c876-4068-b434-9f02e29642d5))
  (fp_line (start -1 -0.625) (end 1 -0.625) (layer "F.Fab") (width 0.05) (tstamp 771dd014-a294-4448-9dd3-c8913c7c3421))
  (fp_line (start -1 0.625) (end -1 -0.625) (layer "F.Fab") (width 0.05) (tstamp 9e820565-7d46-4108-8bce-88c54a1558f8))
  (fp_line (start 1 -0.625) (end 1 0.625) (layer "F.Fab") (width 0.05) (tstamp bdcf2b0d-4970-4b5f-9ece-87d8265353ea))
  (pad "1" smd rect (at 0.875 0) (size 1.1 1.4) (layers "F.Cu" "F.Paste" "F.Mask") (tstamp d8a835a4-9452-4be3-8dbc-8d1eff2f8418))
  (pad "2" smd rect (at -0.875 0) (size 1.1 1.4) (layers "F.Cu" "F.Paste" "F.Mask") (tstamp 96306594-32b6-4d7f-84d1-c2fc80ec2ff1))
  (model "${KICAD_DATASHEET_DIR}/Resistors/Footprints.pretty/R0805.wrl"
    (offset (xyz 0 0 0))
    (scale (xyz 0.393701 0.393701 0.393701))
    (rotate (xyz -90 0 0))
  )
)
