(module SMD_xtal (layer F.Cu) (tedit 602C2284)
  (fp_text reference REF** (at 0 2.5) (layer F.SilkS)
    (effects (font (size 1 1) (thickness 0.15)))
  )
  (fp_text value SMD_xtal (at 0 -2.25) (layer F.Fab)
    (effects (font (size 1 1) (thickness 0.15)))
  )
  (fp_arc (start 2.75 0) (end 2.75 1.5) (angle -180) (layer F.SilkS) (width 0.15))
  (fp_arc (start -2.75 0) (end -2.75 -1.5) (angle -180) (layer F.SilkS) (width 0.15))
  (fp_line (start -2.75 -1.5) (end 2.75 -1.5) (layer F.SilkS) (width 0.15))
  (fp_line (start 2.75 1.5) (end -2.75 1.5) (layer F.SilkS) (width 0.15))
  (pad 1 smd rect (at 2.75 0) (size 3.5 1.2) (layers F.Cu F.Paste F.Mask))
  (pad 2 smd rect (at -2.75 0) (size 3.5 1.2) (layers F.Cu F.Paste F.Mask))
)
