(footprint "SOT523" (version 20211014) (generator pcbnew)
  (layer "F.Cu")
  (tedit 5547D07A)
  (attr through_hole)
  (fp_text reference "REF**" (at 0.1 -1.8) (layer "F.SilkS")
    (effects (font (size 0.75 0.75) (thickness 0.15)))
    (tstamp 1ede78b6-8d22-445a-b243-7a0b306af78f)
  )
  (fp_text value "SOT523" (at 0 -2.8) (layer "F.Fab") hide
    (effects (font (size 0.75 0.75) (thickness 0.15)))
    (tstamp 06eaae22-d656-4e27-9c23-0c25abc35a79)
  )
  (fp_line (start 1.1 0) (end 1.1 0.8) (layer "F.SilkS") (width 0.15) (tstamp 1e83fbd2-41bc-4c21-8d5b-8a41749b1d17))
  (fp_line (start -1.1 0) (end -1.1 0.8) (layer "F.SilkS") (width 0.15) (tstamp 8bcaa2f0-6e9d-4797-9eab-5364808d9c58))
  (fp_line (start 1.1 0) (end -1.1 0) (layer "F.SilkS") (width 0.15) (tstamp b5d1892b-4f57-49cc-baf6-930870162e0a))
  (fp_line (start -0.6 0) (end -0.6 -0.6) (layer "F.SilkS") (width 0.15) (tstamp bb7fcb9d-6936-447b-a4c5-c82c82cc8b5c))
  (fp_line (start 0.6 0) (end 0.6 -0.6) (layer "F.SilkS") (width 0.15) (tstamp e1166281-efad-4d5e-9524-aed946fdae40))
  (fp_line (start -1.3 1.3) (end -1.3 -1.3) (layer "F.CrtYd") (width 0.15) (tstamp 7615f43d-054a-4a0c-955d-6ed30450ca10))
  (fp_line (start 1.3 -1.3) (end 1.3 1.3) (layer "F.CrtYd") (width 0.15) (tstamp 8b8365f5-e817-460f-baf8-491b92477b91))
  (fp_line (start -1.3 -1.3) (end 1.3 -1.3) (layer "F.CrtYd") (width 0.15) (tstamp eb46b1f7-0450-4238-8d07-ec60bc3fb3b6))
  (fp_line (start 1.3 1.3) (end -1.3 1.3) (layer "F.CrtYd") (width 0.15) (tstamp f1595eca-3533-41af-8088-a2f08d5a0812))
  (fp_line (start -0.61 0.8) (end -0.39 0.8) (layer "F.Fab") (width 0.05) (tstamp 211cabcb-4b6d-4ff5-ab0f-52ac8cdbcde7))
  (fp_line (start 0.39 0.8) (end 0.61 0.8) (layer "F.Fab") (width 0.05) (tstamp 2987461e-37fe-4dd3-ab53-608f26425653))
  (fp_line (start -0.8 0.4) (end -0.8 -0.4) (layer "F.Fab") (width 0.05) (tstamp 40236a0e-dd6c-4c70-9447-d8710e13fe98))
  (fp_line (start 0.61 0.8) (end 0.61 0.4) (layer "F.Fab") (width 0.05) (tstamp 4be75775-cf0a-4f23-a79b-5af4a972f570))
  (fp_line (start -0.11 -0.4) (end -0.11 -0.8) (layer "F.Fab") (width 0.05) (tstamp 556cabfb-6a0e-4d9a-bf59-d536fe8d85e2))
  (fp_line (start 0.8 0.4) (end -0.8 0.4) (layer "F.Fab") (width 0.05) (tstamp 85c687ba-6558-45b3-8a2f-d79ae69a1321))
  (fp_line (start -0.61 0.4) (end -0.61 0.8) (layer "F.Fab") (width 0.05) (tstamp ba386ff1-f6d8-49bf-9278-5ca2072c418f))
  (fp_line (start -0.8 -0.4) (end 0.8 -0.4) (layer "F.Fab") (width 0.05) (tstamp c38fa2e3-b02c-40f5-8fc7-0b402dfeb74c))
  (fp_line (start -0.39 0.8) (end -0.39 0.4) (layer "F.Fab") (width 0.05) (tstamp ca5a81ba-0ccf-49ac-880c-acb36cf63b15))
  (fp_line (start 0.8 -0.4) (end 0.8 0.4) (layer "F.Fab") (width 0.05) (tstamp d88cb784-697a-42ff-9ffa-daa0db0f590b))
  (fp_line (start 0.11 -0.8) (end 0.11 -0.4) (layer "F.Fab") (width 0.05) (tstamp df8454b3-c85f-47d3-a38c-8723ae944096))
  (fp_line (start -0.11 -0.8) (end 0.11 -0.8) (layer "F.Fab") (width 0.05) (tstamp edcc906d-909b-4d11-bbed-1be559812c07))
  (fp_line (start 0.39 0.4) (end 0.39 0.8) (layer "F.Fab") (width 0.05) (tstamp fd226039-e977-4925-8c1d-3b0e3a6a98d1))
  (pad "1" smd rect (at -0.5 0.65) (size 0.4 0.51) (layers "F.Cu" "F.Paste" "F.Mask") (tstamp 9f425e23-230b-4459-9fce-cd6998e06a84))
  (pad "2" smd rect (at 0.5 0.65) (size 0.4 0.51) (layers "F.Cu" "F.Paste" "F.Mask") (tstamp a62c188b-8b42-4b67-95bb-729fc9d98ee7))
  (pad "3" smd rect (at 0 -0.65) (size 0.4 0.51) (layers "F.Cu" "F.Paste" "F.Mask") (tstamp b0e1720a-39d0-429c-b43e-bf234d7c65d9))
  (model "${KICAD_DATASHEET_DIR}/Discretes/Footprints.pretty/SOT523.wrl"
    (offset (xyz 0.7873999882 -0.7873999882 0))
    (scale (xyz 0.3937 0.3937 0.3937))
    (rotate (xyz 90 180 0))
  )
)
