EESchema Schematic File Version 2
LIBS:ICs
LIBS:Capacitors
LIBS:Connectors
LIBS:Discretes
LIBS:Allegro
LIBS:Resistors
LIBS:TestPoints
LIBS:A1332_Demo_Board-cache
EELAYER 25 0
EELAYER END
$Descr A4 11693 8268
encoding utf-8
Sheet 1 1
Title ""
Date ""
Rev ""
Comp ""
Comment1 ""
Comment2 ""
Comment3 ""
Comment4 ""
$EndDescr
$Comp
L 100n-AC C1
U 1 1 567629D5
P 4150 3750
F 0 "C1" H 4310 3860 60  0000 C CNN
F 1 "100n-AC" H 4426 3784 60  0000 C CNN
F 2 "Capacitors_SMD:C_0805_HandSoldering" H 4150 3450 60  0001 C CNN
F 3 "" H 4150 3752 60  0000 C CNN
F 4 "445-5932-1-ND" H 4466 3954 60  0001 C CNN "DigikeyPN"
F 5 "50V" H 4342 3686 60  0000 C CNN "MaxVoltage"
	1    4150 3750
	1    0    0    -1  
$EndComp
$Comp
L 100n-AC C2
U 1 1 56762DB8
P 4150 4500
F 0 "C2" H 4310 4610 60  0000 C CNN
F 1 "100n-AC" H 4426 4534 60  0000 C CNN
F 2 "Capacitors_SMD:C_0805_HandSoldering" H 4150 4200 60  0001 C CNN
F 3 "" H 4150 4502 60  0000 C CNN
F 4 "445-5932-1-ND" H 4466 4704 60  0001 C CNN "DigikeyPN"
F 5 "50V" H 4342 4436 60  0000 C CNN "MaxVoltage"
	1    4150 4500
	1    0    0    -1  
$EndComp
$Comp
L JUMPER3 JP1
U 1 1 56763A3E
P 4150 3150
F 0 "JP1" H 4200 3050 50  0000 L CNN
F 1 "JUMPER3" H 4150 3250 50  0000 C BNN
F 2 "Pin_Headers:Pin_Header_Straight_1x03" H 4150 3550 60  0001 C CNN
F 3 "" H 4150 3150 60  0000 C CNN
	1    4150 3150
	1    0    0    -1  
$EndComp
$Comp
L JUMPER3 JP2
U 1 1 56763AF1
P 4150 2400
F 0 "JP2" H 4200 2300 50  0000 L CNN
F 1 "JUMPER3" H 4150 2500 50  0000 C BNN
F 2 "Pin_Headers:Pin_Header_Straight_1x03" H 4150 2700 60  0001 C CNN
F 3 "" H 4150 2400 60  0000 C CNN
	1    4150 2400
	1    0    0    -1  
$EndComp
$Comp
L Bare_TP TP3
U 1 1 5677DE46
P 5250 5300
F 0 "TP3" H 5400 5550 60  0000 C CNN
F 1 "SDA" H 5100 5550 60  0000 C CNN
F 2 "Pin_Headers:Pin_Header_Straight_1x01" H 4700 4800 60  0001 C CNN
F 3 "" H 5250 5300 60  0000 C CNN
	1    5250 5300
	1    0    0    -1  
$EndComp
$Comp
L Bare_TP TP6
U 1 1 5677DFBE
P 6750 5300
F 0 "TP6" H 6900 5550 60  0000 C CNN
F 1 "A1" H 6600 5550 60  0000 C CNN
F 2 "Pin_Headers:Pin_Header_Straight_1x01" H 6850 4350 60  0001 C CNN
F 3 "" H 6750 5300 60  0000 C CNN
	1    6750 5300
	1    0    0    -1  
$EndComp
$Comp
L Bare_TP TP5
U 1 1 5677E01E
P 6250 5300
F 0 "TP5" H 6400 5550 60  0000 C CNN
F 1 "A2" H 6100 5550 60  0000 C CNN
F 2 "Pin_Headers:Pin_Header_Straight_1x01" H 6000 4500 60  0001 C CNN
F 3 "" H 6250 5300 60  0000 C CNN
	1    6250 5300
	1    0    0    -1  
$EndComp
$Comp
L Bare_TP TP7
U 1 1 5677E043
P 7300 5300
F 0 "TP7" H 7450 5550 60  0000 C CNN
F 1 "IO1" H 7150 5550 60  0000 C CNN
F 2 "Pin_Headers:Pin_Header_Straight_1x01" H 8000 4500 60  0001 C CNN
F 3 "" H 7300 5300 60  0000 C CNN
	1    7300 5300
	1    0    0    -1  
$EndComp
$Comp
L Bare_TP TP8
U 1 1 5677E074
P 7850 5300
F 0 "TP8" H 8000 5550 60  0000 C CNN
F 1 "IO2" H 7700 5550 60  0000 C CNN
F 2 "Pin_Headers:Pin_Header_Straight_1x01" H 8500 4650 60  0001 C CNN
F 3 "" H 7850 5300 60  0000 C CNN
	1    7850 5300
	1    0    0    -1  
$EndComp
$Comp
L ProbeGround PGND1
U 1 1 5677E0BA
P 8950 2800
F 0 "PGND1" H 9250 3450 60  0001 C CNN
F 1 "ProbeGround" H 8950 3350 60  0000 C CNN
F 2 "TestPoints:PROBEGND" H 8950 2800 60  0001 C CNN
F 3 "" H 8950 2800 60  0000 C CNN
	1    8950 2800
	1    0    0    -1  
$EndComp
$Comp
L Bare_TP TP2
U 1 1 5677E0DA
P 4750 5300
F 0 "TP2" H 4900 5550 60  0000 C CNN
F 1 "SCL" H 4600 5550 60  0000 C CNN
F 2 "Pin_Headers:Pin_Header_Straight_1x01" H 4050 4950 60  0001 C CNN
F 3 "" H 4750 5300 60  0000 C CNN
	1    4750 5300
	1    0    0    -1  
$EndComp
$Comp
L Bare_TP TP4
U 1 1 5677E129
P 5750 5300
F 0 "TP4" H 5900 5550 60  0000 C CNN
F 1 "GND" H 5600 5550 60  0000 C CNN
F 2 "Pin_Headers:Pin_Header_Straight_1x01" H 5250 4650 60  0001 C CNN
F 3 "" H 5750 5300 60  0000 C CNN
	1    5750 5300
	1    0    0    -1  
$EndComp
$Comp
L Bare_TP TP1
U 1 1 5677E162
P 4300 5300
F 0 "TP1" H 4450 5550 60  0000 C CNN
F 1 "5V" H 4150 5550 60  0000 C CNN
F 2 "Pin_Headers:Pin_Header_Straight_1x01" H 3500 5100 60  0001 C CNN
F 3 "" H 4300 5300 60  0000 C CNN
	1    4300 5300
	1    0    0    -1  
$EndComp
Text Label 5300 4050 2    60   ~ 0
+5V
Wire Wire Line
	5450 4050 5300 4050
Wire Wire Line
	4400 3150 4550 3150
Wire Wire Line
	4400 2400 4550 2400
Wire Wire Line
	3900 3150 3750 3150
Wire Wire Line
	3900 2400 3750 2400
Wire Wire Line
	4150 3250 4150 3350
Wire Wire Line
	4150 2500 4150 2600
Text Label 4550 3150 1    60   ~ 0
+3.3V
Text Label 3750 3150 1    60   ~ 0
GND
Text Label 3750 2400 1    60   ~ 0
GND
Text Label 4550 2400 1    60   ~ 0
+3.3V
Text Label 4150 3350 1    60   ~ 0
SA0
Text Label 4150 2600 1    60   ~ 0
SA1
Wire Wire Line
	5450 4250 5300 4250
Text Label 5300 4250 2    60   ~ 0
GND
Wire Wire Line
	5450 4150 5300 4150
Text Label 5300 4150 2    60   ~ 0
+5V
Wire Wire Line
	5450 3950 5300 3950
Text Label 5300 3950 2    60   ~ 0
GND
Wire Wire Line
	5450 3850 5300 3850
Text Label 5300 3850 2    60   ~ 0
GND
Wire Wire Line
	5450 3650 5300 3650
Text Label 5300 3650 2    60   ~ 0
GND
Wire Wire Line
	6950 4150 7100 4150
Text Label 7100 4150 2    60   ~ 0
GND
Wire Wire Line
	6950 3650 7100 3650
Text Label 7100 3650 2    60   ~ 0
GND
Wire Wire Line
	5450 3750 5300 3750
Text Label 5300 3750 2    60   ~ 0
BYP
Wire Wire Line
	4150 4350 4150 4250
Text Label 4150 4250 2    60   ~ 0
BYP
Wire Wire Line
	4150 3600 4150 3500
Text Label 4150 3500 2    60   ~ 0
+5V
Wire Wire Line
	4150 3900 4150 4000
Text Label 4150 4000 2    60   ~ 0
GND
Wire Wire Line
	4150 4650 4150 4750
Text Label 4150 4750 2    60   ~ 0
GND
Wire Wire Line
	4300 5300 4300 5400
Wire Wire Line
	5750 5300 5750 5400
Wire Wire Line
	4750 5300 4750 5400
Wire Wire Line
	5250 5300 5250 5400
Wire Wire Line
	6750 5300 6750 5400
Wire Wire Line
	6250 5300 6250 5400
Wire Wire Line
	7300 5300 7300 5400
Wire Wire Line
	7850 5300 7850 5400
Text Label 4300 5400 2    60   ~ 0
+5V
Text Label 5750 5400 2    60   ~ 0
GND
Text Label 4750 5400 2    60   ~ 0
SCL
Text Label 5250 5400 2    60   ~ 0
SDA
Text Label 6750 5400 2    60   ~ 0
A1
Text Label 6250 5400 2    60   ~ 0
A2
Text Label 7300 5400 2    60   ~ 0
IO1
Text Label 7850 5400 2    60   ~ 0
IO2
Wire Wire Line
	8650 2900 9250 2900
Text Label 8950 2900 2    60   ~ 0
GND
Wire Wire Line
	6950 3750 7100 3750
Wire Wire Line
	6950 3850 7100 3850
Text Label 7100 3750 2    60   ~ 0
SA0
Text Label 7100 3850 2    60   ~ 0
SA1
Wire Wire Line
	7600 2800 7600 2950
Wire Wire Line
	8150 2800 8150 2950
Wire Wire Line
	7600 2400 7600 2300
Wire Wire Line
	8150 2400 8150 2300
Text Label 7600 2950 1    60   ~ 0
SCL
Text Label 8150 2950 1    60   ~ 0
SDA
Text Label 7600 2300 1    60   ~ 0
+3.3V
Text Label 8150 2300 1    60   ~ 0
+3.3V
Wire Wire Line
	6950 3950 7100 3950
Wire Wire Line
	6950 4050 7100 4050
Text Label 7100 3950 2    60   ~ 0
SCL
Text Label 7100 4050 2    60   ~ 0
SDA
Wire Wire Line
	6950 4250 7100 4250
Text Label 7100 4250 2    60   ~ 0
GND
$Comp
L 100k-AF R1
U 1 1 56783527
P 7600 2600
F 0 "R1" H 7600 2796 60  0000 C CNN
F 1 "2K" H 7500 2700 60  0000 C CNN
F 2 "Resistors_SMD:R_0805_HandSoldering" H 7600 2600 60  0001 C CNN
F 3 "" H 7700 2750 60  0000 C CNN
F 4 "P100KJCT-ND" H 7618 2868 60  0001 C CNN "DigikeyPN"
F 5 "5%" H 7800 2700 60  0000 C CNN "Precision"
	1    7600 2600
	0    1    1    0   
$EndComp
$Comp
L 100k-AF R2
U 1 1 5678359A
P 8150 2600
F 0 "R2" H 8150 2796 60  0000 C CNN
F 1 "2K" H 8050 2700 60  0000 C CNN
F 2 "Resistors_SMD:R_0805_HandSoldering" H 8150 2600 60  0001 C CNN
F 3 "" H 8250 2750 60  0000 C CNN
F 4 "P100KJCT-ND" H 8168 2868 60  0001 C CNN "DigikeyPN"
F 5 "5%" H 8350 2700 60  0000 C CNN "Precision"
	1    8150 2600
	0    1    1    0   
$EndComp
Wire Wire Line
	7650 3800 8000 3800
Wire Wire Line
	7650 3900 8000 3900
Wire Wire Line
	7650 4000 8000 4000
Wire Wire Line
	7650 4100 8000 4100
Wire Wire Line
	8900 3800 9350 3800
Wire Wire Line
	8900 3900 9350 3900
Wire Wire Line
	8900 4000 9350 4000
Wire Wire Line
	8900 4100 9350 4100
Text Label 7650 3800 2    60   ~ 0
+5V
Text Label 7650 3900 2    60   ~ 0
SDA
Text Label 9350 3800 2    60   ~ 0
SCL
Text Label 7650 4000 2    60   ~ 0
A2
Text Label 9350 3900 2    60   ~ 0
GND
Text Label 9350 4000 2    60   ~ 0
A1
Text Label 7650 4100 2    60   ~ 0
IO1
Text Label 9350 4100 2    60   ~ 0
IO2
$Comp
L A1332 U2
U 1 1 56787914
P 6200 3950
F 0 "U2" H 6200 3850 50  0000 C CNN
F 1 "A1332" H 6200 4050 50  0000 C CNN
F 2 "ICs:14-TSSOP" H 6200 3950 50  0001 C CNN
F 3 "DOCUMENTATION" H 6200 3950 50  0001 C CNN
F 4 "620-1687-1-ND" H 6300 3950 60  0001 C CNN "DigikeyPN"
	1    6200 3950
	1    0    0    -1  
$EndComp
$Comp
L Sullins_Header_8Pin J?
U 1 1 567DC7BE
P 8450 4050
F 0 "J?" H 8450 4350 60  0000 C CNN
F 1 "Sullins_Header_8Pin" H 8450 4450 60  0000 C CNN
F 2 "Connectors_Molex:Connector_Microfit3_Header_02x04_Straight_43045-0828" H 8450 4050 60  0001 C CNN
F 3 "" H 8450 4350 60  0000 C CNN
F 4 "S2111EC-04-ND" H 8450 4550 60  0001 C CNN "DigikeyPN"
	1    8450 4050
	1    0    0    -1  
$EndComp
$EndSCHEMATC
