EESchema Schematic File Version 2
LIBS:PowerAmp-rescue
LIBS:Capacitors
LIBS:Connectors
LIBS:Discretes
LIBS:ICs
LIBS:Allegro
LIBS:Resistors
LIBS:TestPoints
LIBS:PowerAmp-cache
EELAYER 26 0
EELAYER END
$Descr A4 11693 8268
encoding utf-8
Sheet 1 1
Title "Power Op-Amp"
Date ""
Rev ""
Comp "Allegro Microsystems LLC"
Comment1 ""
Comment2 ""
Comment3 ""
Comment4 ""
$EndDescr
$Comp
L 2.7k-FE R4
U 1 1 564A4F2F
P 5895 5855
F 0 "R4" H 5895 6051 60  0000 C CNN
F 1 "2.7k-FE" H 5795 5955 60  0000 C CNN
F 2 "Resistors:R2010" H 5895 5755 60  0001 C CNN
F 3 "" H 5995 6005 60  0000 C CNN
F 4 "541-2.70KACDKR-ND" H 5913 6123 60  0001 C CNN "DigikeyPN"
F 5 "1%" H 6095 5955 60  0000 C CNN "Precision"
	1    5895 5855
	0    1    1    0   
$EndComp
$Comp
L 300-CE R5
U 1 1 564F3564
P 5895 7005
F 0 "R5" H 5895 7201 60  0000 C CNN
F 1 "300-CE" H 5795 7105 60  0000 C CNN
F 2 "Resistors:R0805" H 5895 7005 60  0001 C CNN
F 3 "" H 5995 7155 60  0000 C CNN
F 4 "541-300CCT-ND" H 5913 7273 60  0001 C CNN "DigikeyPN"
F 5 "1%" H 6095 7105 60  0000 C CNN "Precision"
	1    5895 7005
	0    1    1    0   
$EndComp
$Comp
L 49.9-CE R1
U 1 1 564F42C5
P 2595 5985
F 0 "R1" H 2595 6181 60  0000 C CNN
F 1 "49.9-CE" H 2495 6085 60  0000 C CNN
F 2 "Resistors:R0805" H 2595 5985 60  0001 C CNN
F 3 "" H 2695 6135 60  0000 C CNN
F 4 "RHM49.9AECT-ND" H 2613 6253 60  0001 C CNN "DigikeyPN"
F 5 "1%" H 2795 6085 60  0000 C CNN "Precision"
	1    2595 5985
	0    1    1    0   
$EndComp
$Comp
L 22p-CG C7
U 1 1 5735E0E3
P 5045 5905
F 0 "C7" H 5205 6015 60  0000 C CNN
F 1 "22p-BG" H 5301 5925 60  0000 C CNN
F 2 "Capacitors:C0603" H 5045 6195 60  0001 C CNN
F 3 "" H 5045 5907 60  0000 C CNN
F 4 "490-1335-1-ND" H 5361 6109 60  0001 C CNN "DigikeyPN"
F 5 "100V" H 5237 5841 60  0000 C CNN "MaxVoltage"
	1    5045 5905
	0    1    1    0   
$EndComp
Text Notes 7660 5305 0    60   ~ 0
BNC Connector for output
Text Notes 1305 4825 0    60   ~ 0
BNC Connector for Vin
Text Notes 3600 1250 0    60   ~ 0
Reverse protection here
Text Notes 4770 4545 0    60   ~ 0
RCL+/- are Open. Put unpopulated resistors here on layout to Vsupply +/-?
$Comp
L 1u-EC C4
U 1 1 57360883
P 5600 1600
F 0 "C4" H 5760 1710 60  0000 C CNN
F 1 "1u-EC" H 5856 1620 60  0000 C CNN
F 2 "Capacitors:C1206" H 5600 1890 60  0001 C CNN
F 3 "" H 5600 1602 60  0000 C CNN
F 4 "490-3909-1-ND	" H 5916 1804 60  0001 C CNN "DigikeyPN"
F 5 "100V" H 5792 1536 60  0000 C CNN "MaxVoltage"
	1    5600 1600
	1    0    0    -1  
$EndComp
$Comp
L 10n-BC C6
U 1 1 57361BC6
P 6200 1600
F 0 "C6" H 6360 1710 60  0000 C CNN
F 1 "10n-BC" H 6456 1620 60  0000 C CNN
F 2 "Capacitors:C0603" H 6200 1890 60  0001 C CNN
F 3 "" H 6200 1602 60  0000 C CNN
F 4 "490-5771-1-ND" H 6516 1804 60  0001 C CNN "DigikeyPN"
F 5 "100V" H 6392 1536 60  0000 C CNN "MaxVoltage"
	1    6200 1600
	1    0    0    -1  
$EndComp
$Comp
L 10u-FC C2
U 1 1 57362054
P 5000 1600
F 0 "C2" H 5160 1710 60  0000 C CNN
F 1 "10u-FC" H 5256 1620 60  0000 C CNN
F 2 "Capacitors:C1210" H 5000 1890 60  0001 C CNN
F 3 "" H 5000 1602 60  0000 C CNN
F 4 "399-11629-1-ND" H 5316 1804 60  0001 C CNN "DigikeyPN"
F 5 "63V" H 5192 1536 60  0000 C CNN "MaxVoltage"
	1    5000 1600
	1    0    0    -1  
$EndComp
Text Label 5785 1350 0    60   ~ 0
Vsupply(+)
$Comp
L PA119CE U1
U 1 1 5735E852
P 4545 5305
F 0 "U1" H 5070 5605 60  0000 C CNN
F 1 "PA119CE" H 5070 5505 60  0000 C CNN
F 2 "ICs:TO-3-8_socket" H 4395 5955 60  0000 C CNN
F 3 "" H 4395 5955 60  0000 C CNN
F 4 "598-1311-ND" H 5095 5705 60  0001 C CNN "DigikeyPN"
	1    4545 5305
	1    0    0    -1  
$EndComp
Text Label 3945 6005 2    60   ~ 0
Vsupply(-)
Text Label 2855 2310 0    60   ~ 0
GND
Text Notes 1240 1375 0    60   ~ 0
Bananna jack for Vin(+)
Text Notes 1335 2370 0    60   ~ 0
Bananna jack for GND
Text Notes 1630 3245 0    60   ~ 0
Bananna jack for Vin(-)
$Comp
L 10n-BC C5
U 1 1 57364A79
P 6205 2560
F 0 "C5" H 6365 2670 60  0000 C CNN
F 1 "10n-BC" H 6461 2580 60  0000 C CNN
F 2 "Capacitors:C0603" H 6205 2850 60  0001 C CNN
F 3 "" H 6205 2562 60  0000 C CNN
F 4 "490-5771-1-ND" H 6521 2764 60  0001 C CNN "DigikeyPN"
F 5 "100V" H 6397 2496 60  0000 C CNN "MaxVoltage"
	1    6205 2560
	1    0    0    1   
$EndComp
$Comp
L 1u-EC C3
U 1 1 57364B24
P 5605 2560
F 0 "C3" H 5765 2670 60  0000 C CNN
F 1 "1u-EC" H 5861 2580 60  0000 C CNN
F 2 "Capacitors:C1206" H 5605 2850 60  0001 C CNN
F 3 "" H 5605 2562 60  0000 C CNN
F 4 "490-3909-1-ND" H 5921 2764 60  0001 C CNN "DigikeyPN"
F 5 "100V" H 5797 2496 60  0000 C CNN "MaxVoltage"
	1    5605 2560
	1    0    0    1   
$EndComp
$Comp
L 10u-FC C1
U 1 1 57364BCE
P 5005 2560
F 0 "C1" H 5165 2670 60  0000 C CNN
F 1 "10u-FC" H 5261 2580 60  0000 C CNN
F 2 "Capacitors:C1210" H 5005 2850 60  0001 C CNN
F 3 "" H 5005 2562 60  0000 C CNN
F 4 "399-11629-1-ND" H 5321 2764 60  0001 C CNN "DigikeyPN"
F 5 "63V" H 5197 2496 60  0000 C CNN "MaxVoltage"
	1    5005 2560
	1    0    0    1   
$EndComp
Text Notes 4170 3400 0    60   ~ 0
Reverse protection here
Text Label 5710 3265 0    60   ~ 0
Vsupply(-)
Text Label 2595 6485 0    60   ~ 0
GND
Text Label 6565 5305 0    60   ~ 0
Vout
Text Label 1830 5515 0    60   ~ 0
GND
Text Label 2260 5155 0    60   ~ 0
Vin
Text Label 5895 7555 0    60   ~ 0
GND
Text Label 7295 5665 2    60   ~ 0
GND
$Comp
L BNC_Conn-RESCUE-PowerAmp VIN1
U 1 1 573A19A5
P 1770 5155
F 0 "VIN1" H 1770 5355 60  0000 C CNN
F 1 "BNC_Conn" H 1800 5455 60  0001 C CNN
F 2 "Connectors:MOL0731375003" H 1770 5445 60  0000 C CNN
F 3 "" H 1770 5155 60  0000 C CNN
F 4 "WM5514-ND" H 1800 5545 60  0001 C CNN "DigkeyKey Part#"
	1    1770 5155
	1    0    0    -1  
$EndComp
$Comp
L BNC_Conn-RESCUE-PowerAmp VOUT1
U 1 1 573A1B64
P 7355 5305
F 0 "VOUT1" H 7355 5505 60  0000 C CNN
F 1 "BNC_Conn" H 7385 5605 60  0001 C CNN
F 2 "Connectors:MOL0731375003" H 7355 5575 60  0000 C CNN
F 3 "" H 7355 5305 60  0000 C CNN
F 4 "WM5514-ND" H 7385 5695 60  0001 C CNN "DigkeyKey Part#"
	1    7355 5305
	-1   0    0    -1  
$EndComp
$Comp
L Banana_Red_Conn-RESCUE-PowerAmp Vsupply(+)1
U 1 1 573A21F8
P 2525 1350
F 0 "Vsupply(+)1" H 2525 1550 60  0000 C CNN
F 1 "Banana_Red_Conn" H 2555 1650 60  0001 C CNN
F 2 "Connectors:CINCH1110703001" H 2370 1135 60  0001 C CNN
F 3 "" H 2525 1350 60  0000 C CNN
F 4 "501-1080-ND" H 2555 1740 60  0001 C CNN "DigkeyKey Part#"
	1    2525 1350
	1    0    0    -1  
$EndComp
$Comp
L Banana_Red_Conn-RESCUE-PowerAmp VSupply(-)1
U 1 1 573A2544
P 2930 3265
F 0 "VSupply(-)1" H 2930 3465 60  0000 C CNN
F 1 "Banana_Red_Conn" H 2960 3565 60  0001 C CNN
F 2 "Connectors:CINCH1110703001" H 2350 3025 60  0001 C CNN
F 3 "" H 2930 3265 60  0000 C CNN
F 4 "501-1080-ND" H 2960 3655 60  0001 C CNN "DigkeyKey Part#"
	1    2930 3265
	1    0    0    -1  
$EndComp
$Comp
L Banana_Black_Conn-RESCUE-PowerAmp GND1
U 1 1 573A2C84
P 2530 2310
F 0 "GND1" H 2530 2510 60  0000 C CNN
F 1 "Banana_Black_Conn" H 2560 2610 60  0001 C CNN
F 2 "Connectors:CINCH1110703001" H 2420 2050 60  0001 C CNN
F 3 "" H 2530 2310 60  0000 C CNN
F 4 "501-1078-ND" H 2560 2700 60  0001 C CNN "DigkeyKey Part#"
	1    2530 2310
	1    0    0    -1  
$EndComp
$Comp
L HEATSINK_8P_TO_3.45CW U2
U 1 1 58D2849A
P 8860 2900
F 0 "U2" H 8860 2800 60  0000 C CNN
F 1 "HEATSINK_8P_TO_3.45CW" H 8860 2900 60  0000 C CNN
F 2 "Connectors:HEATSINK" H 8860 2900 60  0001 C CNN
F 3 "" H 8860 2900 60  0001 C CNN
	1    8860 2900
	1    0    0    -1  
$EndComp
$Comp
L 100k-BE R7
U 1 1 59A712E0
P 4295 2110
F 0 "R7" H 4295 2306 60  0000 C CNN
F 1 "100k-BE" H 4195 2210 60  0000 C CNN
F 2 "Resistors:R0603" H 4295 2110 60  0001 C CNN
F 3 "" H 4395 2260 60  0000 C CNN
F 4 "P100KHCT-ND" H 4313 2378 60  0001 C CNN "DigikeyPN"
F 5 "1%" H 4495 2210 60  0000 C CNN "Precision"
	1    4295 2110
	0    1    1    0   
$EndComp
$Comp
L 100k-BE R6
U 1 1 59A71597
P 4295 2510
F 0 "R6" H 4295 2706 60  0000 C CNN
F 1 "100k-BE" H 4195 2610 60  0000 C CNN
F 2 "Resistors:R0603" H 4295 2510 60  0001 C CNN
F 3 "" H 4395 2660 60  0000 C CNN
F 4 "P100KHCT-ND" H 4313 2778 60  0001 C CNN "DigikeyPN"
F 5 "1%" H 4495 2610 60  0000 C CNN "Precision"
	1    4295 2510
	0    1    -1   0   
$EndComp
$Comp
L SP1003 D1
U 1 1 59A723F0
P 4295 3115
F 0 "D1" H 4411 3025 60  0000 C CNN
F 1 "SP1003" H 4060 3120 60  0000 C CNN
F 2 "Discretes:SOD882" H 3928 3311 60  0001 C CNN
F 3 "" H 4295 3115 60  0000 C CNN
F 4 "F4088CT-ND" H 4128 3511 60  0001 C CNN "DigikeyPN"
F 5 "6V" H 4423 3119 60  0000 C CNN "Clamp"
	1    4295 3115
	-1   0    0    -1  
$EndComp
$Comp
L SP1003 D2
U 1 1 59A725F3
P 4295 1610
F 0 "D2" H 4411 1520 60  0000 C CNN
F 1 "SP1003" H 4055 1610 60  0000 C CNN
F 2 "Discretes:SOD882" H 3928 1806 60  0001 C CNN
F 3 "" H 4295 1610 60  0000 C CNN
F 4 "F4088CT-ND" H 4128 2006 60  0001 C CNN "DigikeyPN"
F 5 "6V" H 4423 1614 60  0000 C CNN "Clamp"
	1    4295 1610
	1    0    0    -1  
$EndComp
Wire Wire Line
	2095 5155 4095 5155
Wire Wire Line
	2595 5785 2595 5485
Wire Wire Line
	2595 6185 2595 6485
Wire Wire Line
	5295 5300 5295 5905
Wire Wire Line
	4895 5905 4795 5905
Wire Wire Line
	4795 5905 4795 5555
Wire Wire Line
	5895 5300 5895 5655
Wire Wire Line
	5895 6055 5895 6805
Connection ~ 5895 6455
Wire Wire Line
	3395 6455 6090 6455
Wire Wire Line
	5295 5905 5195 5905
Wire Wire Line
	4595 4955 4595 4455
Wire Wire Line
	4595 5655 4595 6105
Connection ~ 5895 5305
Wire Wire Line
	5895 7205 5895 7555
Wire Wire Line
	6200 1350 6200 1450
Wire Wire Line
	6205 2310 6200 1750
Connection ~ 6205 2310
Wire Wire Line
	5600 1350 5600 1450
Connection ~ 5600 1350
Wire Wire Line
	5605 2310 5600 1750
Connection ~ 5605 2310
Wire Wire Line
	5005 2310 5000 1750
Connection ~ 5005 2310
Wire Wire Line
	4295 4605 4295 4805
Wire Wire Line
	3945 4605 4295 4605
Wire Wire Line
	2855 2310 6205 2310
Wire Wire Line
	6205 3265 6205 2710
Wire Wire Line
	6205 2310 6205 2410
Wire Wire Line
	5605 3265 5605 2710
Connection ~ 5605 3265
Wire Wire Line
	5605 2410 5605 2310
Wire Wire Line
	5005 3265 5005 2710
Connection ~ 5005 3265
Wire Wire Line
	5005 2410 5005 2310
Wire Wire Line
	4195 4455 4120 4455
Wire Wire Line
	4120 4455 4120 4605
Connection ~ 4120 4605
Wire Wire Line
	3945 6005 4295 6005
Wire Wire Line
	4295 6005 4295 5805
Wire Wire Line
	3395 5455 4095 5455
Wire Wire Line
	3395 5455 3395 6455
Connection ~ 5295 5305
Wire Wire Line
	4195 6105 4160 6105
Wire Wire Line
	4160 6105 4160 6005
Connection ~ 4160 6005
Connection ~ 4295 2310
Wire Wire Line
	4295 1350 4295 1460
Connection ~ 4295 1350
Wire Wire Line
	4295 1760 4295 1910
Wire Wire Line
	4535 1550 4535 1840
Wire Wire Line
	4295 1840 4830 1840
Connection ~ 4295 1840
Wire Wire Line
	4815 3265 6205 3265
Wire Wire Line
	3255 3265 4420 3265
Connection ~ 4295 3265
Wire Wire Line
	4420 3315 4395 3315
Wire Wire Line
	4395 3315 4395 3265
Connection ~ 4395 3265
Wire Wire Line
	4620 3065 4620 2845
Wire Wire Line
	4295 2845 4830 2845
Wire Wire Line
	4295 2710 4295 2965
Connection ~ 4295 2845
$Comp
L IRLL110 Q1
U 1 1 59A84F1D
P 4620 3265
F 0 "Q1" H 4744 3319 60  0000 C CNN
F 1 "IRLL110" H 4900 3209 60  0000 C CNN
F 2 "Discretes:SOT223" H 4595 3490 60  0001 C CNN
F 3 "" H 4370 3415 60  0000 C CNN
F 4 "IRLL110PBFCT-ND" H 4620 3565 60  0001 C CNN "DigikeyPN"
	1    4620 3265
	0    -1   1    0   
$EndComp
Text Label 3945 4605 2    60   ~ 0
Vsupply(+)
Wire Wire Line
	5895 7310 6230 7310
Wire Wire Line
	6230 7310 6230 7330
Wire Wire Line
	5895 5445 6270 5445
Connection ~ 5895 5445
$Comp
L 10n-BC C8
U 1 1 59B6A0A1
P 6270 5900
F 0 "C8" H 6430 6010 60  0000 C CNN
F 1 "10n-BC" H 6526 5920 60  0000 C CNN
F 2 "Capacitors:C0603" H 6270 6190 60  0001 C CNN
F 3 "" H 6270 5902 60  0000 C CNN
F 4 "490-5771-1-ND" H 6586 6104 60  0001 C CNN "DigikeyPN"
F 5 "100V" H 6462 5836 60  0000 C CNN "MaxVoltage"
	1    6270 5900
	1    0    0    -1  
$EndComp
$Comp
L 10n-BC C9
U 1 1 59B6A150
P 6280 6900
F 0 "C9" H 6440 7010 60  0000 C CNN
F 1 "10n-BC" H 6536 6920 60  0000 C CNN
F 2 "Capacitors:C0603" H 6280 7190 60  0001 C CNN
F 3 "" H 6280 6902 60  0000 C CNN
F 4 "490-5771-1-ND" H 6596 7104 60  0001 C CNN "DigikeyPN"
F 5 "100V" H 6472 6836 60  0000 C CNN "MaxVoltage"
	1    6280 6900
	1    0    0    -1  
$EndComp
Wire Wire Line
	6280 7050 6280 7330
Wire Wire Line
	6280 7330 6230 7330
Connection ~ 5895 7310
Wire Wire Line
	6270 6050 6270 6420
Wire Wire Line
	6270 5445 6270 5750
Wire Wire Line
	6280 6420 6280 6750
Wire Wire Line
	6090 6420 6280 6420
Wire Wire Line
	6090 6455 6090 6420
Connection ~ 6270 6420
$Comp
L SP1003 D4
U 1 1 59B6F4AF
P 4830 3115
F 0 "D4" H 4946 3025 60  0000 C CNN
F 1 "SP1003" H 4595 3120 60  0000 C CNN
F 2 "Discretes:SOD882" H 4463 3311 60  0001 C CNN
F 3 "" H 4830 3115 60  0000 C CNN
F 4 "F4088CT-ND" H 4663 3511 60  0001 C CNN "DigikeyPN"
F 5 "6V" H 4958 3119 60  0000 C CNN "Clamp"
	1    4830 3115
	-1   0    0    -1  
$EndComp
Connection ~ 4830 3265
$Comp
L 100k-BE R9
U 1 1 59B6F981
P 4830 2515
F 0 "R9" H 4830 2711 60  0000 C CNN
F 1 "100k-BE" H 4730 2615 60  0000 C CNN
F 2 "Resistors:R0603" H 4830 2515 60  0001 C CNN
F 3 "" H 4930 2665 60  0000 C CNN
F 4 "P100KHCT-ND" H 4848 2783 60  0001 C CNN "DigikeyPN"
F 5 "1%" H 5030 2615 60  0000 C CNN "Precision"
	1    4830 2515
	0    -1   -1   0   
$EndComp
Wire Wire Line
	4830 2310 4830 2315
Connection ~ 4830 2310
$Comp
L 100k-BE R8
U 1 1 59B705B5
P 4830 2110
F 0 "R8" H 4830 2306 60  0000 C CNN
F 1 "100k-BE" H 4730 2210 60  0000 C CNN
F 2 "Resistors:R0603" H 4830 2110 60  0001 C CNN
F 3 "" H 4930 2260 60  0000 C CNN
F 4 "P100KHCT-ND" H 4848 2378 60  0001 C CNN "DigikeyPN"
F 5 "1%" H 5030 2210 60  0000 C CNN "Precision"
	1    4830 2110
	0    -1   -1   0   
$EndComp
$Comp
L IRFL9110 Q2
U 1 1 59A847E2
P 4535 1350
F 0 "Q2" H 4659 1404 60  0000 C CNN
F 1 "IRFL9110" H 4815 1294 60  0000 C CNN
F 2 "Discretes:SOT223" H 4510 1575 60  0001 C CNN
F 3 "" H 4285 1500 60  0000 C CNN
F 4 "IRFL9110PBFCT-ND" H 4535 1650 60  0001 C CNN "DigikeyPN"
	1    4535 1350
	0    1    -1   0   
$EndComp
$Comp
L SP1003 D3
U 1 1 59B71D98
P 4830 1610
F 0 "D3" H 4946 1520 60  0000 C CNN
F 1 "SP1003" H 4590 1610 60  0000 C CNN
F 2 "Discretes:SOD882" H 4463 1806 60  0001 C CNN
F 3 "" H 4830 1610 60  0000 C CNN
F 4 "F4088CT-ND" H 4663 2006 60  0001 C CNN "DigikeyPN"
F 5 "6V" H 4958 1614 60  0000 C CNN "Clamp"
	1    4830 1610
	1    0    0    -1  
$EndComp
Wire Wire Line
	2850 1350 4335 1350
Wire Wire Line
	4360 1300 4325 1300
Wire Wire Line
	4325 1300 4325 1350
Connection ~ 4325 1350
Wire Wire Line
	4830 1350 4830 1460
Connection ~ 4830 1350
Wire Wire Line
	4830 1760 4830 1910
Connection ~ 4830 1840
Connection ~ 4535 1840
Wire Wire Line
	4830 2715 4830 2965
Connection ~ 4620 2845
Connection ~ 4830 2845
Wire Wire Line
	6455 5305 7030 5305
$Comp
L PolyFuse U3
U 1 1 59B7A39E
P 6230 5305
F 0 "U3" H 6230 5155 60  0000 C CNN
F 1 "PolyFuse" H 6230 5430 60  0000 C CNN
F 2 "Resistors:R2920" H 6230 5305 60  0001 C CNN
F 3 "" H 6230 5305 60  0001 C CNN
F 4 "F8134CT-ND" H 6230 5305 60  0001 C CNN "DigikeyPN"
	1    6230 5305
	1    0    0    -1  
$EndComp
Wire Wire Line
	4735 1350 6200 1350
Wire Wire Line
	5000 1450 5000 1350
Connection ~ 5000 1350
$Comp
L 0.0-FG R2
U 1 1 59B7F008
P 4395 4455
F 0 "R2" H 4395 4651 60  0000 C CNN
F 1 "0.0-FG" H 4295 4555 60  0000 C CNN
F 2 "Resistors:R2512" H 4395 4280 60  0001 C CNN
F 3 "" H 4495 4605 60  0000 C CNN
	1    4395 4455
	1    0    0    -1  
$EndComp
$Comp
L 0.0-FG R3
U 1 1 59B7F332
P 4395 6105
F 0 "R3" H 4395 6301 60  0000 C CNN
F 1 "0.0-FG" H 4295 6205 60  0000 C CNN
F 2 "Resistors:R2512" H 4395 5930 60  0001 C CNN
F 3 "" H 4495 6255 60  0000 C CNN
	1    4395 6105
	1    0    0    -1  
$EndComp
$Comp
L Bare_TP TP1
U 1 1 5B1579AB
P 7670 1390
F 0 "TP1" H 7748 1590 60  0000 L CNN
F 1 "Bare_TP" H 7748 1484 60  0000 L CNN
F 2 "connectors:1pin" H 7748 1378 60  0000 L CNN
F 3 "" H 7670 1390 60  0000 C CNN
	1    7670 1390
	1    0    0    -1  
$EndComp
$Comp
L Bare_TP TP4
U 1 1 5B157E53
P 8690 1390
F 0 "TP4" H 8768 1590 60  0000 L CNN
F 1 "Bare_TP" H 8768 1484 60  0000 L CNN
F 2 "connectors:1pin" H 8768 1378 60  0000 L CNN
F 3 "" H 8690 1390 60  0000 C CNN
	1    8690 1390
	1    0    0    -1  
$EndComp
$Comp
L Bare_TP TP2
U 1 1 5B157E91
P 7730 1960
F 0 "TP2" H 7808 2160 60  0000 L CNN
F 1 "Bare_TP" H 7808 2054 60  0000 L CNN
F 2 "connectors:1pin" H 7808 1948 60  0000 L CNN
F 3 "" H 7730 1960 60  0000 C CNN
	1    7730 1960
	1    0    0    -1  
$EndComp
$Comp
L Bare_TP TP3
U 1 1 5B157EEB
P 8680 1940
F 0 "TP3" H 8758 2140 60  0000 L CNN
F 1 "Bare_TP" H 8758 2034 60  0000 L CNN
F 2 "connectors:1pin" H 8758 1928 60  0000 L CNN
F 3 "" H 8680 1940 60  0000 C CNN
	1    8680 1940
	1    0    0    -1  
$EndComp
$Comp
L ProtoTP 50_Ohm1
U 1 1 5B1585FD
P 2595 5485
F 0 "50_Ohm1" H 2673 5685 60  0000 L CNN
F 1 "ProtoTP" H 2675 5580 60  0000 L CNN
F 2 "TestPoints:TP_1p0mm" H 2673 5473 60  0000 L CNN
F 3 "" H 2595 5485 60  0000 C CNN
	1    2595 5485
	1    0    0    -1  
$EndComp
$Comp
L ProtoTP tp5
U 1 1 5B158E63
P 2590 5155
F 0 "tp5" H 2695 5350 60  0000 L CNN
F 1 "ProtoTP" H 2668 5249 60  0000 L CNN
F 2 "TestPoints:TP_1p0mm" H 2668 5143 60  0000 L CNN
F 3 "" H 2590 5155 60  0000 C CNN
	1    2590 5155
	1    0    0    -1  
$EndComp
Connection ~ 2590 5155
$Comp
L ProtoTP High_Z1
U 1 1 5B159083
P 2450 4755
F 0 "High_Z1" V 2339 4983 60  0000 L CNN
F 1 "ProtoTP" V 2445 4983 60  0000 L CNN
F 2 "TestPoints:TP_1p0mm" V 2551 4983 60  0000 L CNN
F 3 "" H 2450 4755 60  0000 C CNN
	1    2450 4755
	0    1    1    0   
$EndComp
Connection ~ 2595 5580
Wire Wire Line
	2450 4755 2450 5155
Connection ~ 2450 5155
$Comp
L AD623 U4
U 1 1 5DD6BFD5
P 6950 3805
F 0 "U4" H 7075 4505 60  0000 C CNN
F 1 "AD623" H 7075 4399 60  0000 C CNN
F 2 "ICs:8-SOIC" H 7300 4305 60  0001 C CNN
F 3 "" H 6950 3805 60  0000 C CNN
F 4 "AD623ARZ-ND" H 7500 4505 60  0001 C CNN "DigikeyPN"
	1    6950 3805
	1    0    0    -1  
$EndComp
Wire Wire Line
	5785 5305 6005 5305
Wire Wire Line
	5195 5305 5385 5305
Connection ~ 5350 5305
Connection ~ 5845 5305
$Comp
L 5007 TP5
U 1 1 5DD6CFC5
P 8040 3795
F 0 "TP5" H 8118 3995 60  0000 L CNN
F 1 "5007" H 8118 3889 60  0000 L CNN
F 2 "TestPoints:TP_1p6mm" H 8118 3783 60  0000 L CNN
F 3 "" H 8040 3795 60  0000 C CNN
F 4 "36-5007-ND" H 8290 4145 60  0001 C CNN "DigikeyPN"
	1    8040 3795
	1    0    0    -1  
$EndComp
Wire Wire Line
	7800 3805 8040 3805
Wire Wire Line
	8040 3805 8040 3795
Wire Wire Line
	6350 4155 5350 4155
Wire Wire Line
	5350 4155 5350 5305
Wire Wire Line
	6350 3455 5845 3455
Wire Wire Line
	5845 3455 5845 5305
$Comp
L 2-BE R10
U 1 1 5DD6EB01
P 5585 5305
F 0 "R10" H 5585 5658 60  0000 C CNN
F 1 "1m" H 5585 5552 60  0000 C CNN
F 2 "Resistors:R2512" H 5585 5305 60  0001 C CNN
F 3 "" H 5685 5455 60  0000 C CNN
F 4 "696-1185-1-ND" H 5603 5573 60  0001 C CNN "DigikeyPN"
F 5 "1%" H 5585 5446 60  0000 C CNN "Precision"
	1    5585 5305
	1    0    0    -1  
$EndComp
$EndSCHEMATC
