G04 #@! TF.FileFunction,*
%FSLAX46Y46*%
G04 Gerber Fmt 4.6, Leading zero omitted, Abs format (unit mm)*
G04 Created by KiCad (PCBNEW (2015-01-16 BZR 5376)-product) date 3/5/2015 2:25:41 PM*
%MOMM*%
G01*
G04 APERTURE LIST*
%ADD10C,0.152400*%
%ADD11C,0.050000*%
G04 APERTURE END LIST*
D10*
D11*
X77032000Y-108560000D02*
X77032000Y-108010000D01*
X77032000Y-108010000D02*
X79432000Y-108010000D01*
X79432000Y-108010000D02*
X79432000Y-108560000D01*
X69907000Y-108560000D02*
X69907000Y-102260000D01*
X69907000Y-102260000D02*
X86557000Y-102260000D01*
X86557000Y-102260000D02*
X86557000Y-108560000D01*
X86557000Y-108560000D02*
X69907000Y-108560000D01*
X84543800Y-62007700D02*
X82943800Y-62007700D01*
X82943800Y-62007700D02*
X82943800Y-61207700D01*
X82943800Y-61207700D02*
X84543800Y-61207700D01*
X84543800Y-61207700D02*
X84543800Y-62007700D01*
X67076700Y-64799400D02*
X68076700Y-64799400D01*
X68076700Y-64799400D02*
X68076700Y-65299400D01*
X68076700Y-65299400D02*
X67076700Y-65299400D01*
X67076700Y-65299400D02*
X67076700Y-64799400D01*
X73795700Y-62733300D02*
X73795700Y-63733300D01*
X73795700Y-63733300D02*
X73295700Y-63733300D01*
X73295700Y-63733300D02*
X73295700Y-62733300D01*
X73295700Y-62733300D02*
X73795700Y-62733300D01*
X79823500Y-62653800D02*
X79823500Y-61653800D01*
X79823500Y-61653800D02*
X80323500Y-61653800D01*
X80323500Y-61653800D02*
X80323500Y-62653800D01*
X80323500Y-62653800D02*
X79823500Y-62653800D01*
X77768500Y-78879600D02*
X77768500Y-77279600D01*
X77768500Y-77279600D02*
X78568500Y-77279600D01*
X78568500Y-77279600D02*
X78568500Y-78879600D01*
X78568500Y-78879600D02*
X77768500Y-78879600D01*
X75888900Y-78879600D02*
X75888900Y-77279600D01*
X75888900Y-77279600D02*
X76688900Y-77279600D01*
X76688900Y-77279600D02*
X76688900Y-78879600D01*
X76688900Y-78879600D02*
X75888900Y-78879600D01*
X74799000Y-77274800D02*
X74799000Y-78274800D01*
X74799000Y-78274800D02*
X74299000Y-78274800D01*
X74299000Y-78274800D02*
X74299000Y-77274800D01*
X74299000Y-77274800D02*
X74799000Y-77274800D01*
X71971000Y-69297600D02*
X73571000Y-69297600D01*
X73571000Y-69297600D02*
X73571000Y-70097600D01*
X73571000Y-70097600D02*
X71971000Y-70097600D01*
X71971000Y-70097600D02*
X71971000Y-69297600D01*
X73550400Y-71674800D02*
X72550400Y-71674800D01*
X72550400Y-71674800D02*
X72550400Y-71174800D01*
X72550400Y-71174800D02*
X73550400Y-71174800D01*
X73550400Y-71174800D02*
X73550400Y-71674800D01*
X77347000Y-70096000D02*
X77347000Y-69096000D01*
X77347000Y-69096000D02*
X77847000Y-69096000D01*
X77847000Y-69096000D02*
X77847000Y-70096000D01*
X77847000Y-70096000D02*
X77347000Y-70096000D01*
X75746800Y-70121400D02*
X75746800Y-69121400D01*
X75746800Y-69121400D02*
X76246800Y-69121400D01*
X76246800Y-69121400D02*
X76246800Y-70121400D01*
X76246800Y-70121400D02*
X75746800Y-70121400D01*
X64490700Y-68891200D02*
X66090700Y-68891200D01*
X66090700Y-68891200D02*
X66090700Y-69691200D01*
X66090700Y-69691200D02*
X64490700Y-69691200D01*
X64490700Y-69691200D02*
X64490700Y-68891200D01*
X68795800Y-69691200D02*
X67195800Y-69691200D01*
X67195800Y-69691200D02*
X67195800Y-68891200D01*
X67195800Y-68891200D02*
X68795800Y-68891200D01*
X68795800Y-68891200D02*
X68795800Y-69691200D01*
X66070100Y-71331900D02*
X65070100Y-71331900D01*
X65070100Y-71331900D02*
X65070100Y-70831900D01*
X65070100Y-70831900D02*
X66070100Y-70831900D01*
X66070100Y-70831900D02*
X66070100Y-71331900D01*
X67203700Y-70831900D02*
X68203700Y-70831900D01*
X68203700Y-70831900D02*
X68203700Y-71331900D01*
X68203700Y-71331900D02*
X67203700Y-71331900D01*
X67203700Y-71331900D02*
X67203700Y-70831900D01*
X120214200Y-55735600D02*
X120214200Y-56735600D01*
X120214200Y-56735600D02*
X119714200Y-56735600D01*
X119714200Y-56735600D02*
X119714200Y-55735600D01*
X119714200Y-55735600D02*
X120214200Y-55735600D01*
X121789000Y-55735600D02*
X121789000Y-56735600D01*
X121789000Y-56735600D02*
X121289000Y-56735600D01*
X121289000Y-56735600D02*
X121289000Y-55735600D01*
X121289000Y-55735600D02*
X121789000Y-55735600D01*
X107065000Y-53789200D02*
X107065000Y-52789200D01*
X107065000Y-52789200D02*
X107565000Y-52789200D01*
X107565000Y-52789200D02*
X107565000Y-53789200D01*
X107565000Y-53789200D02*
X107065000Y-53789200D01*
X108639800Y-53789200D02*
X108639800Y-52789200D01*
X108639800Y-52789200D02*
X109139800Y-52789200D01*
X109139800Y-52789200D02*
X109139800Y-53789200D01*
X109139800Y-53789200D02*
X108639800Y-53789200D01*
X116564600Y-53789200D02*
X116564600Y-52789200D01*
X116564600Y-52789200D02*
X117064600Y-52789200D01*
X117064600Y-52789200D02*
X117064600Y-53789200D01*
X117064600Y-53789200D02*
X116564600Y-53789200D01*
X118139400Y-53789200D02*
X118139400Y-52789200D01*
X118139400Y-52789200D02*
X118639400Y-52789200D01*
X118639400Y-52789200D02*
X118639400Y-53789200D01*
X118639400Y-53789200D02*
X118139400Y-53789200D01*
X89052300Y-83508800D02*
X87452300Y-83508800D01*
X87452300Y-83508800D02*
X87452300Y-82708800D01*
X87452300Y-82708800D02*
X89052300Y-82708800D01*
X89052300Y-82708800D02*
X89052300Y-83508800D01*
X89026900Y-85388400D02*
X87426900Y-85388400D01*
X87426900Y-85388400D02*
X87426900Y-84588400D01*
X87426900Y-84588400D02*
X89026900Y-84588400D01*
X89026900Y-84588400D02*
X89026900Y-85388400D01*
X52628400Y-68294400D02*
X53178400Y-68294400D01*
X53178400Y-68294400D02*
X53178400Y-70694400D01*
X53178400Y-70694400D02*
X52628400Y-70694400D01*
X52628400Y-43169400D02*
X58928400Y-43169400D01*
X58928400Y-43169400D02*
X58928400Y-95819400D01*
X58928400Y-95819400D02*
X52628400Y-95819400D01*
X52628400Y-95819400D02*
X52628400Y-43169400D01*
X75154900Y-56368900D02*
X75154900Y-56768900D01*
X75154900Y-56768900D02*
X75374900Y-56768900D01*
X75374900Y-56768900D02*
X75374900Y-56368900D01*
X74374900Y-56768900D02*
X74374900Y-56368900D01*
X74154900Y-56768900D02*
X74374900Y-56768900D01*
X74154900Y-56368900D02*
X74154900Y-56768900D01*
X74654900Y-55568900D02*
X74654900Y-55168900D01*
X74654900Y-55168900D02*
X74874900Y-55168900D01*
X74874900Y-55168900D02*
X74874900Y-55568900D01*
X75564900Y-55568900D02*
X75564900Y-56368900D01*
X75564900Y-56368900D02*
X73964900Y-56368900D01*
X73964900Y-56368900D02*
X73964900Y-55568900D01*
X73964900Y-55568900D02*
X75564900Y-55568900D01*
X77092700Y-55568900D02*
X77092700Y-55168900D01*
X77092700Y-55168900D02*
X76872700Y-55168900D01*
X76872700Y-55168900D02*
X76872700Y-55568900D01*
X77872700Y-55168900D02*
X77872700Y-55568900D01*
X78092700Y-55168900D02*
X77872700Y-55168900D01*
X78092700Y-55568900D02*
X78092700Y-55168900D01*
X77592700Y-56368900D02*
X77592700Y-56768900D01*
X77592700Y-56768900D02*
X77372700Y-56768900D01*
X77372700Y-56768900D02*
X77372700Y-56368900D01*
X76682700Y-56368900D02*
X76682700Y-55568900D01*
X76682700Y-55568900D02*
X78282700Y-55568900D01*
X78282700Y-55568900D02*
X78282700Y-56368900D01*
X78282700Y-56368900D02*
X76682700Y-56368900D01*
X80242300Y-53625800D02*
X80242300Y-53225800D01*
X80242300Y-53225800D02*
X80022300Y-53225800D01*
X80022300Y-53225800D02*
X80022300Y-53625800D01*
X81022300Y-53225800D02*
X81022300Y-53625800D01*
X81242300Y-53225800D02*
X81022300Y-53225800D01*
X81242300Y-53625800D02*
X81242300Y-53225800D01*
X80742300Y-54425800D02*
X80742300Y-54825800D01*
X80742300Y-54825800D02*
X80522300Y-54825800D01*
X80522300Y-54825800D02*
X80522300Y-54425800D01*
X79832300Y-54425800D02*
X79832300Y-53625800D01*
X79832300Y-53625800D02*
X81432300Y-53625800D01*
X81432300Y-53625800D02*
X81432300Y-54425800D01*
X81432300Y-54425800D02*
X79832300Y-54425800D01*
X82998200Y-53638500D02*
X82998200Y-53238500D01*
X82998200Y-53238500D02*
X82778200Y-53238500D01*
X82778200Y-53238500D02*
X82778200Y-53638500D01*
X83778200Y-53238500D02*
X83778200Y-53638500D01*
X83998200Y-53238500D02*
X83778200Y-53238500D01*
X83998200Y-53638500D02*
X83998200Y-53238500D01*
X83498200Y-54438500D02*
X83498200Y-54838500D01*
X83498200Y-54838500D02*
X83278200Y-54838500D01*
X83278200Y-54838500D02*
X83278200Y-54438500D01*
X82588200Y-54438500D02*
X82588200Y-53638500D01*
X82588200Y-53638500D02*
X84188200Y-53638500D01*
X84188200Y-53638500D02*
X84188200Y-54438500D01*
X84188200Y-54438500D02*
X82588200Y-54438500D01*
X75330100Y-59927600D02*
X74930100Y-59927600D01*
X74930100Y-59927600D02*
X74930100Y-60147600D01*
X74930100Y-60147600D02*
X75330100Y-60147600D01*
X74930100Y-59147600D02*
X75330100Y-59147600D01*
X74930100Y-58927600D02*
X74930100Y-59147600D01*
X75330100Y-58927600D02*
X74930100Y-58927600D01*
X76130100Y-59427600D02*
X76530100Y-59427600D01*
X76530100Y-59427600D02*
X76530100Y-59647600D01*
X76530100Y-59647600D02*
X76130100Y-59647600D01*
X76130100Y-60337600D02*
X75330100Y-60337600D01*
X75330100Y-60337600D02*
X75330100Y-58737600D01*
X75330100Y-58737600D02*
X76130100Y-58737600D01*
X76130100Y-58737600D02*
X76130100Y-60337600D01*
X88830100Y-62462300D02*
X89230100Y-62462300D01*
X89230100Y-62462300D02*
X89230100Y-62242300D01*
X89230100Y-62242300D02*
X88830100Y-62242300D01*
X89230100Y-63242300D02*
X88830100Y-63242300D01*
X89230100Y-63462300D02*
X89230100Y-63242300D01*
X88830100Y-63462300D02*
X89230100Y-63462300D01*
X88030100Y-62962300D02*
X87630100Y-62962300D01*
X87630100Y-62962300D02*
X87630100Y-62742300D01*
X87630100Y-62742300D02*
X88030100Y-62742300D01*
X88030100Y-62052300D02*
X88830100Y-62052300D01*
X88830100Y-62052300D02*
X88830100Y-63652300D01*
X88830100Y-63652300D02*
X88030100Y-63652300D01*
X88030100Y-63652300D02*
X88030100Y-62052300D01*
X62641580Y-97296020D02*
X64241580Y-97296020D01*
X64241580Y-97296020D02*
X64241580Y-98096020D01*
X64241580Y-98096020D02*
X62641580Y-98096020D01*
X62641580Y-98096020D02*
X62641580Y-97296020D01*
X65691920Y-100001020D02*
X64091920Y-100001020D01*
X64091920Y-100001020D02*
X64091920Y-99201020D01*
X64091920Y-99201020D02*
X65691920Y-99201020D01*
X65691920Y-99201020D02*
X65691920Y-100001020D01*
X61268800Y-64381000D02*
X61268800Y-63381000D01*
X61268800Y-63381000D02*
X61768800Y-63381000D01*
X61768800Y-63381000D02*
X61768800Y-64381000D01*
X61768800Y-64381000D02*
X61268800Y-64381000D01*
X61268800Y-66463800D02*
X61268800Y-65463800D01*
X61268800Y-65463800D02*
X61768800Y-65463800D01*
X61768800Y-65463800D02*
X61768800Y-66463800D01*
X61768800Y-66463800D02*
X61268800Y-66463800D01*
X81432300Y-56800700D02*
X79832300Y-56800700D01*
X79832300Y-56800700D02*
X79832300Y-56000700D01*
X79832300Y-56000700D02*
X81432300Y-56000700D01*
X81432300Y-56000700D02*
X81432300Y-56800700D01*
X82531000Y-57797600D02*
X82531000Y-56197600D01*
X82531000Y-56197600D02*
X83331000Y-56197600D01*
X83331000Y-56197600D02*
X83331000Y-57797600D01*
X83331000Y-57797600D02*
X82531000Y-57797600D01*
X85236000Y-56197600D02*
X85236000Y-57797600D01*
X85236000Y-57797600D02*
X84436000Y-57797600D01*
X84436000Y-57797600D02*
X84436000Y-56197600D01*
X84436000Y-56197600D02*
X85236000Y-56197600D01*
X87934700Y-56800700D02*
X86334700Y-56800700D01*
X86334700Y-56800700D02*
X86334700Y-56000700D01*
X86334700Y-56000700D02*
X87934700Y-56000700D01*
X87934700Y-56000700D02*
X87934700Y-56800700D01*
X74912600Y-62729300D02*
X75912600Y-62729300D01*
X75912600Y-62729300D02*
X75912600Y-63229300D01*
X75912600Y-63229300D02*
X74912600Y-63229300D01*
X74912600Y-63229300D02*
X74912600Y-62729300D01*
X63455600Y-49974400D02*
X63455600Y-48374400D01*
X63455600Y-48374400D02*
X64255600Y-48374400D01*
X64255600Y-48374400D02*
X64255600Y-49974400D01*
X64255600Y-49974400D02*
X63455600Y-49974400D01*
X64255600Y-51219200D02*
X64255600Y-52819200D01*
X64255600Y-52819200D02*
X63455600Y-52819200D01*
X63455600Y-52819200D02*
X63455600Y-51219200D01*
X63455600Y-51219200D02*
X64255600Y-51219200D01*
X84421600Y-74849800D02*
X83421600Y-74849800D01*
X83421600Y-74849800D02*
X83421600Y-74349800D01*
X83421600Y-74349800D02*
X84421600Y-74349800D01*
X84421600Y-74349800D02*
X84421600Y-74849800D01*
X84421600Y-70049200D02*
X83421600Y-70049200D01*
X83421600Y-70049200D02*
X83421600Y-69549200D01*
X83421600Y-69549200D02*
X84421600Y-69549200D01*
X84421600Y-69549200D02*
X84421600Y-70049200D01*
X84421600Y-79625000D02*
X83421600Y-79625000D01*
X83421600Y-79625000D02*
X83421600Y-79125000D01*
X83421600Y-79125000D02*
X84421600Y-79125000D01*
X84421600Y-79125000D02*
X84421600Y-79625000D01*
X84421600Y-78050200D02*
X83421600Y-78050200D01*
X83421600Y-78050200D02*
X83421600Y-77550200D01*
X83421600Y-77550200D02*
X84421600Y-77550200D01*
X84421600Y-77550200D02*
X84421600Y-78050200D01*
X84421600Y-73249600D02*
X83421600Y-73249600D01*
X83421600Y-73249600D02*
X83421600Y-72749600D01*
X83421600Y-72749600D02*
X84421600Y-72749600D01*
X84421600Y-72749600D02*
X84421600Y-73249600D01*
X84421600Y-68449000D02*
X83421600Y-68449000D01*
X83421600Y-68449000D02*
X83421600Y-67949000D01*
X83421600Y-67949000D02*
X84421600Y-67949000D01*
X84421600Y-67949000D02*
X84421600Y-68449000D01*
X84421600Y-76450000D02*
X83421600Y-76450000D01*
X83421600Y-76450000D02*
X83421600Y-75950000D01*
X83421600Y-75950000D02*
X84421600Y-75950000D01*
X84421600Y-75950000D02*
X84421600Y-76450000D01*
X84421600Y-71649400D02*
X83421600Y-71649400D01*
X83421600Y-71649400D02*
X83421600Y-71149400D01*
X83421600Y-71149400D02*
X84421600Y-71149400D01*
X84421600Y-71149400D02*
X84421600Y-71649400D01*
X75383200Y-96680400D02*
X75383200Y-97680400D01*
X75383200Y-97680400D02*
X74883200Y-97680400D01*
X74883200Y-97680400D02*
X74883200Y-96680400D01*
X74883200Y-96680400D02*
X75383200Y-96680400D01*
X77008800Y-96680400D02*
X77008800Y-97680400D01*
X77008800Y-97680400D02*
X76508800Y-97680400D01*
X76508800Y-97680400D02*
X76508800Y-96680400D01*
X76508800Y-96680400D02*
X77008800Y-96680400D01*
X78634400Y-96680400D02*
X78634400Y-97680400D01*
X78634400Y-97680400D02*
X78134400Y-97680400D01*
X78134400Y-97680400D02*
X78134400Y-96680400D01*
X78134400Y-96680400D02*
X78634400Y-96680400D01*
X80260000Y-96680400D02*
X80260000Y-97680400D01*
X80260000Y-97680400D02*
X79760000Y-97680400D01*
X79760000Y-97680400D02*
X79760000Y-96680400D01*
X79760000Y-96680400D02*
X80260000Y-96680400D01*
X81385600Y-95546800D02*
X81385600Y-94546800D01*
X81385600Y-94546800D02*
X81885600Y-94546800D01*
X81885600Y-94546800D02*
X81885600Y-95546800D01*
X81885600Y-95546800D02*
X81385600Y-95546800D01*
X75383200Y-94546800D02*
X75383200Y-95546800D01*
X75383200Y-95546800D02*
X74883200Y-95546800D01*
X74883200Y-95546800D02*
X74883200Y-94546800D01*
X74883200Y-94546800D02*
X75383200Y-94546800D01*
X77008800Y-94546800D02*
X77008800Y-95546800D01*
X77008800Y-95546800D02*
X76508800Y-95546800D01*
X76508800Y-95546800D02*
X76508800Y-94546800D01*
X76508800Y-94546800D02*
X77008800Y-94546800D01*
X78634400Y-94546800D02*
X78634400Y-95546800D01*
X78634400Y-95546800D02*
X78134400Y-95546800D01*
X78134400Y-95546800D02*
X78134400Y-94546800D01*
X78134400Y-94546800D02*
X78634400Y-94546800D01*
X80260000Y-94546800D02*
X80260000Y-95546800D01*
X80260000Y-95546800D02*
X79760000Y-95546800D01*
X79760000Y-95546800D02*
X79760000Y-94546800D01*
X79760000Y-94546800D02*
X80260000Y-94546800D01*
X81385600Y-97680400D02*
X81385600Y-96680400D01*
X81385600Y-96680400D02*
X81885600Y-96680400D01*
X81885600Y-96680400D02*
X81885600Y-97680400D01*
X81885600Y-97680400D02*
X81385600Y-97680400D01*
X110714600Y-52789200D02*
X110714600Y-53789200D01*
X110714600Y-53789200D02*
X110214600Y-53789200D01*
X110214600Y-53789200D02*
X110214600Y-52789200D01*
X110214600Y-52789200D02*
X110714600Y-52789200D01*
X111789400Y-53789200D02*
X111789400Y-52789200D01*
X111789400Y-52789200D02*
X112289400Y-52789200D01*
X112289400Y-52789200D02*
X112289400Y-53789200D01*
X112289400Y-53789200D02*
X111789400Y-53789200D01*
X113121600Y-55388000D02*
X113121600Y-57388000D01*
X113121600Y-57388000D02*
X111871600Y-57388000D01*
X111871600Y-57388000D02*
X111871600Y-55388000D01*
X111871600Y-55388000D02*
X113121600Y-55388000D01*
X113864200Y-52789200D02*
X113864200Y-53789200D01*
X113864200Y-53789200D02*
X113364200Y-53789200D01*
X113364200Y-53789200D02*
X113364200Y-52789200D01*
X113364200Y-52789200D02*
X113864200Y-52789200D01*
X114989800Y-53789200D02*
X114989800Y-52789200D01*
X114989800Y-52789200D02*
X115489800Y-52789200D01*
X115489800Y-52789200D02*
X115489800Y-53789200D01*
X115489800Y-53789200D02*
X114989800Y-53789200D01*
X108589000Y-55872000D02*
X108589000Y-54872000D01*
X108589000Y-54872000D02*
X109089000Y-54872000D01*
X109089000Y-54872000D02*
X109089000Y-55872000D01*
X109089000Y-55872000D02*
X108589000Y-55872000D01*
X107463400Y-54872000D02*
X107463400Y-55872000D01*
X107463400Y-55872000D02*
X106963400Y-55872000D01*
X106963400Y-55872000D02*
X106963400Y-54872000D01*
X106963400Y-54872000D02*
X107463400Y-54872000D01*
X93937200Y-52328000D02*
X94937200Y-52328000D01*
X94937200Y-52328000D02*
X94937200Y-52828000D01*
X94937200Y-52828000D02*
X93937200Y-52828000D01*
X93937200Y-52828000D02*
X93937200Y-52328000D01*
X63250000Y-86402800D02*
X63250000Y-85402800D01*
X63250000Y-85402800D02*
X63750000Y-85402800D01*
X63750000Y-85402800D02*
X63750000Y-86402800D01*
X63750000Y-86402800D02*
X63250000Y-86402800D01*
X61624400Y-86402800D02*
X61624400Y-85402800D01*
X61624400Y-85402800D02*
X62124400Y-85402800D01*
X62124400Y-85402800D02*
X62124400Y-86402800D01*
X62124400Y-86402800D02*
X61624400Y-86402800D01*
X64117600Y-88751600D02*
X65117600Y-88751600D01*
X65117600Y-88751600D02*
X65117600Y-89251600D01*
X65117600Y-89251600D02*
X64117600Y-89251600D01*
X64117600Y-89251600D02*
X64117600Y-88751600D01*
X64117600Y-90326400D02*
X65117600Y-90326400D01*
X65117600Y-90326400D02*
X65117600Y-90826400D01*
X65117600Y-90826400D02*
X64117600Y-90826400D01*
X64117600Y-90826400D02*
X64117600Y-90326400D01*
X64117600Y-91850400D02*
X65117600Y-91850400D01*
X65117600Y-91850400D02*
X65117600Y-92350400D01*
X65117600Y-92350400D02*
X64117600Y-92350400D01*
X64117600Y-92350400D02*
X64117600Y-91850400D01*
X64117600Y-93374400D02*
X65117600Y-93374400D01*
X65117600Y-93374400D02*
X65117600Y-93874400D01*
X65117600Y-93874400D02*
X64117600Y-93874400D01*
X64117600Y-93874400D02*
X64117600Y-93374400D01*
X77800000Y-31750000D02*
G75*
G03X77800000Y-31750000I-1600000J0D01*
G01*
X87960000Y-31750000D02*
G75*
G03X87960000Y-31750000I-1600000J0D01*
G01*
X98120000Y-31750000D02*
G75*
G03X98120000Y-31750000I-1600000J0D01*
G01*
X108280000Y-31750000D02*
G75*
G03X108280000Y-31750000I-1600000J0D01*
G01*
X71450000Y-96520000D02*
G75*
G03X71450000Y-96520000I-1600000J0D01*
G01*
X89230000Y-96520000D02*
G75*
G03X89230000Y-96520000I-1600000J0D01*
G01*
X134950000Y-59055000D02*
G75*
G03X134950000Y-59055000I-1600000J0D01*
G01*
X134950000Y-78105000D02*
G75*
G03X134950000Y-78105000I-1600000J0D01*
G01*
X134950000Y-71755000D02*
G75*
G03X134950000Y-71755000I-1600000J0D01*
G01*
X134950000Y-65405000D02*
G75*
G03X134950000Y-65405000I-1600000J0D01*
G01*
X134950000Y-45720000D02*
G75*
G03X134950000Y-45720000I-1600000J0D01*
G01*
X134950000Y-84455000D02*
G75*
G03X134950000Y-84455000I-1600000J0D01*
G01*
X134950000Y-90805000D02*
G75*
G03X134950000Y-90805000I-1600000J0D01*
G01*
X114630000Y-86360000D02*
G75*
G03X114630000Y-86360000I-1600000J0D01*
G01*
X104470000Y-86360000D02*
G75*
G03X104470000Y-86360000I-1600000J0D01*
G01*
X134950000Y-52705000D02*
G75*
G03X134950000Y-52705000I-1600000J0D01*
G01*
X69049200Y-34967200D02*
X69049200Y-35392200D01*
X69249200Y-34967200D02*
X69049200Y-34967200D01*
X69249200Y-35392200D02*
X69249200Y-34967200D01*
X70549200Y-35392200D02*
X70549200Y-34967200D01*
X70549200Y-34967200D02*
X70349200Y-34967200D01*
X70349200Y-34967200D02*
X70349200Y-35392200D01*
X69699200Y-36642200D02*
X69699200Y-37067200D01*
X69699200Y-37067200D02*
X69899200Y-37067200D01*
X69899200Y-37067200D02*
X69899200Y-36642200D01*
X69249200Y-37067200D02*
X69249200Y-36642200D01*
X69049200Y-37067200D02*
X69249200Y-37067200D01*
X69049200Y-36642200D02*
X69049200Y-37067200D01*
X70349200Y-36642200D02*
X70349200Y-37067200D01*
X70349200Y-37067200D02*
X70549200Y-37067200D01*
X70549200Y-37067200D02*
X70549200Y-36642200D01*
X68799200Y-35392200D02*
X70799200Y-35392200D01*
X70799200Y-35392200D02*
X70799200Y-36642200D01*
X70799200Y-36642200D02*
X68799200Y-36642200D01*
X68799200Y-36642200D02*
X68799200Y-35392200D01*
X101430300Y-60056900D02*
G75*
G03X101430300Y-60056900I-200000J0D01*
G01*
X100730300Y-59556900D02*
X104730300Y-59556900D01*
X104730300Y-59556900D02*
X104730300Y-63556900D01*
X104730300Y-63556900D02*
X100730300Y-63556900D01*
X100730300Y-59556900D02*
X100730300Y-63556900D01*
X75164950Y-75412600D02*
X75164950Y-75158600D01*
X75723750Y-75158600D02*
X75164950Y-75158600D01*
X75723750Y-75412600D02*
X75164950Y-75412600D01*
X75723750Y-76022200D02*
X75164950Y-76022200D01*
X75723750Y-75768200D02*
X75164950Y-75768200D01*
X75164950Y-76022200D02*
X75164950Y-75768200D01*
X75164950Y-74752200D02*
X75164950Y-74498200D01*
X75723750Y-74498200D02*
X75164950Y-74498200D01*
X75723750Y-74752200D02*
X75164950Y-74752200D01*
X75723750Y-74142600D02*
X75164950Y-74142600D01*
X75723750Y-73888600D02*
X75164950Y-73888600D01*
X75164950Y-74142600D02*
X75164950Y-73888600D01*
X75164950Y-72872600D02*
X75164950Y-72618600D01*
X75723750Y-72618600D02*
X75164950Y-72618600D01*
X75723750Y-72872600D02*
X75164950Y-72872600D01*
X75723750Y-73482200D02*
X75164950Y-73482200D01*
X75723750Y-73228200D02*
X75164950Y-73228200D01*
X75164950Y-73482200D02*
X75164950Y-73228200D01*
X75164950Y-72212200D02*
X75164950Y-71958200D01*
X75723750Y-71958200D02*
X75164950Y-71958200D01*
X75723750Y-72212200D02*
X75164950Y-72212200D01*
X75723750Y-71602600D02*
X75164950Y-71602600D01*
X75723750Y-71348600D02*
X75164950Y-71348600D01*
X75164950Y-71602600D02*
X75164950Y-71348600D01*
X79622650Y-72872600D02*
X80181450Y-72872600D01*
X79622650Y-72618600D02*
X80181450Y-72618600D01*
X80181450Y-72872600D02*
X80181450Y-72618600D01*
X80181450Y-71602600D02*
X80181450Y-71348600D01*
X79622650Y-71348600D02*
X80181450Y-71348600D01*
X79622650Y-71602600D02*
X80181450Y-71602600D01*
X79622650Y-72212200D02*
X80181450Y-72212200D01*
X79622650Y-71958200D02*
X80181450Y-71958200D01*
X80181450Y-72212200D02*
X80181450Y-71958200D01*
X80181450Y-74142600D02*
X80181450Y-73888600D01*
X79622650Y-73888600D02*
X80181450Y-73888600D01*
X79622650Y-74142600D02*
X80181450Y-74142600D01*
X79622650Y-73482200D02*
X80181450Y-73482200D01*
X79622650Y-73228200D02*
X80181450Y-73228200D01*
X80181450Y-73482200D02*
X80181450Y-73228200D01*
X80181450Y-74752200D02*
X80181450Y-74498200D01*
X79622650Y-74498200D02*
X80181450Y-74498200D01*
X79622650Y-74752200D02*
X80181450Y-74752200D01*
X79622650Y-75412600D02*
X80181450Y-75412600D01*
X79622650Y-75158600D02*
X80181450Y-75158600D01*
X80181450Y-75412600D02*
X80181450Y-75158600D01*
X80181450Y-76022200D02*
X80181450Y-75768200D01*
X79622650Y-75768200D02*
X80181450Y-75768200D01*
X79622650Y-76022200D02*
X80181450Y-76022200D01*
X79357844Y-75717400D02*
G75*
G03X79357844Y-75717400I-160644J0D01*
G01*
X79622650Y-76130150D02*
X79622650Y-71240650D01*
X75723750Y-76130150D02*
X75723750Y-71240650D01*
X79622650Y-71240650D02*
X75723750Y-71240650D01*
X75723750Y-76130150D02*
X79622650Y-76130150D01*
X67788242Y-72796400D02*
G75*
G03X67788242Y-72796400I-71842J0D01*
G01*
X67949600Y-74206000D02*
X65349600Y-74206000D01*
X65349600Y-74206000D02*
X65349600Y-72606000D01*
X65349600Y-72606000D02*
X67949600Y-72606000D01*
X67949600Y-72606000D02*
X67949600Y-74206000D01*
X81920881Y-83261200D02*
G75*
G03X81920881Y-83261200I-386881J0D01*
G01*
X80178600Y-83083400D02*
X80778600Y-83083400D01*
X80778600Y-83439000D02*
X80178600Y-83439000D01*
X80178600Y-83083400D02*
X80178600Y-83439000D01*
X80178600Y-84658200D02*
X80178600Y-84302600D01*
X80778600Y-84302600D02*
X80178600Y-84302600D01*
X80178600Y-84658200D02*
X80778600Y-84658200D01*
X80178600Y-85928200D02*
X80778600Y-85928200D01*
X80778600Y-85572600D02*
X80178600Y-85572600D01*
X80178600Y-85928200D02*
X80178600Y-85572600D01*
X80204000Y-87223600D02*
X80204000Y-86868000D01*
X80804000Y-86868000D02*
X80204000Y-86868000D01*
X80204000Y-87223600D02*
X80804000Y-87223600D01*
X85404000Y-83413600D02*
X84804000Y-83413600D01*
X84804000Y-83058000D02*
X85404000Y-83058000D01*
X85404000Y-83413600D02*
X85404000Y-83058000D01*
X85404000Y-84683600D02*
X85404000Y-84328000D01*
X84804000Y-84328000D02*
X85404000Y-84328000D01*
X85404000Y-84683600D02*
X84804000Y-84683600D01*
X85404000Y-85953600D02*
X84804000Y-85953600D01*
X84804000Y-85598000D02*
X85404000Y-85598000D01*
X85404000Y-85953600D02*
X85404000Y-85598000D01*
X85404000Y-87223600D02*
X85404000Y-86868000D01*
X84804000Y-86868000D02*
X85404000Y-86868000D01*
X85404000Y-87223600D02*
X84804000Y-87223600D01*
X84804000Y-82640800D02*
X84804000Y-87640800D01*
X84804000Y-87640800D02*
X80804000Y-87640800D01*
X80804000Y-87640800D02*
X80804000Y-82640800D01*
X80804000Y-82640800D02*
X84804000Y-82640800D01*
X89045800Y-78411200D02*
X89045800Y-79411200D01*
X89045800Y-79411200D02*
X89445800Y-79411200D01*
X89445800Y-79411200D02*
X89445800Y-78411200D01*
X89695800Y-78411200D02*
X89695800Y-79411200D01*
X89695800Y-79411200D02*
X90095800Y-79411200D01*
X90095800Y-79411200D02*
X90095800Y-78411200D01*
X90745800Y-79411200D02*
X90745800Y-78411200D01*
X90345800Y-79411200D02*
X90745800Y-79411200D01*
X90345800Y-78411200D02*
X90345800Y-79411200D01*
X90995800Y-78411200D02*
X90995800Y-79411200D01*
X90995800Y-79411200D02*
X91395800Y-79411200D01*
X91395800Y-79411200D02*
X91395800Y-78411200D01*
X89045800Y-74411200D02*
X89045800Y-75411200D01*
X89445800Y-74411200D02*
X89045800Y-74411200D01*
X89445800Y-75411200D02*
X89445800Y-74411200D01*
X90095800Y-75411200D02*
X90095800Y-74411200D01*
X90095800Y-74411200D02*
X89695800Y-74411200D01*
X89695800Y-74411200D02*
X89695800Y-75411200D01*
X90345800Y-74411200D02*
X90345800Y-75411200D01*
X90745800Y-74411200D02*
X90345800Y-74411200D01*
X90745800Y-75411200D02*
X90745800Y-74411200D01*
X91395800Y-75411200D02*
X91395800Y-74411200D01*
X91395800Y-74411200D02*
X90995800Y-74411200D01*
X90995800Y-74411200D02*
X90995800Y-75411200D01*
X88720800Y-78411200D02*
X88720800Y-75411200D01*
X88720800Y-75411200D02*
X91720800Y-75411200D01*
X91720800Y-75411200D02*
X91720800Y-78411200D01*
X91720800Y-78411200D02*
X88720800Y-78411200D01*
X71121400Y-63354200D02*
X72121400Y-63354200D01*
X72121400Y-63354200D02*
X72121400Y-62954200D01*
X72121400Y-62954200D02*
X71121400Y-62954200D01*
X71121400Y-62704200D02*
X72121400Y-62704200D01*
X72121400Y-62704200D02*
X72121400Y-62304200D01*
X72121400Y-62304200D02*
X71121400Y-62304200D01*
X72121400Y-61654200D02*
X71121400Y-61654200D01*
X72121400Y-62054200D02*
X72121400Y-61654200D01*
X71121400Y-62054200D02*
X72121400Y-62054200D01*
X71121400Y-61404200D02*
X72121400Y-61404200D01*
X72121400Y-61404200D02*
X72121400Y-61004200D01*
X72121400Y-61004200D02*
X71121400Y-61004200D01*
X67121400Y-63354200D02*
X68121400Y-63354200D01*
X67121400Y-62954200D02*
X67121400Y-63354200D01*
X68121400Y-62954200D02*
X67121400Y-62954200D01*
X68121400Y-62304200D02*
X67121400Y-62304200D01*
X67121400Y-62304200D02*
X67121400Y-62704200D01*
X67121400Y-62704200D02*
X68121400Y-62704200D01*
X67121400Y-62054200D02*
X68121400Y-62054200D01*
X67121400Y-61654200D02*
X67121400Y-62054200D01*
X68121400Y-61654200D02*
X67121400Y-61654200D01*
X68121400Y-61004200D02*
X67121400Y-61004200D01*
X67121400Y-61004200D02*
X67121400Y-61404200D01*
X67121400Y-61404200D02*
X68121400Y-61404200D01*
X71121400Y-63679200D02*
X68121400Y-63679200D01*
X68121400Y-63679200D02*
X68121400Y-60679200D01*
X68121400Y-60679200D02*
X71121400Y-60679200D01*
X71121400Y-60679200D02*
X71121400Y-63679200D01*
X90970000Y-46120000D02*
X89370000Y-46120000D01*
X89370000Y-46120000D02*
X89370000Y-45320000D01*
X89370000Y-45320000D02*
X90970000Y-45320000D01*
X90970000Y-45320000D02*
X90970000Y-46120000D01*
X96120000Y-52666800D02*
X96120000Y-51066800D01*
X96120000Y-51066800D02*
X96920000Y-51066800D01*
X96920000Y-51066800D02*
X96920000Y-52666800D01*
X96920000Y-52666800D02*
X96120000Y-52666800D01*
X70213320Y-55144720D02*
X71813320Y-55144720D01*
X71813320Y-55144720D02*
X71813320Y-55944720D01*
X71813320Y-55944720D02*
X70213320Y-55944720D01*
X70213320Y-55944720D02*
X70213320Y-55144720D01*
X71807960Y-59472640D02*
X70807960Y-59472640D01*
X70807960Y-59472640D02*
X70807960Y-58972640D01*
X70807960Y-58972640D02*
X71807960Y-58972640D01*
X71807960Y-58972640D02*
X71807960Y-59472640D01*
X70213320Y-57070040D02*
X71813320Y-57070040D01*
X71813320Y-57070040D02*
X71813320Y-57870040D01*
X71813320Y-57870040D02*
X70213320Y-57870040D01*
X70213320Y-57870040D02*
X70213320Y-57070040D01*
X94475200Y-77819200D02*
X92875200Y-77819200D01*
X92875200Y-77819200D02*
X92875200Y-77019200D01*
X92875200Y-77019200D02*
X94475200Y-77019200D01*
X94475200Y-77019200D02*
X94475200Y-77819200D01*
X92921200Y-78947200D02*
X93921200Y-78947200D01*
X93921200Y-78947200D02*
X93921200Y-79447200D01*
X93921200Y-79447200D02*
X92921200Y-79447200D01*
X92921200Y-79447200D02*
X92921200Y-78947200D01*
X93916400Y-81375200D02*
X92316400Y-81375200D01*
X92316400Y-81375200D02*
X92316400Y-80575200D01*
X92316400Y-80575200D02*
X93916400Y-80575200D01*
X93916400Y-80575200D02*
X93916400Y-81375200D01*
X97605800Y-60058400D02*
X97605800Y-61658400D01*
X97605800Y-61658400D02*
X96805800Y-61658400D01*
X96805800Y-61658400D02*
X96805800Y-60058400D01*
X96805800Y-60058400D02*
X97605800Y-60058400D01*
X98759200Y-61637800D02*
X98759200Y-60637800D01*
X98759200Y-60637800D02*
X99259200Y-60637800D01*
X99259200Y-60637800D02*
X99259200Y-61637800D01*
X99259200Y-61637800D02*
X98759200Y-61637800D01*
X69538800Y-32270800D02*
X69538800Y-33870800D01*
X69538800Y-33870800D02*
X68738800Y-33870800D01*
X68738800Y-33870800D02*
X68738800Y-32270800D01*
X68738800Y-32270800D02*
X69538800Y-32270800D01*
X67657600Y-34540000D02*
X66657600Y-34540000D01*
X66657600Y-34540000D02*
X66657600Y-34040000D01*
X66657600Y-34040000D02*
X67657600Y-34040000D01*
X67657600Y-34040000D02*
X67657600Y-34540000D01*
M02*
