G04 #@! TF.FileFunction,Profile,NP*
%FSLAX46Y46*%
G04 Gerber Fmt 4.6, Leading zero omitted, Abs format (unit mm)*
G04 Created by KiCad (PCBNEW (2015-01-16 BZR 5376)-product) date 3/5/2015 2:25:41 PM*
%MOMM*%
G01*
G04 APERTURE LIST*
%ADD10C,0.152400*%
%ADD11C,0.100000*%
G04 APERTURE END LIST*
D10*
D11*
X136400000Y-111658400D02*
X136400000Y-27330400D01*
X51308000Y-111658400D02*
X136400000Y-111658400D01*
X51308000Y-27330400D02*
X51308000Y-111658400D01*
X51308000Y-27330400D02*
X136400000Y-27330400D01*
M02*
