EESchema Schematic File Version 2
LIBS:Capacitors
LIBS:Connectors
LIBS:Discretes
LIBS:ICs
LIBS:Allegro
LIBS:Resistors
LIBS:TestPoints
LIBS:Asek20DaughterCard-cache
EELAYER 25 0
EELAYER END
$Descr A4 11693 8268
encoding utf-8
Sheet 5 7
Title "ASEK20 Daughter Card"
Date "Friday, January 23, 2015"
Rev "v1.2"
Comp "Allegro Microsystems LLC"
Comment1 ""
Comment2 ""
Comment3 ""
Comment4 ""
$EndDescr
Wire Wire Line
	3350 4500 3350 4350
Wire Wire Line
	3350 4350 4050 4350
Wire Wire Line
	4050 4350 4050 4550
Text HLabel 2700 3350 0    60   Input ~ 0
Eforce_P
Text HLabel 2700 4600 0    60   Input ~ 0
Eforce_N
Wire Wire Line
	2700 3350 3350 3350
Wire Wire Line
	3350 4600 2700 4600
Wire Wire Line
	4050 4550 4600 4550
Wire Wire Line
	4050 3300 4600 3300
$Comp
L LMP2022 U11
U 2 1 54F1CB53
P 3700 3300
F 0 "U11" H 3850 3700 60  0000 C CNN
F 1 "LMP2022" H 3500 3700 60  0000 C CNN
F 2 "ICs:8-TSSOP" H 3700 3300 60  0001 C CNN
F 3 "" H 3850 3700 60  0000 C CNN
F 4 "LMP2022MME/NOPBCT-ND" H 3950 3800 60  0001 C CNN "DigikeyPN"
	2    3700 3300
	1    0    0    -1  
$EndComp
Wire Wire Line
	4050 3300 4050 3100
Wire Wire Line
	4050 3100 3350 3100
Wire Wire Line
	3350 3100 3350 3250
$Comp
L LMP2022 U11
U 1 1 54F1CBF8
P 3700 4550
F 0 "U11" H 3850 4950 60  0000 C CNN
F 1 "LMP2022" H 3500 4950 60  0000 C CNN
F 2 "ICs:8-TSSOP" H 3700 4550 60  0001 C CNN
F 3 "" H 3850 4950 60  0000 C CNN
F 4 "LMP2022MME/NOPBCT-ND" H 3950 5050 60  0001 C CNN "DigikeyPN"
	1    3700 4550
	1    0    0    -1  
$EndComp
$Comp
L LMP2022 U10
U 2 1 54F1CD22
P 7350 3250
F 0 "U10" H 7500 3650 60  0000 C CNN
F 1 "LMP2022" H 7150 3650 60  0000 C CNN
F 2 "ICs:8-TSSOP" H 7350 3250 60  0001 C CNN
F 3 "" H 7500 3650 60  0000 C CNN
F 4 "LMP2022MME/NOPBCT-ND" H 7600 3750 60  0001 C CNN "DigikeyPN"
	2    7350 3250
	1    0    0    -1  
$EndComp
$Comp
L LMP2022 U10
U 1 1 54F1CD8E
P 7350 4450
F 0 "U10" H 7500 4850 60  0000 C CNN
F 1 "LMP2022" H 7150 4850 60  0000 C CNN
F 2 "ICs:8-TSSOP" H 7350 4450 60  0001 C CNN
F 3 "" H 7500 4850 60  0000 C CNN
F 4 "LMP2022MME/NOPBCT-ND" H 7600 4950 60  0001 C CNN "DigikeyPN"
	1    7350 4450
	1    0    0    -1  
$EndComp
Wire Wire Line
	7000 3200 7000 3050
Wire Wire Line
	7000 3050 7700 3050
Wire Wire Line
	7700 3050 7700 3250
Wire Wire Line
	7000 4400 7000 4250
Wire Wire Line
	7000 4250 7700 4250
Wire Wire Line
	7700 4250 7700 4450
Wire Wire Line
	7700 4450 8250 4450
Wire Wire Line
	7700 3250 8250 3250
Text HLabel 1000 750  0    60   Input ~ 0
5v0SMPS
Text HLabel 1000 850  0    60   Input ~ 0
GND
Wire Wire Line
	1000 750  1400 750 
Wire Wire Line
	1000 850  1400 850 
Text Label 1050 750  0    60   ~ 0
5v0PWR
Text Label 1050 850  0    60   ~ 0
GND
Text Label 7600 4200 0    60   ~ 0
5v0PWR
Text Label 3950 4300 0    60   ~ 0
5v0PWR
Wire Wire Line
	3900 4300 4300 4300
Wire Wire Line
	7550 4200 7950 4200
Text Label 7600 4700 0    60   ~ 0
GND
Wire Wire Line
	7550 4700 7950 4700
Text Label 3950 4800 0    60   ~ 0
GND
Wire Wire Line
	3900 4800 4300 4800
Wire Wire Line
	7000 3300 6650 3300
Wire Wire Line
	6650 4500 7000 4500
$Comp
L 5122K TP14
U 1 1 54F3748C
P 4600 3300
F 0 "TP14" H 4600 3650 60  0000 C CNN
F 1 "EFORCE+" H 4600 3550 60  0000 C CNN
F 2 "TestPoints:TP_1p6mm" H 4600 3300 60  0001 C CNN
F 3 "" H 4600 3300 60  0000 C CNN
F 4 "5008K-ND" H 4850 3650 60  0001 C CNN "DigikeyPN"
	1    4600 3300
	1    0    0    -1  
$EndComp
$Comp
L 5122K TP15
U 1 1 54F374F2
P 4600 4550
F 0 "TP15" H 4600 4900 60  0000 C CNN
F 1 "EFORCE-" H 4600 4800 60  0000 C CNN
F 2 "TestPoints:TP_1p6mm" H 4600 4550 60  0001 C CNN
F 3 "" H 4600 4550 60  0000 C CNN
F 4 "5008K-ND" H 4850 4900 60  0001 C CNN "DigikeyPN"
	1    4600 4550
	1    0    0    -1  
$EndComp
$Comp
L 5.1k-AF R46
U 1 1 54F37706
P 6450 3300
F 0 "R46" H 6450 3496 60  0000 C CNN
F 1 "5.1k-AF" H 6350 3400 60  0000 C CNN
F 2 "Resistors:R0402" H 6450 3300 60  0001 C CNN
F 3 "" H 6550 3450 60  0000 C CNN
F 4 "P5.1KJCT-ND" H 6468 3568 60  0001 C CNN "DigikeyPN"
F 5 "5%" H 6650 3400 60  0000 C CNN "Precision"
	1    6450 3300
	1    0    0    -1  
$EndComp
$Comp
L 5.1k-AF R47
U 1 1 54F37787
P 6450 4500
F 0 "R47" H 6450 4696 60  0000 C CNN
F 1 "5.1k-AF" H 6350 4600 60  0000 C CNN
F 2 "Resistors:R0402" H 6450 4500 60  0001 C CNN
F 3 "" H 6550 4650 60  0000 C CNN
F 4 "P5.1KJCT-ND" H 6468 4768 60  0001 C CNN "DigikeyPN"
F 5 "5%" H 6650 4600 60  0000 C CNN "Precision"
	1    6450 4500
	1    0    0    -1  
$EndComp
$Comp
L 5005K TP16
U 1 1 54F378E4
P 6100 3300
F 0 "TP16" H 6100 3650 60  0000 C CNN
F 1 "Sense_1" H 6100 3550 60  0000 C CNN
F 2 "TestPoints:TP_1p6mm" H 6100 3300 60  0001 C CNN
F 3 "" H 6100 3300 60  0000 C CNN
F 4 "5005K-ND" H 6350 3650 60  0001 C CNN "DigikeyPN"
	1    6100 3300
	1    0    0    -1  
$EndComp
$Comp
L 5005K TP17
U 1 1 54F3791E
P 6100 4500
F 0 "TP17" H 6100 4850 60  0000 C CNN
F 1 "Sense_2" H 6100 4750 60  0000 C CNN
F 2 "TestPoints:TP_1p6mm" H 6100 4500 60  0001 C CNN
F 3 "" H 6100 4500 60  0000 C CNN
F 4 "5005K-ND" H 6350 4850 60  0001 C CNN "DigikeyPN"
	1    6100 4500
	1    0    0    -1  
$EndComp
Wire Wire Line
	5900 3300 6250 3300
Wire Wire Line
	5900 4500 6250 4500
Text HLabel 8250 3250 2    60   Output ~ 0
Sense_1
Text HLabel 8250 4450 2    60   Output ~ 0
Sense_2
Text Notes 6650 2700 0    60   ~ 0
Use low offset, zero drift for sense
$Comp
L Bare_TP TP185
U 1 1 54F2BA4B
P 3000 3300
F 0 "TP185" H 3000 3650 60  0000 C CNN
F 1 "Eforce Pos" H 3000 3550 60  0000 C CNN
F 2 "TestPoints:TP_bare_1p5mm" H 3000 3300 60  0001 C CNN
F 3 "" H 3000 3300 60  0000 C CNN
	1    3000 3300
	1    0    0    -1  
$EndComp
$Comp
L Bare_TP TP186
U 1 1 54F2BAF1
P 3000 4550
F 0 "TP186" H 3000 4900 60  0000 C CNN
F 1 "Eforce Neg" H 3000 4800 60  0000 C CNN
F 2 "TestPoints:TP_bare_1p5mm" H 3000 4550 60  0001 C CNN
F 3 "" H 3000 4550 60  0000 C CNN
	1    3000 4550
	1    0    0    -1  
$EndComp
$Comp
L Bare_TP TP190
U 1 1 54F3AB17
P 8150 3200
F 0 "TP190" H 8150 3550 60  0000 C CNN
F 1 "Sense 1" H 8150 3450 60  0000 C CNN
F 2 "TestPoints:TP_bare_1p5mm" H 8150 3200 60  0001 C CNN
F 3 "" H 8150 3200 60  0000 C CNN
	1    8150 3200
	1    0    0    -1  
$EndComp
$Comp
L Bare_TP TP191
U 1 1 54F3ABEE
P 8150 4400
F 0 "TP191" H 8150 4750 60  0000 C CNN
F 1 "Sense 2" H 8150 4650 60  0000 C CNN
F 2 "TestPoints:TP_bare_1p5mm" H 8150 4400 60  0001 C CNN
F 3 "" H 8150 4400 60  0000 C CNN
	1    8150 4400
	1    0    0    -1  
$EndComp
Wire Wire Line
	8150 4400 8150 4450
Connection ~ 8150 4450
Wire Wire Line
	8150 3200 8150 3250
Connection ~ 8150 3250
Wire Wire Line
	3000 4550 3000 4600
Connection ~ 3000 4600
Wire Wire Line
	3000 3300 3000 3350
Connection ~ 3000 3350
Text HLabel 5900 3300 0    60   BiDi ~ 0
Sense_1_in
Text HLabel 5900 4500 0    60   BiDi ~ 0
Sense_2_in
Connection ~ 6100 3300
Connection ~ 6100 4500
$Comp
L SP1003 D3
U 1 1 553993DD
P 6250 3600
F 0 "D3" H 6366 3510 60  0000 C CNN
F 1 "SP1003" H 6540 3684 60  0000 C CNN
F 2 "Discretes:SOD882" H 5883 3796 60  0001 C CNN
F 3 "" H 6250 3600 60  0000 C CNN
F 4 "F4088CT-ND" H 6083 3996 60  0001 C CNN "DigikeyPN"
F 5 "6V" H 6378 3604 60  0000 C CNN "Clamp"
	1    6250 3600
	1    0    0    -1  
$EndComp
Wire Wire Line
	6250 3300 6250 3450
Wire Wire Line
	6250 3750 6650 3750
Text Label 6450 3750 0    60   ~ 0
GND
$Comp
L SP1003 D4
U 1 1 55399BE8
P 6250 4800
F 0 "D4" H 6366 4710 60  0000 C CNN
F 1 "SP1003" H 6540 4884 60  0000 C CNN
F 2 "Discretes:SOD882" H 5883 4996 60  0001 C CNN
F 3 "" H 6250 4800 60  0000 C CNN
F 4 "F4088CT-ND" H 6083 5196 60  0001 C CNN "DigikeyPN"
F 5 "6V" H 6378 4804 60  0000 C CNN "Clamp"
	1    6250 4800
	1    0    0    -1  
$EndComp
Wire Wire Line
	6250 4500 6250 4650
Wire Wire Line
	6250 4950 6650 4950
Text Label 6450 4950 0    60   ~ 0
GND
$EndSCHEMATC
