EESchema Schematic File Version 2
LIBS:Capacitors
LIBS:Connectors
LIBS:Discretes
LIBS:ICs
LIBS:Allegro
LIBS:Resistors
LIBS:TestPoints
LIBS:Asek20DaughterCard-cache
EELAYER 25 0
EELAYER END
$Descr A4 11693 8268
encoding utf-8
Sheet 6 7
Title "ASEK20 Daughter Card"
Date "Friday, January 23, 2015"
Rev "v1.2"
Comp "Allegro Microsystems LLC"
Comment1 ""
Comment2 ""
Comment3 ""
Comment4 ""
$EndDescr
$Comp
L 5.1k-AF R50
U 1 1 54999A46
P 1700 3000
F 0 "R50" V 1700 3150 60  0000 C CNN
F 1 "5.1k-AF" V 1600 3250 60  0000 C CNN
F 2 "Resistors:R0402" H 1700 3000 60  0001 C CNN
F 3 "" H 1800 3150 60  0000 C CNN
F 4 "P5.1KJCT-ND" H 1718 3268 60  0001 C CNN "DigikeyPN"
F 5 "5%" V 1700 3300 60  0000 C CNN "Precision"
	1    1700 3000
	0    1    1    0   
$EndComp
$Comp
L DMG1013T Q11
U 1 1 54999B19
P 1700 2350
F 0 "Q11" H 1824 2404 60  0000 C CNN
F 1 "DMG1013T" H 1980 2294 60  0000 C CNN
F 2 "Discretes:SOT523" H 1450 2500 60  0001 C CNN
F 3 "" H 1450 2500 60  0000 C CNN
F 4 "DMG1013T-7DICT-ND" H 2200 2500 60  0001 C CNN "DigikeyPN"
	1    1700 2350
	1    0    0    1   
$EndComp
Text Label 1200 2350 0    60   ~ 0
PullUp
$Comp
L 30-CE R51
U 1 1 54999F2B
P 2300 3000
F 0 "R51" V 2300 3150 60  0000 C CNN
F 1 "30-CE" V 2200 3200 60  0000 C CNN
F 2 "Resistors:R0805" H 2300 3000 60  0001 C CNN
F 3 "" H 2400 3150 60  0000 C CNN
F 4 "P30.0CCT-ND" H 2318 3268 60  0001 C CNN "DigikeyPN"
F 5 "1%" V 2300 3300 60  0000 C CNN "Precision"
	1    2300 3000
	0    1    1    0   
$EndComp
$Comp
L DMG1013T Q12
U 1 1 54999FC6
P 2300 2500
F 0 "Q12" H 2450 2450 60  0000 C CNN
F 1 "DMG1013T" H 2600 2550 60  0000 C CNN
F 2 "Discretes:SOT523" H 2050 2650 60  0001 C CNN
F 3 "" H 2050 2650 60  0000 C CNN
F 4 "DMG1013T-7DICT-ND" H 2800 2650 60  0001 C CNN "DigikeyPN"
	1    2300 2500
	-1   0    0    1   
$EndComp
Text Label 2550 2500 0    60   ~ 0
CurrentEn
Text HLabel 7950 3200 2    60   Output ~ 0
Mux_Measure
Text Label 2000 2050 0    60   ~ 0
5v0PWR
Text HLabel 1050 850  0    60   Input ~ 0
5v0SMPS
Text HLabel 1050 950  0    60   Input ~ 0
GND
$Comp
L 47k-BE R61
U 1 1 54A610AA
P 7050 5450
F 0 "R61" H 7050 5646 60  0000 C CNN
F 1 "47k-BE" H 6950 5550 60  0000 C CNN
F 2 "Resistors:R0603" H 7050 5450 60  0001 C CNN
F 3 "" H 7150 5600 60  0000 C CNN
F 4 "P47.0KHCT-ND" H 7068 5718 60  0001 C CNN "DigikeyPN"
F 5 "1%" H 7250 5550 60  0000 C CNN "Precision"
	1    7050 5450
	0    -1   -1   0   
$EndComp
$Comp
L 165k-BE R60
U 1 1 54A61130
P 7050 4900
F 0 "R60" H 7050 5096 60  0000 C CNN
F 1 "165k-BE" H 6950 5000 60  0000 C CNN
F 2 "Resistors:R0603" H 7050 4900 60  0001 C CNN
F 3 "" H 7150 5050 60  0000 C CNN
F 4 "P165KHCT-ND" H 7068 5168 60  0001 C CNN "DigikeyPN"
F 5 "1%" H 7250 5000 60  0000 C CNN "Precision"
	1    7050 4900
	0    -1   -1   0   
$EndComp
$Comp
L 23.7k-BE R59
U 1 1 54A61338
P 7050 4250
F 0 "R59" H 7050 4446 60  0000 C CNN
F 1 "23.7k-BE" H 6950 4350 60  0000 C CNN
F 2 "Resistors:R0603" H 7050 4250 60  0001 C CNN
F 3 "" H 7150 4400 60  0000 C CNN
F 4 "P23.7KHCT-ND" H 7068 4518 60  0001 C CNN "DigikeyPN"
F 5 "1%" H 7250 4350 60  0000 C CNN "Precision"
	1    7050 4250
	0    -1   -1   0   
$EndComp
Text Label 7050 3900 1    60   ~ 0
5v0PWR
Text Label 7050 5950 1    60   ~ 0
GND
Text Label 1100 850  0    60   ~ 0
5v0PWR
Text Label 1100 950  0    60   ~ 0
GND
Text Label 8050 4350 0    60   ~ 0
5v0PWR
Text Label 8250 4750 2    60   ~ 0
GND
$Comp
L 5.1k-AF R62
U 1 1 54A61F6A
P 9000 4250
F 0 "R62" H 9000 4446 60  0000 C CNN
F 1 "5.1k-AF" H 8900 4350 60  0000 C CNN
F 2 "Resistors:R0402" H 9000 4250 60  0001 C CNN
F 3 "" H 9100 4400 60  0000 C CNN
F 4 "P5.1KJCT-ND" H 9018 4518 60  0001 C CNN "DigikeyPN"
F 5 "5%" H 9200 4350 60  0000 C CNN "Precision"
	1    9000 4250
	0    -1   -1   0   
$EndComp
$Comp
L 5.1k-AF R63
U 1 1 54A61FDD
P 9750 4250
F 0 "R63" H 9750 4446 60  0000 C CNN
F 1 "5.1k-AF" H 9650 4350 60  0000 C CNN
F 2 "Resistors:R0402" H 9750 4250 60  0001 C CNN
F 3 "" H 9850 4400 60  0000 C CNN
F 4 "P5.1KJCT-ND" H 9768 4518 60  0001 C CNN "DigikeyPN"
F 5 "5%" H 9950 4350 60  0000 C CNN "Precision"
	1    9750 4250
	0    -1   -1   0   
$EndComp
Text HLabel 9100 4550 2    60   Output ~ 0
GPIO0
Text HLabel 9850 4550 2    60   Output ~ 0
GPIO1
$Comp
L UM5K1N Q10
U 1 1 54A68824
P 1450 6500
F 0 "Q10" H 1418 6676 60  0000 C CNN
F 1 "UM5K1N" H 1448 6572 60  0000 C CNN
F 2 "Discretes:SOT353" H 1450 6500 60  0001 C CNN
F 3 "" H 1450 6500 60  0000 C CNN
F 4 "UM5K1NCT-ND" H 1448 6800 60  0001 C CNN "DigikeyPN"
	1    1450 6500
	1    0    0    -1  
$EndComp
Text Label 1450 6900 1    60   ~ 0
GND
$Comp
L 100k-AF R48
U 1 1 54A68C4D
P 1250 5550
F 0 "R48" H 1250 5746 60  0000 C CNN
F 1 "100k-AF" H 1150 5650 60  0000 C CNN
F 2 "Resistors:R0402" H 1250 5550 60  0001 C CNN
F 3 "" H 1350 5700 60  0000 C CNN
F 4 "P100KJCT-ND" H 1268 5818 60  0001 C CNN "DigikeyPN"
F 5 "5%" H 1450 5650 60  0000 C CNN "Precision"
	1    1250 5550
	0    -1   -1   0   
$EndComp
$Comp
L 100k-AF R49
U 1 1 54A68CA2
P 1650 5550
F 0 "R49" H 1650 5746 60  0000 C CNN
F 1 "100k-AF" H 1550 5650 60  0000 C CNN
F 2 "Resistors:R0402" H 1650 5550 60  0001 C CNN
F 3 "" H 1750 5700 60  0000 C CNN
F 4 "P100KJCT-ND" H 1668 5818 60  0001 C CNN "DigikeyPN"
F 5 "5%" H 1850 5650 60  0000 C CNN "Precision"
	1    1650 5550
	0    1    1    0   
$EndComp
Text Label 1800 5200 0    60   ~ 0
5v0PWR
Text Label 1250 6200 1    60   ~ 0
PullUp
Text Label 1650 6200 1    60   ~ 0
CurrentEn
$Comp
L 10u-BD C39
U 1 1 54A87BD0
P 10050 6000
F 0 "C39" H 10210 6110 60  0000 C CNN
F 1 "10u-BD" H 10306 6020 60  0000 C CNN
F 2 "Capacitors:C0603" H 10050 6002 60  0001 C CNN
F 3 "" H 10050 6002 60  0000 C CNN
F 4 "490-7200-1-ND" H 10366 6204 60  0001 C CNN "DigikeyPN"
F 5 "10V" H 10242 5936 60  0000 C CNN "MaxVoltage"
	1    10050 6000
	1    0    0    -1  
$EndComp
$Comp
L 1u-BD C40
U 1 1 54A87C09
P 10600 6000
F 0 "C40" H 10760 6110 60  0000 C CNN
F 1 "1u-BD" H 10856 6020 60  0000 C CNN
F 2 "Capacitors:C0603" H 10600 6002 60  0001 C CNN
F 3 "" H 10600 6002 60  0000 C CNN
F 4 "490-3897-1-ND" H 10916 6204 60  0001 C CNN "DigikeyPN"
F 5 "25V" H 10792 5936 60  0000 C CNN "MaxVoltage"
	1    10600 6000
	1    0    0    -1  
$EndComp
Text Label 10400 6300 2    60   ~ 0
GND
Text Label 10200 5700 0    60   ~ 0
5v0PWR
Text Notes 9850 5600 0    60   ~ 0
Comparator Decoupling
$Comp
L 100k-AF R53
U 1 1 54ACEA29
P 3000 5650
F 0 "R53" H 3000 5846 60  0000 C CNN
F 1 "100k-AF" H 2900 5750 60  0000 C CNN
F 2 "Resistors:R0402" H 3000 5650 60  0001 C CNN
F 3 "" H 3100 5800 60  0000 C CNN
F 4 "P100KJCT-ND" H 3018 5918 60  0001 C CNN "DigikeyPN"
F 5 "5%" H 3200 5750 60  0000 C CNN "Precision"
	1    3000 5650
	0    1    1    0   
$EndComp
$Comp
L 4.7n-AC C36
U 1 1 54ACEB8E
P 4250 3700
F 0 "C36" H 4410 3810 60  0000 C CNN
F 1 "4.7n-AC" H 4526 3734 60  0000 C CNN
F 2 "Capacitors:C0402" H 4250 3702 60  0001 C CNN
F 3 "" H 4250 3702 60  0000 C CNN
F 4 "490-8259-1-ND" H 4566 3904 60  0001 C CNN "DigikeyPN"
F 5 "50V" H 4442 3636 60  0000 C CNN "MaxVoltage"
	1    4250 3700
	1    0    0    -1  
$EndComp
Text Label 3000 6300 1    60   ~ 0
PullUp2
Text Label 2900 2350 2    60   ~ 0
PullUp2
$Comp
L DMG1013T Q15
U 1 1 54ACEFF6
P 3150 2350
F 0 "Q15" H 3274 2404 60  0000 C CNN
F 1 "DMG1013T" H 3430 2294 60  0000 C CNN
F 2 "Discretes:SOT523" H 2900 2500 60  0001 C CNN
F 3 "" H 2900 2500 60  0000 C CNN
F 4 "DMG1013T-7DICT-ND" H 3650 2500 60  0001 C CNN "DigikeyPN"
	1    3150 2350
	1    0    0    1   
$EndComp
$Comp
L 1k-AF R54
U 1 1 54ACF0DE
P 3150 2950
F 0 "R54" V 3150 3100 60  0000 C CNN
F 1 "1k-AF" V 3050 3200 60  0000 C CNN
F 2 "Resistors:R0402" H 3150 2950 60  0001 C CNN
F 3 "" H 3250 3100 60  0000 C CNN
F 4 "P1.0KJCT-ND" H 3168 3218 60  0001 C CNN "DigikeyPN"
F 5 "5%" V 3150 3250 60  0000 C CNN "Precision"
	1    3150 2950
	0    1    1    0   
$EndComp
Text Label 4050 4750 1    60   ~ 0
GND
Text HLabel 1350 3250 3    60   Input ~ 0
DUT_MUX
$Comp
L 5.1k-AF R58
U 1 1 54C2A102
P 6150 3250
F 0 "R58" H 6250 3350 60  0000 C CNN
F 1 "5.1k-AF" H 6150 3450 60  0000 C CNN
F 2 "Resistors:R0402" H 6150 3250 60  0001 C CNN
F 3 "" H 6250 3400 60  0000 C CNN
F 4 "P5.1KJCT-ND" H 6168 3518 60  0001 C CNN "DigikeyPN"
F 5 "5%" H 6000 3350 60  0000 C CNN "Precision"
	1    6150 3250
	-1   0    0    1   
$EndComp
Text HLabel 1050 750  0    60   Input ~ 0
3v3PWR
Text Label 1100 750  0    60   ~ 0
3v3PWR
Text Label 9250 3850 0    60   ~ 0
3v3PWR
$Comp
L LMP2022 U6
U 2 1 54F23818
P 6900 3200
F 0 "U6" H 7050 3600 60  0000 C CNN
F 1 "LMP2022" H 6700 3600 60  0000 C CNN
F 2 "ICs:8-TSSOP" H 6900 3200 60  0001 C CNN
F 3 "" H 7050 3600 60  0000 C CNN
F 4 "LMP2022MME/NOPBCT-ND" H 7150 3700 60  0001 C CNN "DigikeyPN"
	2    6900 3200
	1    0    0    -1  
$EndComp
$Comp
L MCP6547 U12
U 1 1 54F239D7
P 7850 4550
F 0 "U12" H 8100 4925 60  0000 C CNN
F 1 "MCP6547" H 7775 4925 60  0000 C CNN
F 2 "ICs:8-SOIC" H 7850 4550 60  0001 C CNN
F 3 "" H 7850 4550 60  0000 C CNN
F 4 "MCP6547-E/SN-ND" H 8200 5025 60  0001 C CNN "DigikeyPN"
	1    7850 4550
	1    0    0    -1  
$EndComp
$Comp
L MCP6547 U12
U 2 1 54F23A67
P 7850 5200
F 0 "U12" H 8100 5575 60  0000 C CNN
F 1 "MCP6547" H 7775 5575 60  0000 C CNN
F 2 "ICs:8-SOIC" H 7850 5200 60  0001 C CNN
F 3 "" H 7850 5200 60  0000 C CNN
F 4 "MCP6547-E/SN-ND" H 8200 5675 60  0001 C CNN "DigikeyPN"
	2    7850 5200
	1    0    0    -1  
$EndComp
$Comp
L 5121K TP18
U 1 1 54F863FA
P 1350 3200
F 0 "TP18" H 1350 3550 60  0000 C CNN
F 1 "Mux/Out" H 1350 3450 60  0000 C CNN
F 2 "TestPoints:TP_1p6mm" H 1350 3200 60  0001 C CNN
F 3 "" H 1500 3450 60  0000 C CNN
F 4 "5121K-ND" H 1600 3550 60  0001 C CNN "DigikeyPN"
	1    1350 3200
	1    0    0    -1  
$EndComp
$Comp
L DMG1013T Q16
U 1 1 54F89047
P 3850 2500
F 0 "Q16" H 4000 2450 60  0000 C CNN
F 1 "DMG1013T" H 4150 2550 60  0000 C CNN
F 2 "Discretes:SOT523" H 3600 2650 60  0001 C CNN
F 3 "" H 3600 2650 60  0000 C CNN
F 4 "DMG1013T-7DICT-ND" H 4350 2650 60  0001 C CNN "DigikeyPN"
	1    3850 2500
	-1   0    0    1   
$EndComp
Text Label 4100 2500 0    60   ~ 0
PullUp3
$Comp
L UM5K1N Q14
U 1 1 54F8C64F
P 2800 6700
F 0 "Q14" H 2768 6876 60  0000 C CNN
F 1 "UM5K1N" H 2798 6772 60  0000 C CNN
F 2 "Discretes:SOT353" H 2800 6700 60  0001 C CNN
F 3 "" H 2800 6700 60  0000 C CNN
F 4 "UM5K1NCT-ND" H 2798 7000 60  0001 C CNN "DigikeyPN"
	1    2800 6700
	1    0    0    -1  
$EndComp
Text Label 2800 7100 1    60   ~ 0
GND
$Comp
L 100k-AF R52
U 1 1 54F8D6A5
P 2600 5650
F 0 "R52" H 2600 5846 60  0000 C CNN
F 1 "100k-AF" H 2500 5750 60  0000 C CNN
F 2 "Resistors:R0402" H 2600 5650 60  0001 C CNN
F 3 "" H 2700 5800 60  0000 C CNN
F 4 "P100KJCT-ND" H 2618 5918 60  0001 C CNN "DigikeyPN"
F 5 "5%" H 2800 5750 60  0000 C CNN "Precision"
	1    2600 5650
	0    -1   -1   0   
$EndComp
Text Label 2600 6300 1    60   ~ 0
PullUp3
$Comp
L 1n-AC C38
U 1 1 54FCBF0F
P 5650 3900
F 0 "C38" H 5810 4010 60  0000 C CNN
F 1 "1n-AC" H 5906 3920 60  0000 C CNN
F 2 "Capacitors:C0402" H 5650 3902 60  0001 C CNN
F 3 "" H 5650 3902 60  0000 C CNN
F 4 "490-1303-1-ND" H 5966 4104 60  0001 C CNN "DigikeyPN"
F 5 "50V" H 5842 3836 60  0000 C CNN "MaxVoltage"
	1    5650 3900
	1    0    0    -1  
$EndComp
$Comp
L 1.8n-AC C35
U 1 1 54FCBFB0
P 3850 3700
F 0 "C35" H 3700 3800 60  0000 C CNN
F 1 "1.8n-AC" H 3600 3700 60  0000 C CNN
F 2 "Capacitors:C0402" H 3850 3702 60  0001 C CNN
F 3 "" H 3850 3702 60  0000 C CNN
F 4 "490-3246-1-ND" H 4166 3904 60  0001 C CNN "DigikeyPN"
F 5 "50V" H 3700 3600 60  0000 C CNN "MaxVoltage"
	1    3850 3700
	1    0    0    -1  
$EndComp
$Comp
L UM5K1N Q17
U 1 1 54FCD2DD
P 4050 4350
F 0 "Q17" H 4018 4526 60  0000 C CNN
F 1 "UM5K1N" H 4048 4422 60  0000 C CNN
F 2 "Discretes:SOT353" H 4050 4350 60  0001 C CNN
F 3 "" H 4050 4350 60  0000 C CNN
F 4 "UM5K1NCT-ND" H 4048 4650 60  0001 C CNN "DigikeyPN"
	1    4050 4350
	1    0    0    -1  
$EndComp
$Comp
L UM5K1N Q19
U 1 1 54FCD837
P 5450 4550
F 0 "Q19" H 5418 4726 60  0000 C CNN
F 1 "UM5K1N" H 5448 4622 60  0000 C CNN
F 2 "Discretes:SOT353" H 5450 4550 60  0001 C CNN
F 3 "" H 5450 4550 60  0000 C CNN
F 4 "UM5K1NCT-ND" H 5448 4850 60  0001 C CNN "DigikeyPN"
	1    5450 4550
	1    0    0    -1  
$EndComp
Text Label 5450 4950 1    60   ~ 0
GND
$Comp
L 2.2n-AC C37
U 1 1 54FCFF1E
P 5250 3900
F 0 "C37" H 5410 4010 60  0000 C CNN
F 1 "2.2n-AC" H 5526 3934 60  0000 C CNN
F 2 "Capacitors:C0402" H 5250 3902 60  0001 C CNN
F 3 "" H 5250 3902 60  0000 C CNN
F 4 "490-1305-1-ND" H 5566 4104 60  0001 C CNN "DigikeyPN"
F 5 "50V" H 5442 3836 60  0000 C CNN "MaxVoltage"
	1    5250 3900
	-1   0    0    -1  
$EndComp
Text HLabel 950  6500 0    60   Input ~ 0
GPIO5
Text HLabel 2300 6700 0    60   Input ~ 0
GPIO6
Text HLabel 1950 6500 2    60   Input ~ 0
GPIO4
Text HLabel 3300 6700 2    60   Input ~ 0
GPIO7
Text HLabel 3550 4350 0    60   Input ~ 0
GPIO3
Text HLabel 4550 4350 2    60   Input ~ 0
GPIO2
Text HLabel 4950 4550 0    60   Input ~ 0
GPIO8
Text HLabel 5950 4550 2    60   Input ~ 0
GPIO9
Text Label 2650 4950 1    60   ~ 0
GND
$Comp
L UM5K1N Q13
U 1 1 54FD4ADB
P 2650 4550
F 0 "Q13" H 2618 4726 60  0000 C CNN
F 1 "UM5K1N" H 2648 4622 60  0000 C CNN
F 2 "Discretes:SOT353" H 2650 4550 60  0001 C CNN
F 3 "" H 2650 4550 60  0000 C CNN
F 4 "UM5K1NCT-ND" H 2648 4850 60  0001 C CNN "DigikeyPN"
	1    2650 4550
	1    0    0    -1  
$EndComp
Text HLabel 2150 4550 0    60   Input ~ 0
GPIO10
Text HLabel 3150 4550 2    60   Input ~ 0
GPIO11
Wire Wire Line
	1350 3200 1350 3250
Wire Wire Line
	1600 3250 1600 3500
Wire Wire Line
	1700 2550 1700 2800
Wire Wire Line
	1200 2350 1500 2350
Wire Wire Line
	2300 2800 2300 2700
Wire Wire Line
	2500 2500 2950 2500
Wire Wire Line
	6550 3150 6550 3000
Wire Wire Line
	6550 3000 7250 3000
Wire Wire Line
	7250 3000 7250 3200
Wire Wire Line
	7250 3200 7950 3200
Wire Wire Line
	7050 3850 7050 4050
Wire Wire Line
	7050 5950 7050 5650
Wire Wire Line
	1050 850  1450 850 
Wire Wire Line
	1050 950  1450 950 
Wire Wire Line
	7050 4450 7050 4700
Wire Wire Line
	7050 5100 7050 5250
Wire Wire Line
	7600 5150 7050 5150
Connection ~ 7050 5150
Wire Wire Line
	7600 4500 7050 4500
Connection ~ 7050 4500
Wire Wire Line
	7500 5250 7600 5250
Wire Wire Line
	7500 3200 7500 5250
Wire Wire Line
	7600 4600 7500 4600
Connection ~ 7500 4600
Wire Wire Line
	8000 4350 8400 4350
Wire Wire Line
	8000 4750 8400 4750
Wire Wire Line
	9000 4550 9000 4450
Wire Wire Line
	8100 4550 9100 4550
Wire Wire Line
	9750 4450 9750 5200
Wire Wire Line
	9750 5200 8100 5200
Wire Wire Line
	9000 4050 9000 3850
Wire Wire Line
	9000 3850 9750 3850
Wire Wire Line
	9750 3850 9750 4050
Connection ~ 9000 4550
Wire Wire Line
	9750 4550 9850 4550
Connection ~ 9750 4550
Connection ~ 7500 3200
Wire Wire Line
	950  6500 1000 6500
Wire Wire Line
	1900 6500 1950 6500
Wire Wire Line
	1450 6700 1450 6900
Wire Wire Line
	1250 5750 1250 6250
Wire Wire Line
	1650 5750 1650 6250
Wire Wire Line
	10050 5850 10050 5700
Wire Wire Line
	10050 5700 10600 5700
Wire Wire Line
	10600 5700 10600 5850
Wire Wire Line
	10600 6150 10600 6300
Wire Wire Line
	10600 6300 10050 6300
Wire Wire Line
	10050 6300 10050 6150
Wire Wire Line
	4500 4350 4550 4350
Wire Wire Line
	3600 4350 3550 4350
Wire Wire Line
	3000 5850 3000 6450
Wire Wire Line
	4250 4100 4250 3850
Connection ~ 4250 3250
Wire Wire Line
	2950 2350 2550 2350
Wire Wire Line
	3150 2750 3150 2550
Wire Wire Line
	3150 3250 3150 3150
Wire Wire Line
	4050 4550 4050 4750
Wire Wire Line
	6350 3250 6550 3250
Wire Wire Line
	1050 750  1450 750 
Wire Wire Line
	2300 3250 2300 3200
Wire Wire Line
	1350 3250 5950 3250
Connection ~ 1700 3250
Connection ~ 2300 3250
Connection ~ 3150 3250
Wire Wire Line
	1700 2150 1700 2050
Wire Wire Line
	1700 2050 3850 2050
Wire Wire Line
	2300 2050 2300 2300
Wire Wire Line
	3150 2050 3150 2150
Connection ~ 2300 2050
Wire Wire Line
	3850 2050 3850 2300
Connection ~ 3150 2050
Wire Wire Line
	1250 5350 1250 5200
Wire Wire Line
	1250 5200 3000 5200
Wire Wire Line
	1650 5200 1650 5350
Wire Wire Line
	2300 6700 2350 6700
Wire Wire Line
	3300 6700 3250 6700
Wire Wire Line
	2800 6900 2800 7100
Wire Wire Line
	2600 5850 2600 6450
Connection ~ 1650 5200
Wire Wire Line
	2600 5200 2600 5450
Wire Wire Line
	3000 5200 3000 5450
Connection ~ 2600 5200
Wire Wire Line
	3850 3850 3850 4100
Connection ~ 3850 3250
Wire Wire Line
	3850 3150 3850 3550
Wire Wire Line
	4250 3550 4250 3250
Wire Wire Line
	5250 3750 5250 3250
Connection ~ 5250 3250
Wire Wire Line
	5650 3750 5650 3250
Connection ~ 5650 3250
Wire Wire Line
	5250 4300 5250 4050
Wire Wire Line
	5650 4050 5650 4300
Wire Wire Line
	3100 4550 3150 4550
Wire Wire Line
	2200 4550 2150 4550
Wire Wire Line
	2850 4300 2850 4050
Wire Wire Line
	2650 4750 2650 4950
Wire Wire Line
	2450 4050 2450 4300
Wire Wire Line
	2450 3250 2450 3750
Wire Wire Line
	2850 3250 2850 3750
Connection ~ 2850 3250
Connection ~ 2450 3250
$Comp
L 10n-AC C34
U 1 1 54FD7CED
P 2850 3900
F 0 "C34" H 3010 4010 60  0000 C CNN
F 1 "10n-AC" H 3126 3934 60  0000 C CNN
F 2 "Capacitors:C0402" H 2850 3902 60  0001 C CNN
F 3 "" H 2850 3902 60  0000 C CNN
F 4 "490-4516-1-ND" H 3166 4104 60  0001 C CNN "DigikeyPN"
F 5 "50V" H 3042 3836 60  0000 C CNN "MaxVoltage"
	1    2850 3900
	1    0    0    -1  
$EndComp
$Comp
L 100n-AC C33
U 1 1 54FD7D98
P 2450 3900
F 0 "C33" H 2610 4010 60  0000 C CNN
F 1 "100n-AC" H 2726 3934 60  0000 C CNN
F 2 "Capacitors:C0402" H 2450 3902 60  0001 C CNN
F 3 "" H 2450 3902 60  0000 C CNN
F 4 "445-5932-1-ND" H 2766 4104 60  0001 C CNN "DigikeyPN"
F 5 "50V" H 2642 3836 60  0000 C CNN "MaxVoltage"
	1    2450 3900
	-1   0    0    -1  
$EndComp
Wire Wire Line
	4950 4550 5000 4550
Wire Wire Line
	5900 4550 5950 4550
Wire Wire Line
	5450 4750 5450 4950
$Comp
L UM5K1N Q18
U 1 1 54FDCDBB
P 4150 6500
F 0 "Q18" H 4118 6676 60  0000 C CNN
F 1 "UM5K1N" H 4148 6572 60  0000 C CNN
F 2 "Discretes:SOT353" H 4150 6500 60  0001 C CNN
F 3 "" H 4150 6500 60  0000 C CNN
F 4 "UM5K1NCT-ND" H 4148 6800 60  0001 C CNN "DigikeyPN"
	1    4150 6500
	1    0    0    -1  
$EndComp
Text HLabel 3650 6500 0    60   Input ~ 0
GPIO13
Wire Wire Line
	3650 6500 3700 6500
Text HLabel 4650 6500 2    60   Input ~ 0
GPIO12
Text Label 4150 6900 1    60   ~ 0
GND
Wire Wire Line
	4150 6700 4150 6900
Wire Wire Line
	4050 2500 4450 2500
$Comp
L 510-AF R55
U 1 1 54FE398E
P 3850 2950
F 0 "R55" V 3850 3100 60  0000 C CNN
F 1 "510-AF" V 3750 3200 60  0000 C CNN
F 2 "Resistors:R0402" H 3850 2950 60  0001 C CNN
F 3 "" H 3950 3100 60  0000 C CNN
F 4 "P510JCT-ND" H 3868 3218 60  0001 C CNN "DigikeyPN"
F 5 "5%" V 3850 3300 60  0000 C CNN "Precision"
	1    3850 2950
	0    1    1    0   
$EndComp
Wire Wire Line
	3850 2700 3850 2750
$Comp
L 2.2M-AF R56
U 1 1 54FE4EFA
P 3950 5850
F 0 "R56" H 3950 6046 60  0000 C CNN
F 1 "2.2M-AF" H 3850 5950 60  0000 C CNN
F 2 "Resistors:R0402" H 3950 5850 60  0001 C CNN
F 3 "" H 4050 6000 60  0000 C CNN
F 4 "P2.2MJCT-ND" H 3968 6118 60  0001 C CNN "DigikeyPN"
F 5 "5%" H 4150 5950 60  0000 C CNN "Precision"
	1    3950 5850
	0    -1   -1   0   
$EndComp
$Comp
L 10M-AF R57
U 1 1 54FE500C
P 4350 5850
F 0 "R57" H 4350 6046 60  0000 C CNN
F 1 "10M-AF" H 4250 5950 60  0000 C CNN
F 2 "Resistors:R0402" H 4350 5850 60  0001 C CNN
F 3 "" H 4450 6000 60  0000 C CNN
F 4 "P10MJCT-ND" H 4368 6118 60  0001 C CNN "DigikeyPN"
F 5 "5%" H 4550 5950 60  0000 C CNN "Precision"
	1    4350 5850
	0    1    1    0   
$EndComp
Wire Wire Line
	3950 6050 3950 6250
Wire Wire Line
	4350 6050 4350 6250
Text Label 4450 3250 0    60   ~ 0
Mux_Out_Net
Text Label 3950 5500 0    60   ~ 0
Mux_Out_Net
Wire Wire Line
	3950 5650 3950 5500
Wire Wire Line
	3950 5500 4350 5500
Wire Wire Line
	4350 5500 4350 5650
Wire Wire Line
	4650 6500 4600 6500
$Comp
L ProtoTP TP187
U 1 1 54F292E5
P 7750 3150
F 0 "TP187" H 7750 3500 60  0000 C CNN
F 1 "Mux_Buffered" H 7750 3400 60  0000 C CNN
F 2 "TestPoints:TP_1p0mm" H 7750 3150 60  0001 C CNN
F 3 "" H 7750 3150 60  0000 C CNN
	1    7750 3150
	1    0    0    -1  
$EndComp
$Comp
L Bare_TP TP189
U 1 1 54F2A390
P 9000 5150
F 0 "TP189" H 9000 5500 60  0000 C CNN
F 1 "10% Fall" H 9000 5400 60  0000 C CNN
F 2 "TestPoints:TP_bare_1p5mm" H 9000 5150 60  0001 C CNN
F 3 "" H 9000 5150 60  0000 C CNN
	1    9000 5150
	1    0    0    -1  
$EndComp
$Comp
L Bare_TP TP188
U 1 1 54F2A501
P 8600 4300
F 0 "TP188" H 8600 4650 60  0000 C CNN
F 1 "95% Fall" H 8600 4550 60  0000 C CNN
F 2 "TestPoints:TP_bare_1p5mm" H 8600 4300 60  0001 C CNN
F 3 "" H 8600 4300 60  0000 C CNN
	1    8600 4300
	1    0    0    -1  
$EndComp
Wire Wire Line
	8600 4300 8600 4550
Connection ~ 8600 4550
Wire Wire Line
	7750 3150 7750 3200
Connection ~ 7750 3200
Wire Wire Line
	9000 5150 9000 5200
Connection ~ 9000 5200
$Comp
L SP1003 D5
U 1 1 553A7388
P 1600 3650
F 0 "D5" H 1716 3560 60  0000 C CNN
F 1 "SP1003" H 1890 3734 60  0000 C CNN
F 2 "Discretes:SOD882" H 1233 3846 60  0001 C CNN
F 3 "" H 1600 3650 60  0000 C CNN
F 4 "F4088CT-ND" H 1433 4046 60  0001 C CNN "DigikeyPN"
F 5 "6V" H 1728 3654 60  0000 C CNN "Clamp"
	1    1600 3650
	1    0    0    -1  
$EndComp
Wire Wire Line
	1600 3800 1600 4050
Text Label 1600 4000 1    60   ~ 0
GND
Wire Wire Line
	1700 3200 1700 3250
Connection ~ 1600 3250
$EndSCHEMATC
