EESchema Schematic File Version 2
LIBS:power
LIBS:device
LIBS:transistors
LIBS:conn
LIBS:linear
LIBS:regul
LIBS:74xx
LIBS:cmos4000
LIBS:adc-dac
LIBS:memory
LIBS:xilinx
LIBS:microcontrollers
LIBS:dsp
LIBS:microchip
LIBS:analog_switches
LIBS:motorola
LIBS:texas
LIBS:intel
LIBS:audio
LIBS:interface
LIBS:digital-audio
LIBS:philips
LIBS:display
LIBS:cypress
LIBS:siliconi
LIBS:opto
LIBS:atmel
LIBS:contrib
LIBS:valves
EELAYER 25 0
EELAYER END
$Descr A4 11693 8268
encoding utf-8
Sheet 1 1
Title ""
Date ""
Rev ""
Comp ""
Comment1 ""
Comment2 ""
Comment3 ""
Comment4 ""
$EndDescr
$Comp
L CONN_COAXIAL J?
U 1 1 58C6C86A
P 3200 2700
F 0 "J?" H 3210 2820 50  0000 C CNN
F 1 "CONN_COAXIAL" V 3315 2700 50  0000 C CNN
F 2 "" H 3200 2700 50  0001 C CNN
F 3 "" H 3200 2700 50  0001 C CNN
	1    3200 2700
	1    0    0    -1  
$EndComp
$Comp
L CONN_COAXIAL J?
U 1 1 58C6C8C7
P 7150 2750
F 0 "J?" H 7160 2870 50  0000 C CNN
F 1 "CONN_COAXIAL" V 7265 2750 50  0000 C CNN
F 2 "" H 7150 2750 50  0001 C CNN
F 3 "" H 7150 2750 50  0001 C CNN
	1    7150 2750
	1    0    0    -1  
$EndComp
$Comp
L R R?
U 1 1 58C6C97C
P 4100 2600
F 0 "R?" V 4180 2600 50  0000 C CNN
F 1 "R" V 4100 2600 50  0000 C CNN
F 2 "" V 4030 2600 50  0001 C CNN
F 3 "" H 4100 2600 50  0001 C CNN
	1    4100 2600
	1    0    0    -1  
$EndComp
$Comp
L R R?
U 1 1 58C6CAAB
P 5250 2550
F 0 "R?" V 5330 2550 50  0000 C CNN
F 1 "R" V 5250 2550 50  0000 C CNN
F 2 "" V 5180 2550 50  0001 C CNN
F 3 "" H 5250 2550 50  0001 C CNN
	1    5250 2550
	0    1    1    0   
$EndComp
$Comp
L R R?
U 1 1 58C6D760
P 5250 3450
F 0 "R?" V 5330 3450 50  0000 C CNN
F 1 "R" V 5250 3450 50  0000 C CNN
F 2 "" V 5180 3450 50  0001 C CNN
F 3 "" H 5250 3450 50  0001 C CNN
	1    5250 3450
	0    1    1    0   
$EndComp
$Comp
L R R?
U 1 1 58C6D7C3
P 6600 2750
F 0 "R?" V 6680 2750 50  0000 C CNN
F 1 "R" V 6600 2750 50  0000 C CNN
F 2 "" V 6530 2750 50  0001 C CNN
F 3 "" H 6600 2750 50  0001 C CNN
	1    6600 2750
	1    0    0    -1  
$EndComp
$Comp
L R R?
U 1 1 58C6D849
P 6600 3350
F 0 "R?" V 6680 3350 50  0000 C CNN
F 1 "R" V 6600 3350 50  0000 C CNN
F 2 "" V 6530 3350 50  0001 C CNN
F 3 "" H 6600 3350 50  0001 C CNN
	1    6600 3350
	1    0    0    -1  
$EndComp
$Comp
L C C?
U 1 1 58C6DAB5
P 4750 2150
F 0 "C?" H 4775 2250 50  0000 L CNN
F 1 "C" H 4775 2050 50  0000 L CNN
F 2 "" H 4788 2000 50  0001 C CNN
F 3 "" H 4750 2150 50  0001 C CNN
	1    4750 2150
	1    0    0    -1  
$EndComp
$Comp
L C C?
U 1 1 58C6DB10
P 5750 2950
F 0 "C?" H 5775 3050 50  0000 L CNN
F 1 "C" H 5775 2850 50  0000 L CNN
F 2 "" H 5788 2800 50  0001 C CNN
F 3 "" H 5750 2950 50  0001 C CNN
	1    5750 2950
	1    0    0    -1  
$EndComp
$Comp
L C C?
U 1 1 58C6DB83
P 4600 3550
F 0 "C?" H 4625 3650 50  0000 L CNN
F 1 "C" H 4625 3450 50  0000 L CNN
F 2 "" H 4638 3400 50  0001 C CNN
F 3 "" H 4600 3550 50  0001 C CNN
	1    4600 3550
	1    0    0    -1  
$EndComp
$EndSCHEMATC
