EESchema Schematic File Version 2
LIBS:BCI_Injector-rescue
LIBS:Capacitors
LIBS:Connectors
LIBS:Discretes
LIBS:ICs
LIBS:Allegro
LIBS:Resistors
LIBS:Inductors
LIBS:TestPoints
LIBS:BCI_Injector-cache
EELAYER 26 0
EELAYER END
$Descr A4 11693 8268
encoding utf-8
Sheet 1 1
Title ""
Date ""
Rev ""
Comp ""
Comment1 ""
Comment2 ""
Comment3 ""
Comment4 ""
$EndDescr
$Comp
L BNC_Conn J6
U 1 1 59A977AB
P 1050 1900
F 0 "J6" H 1144 2106 60  0000 C CNN
F 1 "BNC_Conn" H 1080 2200 60  0001 C CNN
F 2 "Connectors:MOL0731375003" H 950 2000 60  0001 C CNN
F 3 "" H 1050 1900 60  0000 C CNN
F 4 "WM5514-ND" H 1080 2290 60  0001 C CNN "DigkeyKey Part#"
	1    1050 1900
	1    0    0    -1  
$EndComp
$Comp
L BNC_Conn J7
U 1 1 59A97895
P 1050 2800
F 0 "J7" H 1144 3006 60  0000 C CNN
F 1 "BNC_Conn" H 1080 3100 60  0001 C CNN
F 2 "Connectors:MOL0731375003" H 950 2900 60  0001 C CNN
F 3 "" H 1050 2800 60  0000 C CNN
F 4 "WM5514-ND" H 1080 3190 60  0001 C CNN "DigkeyKey Part#"
	1    1050 2800
	1    0    0    -1  
$EndComp
Text Label 1050 2300 2    60   ~ 0
GND
Text Label 1050 3200 2    60   ~ 0
GND
$Comp
L PWB-4-CL L2
U 1 1 59A98096
P 2200 2350
F 0 "L2" H 2230 2797 60  0000 C CNN
F 1 "PWB-4-CL" H 2230 2691 60  0000 C CNN
F 2 "Inductors:PWB" H 2400 3350 60  0001 C CNN
F 3 "" H 2200 2350 60  0001 C CNN
F 4 "PWB-4-CL" H 2230 2691 60  0001 C CNN "MPN"
	1    2200 2350
	1    0    0    -1  
$EndComp
Wire Wire Line
	1350 1900 1650 1900
Wire Wire Line
	1650 1900 1650 2150
Wire Wire Line
	1650 2150 2000 2150
Wire Wire Line
	1350 2800 1650 2800
Wire Wire Line
	1650 2800 1650 2550
Wire Wire Line
	1650 2550 2000 2550
Text Label 2000 2350 2    60   ~ 0
GND
Text Label 2400 2550 0    60   ~ 0
GND
NoConn ~ 2400 2350
$Comp
L 10u-BD C13
U 1 1 59A98756
P 5500 2800
F 0 "C13" V 5871 2800 60  0000 C CNN
F 1 "10u-BD" V 5765 2800 60  0000 C CNN
F 2 "Capacitors:C0603" H 5500 2802 60  0001 C CNN
F 3 "" H 5500 2802 60  0000 C CNN
F 4 "490-7200-1-ND" H 5816 3004 60  0001 C CNN "DigikeyPN"
F 5 "10V" V 5659 2800 60  0000 C CNN "MaxVoltage"
	1    5500 2800
	0    -1   -1   0   
$EndComp
$Comp
L 33u-FC L3
U 1 1 59A98824
P 5350 3500
F 0 "L3" H 5350 3747 60  0000 C CNN
F 1 "33u-FC" H 5350 3641 60  0000 C CNN
F 2 "Inductors:L1812" H 5400 3500 60  0001 C CNN
F 3 "" H 5400 3500 60  0001 C CNN
F 4 "L" H 5370 3810 60  0001 C CNN "Spice_Primitive"
F 5 "33u" H 5270 3810 60  0001 C CNN "Spice_Model"
F 6 "Y" H 5410 3810 60  0001 C CNN "Spice_Netlist_Enabled"
F 7 "1812LS-333XJL" H 5350 3641 60  0001 C CNN "MPN"
	1    5350 3500
	1    0    0    -1  
$EndComp
Wire Wire Line
	5800 3500 5550 3500
Wire Wire Line
	5800 2800 5800 3500
$Comp
L 5006 TP1
U 1 1 59A98B7B
P 4750 3500
F 0 "TP1" H 4828 3647 60  0000 L CNN
F 1 "IN" H 4828 3541 60  0000 L CNN
F 2 "TestPoints:TP_1p6mm" H 4750 3500 60  0001 C CNN
F 3 "" H 4750 3500 60  0000 C CNN
F 4 "36-5006-ND" H 5000 3850 60  0001 C CNN "DigikeyPN"
	1    4750 3500
	1    0    0    -1  
$EndComp
Wire Wire Line
	5150 3500 4750 3500
$Comp
L OPA820 U1
U 1 1 59A9BBD5
P 4200 2300
F 0 "U1" H 4300 2450 60  0000 C CNN
F 1 "OPA820" H 4100 2700 60  0000 C CNN
F 2 "Discretes:SOT235" H 4400 2550 60  0001 C CNN
F 3 "" H 4500 2650 60  0000 C CNN
F 4 "296-14178-1-ND" H 4600 2750 60  0001 C CNN "DigikeyPN"
F 5 "OPA843IDBVT" H 4700 2850 60  0001 C CNN "MPN"
	1    4200 2300
	1    0    0    -1  
$EndComp
$Comp
L OPA820 U2
U 1 1 59A9BC55
P 6350 1150
F 0 "U2" H 6450 1300 60  0000 C CNN
F 1 "OPA820" H 6650 1000 60  0000 C CNN
F 2 "Discretes:SOT235" H 6550 1400 60  0001 C CNN
F 3 "" H 6650 1500 60  0000 C CNN
F 4 "296-14178-1-ND" H 6750 1600 60  0001 C CNN "DigikeyPN"
F 5 "OPA843IDBVT" H 6850 1700 60  0001 C CNN "MPN"
	1    6350 1150
	1    0    0    -1  
$EndComp
$Comp
L OPA820 U3
U 1 1 59A9BCC1
P 10250 4450
F 0 "U3" H 10741 4503 60  0000 L CNN
F 1 "OPA820" H 10741 4397 60  0000 L CNN
F 2 "Discretes:SOT235" H 10450 4700 60  0001 C CNN
F 3 "" H 10550 4800 60  0000 C CNN
F 4 "296-14178-1-ND" H 10650 4900 60  0001 C CNN "DigikeyPN"
F 5 "OPA843IDBVT" H 10750 5000 60  0001 C CNN "MPN"
	1    10250 4450
	0    1    1    0   
$EndComp
$Comp
L Banana_Black_Conn J2
U 1 1 59A9C52B
P 1000 4600
F 0 "J2" H 1094 4806 60  0000 C CNN
F 1 "Banana_Black_Conn" H 1030 4900 60  0001 C CNN
F 2 "Connectors:CINCH1110703001" H 900 4700 60  0001 C CNN
F 3 "" H 1000 4600 60  0000 C CNN
F 4 "J10126-ND" H 1030 4990 60  0001 C CNN "DigkeyKeyPN"
F 5 "111-0703-001" H 1200 5000 60  0001 C CNN "MPN"
	1    1000 4600
	1    0    0    -1  
$EndComp
$Comp
L Banana_Red_Conn J1
U 1 1 59A9C61A
P 1000 4150
F 0 "J1" H 1094 4356 60  0000 C CNN
F 1 "Banana_Red_Conn" H 1030 4450 60  0001 C CNN
F 2 "Connectors:CINCH1110703001" H 900 4250 60  0001 C CNN
F 3 "" H 1000 4150 60  0000 C CNN
F 4 "J10125-ND" H 1030 4540 60  0001 C CNN "DigkeyKeyPN"
F 5 "111-0702-001" H 1200 4550 60  0001 C CNN "MPN"
	1    1000 4150
	1    0    0    -1  
$EndComp
$Comp
L Banana_Red_Conn J3
U 1 1 59A9C698
P 1000 5050
F 0 "J3" H 1094 5256 60  0000 C CNN
F 1 "Banana_Red_Conn" H 1030 5350 60  0001 C CNN
F 2 "Connectors:CINCH1110703001" H 900 5150 60  0001 C CNN
F 3 "" H 1000 5050 60  0000 C CNN
F 4 "J10125-ND" H 1030 5440 60  0001 C CNN "DigkeyKeyPN"
F 5 "111-0702-001" H 1200 5450 60  0001 C CNN "MPN"
	1    1000 5050
	1    0    0    -1  
$EndComp
Text Label 1300 4600 0    60   ~ 0
GND
Text Label 1300 4150 0    60   ~ 0
VPOS
Text Label 1300 5050 0    60   ~ 0
VNEG
$Comp
L 200-BD R1
U 1 1 59A9CCD5
P 2800 2350
F 0 "R1" V 2694 2438 60  0000 L CNN
F 1 "200-BD" V 2800 2438 60  0000 L CNN
F 2 "Resistors:R0603" H 2800 2350 60  0001 C CNN
F 3 "" H 2900 2500 60  0000 C CNN
F 4 "P200DBCT-ND" H 2818 2618 60  0001 C CNN "DigikeyPN"
F 5 "0.1%" V 2906 2438 60  0000 L CNN "Precision"
	1    2800 2350
	0    1    1    0   
$EndComp
Text Label 4150 2050 0    60   ~ 0
VPOS
Text Label 4150 2550 0    60   ~ 0
VNEG
Text Label 2800 2550 0    60   ~ 0
GND
Wire Wire Line
	4650 2300 4650 2800
$Comp
L 1k-BE R4
U 1 1 59A9E0B6
P 4250 2800
F 0 "R4" H 4350 2700 60  0000 C CNN
F 1 "1k-BE" H 4250 2950 60  0000 C CNN
F 2 "Resistors:R0603" H 4250 2800 60  0001 C CNN
F 3 "" H 4350 2950 60  0000 C CNN
F 4 "P1.00KHCT-ND" H 4268 3068 60  0001 C CNN "DigikeyPN"
F 5 "1%" H 4250 2679 60  0000 C CNN "Precision"
	1    4250 2800
	-1   0    0    1   
$EndComp
$Comp
L 1k-BE R3
U 1 1 59A9E18A
P 3750 3050
F 0 "R3" V 3644 3138 60  0000 L CNN
F 1 "1k-BE" V 3750 3138 60  0000 L CNN
F 2 "Resistors:R0603" H 3750 3050 60  0001 C CNN
F 3 "" H 3850 3200 60  0000 C CNN
F 4 "P1.00KHCT-ND" H 3768 3318 60  0001 C CNN "DigikeyPN"
F 5 "1%" V 3856 3138 60  0000 L CNN "Precision"
	1    3750 3050
	0    1    1    0   
$EndComp
Wire Wire Line
	3750 2450 3750 2850
Connection ~ 3750 2800
Text Label 3750 3250 0    60   ~ 0
GND
Connection ~ 4650 2800
Text Label 10000 4400 3    60   ~ 0
VNEG
Text Label 10500 4400 3    60   ~ 0
VPOS
$Comp
L 10n-AC C3
U 1 1 59A9FA2E
P 4450 5800
F 0 "C3" H 4556 5906 60  0000 L CNN
F 1 "10n-AC" H 4556 5800 60  0000 L CNN
F 2 "Capacitors:C0402" H 4450 5802 60  0001 C CNN
F 3 "" H 4450 5802 60  0000 C CNN
F 4 "490-4516-1-ND" H 4766 6004 60  0001 C CNN "DigikeyPN"
F 5 "50V" H 4556 5694 60  0000 L CNN "MaxVoltage"
	1    4450 5800
	1    0    0    -1  
$EndComp
$Comp
L 10n-AC C9
U 1 1 59A9FA98
P 6050 5800
F 0 "C9" H 6156 5906 60  0000 L CNN
F 1 "10n-AC" H 6156 5800 60  0000 L CNN
F 2 "Capacitors:C0402" H 6050 5802 60  0001 C CNN
F 3 "" H 6050 5802 60  0000 C CNN
F 4 "490-4516-1-ND" H 6366 6004 60  0001 C CNN "DigikeyPN"
F 5 "50V" H 6156 5694 60  0000 L CNN "MaxVoltage"
	1    6050 5800
	1    0    0    -1  
$EndComp
$Comp
L 10n-AC C17
U 1 1 59A9FB14
P 7650 5800
F 0 "C17" H 7756 5906 60  0000 L CNN
F 1 "10n-AC" H 7756 5800 60  0000 L CNN
F 2 "Capacitors:C0402" H 7650 5802 60  0001 C CNN
F 3 "" H 7650 5802 60  0000 C CNN
F 4 "490-4516-1-ND" H 7966 6004 60  0001 C CNN "DigikeyPN"
F 5 "50V" H 7756 5694 60  0000 L CNN "MaxVoltage"
	1    7650 5800
	1    0    0    -1  
$EndComp
$Comp
L 1u-BD C1
U 1 1 59A9FCB8
P 3950 5800
F 0 "C1" H 4056 5906 60  0000 L CNN
F 1 "1u-BD" H 4056 5800 60  0000 L CNN
F 2 "Capacitors:C0603" H 3950 5802 60  0001 C CNN
F 3 "" H 3950 5802 60  0000 C CNN
F 4 "490-3897-1-ND" H 4266 6004 60  0001 C CNN "DigikeyPN"
F 5 "25V" H 4056 5694 60  0000 L CNN "MaxVoltage"
	1    3950 5800
	1    0    0    -1  
$EndComp
$Comp
L 1u-BD C7
U 1 1 59A9FD32
P 5550 5800
F 0 "C7" H 5656 5906 60  0000 L CNN
F 1 "1u-BD" H 5656 5800 60  0000 L CNN
F 2 "Capacitors:C0603" H 5550 5802 60  0001 C CNN
F 3 "" H 5550 5802 60  0000 C CNN
F 4 "490-3897-1-ND" H 5866 6004 60  0001 C CNN "DigikeyPN"
F 5 "25V" H 5656 5694 60  0000 L CNN "MaxVoltage"
	1    5550 5800
	1    0    0    -1  
$EndComp
$Comp
L 1u-BD C14
U 1 1 59A9FD9A
P 7150 5800
F 0 "C14" H 7256 5906 60  0000 L CNN
F 1 "1u-BD" H 7256 5800 60  0000 L CNN
F 2 "Capacitors:C0603" H 7150 5802 60  0001 C CNN
F 3 "" H 7150 5802 60  0000 C CNN
F 4 "490-3897-1-ND" H 7466 6004 60  0001 C CNN "DigikeyPN"
F 5 "25V" H 7256 5694 60  0000 L CNN "MaxVoltage"
	1    7150 5800
	1    0    0    -1  
$EndComp
$Comp
L 10u-BD C5
U 1 1 59AA01D9
P 5000 5800
F 0 "C5" H 5106 5906 60  0000 L CNN
F 1 "10u-BD" H 5106 5800 60  0000 L CNN
F 2 "Capacitors:C0603" H 5000 5802 60  0001 C CNN
F 3 "" H 5000 5802 60  0000 C CNN
F 4 "490-7200-1-ND" H 5316 6004 60  0001 C CNN "DigikeyPN"
F 5 "10V" H 5106 5694 60  0000 L CNN "MaxVoltage"
	1    5000 5800
	1    0    0    -1  
$EndComp
$Comp
L 10u-BD C11
U 1 1 59AA0271
P 6600 5800
F 0 "C11" H 6706 5906 60  0000 L CNN
F 1 "10u-BD" H 6706 5800 60  0000 L CNN
F 2 "Capacitors:C0603" H 6600 5802 60  0001 C CNN
F 3 "" H 6600 5802 60  0000 C CNN
F 4 "490-7200-1-ND" H 6916 6004 60  0001 C CNN "DigikeyPN"
F 5 "10V" H 6706 5694 60  0000 L CNN "MaxVoltage"
	1    6600 5800
	1    0    0    -1  
$EndComp
$Comp
L 10u-BD C19
U 1 1 59AA02CB
P 8200 5800
F 0 "C19" H 8306 5906 60  0000 L CNN
F 1 "10u-BD" H 8306 5800 60  0000 L CNN
F 2 "Capacitors:C0603" H 8200 5802 60  0001 C CNN
F 3 "" H 8200 5802 60  0000 C CNN
F 4 "490-7200-1-ND" H 8516 6004 60  0001 C CNN "DigikeyPN"
F 5 "10V" H 8306 5694 60  0000 L CNN "MaxVoltage"
	1    8200 5800
	1    0    0    -1  
$EndComp
$Comp
L ZIF14 J9
U 1 1 59AECD23
P 8050 3100
F 0 "J9" H 8050 3637 60  0000 C CNN
F 1 "ZIF14" H 8050 3531 60  0000 C CNN
F 2 "Connectors:ZIF14" H 7950 3300 60  0001 C CNN
F 3 "" H 8050 3400 60  0000 C CNN
F 4 "3M1402-ND" H 8050 3600 60  0001 C CNN "DigikeyPN"
F 5 "214-3339-00-0602J" H 8250 3600 60  0001 C CNN "MPN"
	1    8050 3100
	-1   0    0    -1  
$EndComp
$Comp
L 0.0-BF R14
U 1 1 59AED986
P 6950 2850
F 0 "R14" H 6950 3203 60  0000 C CNN
F 1 "0.0-BF" H 6950 3097 60  0000 C CNN
F 2 "Resistors:R0603" H 6850 2946 60  0001 C CNN
F 3 "" H 7050 3000 60  0000 C CNN
F 4 "P0.0GCT-ND" H 6968 3118 60  0001 C CNN "DigikeyPN"
F 5 "5%" H 6950 2991 60  0000 C CNN "Precision"
	1    6950 2850
	1    0    0    -1  
$EndComp
$Comp
L 0.0-BF R12
U 1 1 59AEDA33
P 6550 2950
F 0 "R12" H 6550 3303 60  0000 C CNN
F 1 "0.0-BF" H 6550 3197 60  0000 C CNN
F 2 "Resistors:R0603" H 6450 3046 60  0001 C CNN
F 3 "" H 6650 3100 60  0000 C CNN
F 4 "P0.0GCT-ND" H 6568 3218 60  0001 C CNN "DigikeyPN"
F 5 "5%" H 6550 3091 60  0000 C CNN "Precision"
	1    6550 2950
	1    0    0    -1  
$EndComp
$Comp
L 0.0-BF R10
U 1 1 59AEDADD
P 6150 3050
F 0 "R10" H 6150 3403 60  0000 C CNN
F 1 "0.0-BF" H 6150 3297 60  0000 C CNN
F 2 "Resistors:R0603" H 6050 3146 60  0001 C CNN
F 3 "" H 6250 3200 60  0000 C CNN
F 4 "P0.0GCT-ND" H 6168 3318 60  0001 C CNN "DigikeyPN"
F 5 "5%" H 6150 3191 60  0000 C CNN "Precision"
	1    6150 3050
	1    0    0    -1  
$EndComp
$Comp
L 0.0-BF R15
U 1 1 59AEDB43
P 6950 3150
F 0 "R15" H 6950 3503 60  0000 C CNN
F 1 "0.0-BF" H 6950 3397 60  0000 C CNN
F 2 "Resistors:R0603" H 6850 3246 60  0001 C CNN
F 3 "" H 7050 3300 60  0000 C CNN
F 4 "P0.0GCT-ND" H 6968 3418 60  0001 C CNN "DigikeyPN"
F 5 "5%" H 6950 3291 60  0000 C CNN "Precision"
	1    6950 3150
	1    0    0    -1  
$EndComp
$Comp
L 0.0-BF R13
U 1 1 59AEDBAF
P 6550 3250
F 0 "R13" H 6550 3603 60  0000 C CNN
F 1 "0.0-BF" H 6550 3497 60  0000 C CNN
F 2 "Resistors:R0603" H 6450 3346 60  0001 C CNN
F 3 "" H 6650 3400 60  0000 C CNN
F 4 "P0.0GCT-ND" H 6568 3518 60  0001 C CNN "DigikeyPN"
F 5 "5%" H 6550 3391 60  0000 C CNN "Precision"
	1    6550 3250
	1    0    0    -1  
$EndComp
$Comp
L 0.0-BF R11
U 1 1 59AEDC1D
P 6150 3350
F 0 "R11" H 6150 3703 60  0000 C CNN
F 1 "0.0-BF" H 6150 3597 60  0000 C CNN
F 2 "Resistors:R0603" H 6050 3446 60  0001 C CNN
F 3 "" H 6250 3500 60  0000 C CNN
F 4 "P0.0GCT-ND" H 6168 3618 60  0001 C CNN "DigikeyPN"
F 5 "5%" H 6150 3491 60  0000 C CNN "Precision"
	1    6150 3350
	1    0    0    -1  
$EndComp
$Comp
L 0.0-BF R16
U 1 1 59AEDC83
P 6950 3450
F 0 "R16" H 6950 3803 60  0000 C CNN
F 1 "0.0-BF" H 6950 3697 60  0000 C CNN
F 2 "Resistors:R0603" H 6850 3546 60  0001 C CNN
F 3 "" H 7050 3600 60  0000 C CNN
F 4 "P0.0GCT-ND" H 6968 3718 60  0001 C CNN "DigikeyPN"
F 5 "5%" H 6950 3591 60  0000 C CNN "Precision"
	1    6950 3450
	1    0    0    -1  
$EndComp
Wire Wire Line
	7150 3450 7600 3450
Wire Wire Line
	7150 3150 7600 3150
Wire Wire Line
	7150 2850 7600 2850
Wire Wire Line
	6750 2950 7600 2950
Wire Wire Line
	6350 3050 7600 3050
Wire Wire Line
	6750 3250 7600 3250
Wire Wire Line
	6350 3350 7600 3350
Connection ~ 5800 2850
Connection ~ 5800 2950
Connection ~ 5800 3050
Connection ~ 5800 3150
Connection ~ 5800 3250
Connection ~ 5800 3350
Connection ~ 5800 3450
Wire Wire Line
	4450 2800 4800 2800
$Comp
L 2-BE R5
U 1 1 59AF062B
P 5000 2800
F 0 "R5" H 5000 3153 60  0000 C CNN
F 1 "2-BE" H 5000 3047 60  0000 C CNN
F 2 "Resistors:R0603" H 5000 2800 60  0001 C CNN
F 3 "" H 5100 2950 60  0000 C CNN
F 4 "1276-4476-1-ND" H 5018 3068 60  0001 C CNN "DigikeyPN"
F 5 "1%" H 5000 2941 60  0000 C CNN "Precision"
	1    5000 2800
	1    0    0    -1  
$EndComp
Wire Wire Line
	5200 2800 5350 2800
Wire Wire Line
	5800 2800 5650 2800
Text Label 6300 900  0    60   ~ 0
VPOS
Text Label 6300 1400 0    60   ~ 0
VNEG
$Comp
L BNC_Conn J8
U 1 1 59AF1456
P 8000 1150
F 0 "J8" H 8094 1356 60  0000 C CNN
F 1 "BNC_Conn" H 8030 1450 60  0001 C CNN
F 2 "Connectors:MOL0731375003" H 7900 1250 60  0001 C CNN
F 3 "" H 8000 1150 60  0000 C CNN
F 4 "WM5514-ND" H 8030 1540 60  0001 C CNN "DigkeyKey Part#"
	1    8000 1150
	-1   0    0    -1  
$EndComp
$Comp
L 49.9-AE R17
U 1 1 59AF1AC4
P 7450 1150
F 0 "R17" H 7450 1503 60  0000 C CNN
F 1 "49.9-AE" H 7450 1397 60  0000 C CNN
F 2 "Resistors:R0402" H 7450 1150 60  0001 C CNN
F 3 "" H 7550 1300 60  0000 C CNN
F 4 "P49.9LCT-ND" H 7468 1418 60  0001 C CNN "DigikeyPN"
F 5 "1%" H 7450 1291 60  0000 C CNN "Precision"
	1    7450 1150
	1    0    0    -1  
$EndComp
Wire Wire Line
	6800 1150 7250 1150
Wire Wire Line
	7650 1150 7700 1150
Text Label 8000 1550 2    60   ~ 0
GND
$Comp
L 1k-BE R6
U 1 1 59AF5B03
P 5550 1000
F 0 "R6" H 5650 900 60  0000 C CNN
F 1 "1k-BE" H 5550 1150 60  0000 C CNN
F 2 "Resistors:R0603" H 5550 1000 60  0001 C CNN
F 3 "" H 5650 1150 60  0000 C CNN
F 4 "P1.00KHCT-ND" H 5568 1268 60  0001 C CNN "DigikeyPN"
F 5 "1%" H 5550 879 60  0000 C CNN "Precision"
	1    5550 1000
	-1   0    0    1   
$EndComp
$Comp
L 1k-BE R9
U 1 1 59AF5EA2
P 6200 650
F 0 "R9" H 6300 550 60  0000 C CNN
F 1 "1k-BE" H 6200 800 60  0000 C CNN
F 2 "Resistors:R0603" H 6200 650 60  0001 C CNN
F 3 "" H 6300 800 60  0000 C CNN
F 4 "P1.00KHCT-ND" H 6218 918 60  0001 C CNN "DigikeyPN"
F 5 "1%" H 6200 529 60  0000 C CNN "Precision"
	1    6200 650 
	-1   0    0    1   
$EndComp
Wire Wire Line
	6400 650  6850 650 
Wire Wire Line
	6850 650  6850 1150
Connection ~ 6850 1150
Wire Wire Line
	5850 650  6000 650 
Wire Wire Line
	5750 1000 5900 1000
$Comp
L 1k-BE R7
U 1 1 59AF64F9
P 5550 1300
F 0 "R7" H 5650 1200 60  0000 C CNN
F 1 "1k-BE" H 5550 1450 60  0000 C CNN
F 2 "Resistors:R0603" H 5550 1300 60  0001 C CNN
F 3 "" H 5650 1450 60  0000 C CNN
F 4 "P1.00KHCT-ND" H 5568 1568 60  0001 C CNN "DigikeyPN"
F 5 "1%" H 5550 1179 60  0000 C CNN "Precision"
	1    5550 1300
	-1   0    0    1   
$EndComp
$Comp
L 1k-BE R8
U 1 1 59AF656B
P 5850 1750
F 0 "R8" H 5950 1650 60  0000 C CNN
F 1 "1k-BE" H 5850 1900 60  0000 C CNN
F 2 "Resistors:R0603" H 5850 1750 60  0001 C CNN
F 3 "" H 5950 1900 60  0000 C CNN
F 4 "P1.00KHCT-ND" H 5868 2018 60  0001 C CNN "DigikeyPN"
F 5 "1%" H 5850 1629 60  0000 C CNN "Precision"
	1    5850 1750
	0    -1   -1   0   
$EndComp
Wire Wire Line
	5750 1300 5900 1300
Wire Wire Line
	5850 1550 5850 1300
Connection ~ 5850 1300
Wire Wire Line
	5850 1000 5850 650 
Connection ~ 5850 1000
Text Label 5850 1950 0    60   ~ 0
GND
Wire Wire Line
	5350 1300 5300 1300
Wire Wire Line
	5300 1300 5300 2800
Connection ~ 5300 2800
Wire Wire Line
	5350 1000 4750 1000
Wire Wire Line
	4750 1000 4750 2800
Connection ~ 4750 2800
$Comp
L 0.0-BF R18
U 1 1 59AF9E47
P 9200 2850
F 0 "R18" H 9200 3203 60  0000 C CNN
F 1 "0.0-BF" H 9200 3097 60  0000 C CNN
F 2 "Resistors:R0603" H 9100 2946 60  0001 C CNN
F 3 "" H 9300 3000 60  0000 C CNN
F 4 "P0.0GCT-ND" H 9218 3118 60  0001 C CNN "DigikeyPN"
F 5 "5%" H 9200 2991 60  0000 C CNN "Precision"
	1    9200 2850
	1    0    0    -1  
$EndComp
$Comp
L 0.0-BF R23
U 1 1 59AF9F01
P 9650 2950
F 0 "R23" H 9650 3303 60  0000 C CNN
F 1 "0.0-BF" H 9650 3197 60  0000 C CNN
F 2 "Resistors:R0603" H 9550 3046 60  0001 C CNN
F 3 "" H 9750 3100 60  0000 C CNN
F 4 "P0.0GCT-ND" H 9668 3218 60  0001 C CNN "DigikeyPN"
F 5 "5%" H 9650 3091 60  0000 C CNN "Precision"
	1    9650 2950
	1    0    0    -1  
$EndComp
$Comp
L 0.0-BF R25
U 1 1 59AF9F85
P 10100 3050
F 0 "R25" H 10100 3403 60  0000 C CNN
F 1 "0.0-BF" H 10100 3297 60  0000 C CNN
F 2 "Resistors:R0603" H 10000 3146 60  0001 C CNN
F 3 "" H 10200 3200 60  0000 C CNN
F 4 "P0.0GCT-ND" H 10118 3318 60  0001 C CNN "DigikeyPN"
F 5 "5%" H 10100 3191 60  0000 C CNN "Precision"
	1    10100 3050
	1    0    0    -1  
$EndComp
$Comp
L 0.0-BF R19
U 1 1 59AFA023
P 9200 3150
F 0 "R19" H 9200 3503 60  0000 C CNN
F 1 "0.0-BF" H 9200 3397 60  0000 C CNN
F 2 "Resistors:R0603" H 9100 3246 60  0001 C CNN
F 3 "" H 9300 3300 60  0000 C CNN
F 4 "P0.0GCT-ND" H 9218 3418 60  0001 C CNN "DigikeyPN"
F 5 "5%" H 9200 3291 60  0000 C CNN "Precision"
	1    9200 3150
	1    0    0    -1  
$EndComp
$Comp
L 0.0-BF R24
U 1 1 59AFA0AB
P 9650 3250
F 0 "R24" H 9650 3603 60  0000 C CNN
F 1 "0.0-BF" H 9650 3497 60  0000 C CNN
F 2 "Resistors:R0603" H 9550 3346 60  0001 C CNN
F 3 "" H 9750 3400 60  0000 C CNN
F 4 "P0.0GCT-ND" H 9668 3518 60  0001 C CNN "DigikeyPN"
F 5 "5%" H 9650 3391 60  0000 C CNN "Precision"
	1    9650 3250
	1    0    0    -1  
$EndComp
$Comp
L 0.0-BF R26
U 1 1 59AFA137
P 10100 3350
F 0 "R26" H 10100 3703 60  0000 C CNN
F 1 "0.0-BF" H 10100 3597 60  0000 C CNN
F 2 "Resistors:R0603" H 10000 3446 60  0001 C CNN
F 3 "" H 10200 3500 60  0000 C CNN
F 4 "P0.0GCT-ND" H 10118 3618 60  0001 C CNN "DigikeyPN"
F 5 "5%" H 10100 3491 60  0000 C CNN "Precision"
	1    10100 3350
	1    0    0    -1  
$EndComp
$Comp
L 0.0-BF R20
U 1 1 59AFA1BD
P 9200 3450
F 0 "R20" H 9200 3803 60  0000 C CNN
F 1 "0.0-BF" H 9200 3697 60  0000 C CNN
F 2 "Resistors:R0603" H 9100 3546 60  0001 C CNN
F 3 "" H 9300 3600 60  0000 C CNN
F 4 "P0.0GCT-ND" H 9218 3718 60  0001 C CNN "DigikeyPN"
F 5 "5%" H 9200 3591 60  0000 C CNN "Precision"
	1    9200 3450
	1    0    0    -1  
$EndComp
Wire Wire Line
	8500 2950 9450 2950
Wire Wire Line
	8500 3250 9450 3250
Wire Wire Line
	8500 3350 9900 3350
Wire Wire Line
	8500 3050 9900 3050
Wire Wire Line
	9400 2850 10400 2850
Wire Wire Line
	10400 2850 10400 4000
Wire Wire Line
	10400 3450 9400 3450
Wire Wire Line
	10300 3350 10400 3350
Connection ~ 10400 3350
Wire Wire Line
	9850 3250 10400 3250
Connection ~ 10400 3250
Wire Wire Line
	10300 3050 10400 3050
Connection ~ 10400 3050
Wire Wire Line
	9850 2950 10400 2950
Connection ~ 10400 2950
Wire Wire Line
	9400 3150 10400 3150
Connection ~ 10400 3150
Wire Wire Line
	3950 5650 3950 5600
Wire Wire Line
	3950 5600 8200 5600
Wire Wire Line
	5000 5600 5000 5650
Wire Wire Line
	4450 5650 4450 5600
Connection ~ 4450 5600
Wire Wire Line
	3950 5950 3950 6050
Wire Wire Line
	3950 6000 8200 6000
Wire Wire Line
	5000 5950 5000 6050
Wire Wire Line
	4450 5950 4450 6050
Connection ~ 4450 6000
Text Label 4200 5600 0    60   ~ 0
VPOS
Text Label 4200 6000 0    60   ~ 0
GND
Wire Wire Line
	8200 5600 8200 5650
Connection ~ 5000 5600
Wire Wire Line
	8200 5950 8200 6050
Connection ~ 5000 6000
Wire Wire Line
	7650 5950 7650 6050
Connection ~ 7650 6000
Wire Wire Line
	7150 5950 7150 6050
Connection ~ 7150 6000
Wire Wire Line
	6600 5950 6600 6050
Connection ~ 6600 6000
Wire Wire Line
	6050 5950 6050 6050
Connection ~ 6050 6000
Wire Wire Line
	5550 5950 5550 6050
Connection ~ 5550 6000
Wire Wire Line
	5550 5650 5550 5600
Connection ~ 5550 5600
Wire Wire Line
	6050 5650 6050 5600
Connection ~ 6050 5600
Wire Wire Line
	6600 5650 6600 5600
Connection ~ 6600 5600
Wire Wire Line
	7150 5650 7150 5600
Connection ~ 7150 5600
Wire Wire Line
	7650 5650 7650 5600
Connection ~ 7650 5600
$Comp
L 10n-AC C4
U 1 1 59AF04C0
P 4450 6200
F 0 "C4" H 4556 6306 60  0000 L CNN
F 1 "10n-AC" H 4556 6200 60  0000 L CNN
F 2 "Capacitors:C0402" H 4450 6202 60  0001 C CNN
F 3 "" H 4450 6202 60  0000 C CNN
F 4 "490-4516-1-ND" H 4766 6404 60  0001 C CNN "DigikeyPN"
F 5 "50V" H 4556 6094 60  0000 L CNN "MaxVoltage"
	1    4450 6200
	1    0    0    -1  
$EndComp
$Comp
L 10n-AC C10
U 1 1 59AF04C8
P 6050 6200
F 0 "C10" H 6156 6306 60  0000 L CNN
F 1 "10n-AC" H 6156 6200 60  0000 L CNN
F 2 "Capacitors:C0402" H 6050 6202 60  0001 C CNN
F 3 "" H 6050 6202 60  0000 C CNN
F 4 "490-4516-1-ND" H 6366 6404 60  0001 C CNN "DigikeyPN"
F 5 "50V" H 6156 6094 60  0000 L CNN "MaxVoltage"
	1    6050 6200
	1    0    0    -1  
$EndComp
$Comp
L 10n-AC C18
U 1 1 59AF04D0
P 7650 6200
F 0 "C18" H 7756 6306 60  0000 L CNN
F 1 "10n-AC" H 7756 6200 60  0000 L CNN
F 2 "Capacitors:C0402" H 7650 6202 60  0001 C CNN
F 3 "" H 7650 6202 60  0000 C CNN
F 4 "490-4516-1-ND" H 7966 6404 60  0001 C CNN "DigikeyPN"
F 5 "50V" H 7756 6094 60  0000 L CNN "MaxVoltage"
	1    7650 6200
	1    0    0    -1  
$EndComp
$Comp
L 1u-BD C2
U 1 1 59AF04D8
P 3950 6200
F 0 "C2" H 4056 6306 60  0000 L CNN
F 1 "1u-BD" H 4056 6200 60  0000 L CNN
F 2 "Capacitors:C0603" H 3950 6202 60  0001 C CNN
F 3 "" H 3950 6202 60  0000 C CNN
F 4 "490-3897-1-ND" H 4266 6404 60  0001 C CNN "DigikeyPN"
F 5 "25V" H 4056 6094 60  0000 L CNN "MaxVoltage"
	1    3950 6200
	1    0    0    -1  
$EndComp
$Comp
L 1u-BD C8
U 1 1 59AF04E0
P 5550 6200
F 0 "C8" H 5656 6306 60  0000 L CNN
F 1 "1u-BD" H 5656 6200 60  0000 L CNN
F 2 "Capacitors:C0603" H 5550 6202 60  0001 C CNN
F 3 "" H 5550 6202 60  0000 C CNN
F 4 "490-3897-1-ND" H 5866 6404 60  0001 C CNN "DigikeyPN"
F 5 "25V" H 5656 6094 60  0000 L CNN "MaxVoltage"
	1    5550 6200
	1    0    0    -1  
$EndComp
$Comp
L 1u-BD C15
U 1 1 59AF04E8
P 7150 6200
F 0 "C15" H 7256 6306 60  0000 L CNN
F 1 "1u-BD" H 7256 6200 60  0000 L CNN
F 2 "Capacitors:C0603" H 7150 6202 60  0001 C CNN
F 3 "" H 7150 6202 60  0000 C CNN
F 4 "490-3897-1-ND" H 7466 6404 60  0001 C CNN "DigikeyPN"
F 5 "25V" H 7256 6094 60  0000 L CNN "MaxVoltage"
	1    7150 6200
	1    0    0    -1  
$EndComp
$Comp
L 10u-BD C6
U 1 1 59AF04F0
P 5000 6200
F 0 "C6" H 5106 6306 60  0000 L CNN
F 1 "10u-BD" H 5106 6200 60  0000 L CNN
F 2 "Capacitors:C0603" H 5000 6202 60  0001 C CNN
F 3 "" H 5000 6202 60  0000 C CNN
F 4 "490-7200-1-ND" H 5316 6404 60  0001 C CNN "DigikeyPN"
F 5 "10V" H 5106 6094 60  0000 L CNN "MaxVoltage"
	1    5000 6200
	1    0    0    -1  
$EndComp
$Comp
L 10u-BD C12
U 1 1 59AF04F8
P 6600 6200
F 0 "C12" H 6706 6306 60  0000 L CNN
F 1 "10u-BD" H 6706 6200 60  0000 L CNN
F 2 "Capacitors:C0603" H 6600 6202 60  0001 C CNN
F 3 "" H 6600 6202 60  0000 C CNN
F 4 "490-7200-1-ND" H 6916 6404 60  0001 C CNN "DigikeyPN"
F 5 "10V" H 6706 6094 60  0000 L CNN "MaxVoltage"
	1    6600 6200
	1    0    0    -1  
$EndComp
$Comp
L 10u-BD C20
U 1 1 59AF0500
P 8200 6200
F 0 "C20" H 8306 6306 60  0000 L CNN
F 1 "10u-BD" H 8306 6200 60  0000 L CNN
F 2 "Capacitors:C0603" H 8200 6202 60  0001 C CNN
F 3 "" H 8200 6202 60  0000 C CNN
F 4 "490-7200-1-ND" H 8516 6404 60  0001 C CNN "DigikeyPN"
F 5 "10V" H 8306 6094 60  0000 L CNN "MaxVoltage"
	1    8200 6200
	1    0    0    -1  
$EndComp
Wire Wire Line
	3950 6350 3950 6400
Wire Wire Line
	3950 6400 8200 6400
Wire Wire Line
	5000 6400 5000 6350
Wire Wire Line
	4450 6350 4450 6400
Connection ~ 4450 6400
Wire Wire Line
	8200 6400 8200 6350
Connection ~ 5000 6400
Wire Wire Line
	7650 6350 7650 6400
Connection ~ 7650 6400
Wire Wire Line
	7150 6350 7150 6400
Connection ~ 7150 6400
Wire Wire Line
	6600 6350 6600 6400
Connection ~ 6600 6400
Wire Wire Line
	6050 6350 6050 6400
Connection ~ 6050 6400
Wire Wire Line
	5550 6350 5550 6400
Connection ~ 5550 6400
Text Label 4200 6400 0    60   ~ 0
VNEG
Connection ~ 10400 3450
$Comp
L 100-BD R21
U 1 1 59AF2402
P 9400 4000
F 0 "R21" H 9400 4353 60  0000 C CNN
F 1 "100-BD" H 9400 4247 60  0000 C CNN
F 2 "Resistors:R0603" H 9400 4000 60  0001 C CNN
F 3 "" H 9500 4150 60  0000 C CNN
F 4 "P100DBCT-ND" H 9418 4268 60  0001 C CNN "DigikeyPN"
F 5 "0.1%" H 9400 4141 60  0000 C CNN "Precision"
	1    9400 4000
	1    0    0    -1  
$EndComp
$Comp
L 3.01k-CE R22
U 1 1 59AF24F1
P 9600 4700
F 0 "R22" V 9706 4632 60  0000 R CNN
F 1 "3.01k-CE" V 9600 4632 60  0000 R CNN
F 2 "Resistors:R0603" H 9600 4700 60  0001 C CNN
F 3 "" H 9700 4850 60  0000 C CNN
F 4 "P3.01KHCT-ND" H 9618 4968 60  0001 C CNN "DigikeyPN"
F 5 "1%" V 9494 4632 60  0000 R CNN "Precision"
	1    9600 4700
	0    -1   -1   0   
$EndComp
Wire Wire Line
	10250 4900 9600 4900
Wire Wire Line
	9600 4500 9600 4000
Wire Wire Line
	9600 4000 10100 4000
Text Label 9200 4000 1    60   ~ 0
GND
$Comp
L BNC_Conn J10
U 1 1 59AF3699
P 10950 5850
F 0 "J10" H 11044 6056 60  0000 C CNN
F 1 "BNC_Conn" H 10980 6150 60  0001 C CNN
F 2 "Connectors:MOL0731375003" H 10850 5950 60  0001 C CNN
F 3 "" H 10950 5850 60  0000 C CNN
F 4 "WM5514-ND" H 10980 6240 60  0001 C CNN "DigkeyKey Part#"
	1    10950 5850
	-1   0    0    -1  
$EndComp
$Comp
L 49.9-AE R27
U 1 1 59AF36A1
P 10450 5850
F 0 "R27" H 10450 6203 60  0000 C CNN
F 1 "49.9-AE" H 10450 6097 60  0000 C CNN
F 2 "Resistors:R0402" H 10450 5850 60  0001 C CNN
F 3 "" H 10550 6000 60  0000 C CNN
F 4 "P49.9LCT-ND" H 10468 6118 60  0001 C CNN "DigikeyPN"
F 5 "1%" H 10450 5991 60  0000 C CNN "Precision"
	1    10450 5850
	1    0    0    -1  
$EndComp
Text Label 10950 6250 2    60   ~ 0
GND
Connection ~ 3950 6000
Connection ~ 8200 6000
Wire Wire Line
	6750 3450 5800 3450
Wire Wire Line
	6350 3250 5800 3250
Wire Wire Line
	6750 3150 5800 3150
Wire Wire Line
	5950 3050 5800 3050
Wire Wire Line
	5800 2950 6350 2950
Wire Wire Line
	6750 2850 5800 2850
Connection ~ 7250 2850
Connection ~ 7450 3450
Connection ~ 7350 3350
Connection ~ 7250 3250
Connection ~ 7550 3150
Connection ~ 7450 3050
Connection ~ 7350 2950
Wire Wire Line
	10250 5850 10250 4900
Wire Wire Line
	8500 3450 9000 3450
Wire Wire Line
	8500 3150 9000 3150
Connection ~ 8600 2850
Connection ~ 8800 3450
Connection ~ 8700 3350
Connection ~ 8600 3250
Connection ~ 8900 3150
Connection ~ 8800 3050
Connection ~ 8700 2950
Wire Wire Line
	8500 2850 9000 2850
$Comp
L ProbeGround GND1
U 1 1 59B0E03D
P 9200 6300
F 0 "GND1" H 9500 6950 60  0001 C CNN
F 1 "ProbeGround" H 9541 6344 60  0000 L CNN
F 2 "TestPoints:PROBEGND" H 9200 6300 60  0001 C CNN
F 3 "" H 9200 6300 60  0000 C CNN
	1    9200 6300
	1    0    0    -1  
$EndComp
Wire Wire Line
	8900 6400 9500 6400
Text Label 9100 6400 0    60   ~ 0
GND
Wire Wire Line
	5950 3350 5800 3350
$Comp
L Bare_TP TP2
U 1 1 59B17981
P 7250 2850
F 0 "TP2" H 7328 2944 60  0000 L CNN
F 1 "Bare_TP" H 7328 2891 60  0001 L CNN
F 2 "TestPoints:TP_bare_1p5mm" H 7250 2850 60  0001 C CNN
F 3 "" H 7250 2850 60  0000 C CNN
	1    7250 2850
	1    0    0    -1  
$EndComp
Wire Wire Line
	4050 2800 3750 2800
Wire Wire Line
	2400 2150 3750 2150
Connection ~ 2800 2150
$Comp
L Bare_TP TP9
U 1 1 59B1C919
P 8600 2850
F 0 "TP9" H 8678 2944 60  0000 L CNN
F 1 "Bare_TP" H 8678 2891 60  0001 L CNN
F 2 "TestPoints:TP_bare_1p5mm" H 8600 2850 60  0001 C CNN
F 3 "" H 8600 2850 60  0000 C CNN
	1    8600 2850
	1    0    0    -1  
$EndComp
$Comp
L Bare_TP TP11
U 1 1 59B1C9D1
P 8700 2950
F 0 "TP11" H 8778 3044 60  0000 L CNN
F 1 "Bare_TP" H 8778 2991 60  0001 L CNN
F 2 "TestPoints:TP_bare_1p5mm" H 8700 2950 60  0001 C CNN
F 3 "" H 8700 2950 60  0000 C CNN
	1    8700 2950
	1    0    0    -1  
$EndComp
$Comp
L Bare_TP TP13
U 1 1 59B1CA73
P 8800 3050
F 0 "TP13" H 8878 3144 60  0000 L CNN
F 1 "Bare_TP" H 8878 3091 60  0001 L CNN
F 2 "TestPoints:TP_bare_1p5mm" H 8800 3050 60  0001 C CNN
F 3 "" H 8800 3050 60  0000 C CNN
	1    8800 3050
	1    0    0    -1  
$EndComp
$Comp
L Bare_TP TP15
U 1 1 59B1CB1B
P 8900 3150
F 0 "TP15" H 8978 3244 60  0000 L CNN
F 1 "Bare_TP" H 8978 3191 60  0001 L CNN
F 2 "TestPoints:TP_bare_1p5mm" H 8900 3150 60  0001 C CNN
F 3 "" H 8900 3150 60  0000 C CNN
	1    8900 3150
	1    0    0    -1  
$EndComp
$Comp
L Bare_TP TP10
U 1 1 59B1CBCB
P 8600 3250
F 0 "TP10" H 8678 3344 60  0000 L CNN
F 1 "Bare_TP" H 8678 3291 60  0001 L CNN
F 2 "TestPoints:TP_bare_1p5mm" H 8600 3250 60  0001 C CNN
F 3 "" H 8600 3250 60  0000 C CNN
	1    8600 3250
	1    0    0    -1  
$EndComp
$Comp
L Bare_TP TP12
U 1 1 59B1CC7F
P 8700 3350
F 0 "TP12" H 8778 3444 60  0000 L CNN
F 1 "Bare_TP" H 8778 3391 60  0001 L CNN
F 2 "TestPoints:TP_bare_1p5mm" H 8700 3350 60  0001 C CNN
F 3 "" H 8700 3350 60  0000 C CNN
	1    8700 3350
	1    0    0    -1  
$EndComp
$Comp
L Bare_TP TP14
U 1 1 59B1CD2B
P 8800 3450
F 0 "TP14" H 8878 3544 60  0000 L CNN
F 1 "Bare_TP" H 8878 3491 60  0001 L CNN
F 2 "TestPoints:TP_bare_1p5mm" H 8800 3450 60  0001 C CNN
F 3 "" H 8800 3450 60  0000 C CNN
	1    8800 3450
	1    0    0    -1  
$EndComp
$Comp
L Bare_TP TP4
U 1 1 59B1D2A4
P 7350 2950
F 0 "TP4" H 7428 3044 60  0000 L CNN
F 1 "Bare_TP" H 7428 2991 60  0001 L CNN
F 2 "TestPoints:TP_bare_1p5mm" H 7350 2950 60  0001 C CNN
F 3 "" H 7350 2950 60  0000 C CNN
	1    7350 2950
	1    0    0    -1  
$EndComp
$Comp
L Bare_TP TP6
U 1 1 59B1D348
P 7450 3050
F 0 "TP6" H 7528 3144 60  0000 L CNN
F 1 "Bare_TP" H 7528 3091 60  0001 L CNN
F 2 "TestPoints:TP_bare_1p5mm" H 7450 3050 60  0001 C CNN
F 3 "" H 7450 3050 60  0000 C CNN
	1    7450 3050
	1    0    0    -1  
$EndComp
$Comp
L Bare_TP TP8
U 1 1 59B1D3EE
P 7550 3150
F 0 "TP8" H 7628 3244 60  0000 L CNN
F 1 "Bare_TP" H 7628 3191 60  0001 L CNN
F 2 "TestPoints:TP_bare_1p5mm" H 7550 3150 60  0001 C CNN
F 3 "" H 7550 3150 60  0000 C CNN
	1    7550 3150
	1    0    0    -1  
$EndComp
$Comp
L Bare_TP TP3
U 1 1 59B1D496
P 7250 3250
F 0 "TP3" H 7328 3344 60  0000 L CNN
F 1 "Bare_TP" H 7328 3291 60  0001 L CNN
F 2 "TestPoints:TP_bare_1p5mm" H 7250 3250 60  0001 C CNN
F 3 "" H 7250 3250 60  0000 C CNN
	1    7250 3250
	1    0    0    -1  
$EndComp
$Comp
L Bare_TP TP5
U 1 1 59B1D546
P 7350 3350
F 0 "TP5" H 7428 3444 60  0000 L CNN
F 1 "Bare_TP" H 7428 3391 60  0001 L CNN
F 2 "TestPoints:TP_bare_1p5mm" H 7350 3350 60  0001 C CNN
F 3 "" H 7350 3350 60  0000 C CNN
	1    7350 3350
	1    0    0    -1  
$EndComp
$Comp
L Bare_TP TP7
U 1 1 59B1D5F2
P 7450 3450
F 0 "TP7" H 7528 3544 60  0000 L CNN
F 1 "Bare_TP" H 7528 3491 60  0001 L CNN
F 2 "TestPoints:TP_bare_1p5mm" H 7450 3450 60  0001 C CNN
F 3 "" H 7450 3450 60  0000 C CNN
	1    7450 3450
	1    0    0    -1  
$EndComp
$Comp
L 0.0-BF R31
U 1 1 59B287A3
P 7000 3800
F 0 "R31" H 7000 4153 60  0000 C CNN
F 1 "0.0-BF" H 7000 4047 60  0000 C CNN
F 2 "Resistors:R0603" H 6900 3896 60  0001 C CNN
F 3 "" H 7100 3950 60  0000 C CNN
F 4 "P0.0GCT-ND" H 7018 4068 60  0001 C CNN "DigikeyPN"
F 5 "5%" H 7000 3941 60  0000 C CNN "Precision"
	1    7000 3800
	1    0    0    -1  
$EndComp
$Comp
L 0.0-BF R29
U 1 1 59B287AB
P 6600 3900
F 0 "R29" H 6600 4253 60  0000 C CNN
F 1 "0.0-BF" H 6600 4147 60  0000 C CNN
F 2 "Resistors:R0603" H 6500 3996 60  0001 C CNN
F 3 "" H 6700 4050 60  0000 C CNN
F 4 "P0.0GCT-ND" H 6618 4168 60  0001 C CNN "DigikeyPN"
F 5 "5%" H 6600 4041 60  0000 C CNN "Precision"
	1    6600 3900
	1    0    0    -1  
$EndComp
$Comp
L 0.0-BF R2
U 1 1 59B287B3
P 6200 4000
F 0 "R2" H 6200 4353 60  0000 C CNN
F 1 "0.0-BF" H 6200 4247 60  0000 C CNN
F 2 "Resistors:R0603" H 6100 4096 60  0001 C CNN
F 3 "" H 6300 4150 60  0000 C CNN
F 4 "P0.0GCT-ND" H 6218 4268 60  0001 C CNN "DigikeyPN"
F 5 "5%" H 6200 4141 60  0000 C CNN "Precision"
	1    6200 4000
	1    0    0    -1  
$EndComp
$Comp
L 0.0-BF R32
U 1 1 59B287BB
P 7000 4100
F 0 "R32" H 7000 4453 60  0000 C CNN
F 1 "0.0-BF" H 7000 4347 60  0000 C CNN
F 2 "Resistors:R0603" H 6900 4196 60  0001 C CNN
F 3 "" H 7100 4250 60  0000 C CNN
F 4 "P0.0GCT-ND" H 7018 4368 60  0001 C CNN "DigikeyPN"
F 5 "5%" H 7000 4241 60  0000 C CNN "Precision"
	1    7000 4100
	1    0    0    -1  
$EndComp
$Comp
L 0.0-BF R30
U 1 1 59B287C3
P 6600 4200
F 0 "R30" H 6600 4553 60  0000 C CNN
F 1 "0.0-BF" H 6600 4447 60  0000 C CNN
F 2 "Resistors:R0603" H 6500 4296 60  0001 C CNN
F 3 "" H 6700 4350 60  0000 C CNN
F 4 "P0.0GCT-ND" H 6618 4468 60  0001 C CNN "DigikeyPN"
F 5 "5%" H 6600 4341 60  0000 C CNN "Precision"
	1    6600 4200
	1    0    0    -1  
$EndComp
$Comp
L 0.0-BF R28
U 1 1 59B287CB
P 6200 4300
F 0 "R28" H 6200 4653 60  0000 C CNN
F 1 "0.0-BF" H 6200 4547 60  0000 C CNN
F 2 "Resistors:R0603" H 6100 4396 60  0001 C CNN
F 3 "" H 6300 4450 60  0000 C CNN
F 4 "P0.0GCT-ND" H 6218 4568 60  0001 C CNN "DigikeyPN"
F 5 "5%" H 6200 4441 60  0000 C CNN "Precision"
	1    6200 4300
	1    0    0    -1  
$EndComp
$Comp
L 0.0-BF R33
U 1 1 59B287D3
P 7000 4400
F 0 "R33" H 7000 4753 60  0000 C CNN
F 1 "0.0-BF" H 7000 4647 60  0000 C CNN
F 2 "Resistors:R0603" H 6900 4496 60  0001 C CNN
F 3 "" H 7100 4550 60  0000 C CNN
F 4 "P0.0GCT-ND" H 7018 4668 60  0001 C CNN "DigikeyPN"
F 5 "5%" H 7000 4541 60  0000 C CNN "Precision"
	1    7000 4400
	1    0    0    -1  
$EndComp
Wire Wire Line
	5850 4400 6800 4400
Wire Wire Line
	5850 4200 6400 4200
Wire Wire Line
	5850 4100 6800 4100
Wire Wire Line
	5850 3900 6400 3900
Wire Wire Line
	6800 3800 5850 3800
Wire Wire Line
	7200 3800 7200 2850
Connection ~ 7200 2850
Wire Wire Line
	7250 3250 7250 3900
Wire Wire Line
	7300 2950 7300 4000
Connection ~ 7300 2950
Wire Wire Line
	7350 3350 7350 4100
Wire Wire Line
	7350 4100 7200 4100
Wire Wire Line
	7400 3050 7400 4200
Connection ~ 7400 3050
Wire Wire Line
	7450 3450 7450 4300
Wire Wire Line
	7500 3150 7500 4400
Wire Wire Line
	7500 4400 7200 4400
Connection ~ 7500 3150
Wire Wire Line
	5850 3800 5850 4400
Wire Wire Line
	5850 4000 6000 4000
Connection ~ 5850 3900
Connection ~ 5850 4000
Connection ~ 5850 4100
Wire Wire Line
	5850 4300 6000 4300
Connection ~ 5850 4200
Connection ~ 5850 4300
Text Label 5850 3800 0    60   ~ 0
GND
Wire Wire Line
	7300 4000 6400 4000
Wire Wire Line
	7250 3900 6800 3900
Wire Wire Line
	7450 4300 6400 4300
Wire Wire Line
	7400 4200 6800 4200
$EndSCHEMATC
