(footprint "CINCH1110703001" (version 20211014) (generator pcbnew)
  (layer "F.Cu")
  (tedit 59A9B911)
  (attr through_hole)
  (fp_text reference "REF**" (at 0 -7.41) (layer "F.SilkS")
    (effects (font (size 1 1) (thickness 0.15)))
    (tstamp 14e63a9e-8410-48de-b0c7-9a27f5a2fd7e)
  )
  (fp_text value "CINCH1110703001" (at 0 -9.36) (layer "F.Fab") hide
    (effects (font (size 1 1) (thickness 0.15)))
    (tstamp 51586030-6d5e-4ec3-b681-01b1644da90f)
  )
  (fp_circle (center 0 0) (end 5.73 0.05) (layer "B.CrtYd") (width 0.15) (fill none) (tstamp 58f0921d-89bc-4e11-b997-d3af4e47a57a))
  (fp_circle (center 0 0) (end 6.15 0.01) (layer "F.CrtYd") (width 0.15) (fill none) (tstamp 5aec7411-2a90-4db7-b06c-98712ce2cca1))
  (pad "1" thru_hole circle (at 0 0) (size 10.4 10.4) (drill 4.19) (layers *.Cu *.Mask "F.SilkS") (tstamp 473228bf-a0ea-49da-8e4a-e7ffe4ed1b00))
  (model "${KICAD_DATASHEET_DIR}/Connectors/Footprints.pretty/CINCH1110703001.step"
    (offset (xyz 0 0 -10.99999983))
    (scale (xyz 1 1 1))
    (rotate (xyz 0 0 0))
  )
)
