EESchema Schematic File Version 2
LIBS:Resistors
LIBS:Allegro
LIBS:ICs
LIBS:Discretes
LIBS:Connectors
LIBS:Capacitors
LIBS:power
LIBS:device
LIBS:transistors
LIBS:conn
LIBS:linear
LIBS:regul
LIBS:74xx
LIBS:cmos4000
LIBS:adc-dac
LIBS:memory
LIBS:xilinx
LIBS:microcontrollers
LIBS:dsp
LIBS:microchip
LIBS:analog_switches
LIBS:motorola
LIBS:texas
LIBS:intel
LIBS:audio
LIBS:interface
LIBS:digital-audio
LIBS:philips
LIBS:display
LIBS:cypress
LIBS:siliconi
LIBS:opto
LIBS:atmel
LIBS:contrib
LIBS:valves
LIBS:TestPoints
LIBS:TIDDQ-cache
EELAYER 25 0
EELAYER END
$Descr A4 11693 8268
encoding utf-8
Sheet 1 1
Title "GTS TIDDQ shield"
Date "2017-03-09"
Rev "v1.0"
Comp "Allegro Microsystems LLC"
Comment1 ""
Comment2 ""
Comment3 ""
Comment4 ""
$EndDescr
$Comp
L LMP2022 U2
U 2 1 58BDDC04
P 6490 5220
F 0 "U2" H 6550 5380 60  0000 C CNN
F 1 "LMP2022" H 6660 5070 60  0000 C CNN
F 2 "ICs:8-TSSOP" H 6540 5520 60  0001 C CNN
F 3 "" H 6640 5620 60  0000 C CNN
F 4 "LMP2022MME/NOPBCT-ND" H 6740 5720 60  0001 C CNN "DigikeyPN"
	2    6490 5220
	1    0    0    -1  
$EndComp
$Comp
L AD8532 U1
U 1 1 58BDDD67
P 3350 4710
F 0 "U1" H 3350 5207 60  0000 C CNN
F 1 "AD8532" H 3350 5101 60  0000 C CNN
F 2 "ICs:8-TSSOP" H 3400 5010 60  0001 C CNN
F 3 "" H 3500 5110 60  0000 C CNN
F 4 "AD8532ARMZ-REELCT-ND" H 3600 5210 60  0001 C CNN "DigikeyPN"
	1    3350 4710
	-1   0    0    -1  
$EndComp
$Comp
L AD8532 U1
U 2 1 58BDDEBA
P 7730 5280
F 0 "U1" H 7860 5380 60  0000 C CNN
F 1 "AD8532" H 7880 5150 60  0000 C CNN
F 2 "ICs:8-TSSOP" H 7780 5580 60  0001 C CNN
F 3 "" H 7880 5680 60  0000 C CNN
F 4 "AD8532ARMZ-REELCT-ND" H 7980 5780 60  0001 C CNN "DigikeyPN"
	2    7730 5280
	1    0    0    1   
$EndComp
$Comp
L DMG1013T Q4
U 1 1 58BDE4CC
P 4730 3360
F 0 "Q4" V 4882 3360 60  0000 C CNN
F 1 "DMG1013T" V 4988 3360 60  0000 C CNN
F 2 "Discretes:SOT523" H 4480 3510 60  0001 C CNN
F 3 "" H 4480 3510 60  0000 C CNN
F 4 "DMG1013T-7DICT-ND" H 5230 3510 60  0001 C CNN "DigikeyPN"
	1    4730 3360
	0    -1   1    0   
$EndComp
$Comp
L DMG1012T Q1
U 1 1 58BDE672
P 2310 4710
F 0 "Q1" H 2410 4657 60  0000 L CNN
F 1 "DMG1012T" H 2410 4763 60  0000 L CNN
F 2 "Discretes:SOT523" H 2060 4860 60  0001 C CNN
F 3 "" H 2060 4860 60  0000 C CNN
F 4 "DMG1012T-7DICT-ND" H 2810 4860 60  0001 C CNN "DigikeyPN"
	1    2310 4710
	-1   0    0    -1  
$EndComp
$Comp
L 5008K TP11
U 1 1 58BDF3FB
P 9010 5090
F 0 "TP11" H 9088 5237 60  0000 L CNN
F 1 "Scope" H 9088 5131 60  0000 L CNN
F 2 "TestPoints:TP_1p6mm" H 9010 5090 60  0001 C CNN
F 3 "" H 9010 5090 60  0000 C CNN
F 4 "5008K-ND" H 9260 5440 60  0001 C CNN "DigikeyPN"
	1    9010 5090
	1    0    0    -1  
$EndComp
$Comp
L 5121K TP10
U 1 1 58BDF4B8
P 2930 5860
F 0 "TP10" H 3008 6007 60  0000 L CNN
F 1 "VRef" H 3008 5901 60  0000 L CNN
F 2 "TestPoints:TP_1p6mm" H 2930 5860 60  0001 C CNN
F 3 "" H 3080 6110 60  0000 C CNN
F 4 "5121K-ND" H 3180 6210 60  0001 C CNN "DigikeyPN"
	1    2930 5860
	1    0    0    -1  
$EndComp
Text Label 5530 6440 0    60   ~ 0
0.9_x_vref
Text Label 3790 5580 0    60   ~ 0
Sense_2
$Comp
L GND #PWR01
U 1 1 58BE1C93
P 2610 2750
F 0 "#PWR01" H 2610 2500 50  0001 C CNN
F 1 "GND" H 2615 2577 50  0000 C CNN
F 2 "" H 2610 2750 50  0000 C CNN
F 3 "" H 2610 2750 50  0000 C CNN
	1    2610 2750
	1    0    0    -1  
$EndComp
$Comp
L ProtoTP TP8
U 1 1 58BEDE7A
P 980 1420
F 0 "TP8" H 1058 1567 60  0000 L CNN
F 1 "GPIO4" H 1058 1461 60  0000 L CNN
F 2 "TestPoints:TP_1p0mm" H 980 1420 60  0001 C CNN
F 3 "" H 980 1420 60  0000 C CNN
F 4 "952-2262-ND" H 980 1420 60  0001 C CNN "DigikeyPN"
	1    980  1420
	1    0    0    -1  
$EndComp
$Comp
L ProtoTP TP7
U 1 1 58BEE015
P 970 1850
F 0 "TP7" H 1048 1997 60  0000 L CNN
F 1 "GPIO5" H 1048 1891 60  0000 L CNN
F 2 "TestPoints:TP_1p0mm" H 970 1850 60  0001 C CNN
F 3 "" H 970 1850 60  0000 C CNN
F 4 "952-2262-ND" H 970 1850 60  0001 C CNN "DigikeyPN"
	1    970  1850
	1    0    0    -1  
$EndComp
$Comp
L ProtoTP TP5
U 1 1 58BEE0BA
P 960 2250
F 0 "TP5" H 1038 2397 60  0000 L CNN
F 1 "GPIO6" H 1038 2291 60  0000 L CNN
F 2 "TestPoints:TP_1p0mm" H 960 2250 60  0001 C CNN
F 3 "" H 960 2250 60  0000 C CNN
F 4 "952-2262-ND" H 960 2250 60  0001 C CNN "DigikeyPN"
	1    960  2250
	1    0    0    -1  
$EndComp
$Comp
L ProtoTP TP6
U 1 1 58BEE174
P 960 2630
F 0 "TP6" H 1038 2777 60  0000 L CNN
F 1 "GPIO7" H 1038 2671 60  0000 L CNN
F 2 "TestPoints:TP_1p0mm" H 960 2630 60  0001 C CNN
F 3 "" H 960 2630 60  0000 C CNN
F 4 "952-2262-ND" H 960 2630 60  0001 C CNN "DigikeyPN"
	1    960  2630
	1    0    0    -1  
$EndComp
$Comp
L ProtoTP TP4
U 1 1 58BEE22F
P 950 3020
F 0 "TP4" H 1028 3167 60  0000 L CNN
F 1 "GND" H 1028 3061 60  0000 L CNN
F 2 "TestPoints:TP_1p0mm" H 950 3020 60  0001 C CNN
F 3 "" H 950 3020 60  0000 C CNN
F 4 "952-2262-ND" H 950 3020 60  0001 C CNN "DigikeyPN"
	1    950  3020
	1    0    0    -1  
$EndComp
$Comp
L ProtoTP TP2
U 1 1 58BEE2CD
P 910 3470
F 0 "TP2" H 988 3617 60  0000 L CNN
F 1 "_" H 988 3511 60  0000 L CNN
F 2 "TestPoints:TP_1p0mm" H 910 3470 60  0001 C CNN
F 3 "" H 910 3470 60  0000 C CNN
F 4 "952-2262-ND" H 910 3470 60  0001 C CNN "DigikeyPN"
	1    910  3470
	1    0    0    -1  
$EndComp
$Comp
L ProtoTP TP3
U 1 1 58BEE364
P 920 3870
F 0 "TP3" H 998 4017 60  0000 L CNN
F 1 "Sense_2" H 998 3911 60  0000 L CNN
F 2 "TestPoints:TP_1p0mm" H 920 3870 60  0001 C CNN
F 3 "" H 920 3870 60  0000 C CNN
F 4 "952-2262-ND" H 920 3870 60  0001 C CNN "DigikeyPN"
	1    920  3870
	1    0    0    -1  
$EndComp
$Comp
L ProtoTP TP1
U 1 1 58BEE3F2
P 890 4270
F 0 "TP1" H 968 4417 60  0000 L CNN
F 1 "Sense_1" H 968 4311 60  0000 L CNN
F 2 "TestPoints:TP_1p0mm" H 890 4270 60  0001 C CNN
F 3 "" H 890 4270 60  0000 C CNN
F 4 "952-2262-ND" H 890 4270 60  0001 C CNN "DigikeyPN"
	1    890  4270
	1    0    0    -1  
$EndComp
$Comp
L ProtoTP TP12
U 1 1 58BEE57F
P 10510 1260
F 0 "TP12" H 10588 1407 60  0000 L CNN
F 1 "VCC" H 10588 1301 60  0000 L CNN
F 2 "TestPoints:TP_1p0mm" H 10510 1260 60  0001 C CNN
F 3 "" H 10510 1260 60  0000 C CNN
F 4 "952-2262-ND" H 10510 1260 60  0001 C CNN "DigikeyPN"
	1    10510 1260
	1    0    0    -1  
$EndComp
$Comp
L ProtoTP TP13
U 1 1 58BEE6C1
P 10510 1610
F 0 "TP13" H 10588 1757 60  0000 L CNN
F 1 "MUX" H 10588 1651 60  0000 L CNN
F 2 "TestPoints:TP_1p0mm" H 10510 1610 60  0001 C CNN
F 3 "" H 10510 1610 60  0000 C CNN
F 4 "952-2262-ND" H 10510 1610 60  0001 C CNN "DigikeyPN"
	1    10510 1610
	1    0    0    -1  
$EndComp
$Comp
L ProtoTP TP14
U 1 1 58BEE76E
P 10520 1970
F 0 "TP14" H 10598 2117 60  0000 L CNN
F 1 "DUT_GND" H 10598 2011 60  0000 L CNN
F 2 "TestPoints:TP_1p0mm" H 10520 1970 60  0001 C CNN
F 3 "" H 10520 1970 60  0000 C CNN
F 4 "952-2262-ND" H 10520 1970 60  0001 C CNN "DigikeyPN"
	1    10520 1970
	1    0    0    -1  
$EndComp
$Comp
L ProtoTP TP15
U 1 1 58BEE810
P 10530 2380
F 0 "TP15" H 10608 2527 60  0000 L CNN
F 1 "3v3" H 10608 2421 60  0000 L CNN
F 2 "TestPoints:TP_1p0mm" H 10530 2380 60  0001 C CNN
F 3 "" H 10530 2380 60  0000 C CNN
F 4 "952-2262-ND" H 10530 2380 60  0001 C CNN "DigikeyPN"
	1    10530 2380
	1    0    0    -1  
$EndComp
$Comp
L ProtoTP TP16
U 1 1 58BEE8C3
P 10540 2760
F 0 "TP16" H 10618 2907 60  0000 L CNN
F 1 "5v0" H 10618 2801 60  0000 L CNN
F 2 "TestPoints:TP_1p0mm" H 10540 2760 60  0001 C CNN
F 3 "" H 10540 2760 60  0000 C CNN
F 4 "952-2262-ND" H 10540 2760 60  0001 C CNN "DigikeyPN"
	1    10540 2760
	1    0    0    -1  
$EndComp
$Comp
L ProtoTP TP17
U 1 1 58BEE975
P 10550 3160
F 0 "TP17" H 10628 3307 60  0000 L CNN
F 1 "Neg" H 10628 3201 60  0000 L CNN
F 2 "TestPoints:TP_1p0mm" H 10550 3160 60  0001 C CNN
F 3 "" H 10550 3160 60  0000 C CNN
F 4 "952-2262-ND" H 10550 3160 60  0001 C CNN "DigikeyPN"
	1    10550 3160
	1    0    0    -1  
$EndComp
$Comp
L ProtoTP TP19
U 1 1 58BEEA08
P 10570 3540
F 0 "TP19" H 10648 3687 60  0000 L CNN
F 1 "Pos" H 10648 3581 60  0000 L CNN
F 2 "TestPoints:TP_1p0mm" H 10570 3540 60  0001 C CNN
F 3 "" H 10570 3540 60  0000 C CNN
F 4 "952-2262-ND" H 10570 3540 60  0001 C CNN "DigikeyPN"
	1    10570 3540
	1    0    0    -1  
$EndComp
$Comp
L ProtoTP TP18
U 1 1 58BEEAAC
P 10560 3990
F 0 "TP18" H 10638 4137 60  0000 L CNN
F 1 "Out" H 10638 4031 60  0000 L CNN
F 2 "TestPoints:TP_1p0mm" H 10560 3990 60  0001 C CNN
F 3 "" H 10560 3990 60  0000 C CNN
F 4 "952-2262-ND" H 10560 3990 60  0001 C CNN "DigikeyPN"
	1    10560 3990
	1    0    0    -1  
$EndComp
$Comp
L 0.0-BF R3
U 1 1 58BEF5B3
P 2810 1500
F 0 "R3" V 2704 1588 60  0000 L CNN
F 1 "100k-BF" V 2810 1588 60  0000 L CNN
F 2 "Resistors:R0603" H 2710 1596 60  0001 C CNN
F 3 "" H 2910 1650 60  0000 C CNN
F 4 "P100KBZCT-ND" H 2828 1768 60  0001 C CNN "DigikeyPN"
F 5 "5%" V 2916 1588 60  0000 L CNN "Precision"
	1    2810 1500
	0    1    1    0   
$EndComp
$Comp
L 0.0-BF R2
U 1 1 58BEF7FF
P 2410 1500
F 0 "R2" V 2320 1220 60  0000 L CNN
F 1 "100k-BF" V 2430 1030 60  0000 L CNN
F 2 "Resistors:R0603" H 2310 1596 60  0001 C CNN
F 3 "" H 2510 1650 60  0000 C CNN
F 4 "P100KBZCT-ND" H 2428 1768 60  0001 C CNN "DigikeyPN"
F 5 "5%" V 2530 1230 60  0000 L CNN "Precision"
	1    2410 1500
	0    1    1    0   
$EndComp
$Comp
L 0.0-BF R1
U 1 1 58BEF8A6
P 2310 4170
F 0 "R1" V 2204 4258 60  0000 L CNN
F 1 "100-BF" V 2310 4258 60  0000 L CNN
F 2 "Resistors:R0603" H 2210 4266 60  0001 C CNN
F 3 "" H 2410 4320 60  0000 C CNN
F 4 "P100BZCT-ND" H 2328 4438 60  0001 C CNN "DigikeyPN"
F 5 "5%" V 2416 4258 60  0000 L CNN "Precision"
	1    2310 4170
	0    1    1    0   
$EndComp
$Comp
L 0.0-BF R4
U 1 1 58BEF97C
P 4680 6170
F 0 "R4" V 4574 6258 60  0000 L CNN
F 1 "18k-BD" V 4680 6258 60  0000 L CNN
F 2 "Resistors:R0603" H 4580 6266 60  0001 C CNN
F 3 "" H 4780 6320 60  0000 C CNN
F 4 "P20113CT-ND" H 4698 6438 60  0001 C CNN "DigikeyPN"
F 5 ".1%" V 4786 6258 60  0000 L CNN "Precision"
	1    4680 6170
	0    1    1    0   
$EndComp
$Comp
L 0.0-BF R6
U 1 1 58BEFA53
P 4410 4680
F 0 "R6" V 4400 4740 60  0000 L CNN
F 1 "3.4k-BD" V 4700 4480 60  0000 L CNN
F 2 "Resistors:R0603" H 4310 4776 60  0001 C CNN
F 3 "" H 4510 4830 60  0000 C CNN
F 4 "P20031CT-ND" H 4428 4948 60  0001 C CNN "DigikeyPN"
F 5 ".1%" V 4590 4750 60  0000 L CNN "Precision"
	1    4410 4680
	0    -1   -1   0   
$EndComp
$Comp
L 0.0-BF R7
U 1 1 58BEFB6B
P 4800 4690
F 0 "R7" V 4800 4750 60  0000 L CNN
F 1 "340-BD" V 4500 4560 60  0000 L CNN
F 2 "Resistors:R0603" H 4700 4786 60  0001 C CNN
F 3 "" H 4900 4840 60  0000 C CNN
F 4 "P19917CT-ND" H 4818 4958 60  0001 C CNN "DigikeyPN"
F 5 ".1%" V 4630 4720 60  0000 L CNN "Precision"
	1    4800 4690
	0    1    1    0   
$EndComp
$Comp
L 0.0-BF R8
U 1 1 58BEFC22
P 5360 4370
F 0 "R8" V 5350 4450 60  0000 L CNN
F 1 "120-BD" V 5710 4380 60  0000 L CNN
F 2 "Resistors:R0603" H 5260 4466 60  0001 C CNN
F 3 "" H 5460 4520 60  0000 C CNN
F 4 "P120DBCT-ND" H 5378 4638 60  0001 C CNN "DigikeyPN"
F 5 ".1%" V 5610 4520 60  0000 L CNN "Precision"
	1    5360 4370
	0    -1   -1   0   
$EndComp
$Comp
L 0.0-BF R10
U 1 1 58BF2265
P 5730 5050
F 0 "R10" H 5730 4717 60  0000 C CNN
F 1 "5.9k-BD" H 5730 4823 60  0000 C CNN
F 2 "Resistors:R0603" H 5630 5146 60  0001 C CNN
F 3 "" H 5830 5200 60  0000 C CNN
F 4 "P5.9KDBCT-ND" H 5748 5318 60  0001 C CNN "DigikeyPN"
F 5 ".1%" H 5730 4929 60  0000 C CNN "Precision"
	1    5730 5050
	-1   0    0    1   
$EndComp
$Comp
L 0.0-BF R12
U 1 1 58BF2344
P 6470 4580
F 0 "R12" H 6470 4690 60  0000 C CNN
F 1 "118k-BD" H 6470 4780 60  0000 C CNN
F 2 "Resistors:R0603" H 6370 4676 60  0001 C CNN
F 3 "" H 6570 4730 60  0000 C CNN
F 4 "P118KDBCT-ND" H 6488 4848 60  0001 C CNN "DigikeyPN"
F 5 ".1%" H 6470 4860 60  0000 C CNN "Precision"
	1    6470 4580
	-1   0    0    1   
$EndComp
$Comp
L 0.0-BF R9
U 1 1 58BF23F3
P 5720 5450
F 0 "R9" H 5720 5560 60  0000 C CNN
F 1 "5.9k-BD" H 5700 5660 60  0000 C CNN
F 2 "Resistors:R0603" H 5620 5546 60  0001 C CNN
F 3 "" H 5820 5600 60  0000 C CNN
F 4 "P5.9KDBCT-ND" H 5738 5718 60  0001 C CNN "DigikeyPN"
F 5 ".1%" H 5720 5740 60  0000 C CNN "Precision"
	1    5720 5450
	-1   0    0    1   
$EndComp
$Comp
L 0.0-BF R13
U 1 1 58BF251B
P 7350 6050
F 0 "R13" V 7244 6138 60  0000 L CNN
F 1 "1.91k-BD" V 7350 6138 60  0000 L CNN
F 2 "Resistors:R0805" H 7250 6146 60  0001 C CNN
F 3 "" H 7450 6200 60  0000 C CNN
F 4 "P20002CT-ND" H 7368 6318 60  0001 C CNN "DigikeyPN"
F 5 ".1%" V 7456 6138 60  0000 L CNN "Precision"
	1    7350 6050
	0    1    1    0   
$EndComp
$Comp
L 0.0-BF R11
U 1 1 58BF25E8
P 6290 5710
F 0 "R11" V 6184 5798 60  0000 L CNN
F 1 "118k-BD" V 6290 5798 60  0000 L CNN
F 2 "Resistors:R0603" H 6190 5806 60  0001 C CNN
F 3 "" H 6390 5860 60  0000 C CNN
F 4 "P118KDBCT-ND" H 6308 5978 60  0001 C CNN "DigikeyPN"
F 5 ".1%" V 6396 5798 60  0000 L CNN "Precision"
	1    6290 5710
	0    1    1    0   
$EndComp
$Comp
L 1u-BD C4
U 1 1 58BF4BDD
P 5910 1620
F 0 "C4" H 5760 1780 60  0000 L CNN
F 1 "1u-BD" V 6010 1460 60  0000 L CNN
F 2 "Capacitors:C0603" H 6016 1567 60  0001 L CNN
F 3 "" H 5910 1622 60  0000 C CNN
F 4 "490-3897-1-ND" H 6226 1824 60  0001 C CNN "DigikeyPN"
F 5 "25V" H 5610 1510 60  0001 L CNN "MaxVoltage"
	1    5910 1620
	1    0    0    -1  
$EndComp
$Comp
L 1n-AC C5
U 1 1 58BF4C6F
P 6260 1620
F 0 "C5" H 6100 1780 60  0000 L CNN
F 1 "1n-AC" V 6380 1470 60  0000 L CNN
F 2 "Capacitors:C0402" H 6260 1622 60  0001 C CNN
F 3 "" H 6260 1622 60  0000 C CNN
F 4 "490-1303-1-ND" H 6576 1824 60  0001 C CNN "DigikeyPN"
F 5 "50V" H 6280 1500 60  0001 L CNN "MaxVoltage"
	1    6260 1620
	1    0    0    -1  
$EndComp
$Comp
L 10u-BD C6
U 1 1 58BF4D11
P 6600 1630
F 0 "C6" H 6460 1800 60  0000 L CNN
F 1 "10u-BD" V 6710 1460 60  0000 L CNN
F 2 "Capacitors:C0603" H 6600 1632 60  0001 C CNN
F 3 "" H 6600 1632 60  0000 C CNN
F 4 "490-7200-1-ND" H 6916 1834 60  0001 C CNN "DigikeyPN"
F 5 "10V" H 6706 1524 60  0001 L CNN "MaxVoltage"
	1    6600 1630
	1    0    0    -1  
$EndComp
Text Label 10210 2760 0    60   ~ 0
5v0
Text Label 2590 1050 0    60   ~ 0
5v0
$Comp
L GND #PWR02
U 1 1 58BFA1F4
P 6260 1950
F 0 "#PWR02" H 6260 1700 50  0001 C CNN
F 1 "GND" H 6265 1777 50  0000 C CNN
F 2 "" H 6260 1950 50  0000 C CNN
F 3 "" H 6260 1950 50  0000 C CNN
	1    6260 1950
	1    0    0    -1  
$EndComp
$Comp
L GND #PWR03
U 1 1 58BFAA09
P 1330 3020
F 0 "#PWR03" H 1330 2770 50  0001 C CNN
F 1 "GND" H 1335 2847 50  0000 C CNN
F 2 "" H 1330 3020 50  0000 C CNN
F 3 "" H 1330 3020 50  0000 C CNN
	1    1330 3020
	1    0    0    -1  
$EndComp
Text Label 6260 1320 0    60   ~ 0
5v0
$Comp
L GND #PWR04
U 1 1 58BFD4CF
P 3030 5010
F 0 "#PWR04" H 3030 4760 50  0001 C CNN
F 1 "GND" H 3035 4837 50  0000 C CNN
F 2 "" H 3030 5010 50  0000 C CNN
F 3 "" H 3030 5010 50  0000 C CNN
	1    3030 5010
	1    0    0    -1  
$EndComp
$Comp
L GND #PWR05
U 1 1 58BFDA44
P 5010 5720
F 0 "#PWR05" H 5010 5470 50  0001 C CNN
F 1 "GND" H 5010 5570 50  0000 C CNN
F 2 "" H 5010 5720 50  0000 C CNN
F 3 "" H 5010 5720 50  0000 C CNN
	1    5010 5720
	1    0    0    -1  
$EndComp
$Comp
L 0.0-BF R14
U 1 1 58BFE7CB
P 8200 5550
F 0 "R14" V 8306 5482 60  0000 R CNN
F 1 "14k-BD" V 8200 5482 60  0000 R CNN
F 2 "Resistors:R0603" H 8100 5646 60  0001 C CNN
F 3 "" H 8300 5700 60  0000 C CNN
F 4 "P20101CT-ND" H 8218 5818 60  0001 C CNN "DigikeyPN"
F 5 ".1%" V 8094 5482 60  0000 R CNN "Precision"
	1    8200 5550
	0    1    1    0   
$EndComp
$Comp
L GND #PWR06
U 1 1 58C01396
P 6290 6020
F 0 "#PWR06" H 6290 5770 50  0001 C CNN
F 1 "GND" H 6295 5847 50  0000 C CNN
F 2 "" H 6290 6020 50  0000 C CNN
F 3 "" H 6290 6020 50  0000 C CNN
	1    6290 6020
	1    0    0    -1  
$EndComp
Text Label 7110 4580 0    60   ~ 0
Sense_1
$Comp
L GND #PWR07
U 1 1 58C026E4
P 7350 6280
F 0 "#PWR07" H 7350 6030 50  0001 C CNN
F 1 "GND" H 7355 6107 50  0000 C CNN
F 2 "" H 7350 6280 50  0000 C CNN
F 3 "" H 7350 6280 50  0000 C CNN
	1    7350 6280
	1    0    0    -1  
$EndComp
Text Label 2050 2550 2    60   ~ 0
GPIO4
Text Label 3160 2560 0    60   ~ 0
GPIO5
$Comp
L DMG1013T Q3
U 1 1 58BDE5EF
P 4500 3940
F 0 "Q3" V 4652 3940 60  0000 C CNN
F 1 "DMG1013T" V 4758 3940 60  0000 C CNN
F 2 "Discretes:SOT523" H 4250 4090 60  0001 C CNN
F 3 "" H 4250 4090 60  0000 C CNN
F 4 "DMG1013T-7DICT-ND" H 5000 4090 60  0001 C CNN "DigikeyPN"
	1    4500 3940
	0    -1   1    0   
$EndComp
Text Label 5100 3720 0    60   ~ 0
600pass
Text Label 5090 3140 0    60   ~ 0
60pass
Text Label 3080 1920 0    60   ~ 0
60pass
Text Label 2180 1920 2    60   ~ 0
600pass
Text Label 2310 3840 0    60   ~ 0
5v0
$Comp
L 5121K TP9
U 1 1 58C0A27B
P 1810 5350
F 0 "TP9" H 1888 5497 60  0000 L CNN
F 1 "IDDQ" H 1888 5391 60  0000 L CNN
F 2 "TestPoints:TP_1p6mm" H 1810 5350 60  0001 C CNN
F 3 "" H 1960 5600 60  0000 C CNN
F 4 "5121K-ND" H 2060 5700 60  0001 C CNN "DigikeyPN"
	1    1810 5350
	1    0    0    -1  
$EndComp
Text Label 3700 4760 0    60   ~ 0
0.9_x_vref
Text Label 3030 4460 2    60   ~ 0
5v0
Text Label 4970 5200 0    60   ~ 0
5v0
$Comp
L 1u-BD C1
U 1 1 58C1251C
P 4600 1630
F 0 "C1" H 4450 1790 60  0000 L CNN
F 1 "1u-BD" V 4700 1470 60  0000 L CNN
F 2 "Capacitors:C0603" H 4706 1577 60  0001 L CNN
F 3 "" H 4600 1632 60  0000 C CNN
F 4 "490-3897-1-ND" H 4916 1834 60  0001 C CNN "DigikeyPN"
F 5 "25V" H 4300 1520 60  0001 L CNN "MaxVoltage"
	1    4600 1630
	1    0    0    -1  
$EndComp
$Comp
L 1n-AC C2
U 1 1 58C12524
P 4950 1630
F 0 "C2" H 4790 1790 60  0000 L CNN
F 1 "1n-AC" V 5070 1480 60  0000 L CNN
F 2 "Capacitors:C0402" H 4950 1632 60  0001 C CNN
F 3 "" H 4950 1632 60  0000 C CNN
F 4 "490-1303-1-ND" H 5266 1834 60  0001 C CNN "DigikeyPN"
F 5 "50V" H 4970 1510 60  0001 L CNN "MaxVoltage"
	1    4950 1630
	1    0    0    -1  
$EndComp
$Comp
L 10u-BD C3
U 1 1 58C1252C
P 5290 1640
F 0 "C3" H 5150 1810 60  0000 L CNN
F 1 "10u-BD" V 5400 1470 60  0000 L CNN
F 2 "Capacitors:C0603" H 5290 1642 60  0001 C CNN
F 3 "" H 5290 1642 60  0000 C CNN
F 4 "490-7200-1-ND" H 5606 1844 60  0001 C CNN "DigikeyPN"
F 5 "10V" H 5396 1534 60  0001 L CNN "MaxVoltage"
	1    5290 1640
	1    0    0    -1  
$EndComp
$Comp
L GND #PWR08
U 1 1 58C12532
P 4950 1960
F 0 "#PWR08" H 4950 1710 50  0001 C CNN
F 1 "GND" H 4955 1787 50  0000 C CNN
F 2 "" H 4950 1960 50  0000 C CNN
F 3 "" H 4950 1960 50  0000 C CNN
	1    4950 1960
	1    0    0    -1  
$EndComp
Text Label 4950 1330 0    60   ~ 0
5v0
Text Label 1000 3970 0    60   ~ 0
Sense_2
Text Label 990  4390 0    60   ~ 0
Sense_1
Text Label 1140 1960 0    60   ~ 0
GPIO5
Text Label 1140 1540 0    60   ~ 0
GPIO4
$Comp
L 0.0-BF R5
U 1 1 58C19C5C
P 3590 5580
F 0 "R5" H 3520 5670 60  0000 L CNN
F 1 "5.1k-BF" H 3380 5750 60  0000 L CNN
F 2 "Resistors:R0603" H 3490 5676 60  0001 C CNN
F 3 "" H 3690 5730 60  0000 C CNN
F 4 "P5.1KBZCT-ND" H 3608 5848 60  0001 C CNN "DigikeyPN"
F 5 "5%" H 3510 5830 60  0000 L CNN "Precision"
	1    3590 5580
	-1   0    0    1   
$EndComp
$Comp
L 0.0-BF R17
U 1 1 58C1D16A
P 5500 4370
F 0 "R17" V 5490 4430 60  0000 L CNN
F 1 "120-BD" V 5140 4380 60  0000 L CNN
F 2 "Resistors:R0603" H 5400 4466 60  0001 C CNN
F 3 "" H 5600 4520 60  0000 C CNN
F 4 "P120DBCT-ND" H 5518 4638 60  0001 C CNN "DigikeyPN"
F 5 ".1%" V 5260 4450 60  0000 L CNN "Precision"
	1    5500 4370
	0    1    1    0   
$EndComp
$Comp
L 0.0-BF R15
U 1 1 58C1FA1F
P 4680 4690
F 0 "R15" V 4670 4740 60  0000 L CNN
F 1 "2k-BD" V 4370 4590 60  0000 L CNN
F 2 "Resistors:R0603" H 4580 4786 60  0001 C CNN
F 3 "" H 4780 4840 60  0000 C CNN
F 4 "P20004CT-ND" H 4698 4958 60  0001 C CNN "DigikeyPN"
F 5 ".1%" V 4290 4680 60  0000 L CNN "Precision"
	1    4680 4690
	0    -1   -1   0   
$EndComp
$Comp
L 0.0-BF R16
U 1 1 58C205FD
P 5100 4690
F 0 "R16" V 5090 4730 60  0000 L CNN
F 1 "200-BD" V 5380 4530 60  0000 L CNN
F 2 "Resistors:R0603" H 5000 4786 60  0001 C CNN
F 3 "" H 5200 4840 60  0000 C CNN
F 4 "P19890CT-ND" H 5118 4958 60  0001 C CNN "DigikeyPN"
F 5 ".1%" V 5460 4630 60  0000 L CNN "Precision"
	1    5100 4690
	0    1    1    0   
$EndComp
$Comp
L SP1003 D1
U 1 1 58C23FF5
P 2930 6270
F 0 "D1" H 3002 6376 60  0000 L CNN
F 1 "SP1003" H 3002 6270 60  0000 L CNN
F 2 "Discretes:SOD882" H 2563 6466 60  0001 C CNN
F 3 "" H 2930 6270 60  0000 C CNN
F 4 "F4088CT-ND" H 2763 6666 60  0001 C CNN "DigikeyPN"
F 5 "6V" H 3002 6164 60  0000 L CNN "Clamp"
	1    2930 6270
	1    0    0    -1  
$EndComp
$Comp
L GND #PWR09
U 1 1 58C2490C
P 2930 6500
F 0 "#PWR09" H 2930 6250 50  0001 C CNN
F 1 "GND" H 2935 6327 50  0000 C CNN
F 2 "" H 2930 6500 50  0000 C CNN
F 3 "" H 2930 6500 50  0000 C CNN
	1    2930 6500
	1    0    0    -1  
$EndComp
$Comp
L LMP2022 U2
U 1 1 58BDDB68
P 4770 5450
F 0 "U2" H 4890 5560 60  0000 C CNN
F 1 "LMP2022" H 5000 5350 60  0000 C CNN
F 2 "ICs:8-TSSOP" H 4820 5750 60  0001 C CNN
F 3 "" H 4920 5850 60  0000 C CNN
F 4 "LMP2022MME/NOPBCT-ND" H 5020 5950 60  0001 C CNN "DigikeyPN"
	1    4770 5450
	1    0    0    -1  
$EndComp
$Comp
L DMG1012T Q6
U 1 1 58C2F9AE
P 1900 5930
F 0 "Q6" H 2000 5877 60  0000 L CNN
F 1 "DMG1012T" H 2000 5983 60  0000 L CNN
F 2 "Discretes:SOT523" H 1650 6080 60  0001 C CNN
F 3 "" H 1650 6080 60  0000 C CNN
F 4 "DMG1012T-7DICT-ND" H 2400 6080 60  0001 C CNN "DigikeyPN"
	1    1900 5930
	1    0    0    -1  
$EndComp
$Comp
L DMG1012T Q5
U 1 1 58C2FA70
P 1800 6910
F 0 "Q5" H 1540 6810 60  0000 L CNN
F 1 "DMG1012T" H 1250 7080 60  0000 L CNN
F 2 "Discretes:SOT523" H 1550 7060 60  0001 C CNN
F 3 "" H 1550 7060 60  0000 C CNN
F 4 "DMG1012T-7DICT-ND" H 2300 7060 60  0001 C CNN "DigikeyPN"
	1    1800 6910
	1    0    0    -1  
$EndComp
$Comp
L 0.0-BF R18
U 1 1 58C2FBF9
P 1590 6210
F 0 "R18" H 1520 6310 60  0000 L CNN
F 1 "20M-BE" H 1440 6120 60  0000 L CNN
F 2 "Resistors:R0603" H 1490 6306 60  0001 C CNN
F 3 "" H 1690 6360 60  0000 C CNN
F 4 "HVCB0603FDD20M0CT-ND" H 1608 6478 60  0001 C CNN "DigikeyPN"
F 5 "1%" H 1830 6120 60  0000 L CNN "Precision"
	1    1590 6210
	1    0    0    -1  
$EndComp
$Comp
L GND #PWR010
U 1 1 58C314A3
P 1930 7190
F 0 "#PWR010" H 1930 6940 50  0001 C CNN
F 1 "GND" H 1935 7017 50  0000 C CNN
F 2 "" H 1930 7190 50  0000 C CNN
F 3 "" H 1930 7190 50  0000 C CNN
	1    1930 7190
	1    0    0    -1  
$EndComp
$Comp
L 1u-BD C7
U 1 1 58C31EC6
P 2080 6910
F 0 "C7" H 2220 6980 60  0000 L CNN
F 1 "510p-BG" H 2190 6870 60  0000 L CNN
F 2 "Capacitors:C0603" H 2186 6857 60  0001 L CNN
F 3 "" H 2080 6912 60  0000 C CNN
F 4 "490-1444-1-ND" H 2396 7114 60  0001 C CNN "DigikeyPN"
F 5 "200V" H 1780 6800 60  0001 L CNN "MaxVoltage"
	1    2080 6910
	1    0    0    -1  
$EndComp
Text Label 1130 2370 0    60   ~ 0
GPIO6
Text Label 1130 2760 0    60   ~ 0
GPIO7
Text Label 1700 5930 2    60   ~ 0
GPIO6
Text Label 1600 6910 2    60   ~ 0
GPIO7
$Comp
L 0.0-BF R20
U 1 1 58C3AAE3
P 4680 6690
F 0 "R20" V 4574 6778 60  0000 L CNN
F 1 "118k-BD" V 4680 6778 60  0000 L CNN
F 2 "Resistors:R0603" H 4580 6786 60  0001 C CNN
F 3 "" H 4780 6840 60  0000 C CNN
F 4 "P118KDBCT-ND" H 4698 6958 60  0001 C CNN "DigikeyPN"
F 5 ".1%" V 4786 6778 60  0000 L CNN "Precision"
	1    4680 6690
	0    1    1    0   
$EndComp
$Comp
L GND #PWR011
U 1 1 58C3ABBE
P 4680 7380
F 0 "#PWR011" H 4680 7130 50  0001 C CNN
F 1 "GND" H 4685 7207 50  0000 C CNN
F 2 "" H 4680 7380 50  0000 C CNN
F 3 "" H 4680 7380 50  0000 C CNN
	1    4680 7380
	1    0    0    -1  
$EndComp
$Comp
L 0.0-BF R19
U 1 1 58C3F038
P 4450 5920
F 0 "R19" H 4360 6030 60  0000 L CNN
F 1 "2k-BD" H 4290 5820 60  0000 L CNN
F 2 "Resistors:R0603" H 4350 6016 60  0001 C CNN
F 3 "" H 4550 6070 60  0000 C CNN
F 4 "P20004CT-ND" H 4468 6188 60  0001 C CNN "DigikeyPN"
F 5 ".1%" H 4350 5740 60  0000 L CNN "Precision"
	1    4450 5920
	1    0    0    -1  
$EndComp
Text Label 5520 6210 0    60   ~ 0
.99_x_vref
$Comp
L 1u-BD C9
U 1 1 58C6FD90
P 6460 4120
F 0 "C9" V 6320 4050 60  0000 L CNN
F 1 "0-BX" V 6640 4020 60  0000 L CNN
F 2 "Capacitors:C0603" H 6566 4067 60  0001 L CNN
F 3 "" H 6460 4122 60  0000 C CNN
F 4 "none" V 6460 4120 60  0001 C CNN "DigikeyPN"
	1    6460 4120
	0    1    1    0   
$EndComp
$Comp
L 1u-BD C10
U 1 1 58C702EA
P 8440 5570
F 0 "C10" H 8120 5480 60  0000 L CNN
F 1 "0-BX" H 8060 5570 60  0000 L CNN
F 2 "Capacitors:C0603" H 8546 5517 60  0001 L CNN
F 3 "" H 8440 5572 60  0000 C CNN
F 4 "none" H 8756 5774 60  0001 C CNN "DigikeyPN"
F 5 "25V" H 8140 5460 60  0001 L CNN "MaxVoltage"
	1    8440 5570
	-1   0    0    1   
$EndComp
$Comp
L 1u-BD C8
U 1 1 58C70CCE
P 4250 5110
F 0 "C8" H 4210 5320 60  0000 L CNN
F 1 "0-BX" H 4350 5110 60  0000 L CNN
F 2 "Capacitors:C0603" H 4356 5057 60  0001 L CNN
F 3 "" H 4250 5112 60  0000 C CNN
F 4 "none" H 4566 5314 60  0001 C CNN "DigikeyPN"
F 5 "25V" H 3950 5000 60  0001 L CNN "MaxVoltage"
	1    4250 5110
	-1   0    0    1   
$EndComp
Text Label 10170 3590 2    60   ~ 0
.99_x_vref
Text Label 10180 4080 2    60   ~ 0
.99_x_vref_buff
Text Label 5520 5950 0    60   ~ 0
.99_x_vref_buff
$Comp
L 0.0-BF R21
U 1 1 58C9B8F1
P 4680 7120
F 0 "R21" V 4574 7208 60  0000 L CNN
F 1 "62K-BD" V 4680 7208 60  0000 L CNN
F 2 "Resistors:R0603" H 4580 7216 60  0001 C CNN
F 3 "" H 4780 7270 60  0000 C CNN
F 4 "P62KBDCT-ND" H 4698 7388 60  0001 C CNN "DigikeyPN"
F 5 ".1%" V 4786 7208 60  0000 L CNN "Precision"
	1    4680 7120
	0    1    1    0   
$EndComp
Connection ~ 4680 6440
Wire Wire Line
	4680 6440 5530 6440
Wire Wire Line
	4680 6890 4680 6920
Wire Wire Line
	8440 5820 8440 5720
Wire Wire Line
	6120 4120 6310 4120
Wire Wire Line
	6770 4120 6770 4580
Wire Wire Line
	6770 4120 6610 4120
Connection ~ 4250 4940
Wire Wire Line
	4250 5260 5360 5260
Wire Wire Line
	960  2760 1130 2760
Wire Wire Line
	960  2630 960  2760
Wire Wire Line
	960  2370 1130 2370
Wire Wire Line
	960  2250 960  2370
Connection ~ 1900 5400
Wire Wire Line
	1900 5730 1900 5400
Wire Wire Line
	1900 6130 1900 6210
Connection ~ 1930 7160
Wire Wire Line
	1930 7190 1930 7160
Wire Wire Line
	2080 7160 2080 7060
Wire Wire Line
	1800 7160 2080 7160
Wire Wire Line
	1800 7110 1800 7160
Connection ~ 1900 6670
Wire Wire Line
	1900 6520 1900 6670
Wire Wire Line
	1800 6670 1800 6710
Wire Wire Line
	1800 6670 2080 6670
Wire Wire Line
	2080 6670 2080 6760
Connection ~ 6120 4580
Wire Wire Line
	6120 4120 6120 4580
Connection ~ 6770 4580
Connection ~ 8440 5280
Wire Wire Line
	8440 5280 8440 5420
Connection ~ 8200 5820
Wire Wire Line
	2930 6500 2930 6420
Connection ~ 4250 4650
Wire Wire Line
	4250 4660 4250 4650
Wire Wire Line
	3700 4660 4250 4660
Connection ~ 4740 4920
Wire Wire Line
	4750 4920 4740 4920
Wire Wire Line
	4750 3940 4750 4920
Connection ~ 5360 4620
Wire Wire Line
	5360 4570 5360 5450
Wire Wire Line
	5500 4620 5360 4620
Wire Wire Line
	5500 4570 5500 4620
Connection ~ 5360 4090
Wire Wire Line
	5360 3360 5360 4170
Wire Wire Line
	5500 4090 5500 4170
Wire Wire Line
	5220 4090 5500 4090
Wire Wire Line
	5220 4910 5220 4090
Wire Wire Line
	5100 4910 5220 4910
Wire Wire Line
	5100 4890 5100 4910
Wire Wire Line
	5100 4450 5100 4490
Wire Wire Line
	4800 4450 5100 4450
Wire Wire Line
	4800 4490 4800 4450
Wire Wire Line
	4800 4920 4800 4890
Wire Wire Line
	4680 4920 4800 4920
Wire Wire Line
	4680 4890 4680 4920
Wire Wire Line
	4680 4450 4680 4490
Wire Wire Line
	4410 4450 4680 4450
Wire Wire Line
	4410 4480 4410 4450
Wire Wire Line
	8200 5750 8200 5820
Connection ~ 8200 5280
Wire Wire Line
	8200 5350 8200 5280
Wire Wire Line
	970  1960 1140 1960
Wire Wire Line
	970  1850 970  1960
Wire Wire Line
	980  1540 1140 1540
Wire Wire Line
	980  1420 980  1540
Wire Wire Line
	890  4390 990  4390
Wire Wire Line
	890  4270 890  4390
Wire Wire Line
	920  3970 1000 3970
Wire Wire Line
	920  3870 920  3970
Connection ~ 4950 1410
Wire Wire Line
	4950 1330 4950 1480
Wire Wire Line
	5290 1410 5290 1490
Wire Wire Line
	4600 1410 5290 1410
Wire Wire Line
	4600 1480 4600 1410
Connection ~ 4950 1890
Wire Wire Line
	4950 1780 4950 1960
Wire Wire Line
	5290 1890 5290 1790
Wire Wire Line
	4600 1890 5290 1890
Wire Wire Line
	4600 1780 4600 1890
Wire Wire Line
	9010 5280 9010 5090
Wire Wire Line
	8080 5280 9010 5280
Connection ~ 2310 5400
Wire Wire Line
	1810 5400 1810 5350
Wire Wire Line
	4700 3940 4750 3940
Wire Wire Line
	4500 3720 5100 3720
Wire Wire Line
	4500 3740 4500 3720
Connection ~ 4250 3940
Wire Wire Line
	4250 3940 4300 3940
Wire Wire Line
	4730 3140 5090 3140
Wire Wire Line
	4730 3160 4730 3140
Wire Wire Line
	2120 2550 2050 2550
Wire Wire Line
	2120 2380 2120 2550
Wire Wire Line
	2160 2380 2120 2380
Wire Wire Line
	3100 2560 3160 2560
Wire Wire Line
	3100 2380 3100 2560
Wire Wire Line
	3060 2380 3100 2380
Wire Wire Line
	5010 5700 4970 5700
Wire Wire Line
	5010 5720 5010 5700
Connection ~ 6940 5220
Wire Wire Line
	6940 5230 7380 5230
Wire Wire Line
	7350 6250 7350 6280
Connection ~ 7350 5820
Wire Wire Line
	7350 5330 7380 5330
Wire Wire Line
	7350 5330 7350 5850
Wire Wire Line
	7350 5820 8440 5820
Connection ~ 6940 4580
Wire Wire Line
	6940 5220 6840 5220
Wire Wire Line
	6940 4580 6940 5230
Wire Wire Line
	6670 4580 7110 4580
Wire Wire Line
	5970 5270 6140 5270
Connection ~ 5970 5050
Wire Wire Line
	5970 4580 6270 4580
Wire Wire Line
	5970 5170 6140 5170
Wire Wire Line
	5970 4580 5970 5170
Wire Wire Line
	5930 5050 5970 5050
Wire Wire Line
	5120 5450 5520 5450
Connection ~ 6260 1400
Wire Wire Line
	6260 1320 6260 1470
Wire Wire Line
	6600 1400 6600 1480
Wire Wire Line
	5910 1400 6600 1400
Wire Wire Line
	5910 1470 5910 1400
Wire Wire Line
	1330 3020 950  3020
Connection ~ 6260 1880
Wire Wire Line
	6260 1770 6260 1950
Wire Wire Line
	6600 1880 6600 1780
Wire Wire Line
	5910 1880 6600 1880
Wire Wire Line
	5910 1770 5910 1880
Wire Wire Line
	2590 1130 2590 1050
Wire Wire Line
	10540 2760 10210 2760
Connection ~ 2410 1920
Wire Wire Line
	2410 1920 2180 1920
Connection ~ 2590 1130
Wire Wire Line
	2410 1130 2410 1300
Wire Wire Line
	2810 1130 2810 1300
Wire Wire Line
	2410 1130 2810 1130
Wire Wire Line
	2410 1700 2410 2130
Connection ~ 2810 1920
Wire Wire Line
	2810 1920 3080 1920
Wire Wire Line
	2810 1700 2810 2130
Wire Wire Line
	2610 2580 2610 2750
Connection ~ 4410 4940
Wire Wire Line
	4250 4940 4410 4940
Wire Wire Line
	4250 3360 4250 4960
Wire Wire Line
	4530 3360 4250 3360
Wire Wire Line
	4930 3360 5360 3360
Connection ~ 4410 5400
Wire Wire Line
	4410 4880 4410 5400
Wire Wire Line
	4680 6370 4680 6490
Wire Wire Line
	2930 5860 2930 6120
Wire Wire Line
	4210 5920 4210 5500
Wire Wire Line
	4210 5500 4420 5500
Wire Wire Line
	2510 4710 3000 4710
Wire Wire Line
	1810 5400 4420 5400
Wire Wire Line
	2310 5400 2310 4910
Wire Wire Line
	2310 4370 2310 4510
Wire Wire Line
	2310 3840 2310 3970
Wire Wire Line
	5920 5450 6290 5450
Wire Wire Line
	2930 5920 4250 5920
Wire Wire Line
	3390 5920 3390 5580
Connection ~ 2930 5920
Connection ~ 3390 5920
Connection ~ 4210 5920
Wire Wire Line
	10180 3160 10550 3160
Wire Wire Line
	10180 4080 10560 4080
Wire Wire Line
	10560 4080 10560 3990
Wire Wire Line
	10570 3540 10570 3590
Wire Wire Line
	10570 3590 10170 3590
Wire Wire Line
	4650 5920 5340 5920
Wire Wire Line
	4680 5970 4680 5920
Connection ~ 4680 5920
Wire Wire Line
	5970 5450 5970 5270
Wire Wire Line
	6290 5450 6290 5510
Connection ~ 5970 5450
Connection ~ 5360 5450
Connection ~ 5360 5260
Wire Wire Line
	5510 5050 5510 5950
Wire Wire Line
	5510 5050 5530 5050
Wire Wire Line
	3150 4460 3030 4460
Wire Wire Line
	3150 4960 3030 4960
Wire Wire Line
	3030 4960 3030 5010
Wire Wire Line
	6290 5910 6290 6020
Wire Wire Line
	4680 7320 4680 7380
$Comp
L 0.0-BF R22
U 1 1 58C9DAF4
P 1590 6520
F 0 "R22" H 1530 6620 60  0000 L CNN
F 1 "3M-BE" H 1430 6430 60  0000 L CNN
F 2 "Resistors:R0603" H 1490 6616 60  0001 C CNN
F 3 "" H 1690 6670 60  0000 C CNN
F 4 "RMCF0603FT3M00CT-ND" H 1608 6788 60  0001 C CNN "DigikeyPN"
F 5 "1%" H 1750 6430 60  0000 L CNN "Precision"
	1    1590 6520
	1    0    0    -1  
$EndComp
Wire Wire Line
	1900 6210 1790 6210
Wire Wire Line
	1390 6210 1320 6210
Wire Wire Line
	1320 6210 1320 6520
Wire Wire Line
	1320 6520 1390 6520
Wire Wire Line
	1790 6520 1900 6520
Wire Wire Line
	5510 5950 5520 5950
Wire Wire Line
	5340 5920 5340 6210
Wire Wire Line
	5340 6210 5520 6210
Text Label 10180 3160 2    60   ~ 0
.99_x_vref_buff
$Comp
L QS5K2 Q2
U 1 1 596ED4E9
P 2610 2380
F 0 "Q2" H 2578 2556 60  0000 C CNN
F 1 "QS5K2" H 2608 2452 60  0000 C CNN
F 2 "Discretes:SOT25T" H 2610 2380 60  0001 C CNN
F 3 "" H 2610 2380 60  0000 C CNN
F 4 "QS5K2CT-ND" H 2608 2680 60  0001 C CNN "DigikeyPN"
	1    2610 2380
	1    0    0    -1  
$EndComp
$EndSCHEMATC
