%TF.GenerationSoftware,KiCad,Pcbnew,(5.1.9)-1*%
%TF.CreationDate,2021-04-21T12:47:29-04:00*%
%TF.ProjectId,Asek20DaughterCard,4173656b-3230-4446-9175-676874657243,rev?*%
%TF.SameCoordinates,Original*%
%TF.FileFunction,Other,Fab,Bot*%
%FSLAX46Y46*%
G04 Gerber Fmt 4.6, Leading zero omitted, Abs format (unit mm)*
G04 Created by KiCad (PCBNEW (5.1.9)-1) date 2021-04-21 12:47:29*
%MOMM*%
%LPD*%
G01*
G04 APERTURE LIST*
%ADD10C,0.050000*%
G04 APERTURE END LIST*
D10*
%TO.C,R25*%
X95370600Y-60007600D02*
X94570600Y-60007600D01*
X95370600Y-61607600D02*
X95370600Y-60007600D01*
X94570600Y-61607600D02*
X95370600Y-61607600D01*
X94570600Y-60007600D02*
X94570600Y-61607600D01*
%TO.C,R36*%
X66865600Y-72980600D02*
X66865600Y-73780600D01*
X68465600Y-72980600D02*
X66865600Y-72980600D01*
X68465600Y-73780600D02*
X68465600Y-72980600D01*
X66865600Y-73780600D02*
X68465600Y-73780600D01*
%TO.C,C1*%
X86556800Y-50406400D02*
X85756800Y-50406400D01*
X86556800Y-52006400D02*
X86556800Y-50406400D01*
X85756800Y-52006400D02*
X86556800Y-52006400D01*
X85756800Y-50406400D02*
X85756800Y-52006400D01*
%TO.C,C2*%
X84179600Y-52011200D02*
X84679600Y-52011200D01*
X84179600Y-51011200D02*
X84179600Y-52011200D01*
X84679600Y-51011200D02*
X84179600Y-51011200D01*
X84679600Y-52011200D02*
X84679600Y-51011200D01*
%TO.C,C3*%
X88487200Y-50406400D02*
X87687200Y-50406400D01*
X88487200Y-52006400D02*
X88487200Y-50406400D01*
X87687200Y-52006400D02*
X88487200Y-52006400D01*
X87687200Y-50406400D02*
X87687200Y-52006400D01*
%TO.C,C4*%
X87655500Y-61245800D02*
X87655500Y-62045800D01*
X89255500Y-61245800D02*
X87655500Y-61245800D01*
X89255500Y-62045800D02*
X89255500Y-61245800D01*
X87655500Y-62045800D02*
X89255500Y-62045800D01*
%TO.C,C5*%
X89273000Y-63673800D02*
X89273000Y-63173800D01*
X88273000Y-63673800D02*
X89273000Y-63673800D01*
X88273000Y-63173800D02*
X88273000Y-63673800D01*
X89273000Y-63173800D02*
X88273000Y-63173800D01*
%TO.C,C6*%
X87668200Y-59315400D02*
X87668200Y-60115400D01*
X89268200Y-59315400D02*
X87668200Y-59315400D01*
X89268200Y-60115400D02*
X89268200Y-59315400D01*
X87668200Y-60115400D02*
X89268200Y-60115400D01*
%TO.C,C7*%
X111492080Y-82859780D02*
X112292080Y-82859780D01*
X111492080Y-81259780D02*
X111492080Y-82859780D01*
X112292080Y-81259780D02*
X111492080Y-81259780D01*
X112292080Y-82859780D02*
X112292080Y-81259780D01*
%TO.C,C8*%
X110361540Y-81773140D02*
X109861540Y-81773140D01*
X110361540Y-82773140D02*
X110361540Y-81773140D01*
X109861540Y-82773140D02*
X110361540Y-82773140D01*
X109861540Y-81773140D02*
X109861540Y-82773140D01*
%TO.C,C9*%
X113356440Y-82862320D02*
X114156440Y-82862320D01*
X113356440Y-81262320D02*
X113356440Y-82862320D01*
X114156440Y-81262320D02*
X113356440Y-81262320D01*
X114156440Y-82862320D02*
X114156440Y-81262320D01*
%TO.C,C14*%
X75369320Y-80034080D02*
X75369320Y-79234080D01*
X73769320Y-80034080D02*
X75369320Y-80034080D01*
X73769320Y-79234080D02*
X73769320Y-80034080D01*
X75369320Y-79234080D02*
X73769320Y-79234080D01*
%TO.C,C17*%
X83421600Y-69549200D02*
X83421600Y-70049200D01*
X84421600Y-69549200D02*
X83421600Y-69549200D01*
X84421600Y-70049200D02*
X84421600Y-69549200D01*
X83421600Y-70049200D02*
X84421600Y-70049200D01*
%TO.C,C18*%
X83421600Y-79099600D02*
X83421600Y-79599600D01*
X84421600Y-79099600D02*
X83421600Y-79099600D01*
X84421600Y-79599600D02*
X84421600Y-79099600D01*
X83421600Y-79599600D02*
X84421600Y-79599600D01*
%TO.C,C20*%
X83421600Y-75950000D02*
X83421600Y-76450000D01*
X84421600Y-75950000D02*
X83421600Y-75950000D01*
X84421600Y-76450000D02*
X84421600Y-75950000D01*
X83421600Y-76450000D02*
X84421600Y-76450000D01*
%TO.C,C21*%
X83421600Y-71124000D02*
X83421600Y-71624000D01*
X84421600Y-71124000D02*
X83421600Y-71124000D01*
X84421600Y-71624000D02*
X84421600Y-71124000D01*
X83421600Y-71624000D02*
X84421600Y-71624000D01*
%TO.C,C22*%
X83421600Y-74375200D02*
X83421600Y-74875200D01*
X84421600Y-74375200D02*
X83421600Y-74375200D01*
X84421600Y-74875200D02*
X84421600Y-74375200D01*
X83421600Y-74875200D02*
X84421600Y-74875200D01*
%TO.C,C23*%
X83421600Y-72749600D02*
X83421600Y-73249600D01*
X84421600Y-72749600D02*
X83421600Y-72749600D01*
X84421600Y-73249600D02*
X84421600Y-72749600D01*
X83421600Y-73249600D02*
X84421600Y-73249600D01*
%TO.C,C25*%
X83421600Y-77524800D02*
X83421600Y-78024800D01*
X84421600Y-77524800D02*
X83421600Y-77524800D01*
X84421600Y-78024800D02*
X84421600Y-77524800D01*
X83421600Y-78024800D02*
X84421600Y-78024800D01*
%TO.C,C26*%
X83421600Y-67974400D02*
X83421600Y-68474400D01*
X84421600Y-67974400D02*
X83421600Y-67974400D01*
X84421600Y-68474400D02*
X84421600Y-67974400D01*
X83421600Y-68474400D02*
X84421600Y-68474400D01*
%TO.C,Q1*%
X77917762Y-57171284D02*
X77917762Y-55921284D01*
X75917762Y-57171284D02*
X77917762Y-57171284D01*
X75917762Y-55921284D02*
X75917762Y-57171284D01*
X77917762Y-55921284D02*
X75917762Y-55921284D01*
X76167762Y-57596284D02*
X76167762Y-57171284D01*
X76367762Y-57596284D02*
X76167762Y-57596284D01*
X76367762Y-57171284D02*
X76367762Y-57596284D01*
X77667762Y-57171284D02*
X77667762Y-57596284D01*
X77667762Y-57596284D02*
X77467762Y-57596284D01*
X77467762Y-57596284D02*
X77467762Y-57171284D01*
X76817762Y-57596284D02*
X76817762Y-57171284D01*
X77017762Y-57596284D02*
X76817762Y-57596284D01*
X77017762Y-57171284D02*
X77017762Y-57596284D01*
X76367762Y-55496284D02*
X76367762Y-55921284D01*
X76167762Y-55496284D02*
X76367762Y-55496284D01*
X76167762Y-55921284D02*
X76167762Y-55496284D01*
X77467762Y-55921284D02*
X77467762Y-55496284D01*
X77467762Y-55496284D02*
X77667762Y-55496284D01*
X77667762Y-55496284D02*
X77667762Y-55921284D01*
%TO.C,Q4*%
X74780862Y-57171284D02*
X74780862Y-55921284D01*
X72780862Y-57171284D02*
X74780862Y-57171284D01*
X72780862Y-55921284D02*
X72780862Y-57171284D01*
X74780862Y-55921284D02*
X72780862Y-55921284D01*
X73030862Y-57596284D02*
X73030862Y-57171284D01*
X73230862Y-57596284D02*
X73030862Y-57596284D01*
X73230862Y-57171284D02*
X73230862Y-57596284D01*
X74530862Y-57171284D02*
X74530862Y-57596284D01*
X74530862Y-57596284D02*
X74330862Y-57596284D01*
X74330862Y-57596284D02*
X74330862Y-57171284D01*
X73680862Y-57596284D02*
X73680862Y-57171284D01*
X73880862Y-57596284D02*
X73680862Y-57596284D01*
X73880862Y-57171284D02*
X73880862Y-57596284D01*
X73230862Y-55496284D02*
X73230862Y-55921284D01*
X73030862Y-55496284D02*
X73230862Y-55496284D01*
X73030862Y-55921284D02*
X73030862Y-55496284D01*
X74330862Y-55921284D02*
X74330862Y-55496284D01*
X74330862Y-55496284D02*
X74530862Y-55496284D01*
X74530862Y-55496284D02*
X74530862Y-55921284D01*
%TO.C,Q9*%
X117574400Y-70040400D02*
X120474400Y-70040400D01*
X120474400Y-68440400D02*
X120474400Y-70040400D01*
X117574400Y-68440400D02*
X120474400Y-68440400D01*
X117574400Y-68440400D02*
X117574400Y-70040400D01*
X119224400Y-67840400D02*
X119224400Y-68440400D01*
X118824400Y-67840400D02*
X119224400Y-67840400D01*
X118824400Y-68440400D02*
X118824400Y-67840400D01*
X117874400Y-68440400D02*
X117874400Y-67840400D01*
X117874400Y-67840400D02*
X118274400Y-67840400D01*
X118274400Y-67840400D02*
X118274400Y-68440400D01*
X119774400Y-68440400D02*
X119774400Y-67840400D01*
X119774400Y-67840400D02*
X120174400Y-67840400D01*
X120174400Y-67840400D02*
X120174400Y-68440400D01*
X117874400Y-70640400D02*
X117874400Y-70040400D01*
X118274400Y-70640400D02*
X117874400Y-70640400D01*
X118274400Y-70040400D02*
X118274400Y-70640400D01*
X119774400Y-70640400D02*
X119774400Y-70040400D01*
X120174400Y-70640400D02*
X119774400Y-70640400D01*
X120174400Y-70040400D02*
X120174400Y-70640400D01*
X119224400Y-70040400D02*
X119224400Y-70640400D01*
X119224400Y-70640400D02*
X118824400Y-70640400D01*
X118824400Y-70640400D02*
X118824400Y-70040400D01*
X120336532Y-69690400D02*
G75*
G03*
X120336532Y-69690400I-212132J0D01*
G01*
%TO.C,Q10*%
X109972600Y-51250956D02*
X109972600Y-52500956D01*
X111972600Y-51250956D02*
X109972600Y-51250956D01*
X111972600Y-52500956D02*
X111972600Y-51250956D01*
X109972600Y-52500956D02*
X111972600Y-52500956D01*
X111722600Y-50825956D02*
X111722600Y-51250956D01*
X111522600Y-50825956D02*
X111722600Y-50825956D01*
X111522600Y-51250956D02*
X111522600Y-50825956D01*
X110222600Y-51250956D02*
X110222600Y-50825956D01*
X110222600Y-50825956D02*
X110422600Y-50825956D01*
X110422600Y-50825956D02*
X110422600Y-51250956D01*
X111072600Y-50825956D02*
X111072600Y-51250956D01*
X110872600Y-50825956D02*
X111072600Y-50825956D01*
X110872600Y-51250956D02*
X110872600Y-50825956D01*
X111522600Y-52925956D02*
X111522600Y-52500956D01*
X111722600Y-52925956D02*
X111522600Y-52925956D01*
X111722600Y-52500956D02*
X111722600Y-52925956D01*
X110422600Y-52500956D02*
X110422600Y-52925956D01*
X110422600Y-52925956D02*
X110222600Y-52925956D01*
X110222600Y-52925956D02*
X110222600Y-52500956D01*
%TO.C,Q11*%
X108953400Y-55467200D02*
X110553400Y-55467200D01*
X108953400Y-54667200D02*
X108953400Y-55467200D01*
X110553400Y-54667200D02*
X108953400Y-54667200D01*
X110553400Y-55467200D02*
X110553400Y-54667200D01*
X109863400Y-55867200D02*
X109863400Y-55467200D01*
X109643400Y-55867200D02*
X109863400Y-55867200D01*
X109643400Y-55467200D02*
X109643400Y-55867200D01*
X109143400Y-54667200D02*
X109143400Y-54267200D01*
X109143400Y-54267200D02*
X109363400Y-54267200D01*
X109363400Y-54267200D02*
X109363400Y-54667200D01*
X110363400Y-54267200D02*
X110363400Y-54667200D01*
X110143400Y-54267200D02*
X110363400Y-54267200D01*
X110143400Y-54667200D02*
X110143400Y-54267200D01*
%TO.C,Q12*%
X111645800Y-55467200D02*
X113245800Y-55467200D01*
X111645800Y-54667200D02*
X111645800Y-55467200D01*
X113245800Y-54667200D02*
X111645800Y-54667200D01*
X113245800Y-55467200D02*
X113245800Y-54667200D01*
X112555800Y-55867200D02*
X112555800Y-55467200D01*
X112335800Y-55867200D02*
X112555800Y-55867200D01*
X112335800Y-55467200D02*
X112335800Y-55867200D01*
X111835800Y-54667200D02*
X111835800Y-54267200D01*
X111835800Y-54267200D02*
X112055800Y-54267200D01*
X112055800Y-54267200D02*
X112055800Y-54667200D01*
X113055800Y-54267200D02*
X113055800Y-54667200D01*
X112835800Y-54267200D02*
X113055800Y-54267200D01*
X112835800Y-54667200D02*
X112835800Y-54267200D01*
%TO.C,Q13*%
X119269000Y-51250956D02*
X119269000Y-52500956D01*
X121269000Y-51250956D02*
X119269000Y-51250956D01*
X121269000Y-52500956D02*
X121269000Y-51250956D01*
X119269000Y-52500956D02*
X121269000Y-52500956D01*
X121019000Y-50825956D02*
X121019000Y-51250956D01*
X120819000Y-50825956D02*
X121019000Y-50825956D01*
X120819000Y-51250956D02*
X120819000Y-50825956D01*
X119519000Y-51250956D02*
X119519000Y-50825956D01*
X119519000Y-50825956D02*
X119719000Y-50825956D01*
X119719000Y-50825956D02*
X119719000Y-51250956D01*
X120369000Y-50825956D02*
X120369000Y-51250956D01*
X120169000Y-50825956D02*
X120369000Y-50825956D01*
X120169000Y-51250956D02*
X120169000Y-50825956D01*
X120819000Y-52925956D02*
X120819000Y-52500956D01*
X121019000Y-52925956D02*
X120819000Y-52925956D01*
X121019000Y-52500956D02*
X121019000Y-52925956D01*
X119719000Y-52500956D02*
X119719000Y-52925956D01*
X119719000Y-52925956D02*
X119519000Y-52925956D01*
X119519000Y-52925956D02*
X119519000Y-52500956D01*
%TO.C,Q14*%
X113071400Y-51250956D02*
X113071400Y-52500956D01*
X115071400Y-51250956D02*
X113071400Y-51250956D01*
X115071400Y-52500956D02*
X115071400Y-51250956D01*
X113071400Y-52500956D02*
X115071400Y-52500956D01*
X114821400Y-50825956D02*
X114821400Y-51250956D01*
X114621400Y-50825956D02*
X114821400Y-50825956D01*
X114621400Y-51250956D02*
X114621400Y-50825956D01*
X113321400Y-51250956D02*
X113321400Y-50825956D01*
X113321400Y-50825956D02*
X113521400Y-50825956D01*
X113521400Y-50825956D02*
X113521400Y-51250956D01*
X114171400Y-50825956D02*
X114171400Y-51250956D01*
X113971400Y-50825956D02*
X114171400Y-50825956D01*
X113971400Y-51250956D02*
X113971400Y-50825956D01*
X114621400Y-52925956D02*
X114621400Y-52500956D01*
X114821400Y-52925956D02*
X114621400Y-52925956D01*
X114821400Y-52500956D02*
X114821400Y-52925956D01*
X113521400Y-52500956D02*
X113521400Y-52925956D01*
X113521400Y-52925956D02*
X113321400Y-52925956D01*
X113321400Y-52925956D02*
X113321400Y-52500956D01*
%TO.C,Q15*%
X117030600Y-55467200D02*
X118630600Y-55467200D01*
X117030600Y-54667200D02*
X117030600Y-55467200D01*
X118630600Y-54667200D02*
X117030600Y-54667200D01*
X118630600Y-55467200D02*
X118630600Y-54667200D01*
X117940600Y-55867200D02*
X117940600Y-55467200D01*
X117720600Y-55867200D02*
X117940600Y-55867200D01*
X117720600Y-55467200D02*
X117720600Y-55867200D01*
X117220600Y-54667200D02*
X117220600Y-54267200D01*
X117220600Y-54267200D02*
X117440600Y-54267200D01*
X117440600Y-54267200D02*
X117440600Y-54667200D01*
X118440600Y-54267200D02*
X118440600Y-54667200D01*
X118220600Y-54267200D02*
X118440600Y-54267200D01*
X118220600Y-54667200D02*
X118220600Y-54267200D01*
%TO.C,Q16*%
X114338200Y-55467200D02*
X115938200Y-55467200D01*
X114338200Y-54667200D02*
X114338200Y-55467200D01*
X115938200Y-54667200D02*
X114338200Y-54667200D01*
X115938200Y-55467200D02*
X115938200Y-54667200D01*
X115248200Y-55867200D02*
X115248200Y-55467200D01*
X115028200Y-55867200D02*
X115248200Y-55867200D01*
X115028200Y-55467200D02*
X115028200Y-55867200D01*
X114528200Y-54667200D02*
X114528200Y-54267200D01*
X114528200Y-54267200D02*
X114748200Y-54267200D01*
X114748200Y-54267200D02*
X114748200Y-54667200D01*
X115748200Y-54267200D02*
X115748200Y-54667200D01*
X115528200Y-54267200D02*
X115748200Y-54267200D01*
X115528200Y-54667200D02*
X115528200Y-54267200D01*
%TO.C,Q17*%
X106873800Y-51250956D02*
X106873800Y-52500956D01*
X108873800Y-51250956D02*
X106873800Y-51250956D01*
X108873800Y-52500956D02*
X108873800Y-51250956D01*
X106873800Y-52500956D02*
X108873800Y-52500956D01*
X108623800Y-50825956D02*
X108623800Y-51250956D01*
X108423800Y-50825956D02*
X108623800Y-50825956D01*
X108423800Y-51250956D02*
X108423800Y-50825956D01*
X107123800Y-51250956D02*
X107123800Y-50825956D01*
X107123800Y-50825956D02*
X107323800Y-50825956D01*
X107323800Y-50825956D02*
X107323800Y-51250956D01*
X107973800Y-50825956D02*
X107973800Y-51250956D01*
X107773800Y-50825956D02*
X107973800Y-50825956D01*
X107773800Y-51250956D02*
X107773800Y-50825956D01*
X108423800Y-52925956D02*
X108423800Y-52500956D01*
X108623800Y-52925956D02*
X108423800Y-52925956D01*
X108623800Y-52500956D02*
X108623800Y-52925956D01*
X107323800Y-52500956D02*
X107323800Y-52925956D01*
X107323800Y-52925956D02*
X107123800Y-52925956D01*
X107123800Y-52925956D02*
X107123800Y-52500956D01*
%TO.C,Q18*%
X107857800Y-55793800D02*
X107857800Y-54543800D01*
X105857800Y-55793800D02*
X107857800Y-55793800D01*
X105857800Y-54543800D02*
X105857800Y-55793800D01*
X107857800Y-54543800D02*
X105857800Y-54543800D01*
X106107800Y-56218800D02*
X106107800Y-55793800D01*
X106307800Y-56218800D02*
X106107800Y-56218800D01*
X106307800Y-55793800D02*
X106307800Y-56218800D01*
X107607800Y-55793800D02*
X107607800Y-56218800D01*
X107607800Y-56218800D02*
X107407800Y-56218800D01*
X107407800Y-56218800D02*
X107407800Y-55793800D01*
X106757800Y-56218800D02*
X106757800Y-55793800D01*
X106957800Y-56218800D02*
X106757800Y-56218800D01*
X106957800Y-55793800D02*
X106957800Y-56218800D01*
X106307800Y-54118800D02*
X106307800Y-54543800D01*
X106107800Y-54118800D02*
X106307800Y-54118800D01*
X106107800Y-54543800D02*
X106107800Y-54118800D01*
X107407800Y-54543800D02*
X107407800Y-54118800D01*
X107407800Y-54118800D02*
X107607800Y-54118800D01*
X107607800Y-54118800D02*
X107607800Y-54543800D01*
%TO.C,Q19*%
X116170200Y-51250956D02*
X116170200Y-52500956D01*
X118170200Y-51250956D02*
X116170200Y-51250956D01*
X118170200Y-52500956D02*
X118170200Y-51250956D01*
X116170200Y-52500956D02*
X118170200Y-52500956D01*
X117920200Y-50825956D02*
X117920200Y-51250956D01*
X117720200Y-50825956D02*
X117920200Y-50825956D01*
X117720200Y-51250956D02*
X117720200Y-50825956D01*
X116420200Y-51250956D02*
X116420200Y-50825956D01*
X116420200Y-50825956D02*
X116620200Y-50825956D01*
X116620200Y-50825956D02*
X116620200Y-51250956D01*
X117270200Y-50825956D02*
X117270200Y-51250956D01*
X117070200Y-50825956D02*
X117270200Y-50825956D01*
X117070200Y-51250956D02*
X117070200Y-50825956D01*
X117720200Y-52925956D02*
X117720200Y-52500956D01*
X117920200Y-52925956D02*
X117720200Y-52925956D01*
X117920200Y-52500956D02*
X117920200Y-52925956D01*
X116620200Y-52500956D02*
X116620200Y-52925956D01*
X116620200Y-52925956D02*
X116420200Y-52925956D01*
X116420200Y-52925956D02*
X116420200Y-52500956D01*
%TO.C,R3*%
X63250000Y-82669000D02*
X63750000Y-82669000D01*
X63250000Y-81669000D02*
X63250000Y-82669000D01*
X63750000Y-81669000D02*
X63250000Y-81669000D01*
X63750000Y-82669000D02*
X63750000Y-81669000D01*
%TO.C,R4*%
X64824800Y-82669000D02*
X65324800Y-82669000D01*
X64824800Y-81669000D02*
X64824800Y-82669000D01*
X65324800Y-81669000D02*
X64824800Y-81669000D01*
X65324800Y-82669000D02*
X65324800Y-81669000D01*
%TO.C,R5*%
X63750000Y-79484600D02*
X63250000Y-79484600D01*
X63750000Y-80484600D02*
X63750000Y-79484600D01*
X63250000Y-80484600D02*
X63750000Y-80484600D01*
X63250000Y-79484600D02*
X63250000Y-80484600D01*
%TO.C,R6*%
X64117600Y-91850400D02*
X64117600Y-92350400D01*
X65117600Y-91850400D02*
X64117600Y-91850400D01*
X65117600Y-92350400D02*
X65117600Y-91850400D01*
X64117600Y-92350400D02*
X65117600Y-92350400D01*
%TO.C,R7*%
X65324800Y-79484600D02*
X64824800Y-79484600D01*
X65324800Y-80484600D02*
X65324800Y-79484600D01*
X64824800Y-80484600D02*
X65324800Y-80484600D01*
X64824800Y-79484600D02*
X64824800Y-80484600D01*
%TO.C,R8*%
X65117600Y-90826400D02*
X65117600Y-90326400D01*
X64117600Y-90826400D02*
X65117600Y-90826400D01*
X64117600Y-90326400D02*
X64117600Y-90826400D01*
X65117600Y-90326400D02*
X64117600Y-90326400D01*
%TO.C,R11*%
X77423200Y-54398800D02*
X77923200Y-54398800D01*
X77423200Y-53398800D02*
X77423200Y-54398800D01*
X77923200Y-53398800D02*
X77423200Y-53398800D01*
X77923200Y-54398800D02*
X77923200Y-53398800D01*
%TO.C,R12*%
X75848400Y-54398800D02*
X76348400Y-54398800D01*
X75848400Y-53398800D02*
X75848400Y-54398800D01*
X76348400Y-53398800D02*
X75848400Y-53398800D01*
X76348400Y-54398800D02*
X76348400Y-53398800D01*
%TO.C,R13*%
X74273600Y-54398800D02*
X74773600Y-54398800D01*
X74273600Y-53398800D02*
X74273600Y-54398800D01*
X74773600Y-53398800D02*
X74273600Y-53398800D01*
X74773600Y-54398800D02*
X74773600Y-53398800D01*
%TO.C,R15*%
X72698800Y-54398800D02*
X73198800Y-54398800D01*
X72698800Y-53398800D02*
X72698800Y-54398800D01*
X73198800Y-53398800D02*
X72698800Y-53398800D01*
X73198800Y-54398800D02*
X73198800Y-53398800D01*
%TO.C,R19*%
X87331600Y-57162600D02*
X88131600Y-57162600D01*
X87331600Y-55562600D02*
X87331600Y-57162600D01*
X88131600Y-55562600D02*
X87331600Y-55562600D01*
X88131600Y-57162600D02*
X88131600Y-55562600D01*
%TO.C,R21*%
X86394800Y-64366300D02*
X86394800Y-63116300D01*
X84394800Y-64366300D02*
X86394800Y-64366300D01*
X84394800Y-63116300D02*
X84394800Y-64366300D01*
X86394800Y-63116300D02*
X84394800Y-63116300D01*
%TO.C,R22*%
X119973600Y-66715800D02*
X119973600Y-65465800D01*
X117973600Y-66715800D02*
X119973600Y-66715800D01*
X117973600Y-65465800D02*
X117973600Y-66715800D01*
X119973600Y-65465800D02*
X117973600Y-65465800D01*
%TO.C,R23*%
X116217600Y-66490800D02*
X116217600Y-65690800D01*
X114617600Y-66490800D02*
X116217600Y-66490800D01*
X114617600Y-65690800D02*
X114617600Y-66490800D01*
X116217600Y-65690800D02*
X114617600Y-65690800D01*
%TO.C,R40*%
X79048800Y-54398800D02*
X79548800Y-54398800D01*
X79048800Y-53398800D02*
X79048800Y-54398800D01*
X79548800Y-53398800D02*
X79048800Y-53398800D01*
X79548800Y-54398800D02*
X79548800Y-53398800D01*
%TO.C,R41*%
X79548800Y-56599200D02*
X79048800Y-56599200D01*
X79548800Y-57599200D02*
X79548800Y-56599200D01*
X79048800Y-57599200D02*
X79548800Y-57599200D01*
X79048800Y-56599200D02*
X79048800Y-57599200D01*
%TO.C,R42*%
X106442700Y-42232200D02*
X106942700Y-42232200D01*
X106442700Y-41232200D02*
X106442700Y-42232200D01*
X106942700Y-41232200D02*
X106442700Y-41232200D01*
X106942700Y-42232200D02*
X106942700Y-41232200D01*
%TO.C,R43*%
X108919200Y-42232200D02*
X109419200Y-42232200D01*
X108919200Y-41232200D02*
X108919200Y-42232200D01*
X109419200Y-41232200D02*
X108919200Y-41232200D01*
X109419200Y-42232200D02*
X109419200Y-41232200D01*
%TO.C,R46*%
X115292060Y-82874740D02*
X115792060Y-82874740D01*
X115292060Y-81874740D02*
X115292060Y-82874740D01*
X115792060Y-81874740D02*
X115292060Y-81874740D01*
X115792060Y-82874740D02*
X115792060Y-81874740D01*
%TO.C,R47*%
X102620000Y-82694400D02*
X103120000Y-82694400D01*
X102620000Y-81694400D02*
X102620000Y-82694400D01*
X103120000Y-81694400D02*
X102620000Y-81694400D01*
X103120000Y-82694400D02*
X103120000Y-81694400D01*
%TO.C,R50*%
X114739800Y-59541600D02*
X114739800Y-60041600D01*
X115739800Y-59541600D02*
X114739800Y-59541600D01*
X115739800Y-60041600D02*
X115739800Y-59541600D01*
X114739800Y-60041600D02*
X115739800Y-60041600D01*
%TO.C,R54*%
X117822600Y-58466800D02*
X117822600Y-57966800D01*
X116822600Y-58466800D02*
X117822600Y-58466800D01*
X116822600Y-57966800D02*
X116822600Y-58466800D01*
X117822600Y-57966800D02*
X116822600Y-57966800D01*
%TO.C,R55*%
X114739800Y-57966800D02*
X114739800Y-58466800D01*
X115739800Y-57966800D02*
X114739800Y-57966800D01*
X115739800Y-58466800D02*
X115739800Y-57966800D01*
X114739800Y-58466800D02*
X115739800Y-58466800D01*
%TO.C,R58*%
X94608840Y-55181120D02*
X95108840Y-55181120D01*
X94608840Y-54181120D02*
X94608840Y-55181120D01*
X95108840Y-54181120D02*
X94608840Y-54181120D01*
X95108840Y-55181120D02*
X95108840Y-54181120D01*
%TO.C,R59*%
X78854400Y-81438800D02*
X78854400Y-82238800D01*
X80454400Y-81438800D02*
X78854400Y-81438800D01*
X80454400Y-82238800D02*
X80454400Y-81438800D01*
X78854400Y-82238800D02*
X80454400Y-82238800D01*
%TO.C,R60*%
X81851600Y-81438800D02*
X81851600Y-82238800D01*
X83451600Y-81438800D02*
X81851600Y-81438800D01*
X83451600Y-82238800D02*
X83451600Y-81438800D01*
X81851600Y-82238800D02*
X83451600Y-82238800D01*
%TO.C,R61*%
X84798000Y-81438800D02*
X84798000Y-82238800D01*
X86398000Y-81438800D02*
X84798000Y-81438800D01*
X86398000Y-82238800D02*
X86398000Y-81438800D01*
X84798000Y-82238800D02*
X86398000Y-82238800D01*
%TO.C,R68*%
X103790800Y-50025200D02*
X104590800Y-50025200D01*
X103790800Y-48425200D02*
X103790800Y-50025200D01*
X104590800Y-48425200D02*
X103790800Y-48425200D01*
X104590800Y-50025200D02*
X104590800Y-48425200D01*
%TO.C,R69*%
X103740000Y-96405600D02*
X104540000Y-96405600D01*
X103740000Y-94805600D02*
X103740000Y-96405600D01*
X104540000Y-94805600D02*
X103740000Y-94805600D01*
X104540000Y-96405600D02*
X104540000Y-94805600D01*
%TO.C,U4*%
X86180300Y-58248300D02*
X86180300Y-54248300D01*
X81180300Y-58248300D02*
X86180300Y-58248300D01*
X81180300Y-54248300D02*
X81180300Y-58248300D01*
X86180300Y-54248300D02*
X81180300Y-54248300D01*
X81597500Y-53648300D02*
X81597500Y-54248300D01*
X81953100Y-54248300D02*
X81953100Y-53648300D01*
X81597500Y-53648300D02*
X81953100Y-53648300D01*
X82867500Y-53648300D02*
X83223100Y-53648300D01*
X83223100Y-54248300D02*
X83223100Y-53648300D01*
X82867500Y-53648300D02*
X82867500Y-54248300D01*
X84137500Y-53648300D02*
X84137500Y-54248300D01*
X84493100Y-54248300D02*
X84493100Y-53648300D01*
X84137500Y-53648300D02*
X84493100Y-53648300D01*
X85407500Y-53648300D02*
X85763100Y-53648300D01*
X85763100Y-54248300D02*
X85763100Y-53648300D01*
X85407500Y-53648300D02*
X85407500Y-54248300D01*
X81597500Y-58848300D02*
X81597500Y-58248300D01*
X81953100Y-58248300D02*
X81953100Y-58848300D01*
X81597500Y-58848300D02*
X81953100Y-58848300D01*
X82892900Y-58873700D02*
X83248500Y-58873700D01*
X83248500Y-58273700D02*
X83248500Y-58873700D01*
X82892900Y-58873700D02*
X82892900Y-58273700D01*
X84162900Y-58873700D02*
X84162900Y-58273700D01*
X84518500Y-58273700D02*
X84518500Y-58873700D01*
X84162900Y-58873700D02*
X84518500Y-58873700D01*
X85737700Y-58873700D02*
X85382100Y-58873700D01*
X85382100Y-58273700D02*
X85382100Y-58873700D01*
X85737700Y-58873700D02*
X85737700Y-58273700D01*
X85946781Y-57518300D02*
G75*
G03*
X85946781Y-57518300I-386881J0D01*
G01*
%TO.C,R71*%
X96130160Y-50070920D02*
X96930160Y-50070920D01*
X96130160Y-48470920D02*
X96130160Y-50070920D01*
X96930160Y-48470920D02*
X96130160Y-48470920D01*
X96930160Y-50070920D02*
X96930160Y-48470920D01*
%TO.C,R72*%
X98660000Y-50076000D02*
X99460000Y-50076000D01*
X98660000Y-48476000D02*
X98660000Y-50076000D01*
X99460000Y-48476000D02*
X98660000Y-48476000D01*
X99460000Y-50076000D02*
X99460000Y-48476000D01*
%TO.C,R73*%
X102101600Y-41364000D02*
X101301600Y-41364000D01*
X102101600Y-42964000D02*
X102101600Y-41364000D01*
X101301600Y-42964000D02*
X102101600Y-42964000D01*
X101301600Y-41364000D02*
X101301600Y-42964000D01*
%TO.C,R74*%
X112160000Y-94805600D02*
X111360000Y-94805600D01*
X112160000Y-96405600D02*
X112160000Y-94805600D01*
X111360000Y-96405600D02*
X112160000Y-96405600D01*
X111360000Y-94805600D02*
X111360000Y-96405600D01*
%TO.C,R75*%
X109620000Y-94805600D02*
X108820000Y-94805600D01*
X109620000Y-96405600D02*
X109620000Y-94805600D01*
X108820000Y-96405600D02*
X109620000Y-96405600D01*
X108820000Y-94805600D02*
X108820000Y-96405600D01*
%TO.C,C44*%
X129222400Y-87674400D02*
X129222400Y-86874400D01*
X127622400Y-87674400D02*
X129222400Y-87674400D01*
X127622400Y-86874400D02*
X127622400Y-87674400D01*
X129222400Y-86874400D02*
X127622400Y-86874400D01*
%TO.C,C45*%
X127617600Y-85297200D02*
X127617600Y-85797200D01*
X128617600Y-85297200D02*
X127617600Y-85297200D01*
X128617600Y-85797200D02*
X128617600Y-85297200D01*
X127617600Y-85797200D02*
X128617600Y-85797200D01*
%TO.C,C46*%
X128612800Y-84220000D02*
X128612800Y-83420000D01*
X127012800Y-84220000D02*
X128612800Y-84220000D01*
X127012800Y-83420000D02*
X127012800Y-84220000D01*
X128612800Y-83420000D02*
X127012800Y-83420000D01*
%TO.C,U5*%
X90435300Y-62612400D02*
X93435300Y-62612400D01*
X90435300Y-59612400D02*
X90435300Y-62612400D01*
X93435300Y-59612400D02*
X90435300Y-59612400D01*
X93435300Y-62612400D02*
X93435300Y-59612400D01*
X91160300Y-58612400D02*
X91160300Y-59612400D01*
X90760300Y-58612400D02*
X91160300Y-58612400D01*
X90760300Y-59612400D02*
X90760300Y-58612400D01*
X91410300Y-59612400D02*
X91410300Y-58612400D01*
X91410300Y-58612400D02*
X91810300Y-58612400D01*
X91810300Y-58612400D02*
X91810300Y-59612400D01*
X92460300Y-58612400D02*
X92460300Y-59612400D01*
X92060300Y-58612400D02*
X92460300Y-58612400D01*
X92060300Y-59612400D02*
X92060300Y-58612400D01*
X92710300Y-59612400D02*
X92710300Y-58612400D01*
X92710300Y-58612400D02*
X93110300Y-58612400D01*
X93110300Y-58612400D02*
X93110300Y-59612400D01*
X90760300Y-63612400D02*
X90760300Y-62612400D01*
X91160300Y-63612400D02*
X90760300Y-63612400D01*
X91160300Y-62612400D02*
X91160300Y-63612400D01*
X91810300Y-62612400D02*
X91810300Y-63612400D01*
X91810300Y-63612400D02*
X91410300Y-63612400D01*
X91410300Y-63612400D02*
X91410300Y-62612400D01*
X92060300Y-63612400D02*
X92060300Y-62612400D01*
X92460300Y-63612400D02*
X92060300Y-63612400D01*
X92460300Y-62612400D02*
X92460300Y-63612400D01*
X92710300Y-63612400D02*
X92710300Y-62612400D01*
X93110300Y-63612400D02*
X92710300Y-63612400D01*
X93110300Y-62612400D02*
X93110300Y-63612400D01*
X91218143Y-60112400D02*
G75*
G03*
X91218143Y-60112400I-282843J0D01*
G01*
%TO.C,U10*%
X109297600Y-80595600D02*
X109297600Y-77595600D01*
X106297600Y-80595600D02*
X109297600Y-80595600D01*
X106297600Y-77595600D02*
X106297600Y-80595600D01*
X109297600Y-77595600D02*
X106297600Y-77595600D01*
X105297600Y-79870600D02*
X106297600Y-79870600D01*
X105297600Y-80270600D02*
X105297600Y-79870600D01*
X106297600Y-80270600D02*
X105297600Y-80270600D01*
X106297600Y-79620600D02*
X105297600Y-79620600D01*
X105297600Y-79620600D02*
X105297600Y-79220600D01*
X105297600Y-79220600D02*
X106297600Y-79220600D01*
X105297600Y-78570600D02*
X106297600Y-78570600D01*
X105297600Y-78970600D02*
X105297600Y-78570600D01*
X106297600Y-78970600D02*
X105297600Y-78970600D01*
X106297600Y-78320600D02*
X105297600Y-78320600D01*
X105297600Y-78320600D02*
X105297600Y-77920600D01*
X105297600Y-77920600D02*
X106297600Y-77920600D01*
X110297600Y-80270600D02*
X109297600Y-80270600D01*
X110297600Y-79870600D02*
X110297600Y-80270600D01*
X109297600Y-79870600D02*
X110297600Y-79870600D01*
X109297600Y-79220600D02*
X110297600Y-79220600D01*
X110297600Y-79220600D02*
X110297600Y-79620600D01*
X110297600Y-79620600D02*
X109297600Y-79620600D01*
X110297600Y-78970600D02*
X109297600Y-78970600D01*
X110297600Y-78570600D02*
X110297600Y-78970600D01*
X109297600Y-78570600D02*
X110297600Y-78570600D01*
X110297600Y-78320600D02*
X109297600Y-78320600D01*
X110297600Y-77920600D02*
X110297600Y-78320600D01*
X109297600Y-77920600D02*
X110297600Y-77920600D01*
X107080443Y-80095600D02*
G75*
G03*
X107080443Y-80095600I-282843J0D01*
G01*
%TO.C,U11*%
X126468000Y-86358600D02*
X123468000Y-86358600D01*
X126468000Y-89358600D02*
X126468000Y-86358600D01*
X123468000Y-89358600D02*
X126468000Y-89358600D01*
X123468000Y-86358600D02*
X123468000Y-89358600D01*
X125743000Y-90358600D02*
X125743000Y-89358600D01*
X126143000Y-90358600D02*
X125743000Y-90358600D01*
X126143000Y-89358600D02*
X126143000Y-90358600D01*
X125493000Y-89358600D02*
X125493000Y-90358600D01*
X125493000Y-90358600D02*
X125093000Y-90358600D01*
X125093000Y-90358600D02*
X125093000Y-89358600D01*
X124443000Y-90358600D02*
X124443000Y-89358600D01*
X124843000Y-90358600D02*
X124443000Y-90358600D01*
X124843000Y-89358600D02*
X124843000Y-90358600D01*
X124193000Y-89358600D02*
X124193000Y-90358600D01*
X124193000Y-90358600D02*
X123793000Y-90358600D01*
X123793000Y-90358600D02*
X123793000Y-89358600D01*
X126143000Y-85358600D02*
X126143000Y-86358600D01*
X125743000Y-85358600D02*
X126143000Y-85358600D01*
X125743000Y-86358600D02*
X125743000Y-85358600D01*
X125093000Y-86358600D02*
X125093000Y-85358600D01*
X125093000Y-85358600D02*
X125493000Y-85358600D01*
X125493000Y-85358600D02*
X125493000Y-86358600D01*
X124843000Y-85358600D02*
X124843000Y-86358600D01*
X124443000Y-85358600D02*
X124843000Y-85358600D01*
X124443000Y-86358600D02*
X124443000Y-85358600D01*
X124193000Y-85358600D02*
X124193000Y-86358600D01*
X123793000Y-85358600D02*
X124193000Y-85358600D01*
X123793000Y-86358600D02*
X123793000Y-85358600D01*
X126250843Y-88858600D02*
G75*
G03*
X126250843Y-88858600I-282843J0D01*
G01*
%TO.C,D1*%
X130322600Y-59961400D02*
X130322600Y-58961400D01*
X129722600Y-59961400D02*
X130322600Y-59961400D01*
X129722600Y-58961400D02*
X129722600Y-59961400D01*
X130322600Y-58961400D02*
X129722600Y-58961400D01*
X130322600Y-59661400D02*
X129722600Y-59661400D01*
%TO.C,D3*%
X110180400Y-87291800D02*
X110180400Y-86291800D01*
X109580400Y-87291800D02*
X110180400Y-87291800D01*
X109580400Y-86291800D02*
X109580400Y-87291800D01*
X110180400Y-86291800D02*
X109580400Y-86291800D01*
X110180400Y-86991800D02*
X109580400Y-86991800D01*
%TO.C,D4*%
X106294200Y-87215600D02*
X106294200Y-86215600D01*
X105694200Y-87215600D02*
X106294200Y-87215600D01*
X105694200Y-86215600D02*
X105694200Y-87215600D01*
X106294200Y-86215600D02*
X105694200Y-86215600D01*
X106294200Y-86915600D02*
X105694200Y-86915600D01*
%TO.C,Q21*%
X93590400Y-66738600D02*
X93590400Y-68338600D01*
X94390400Y-66738600D02*
X93590400Y-66738600D01*
X94390400Y-68338600D02*
X94390400Y-66738600D01*
X93590400Y-68338600D02*
X94390400Y-68338600D01*
X93190400Y-67648600D02*
X93590400Y-67648600D01*
X93190400Y-67428600D02*
X93190400Y-67648600D01*
X93590400Y-67428600D02*
X93190400Y-67428600D01*
X94390400Y-66928600D02*
X94790400Y-66928600D01*
X94790400Y-66928600D02*
X94790400Y-67148600D01*
X94790400Y-67148600D02*
X94390400Y-67148600D01*
X94790400Y-68148600D02*
X94390400Y-68148600D01*
X94790400Y-67928600D02*
X94790400Y-68148600D01*
X94390400Y-67928600D02*
X94790400Y-67928600D01*
%TO.C,R77*%
X90462200Y-64801800D02*
X90462200Y-65601800D01*
X92062200Y-64801800D02*
X90462200Y-64801800D01*
X92062200Y-65601800D02*
X92062200Y-64801800D01*
X90462200Y-65601800D02*
X92062200Y-65601800D01*
%TO.C,R78*%
X93180000Y-64801800D02*
X93180000Y-65601800D01*
X94780000Y-64801800D02*
X93180000Y-64801800D01*
X94780000Y-65601800D02*
X94780000Y-64801800D01*
X93180000Y-65601800D02*
X94780000Y-65601800D01*
%TO.C,U13*%
X113384200Y-36854000D02*
X113384200Y-39854000D01*
X116384200Y-36854000D02*
X113384200Y-36854000D01*
X116384200Y-39854000D02*
X116384200Y-36854000D01*
X113384200Y-39854000D02*
X116384200Y-39854000D01*
X117384200Y-37579000D02*
X116384200Y-37579000D01*
X117384200Y-37179000D02*
X117384200Y-37579000D01*
X116384200Y-37179000D02*
X117384200Y-37179000D01*
X116384200Y-37829000D02*
X117384200Y-37829000D01*
X117384200Y-37829000D02*
X117384200Y-38229000D01*
X117384200Y-38229000D02*
X116384200Y-38229000D01*
X117384200Y-38879000D02*
X116384200Y-38879000D01*
X117384200Y-38479000D02*
X117384200Y-38879000D01*
X116384200Y-38479000D02*
X117384200Y-38479000D01*
X116384200Y-39129000D02*
X117384200Y-39129000D01*
X117384200Y-39129000D02*
X117384200Y-39529000D01*
X117384200Y-39529000D02*
X116384200Y-39529000D01*
X112384200Y-37179000D02*
X113384200Y-37179000D01*
X112384200Y-37579000D02*
X112384200Y-37179000D01*
X113384200Y-37579000D02*
X112384200Y-37579000D01*
X113384200Y-38229000D02*
X112384200Y-38229000D01*
X112384200Y-38229000D02*
X112384200Y-37829000D01*
X112384200Y-37829000D02*
X113384200Y-37829000D01*
X112384200Y-38479000D02*
X113384200Y-38479000D01*
X112384200Y-38879000D02*
X112384200Y-38479000D01*
X113384200Y-38879000D02*
X112384200Y-38879000D01*
X112384200Y-39129000D02*
X113384200Y-39129000D01*
X112384200Y-39529000D02*
X112384200Y-39129000D01*
X113384200Y-39529000D02*
X112384200Y-39529000D01*
X116167043Y-37354000D02*
G75*
G03*
X116167043Y-37354000I-282843J0D01*
G01*
%TO.C,R24*%
X94593600Y-63720600D02*
X95093600Y-63720600D01*
X94593600Y-62720600D02*
X94593600Y-63720600D01*
X95093600Y-62720600D02*
X94593600Y-62720600D01*
X95093600Y-63720600D02*
X95093600Y-62720600D01*
%TO.C,R37*%
X66846720Y-69114720D02*
X66846720Y-69914720D01*
X68446720Y-69114720D02*
X66846720Y-69114720D01*
X68446720Y-69914720D02*
X68446720Y-69114720D01*
X66846720Y-69914720D02*
X68446720Y-69914720D01*
%TO.C,R38*%
X66875760Y-71034960D02*
X66875760Y-71834960D01*
X68475760Y-71034960D02*
X66875760Y-71034960D01*
X68475760Y-71834960D02*
X68475760Y-71034960D01*
X66875760Y-71834960D02*
X68475760Y-71834960D01*
%TO.C,C54*%
X109626500Y-35172700D02*
X109626500Y-35972700D01*
X111226500Y-35172700D02*
X109626500Y-35172700D01*
X111226500Y-35972700D02*
X111226500Y-35172700D01*
X109626500Y-35972700D02*
X111226500Y-35972700D01*
%TO.C,C55*%
X111205900Y-37575300D02*
X111205900Y-37075300D01*
X110205900Y-37575300D02*
X111205900Y-37575300D01*
X110205900Y-37075300D02*
X110205900Y-37575300D01*
X111205900Y-37075300D02*
X110205900Y-37075300D01*
%TO.C,C56*%
X113982400Y-35680600D02*
X113982400Y-34880600D01*
X112382400Y-35680600D02*
X113982400Y-35680600D01*
X112382400Y-34880600D02*
X112382400Y-35680600D01*
X113982400Y-34880600D02*
X112382400Y-34880600D01*
%TO.C,D6*%
X105728700Y-43746700D02*
X106728700Y-43746700D01*
X105728700Y-43146700D02*
X105728700Y-43746700D01*
X106728700Y-43146700D02*
X105728700Y-43146700D01*
X106728700Y-43746700D02*
X106728700Y-43146700D01*
X106428700Y-43746700D02*
X106428700Y-43146700D01*
%TO.C,D7*%
X110126400Y-43045100D02*
X109126400Y-43045100D01*
X110126400Y-43645100D02*
X110126400Y-43045100D01*
X109126400Y-43645100D02*
X110126400Y-43645100D01*
X109126400Y-43045100D02*
X109126400Y-43645100D01*
X109426400Y-43045100D02*
X109426400Y-43645100D01*
%TD*%
M02*
