EESchema Schematic File Version 2
LIBS:ICs
LIBS:Resistors
LIBS:ASEK25-cache
EELAYER 24 0
EELAYER END
$Descr A4 11693 8268
encoding utf-8
Sheet 1 2
Title ""
Date ""
Rev ""
Comp ""
Comment1 ""
Comment2 ""
Comment3 ""
Comment4 ""
$EndDescr
$Sheet
S 7150 1500 1550 1650
U 54852524
F0 "OutDriver1" 60
F1 "OutputDriver.sch" 60
$EndSheet
$EndSCHEMATC
