(module 8_DIP (layer F.Cu) (tedit 602FDFD0)
  (fp_text reference REF** (at 0 0.5) (layer F.SilkS)
    (effects (font (size 1 1) (thickness 0.15)))
  )
  (fp_text value 8_DIP (at 0 -6.35) (layer F.Fab)
    (effects (font (size 1 1) (thickness 0.15)))
  )
  (fp_line (start -5.08 3.81) (end -5.08 -3.81) (layer F.SilkS) (width 0.15))
  (fp_line (start -5.08 -3.81) (end 5.08 -3.81) (layer F.SilkS) (width 0.15))
  (fp_line (start 5.08 -3.81) (end 5.08 3.81) (layer F.SilkS) (width 0.15))
  (fp_line (start 5.08 3.81) (end -5.08 3.81) (layer F.SilkS) (width 0.15))
  (fp_arc (start -5.08 0) (end -5.08 1.27) (angle -180) (layer F.SilkS) (width 0.15))
  (pad 1 thru_hole circle (at -3.81 3.81) (size 1.524 1.524) (drill 0.762) (layers *.Cu *.Mask))
  (pad 2 thru_hole circle (at -1.27 3.81) (size 1.524 1.524) (drill 0.762) (layers *.Cu *.Mask))
  (pad 3 thru_hole circle (at 1.27 3.81) (size 1.524 1.524) (drill 0.762) (layers *.Cu *.Mask))
  (pad 4 thru_hole circle (at 3.81 3.81) (size 1.524 1.524) (drill 0.762) (layers *.Cu *.Mask))
  (pad 5 thru_hole circle (at 3.806478 -3.838926) (size 1.524 1.524) (drill 0.762) (layers *.Cu *.Mask))
  (pad 6 thru_hole circle (at 1.266478 -3.838926) (size 1.524 1.524) (drill 0.762) (layers *.Cu *.Mask))
  (pad 7 thru_hole circle (at -1.273522 -3.838926) (size 1.524 1.524) (drill 0.762) (layers *.Cu *.Mask))
  (pad 8 thru_hole circle (at -3.813522 -3.838926) (size 1.524 1.524) (drill 0.762) (layers *.Cu *.Mask))
)
