M48
;DRILL file {kicad (2015-01-27 BZR 5391)-product} date 1/27/2015 7:17:11 PM
;FORMAT={-:-/ absolute / inch / decimal}
FMAT,2
INCH,TZ
T1C0.013
T2C0.035
T3C0.063
%
G90
G05
M72
T1
X3.3694Y-3.8383
X3.38Y-3.718
X3.414Y-3.658
X3.416Y-3.756
X3.424Y-3.834
X3.424Y-4.076
X3.442Y-4.122
X3.458Y-3.826
X3.462Y-3.916
X3.462Y-4.038
X3.466Y-3.658
X3.488Y-3.318
X3.488Y-3.414
X3.4886Y-4.0874
X3.52Y-3.97
X3.5204Y-4.0656
X3.53Y-3.83
X3.546Y-4.59
X3.556Y-4.378
X3.566Y-3.236
X3.586Y-3.274
X3.608Y-4.088
X3.624Y-2.742
X3.624Y-3.564
X3.626Y-4.288
X3.632Y-4.074
X3.6456Y-4.0418
X3.6625Y-2.9671
X3.6969Y-3.0945
X3.6969Y-3.2303
X3.698Y-4.25
X3.6982Y-3.813
X3.708Y-3.916
X3.722Y-3.65
X3.73Y-3.182
X3.768Y-3.76
X3.77Y-3.702
X3.772Y-3.82
X3.776Y-4.014
X3.782Y-4.066
X3.7835Y-2.9068
X3.8346Y-3.3681
X3.846Y-3.536
X3.8504Y-2.7717
X3.8564Y-3.1198
X3.87Y-3.
X3.889Y-2.9774
X3.89Y-3.954
X3.918Y-3.904
X3.918Y-3.986
X3.938Y-4.014
X3.954Y-3.078
X3.954Y-3.68
X3.954Y-3.714
X3.966Y-3.916
X3.966Y-4.252
X3.966Y-4.34
X3.97Y-3.844
X4.0022Y-2.8258
X4.0024Y-2.9508
X4.03Y-4.242
X4.03Y-4.338
X4.0304Y-3.1178
X4.0366Y-2.9508
X4.0394Y-2.8254
X4.046Y-3.894
X4.062Y-3.686
X4.062Y-3.716
X4.07Y-4.688
X4.094Y-4.194
X4.094Y-4.338
X4.098Y-3.9
X4.1004Y-2.8209
X4.1244Y-3.0014
X4.158Y-4.252
X4.158Y-4.34
X4.162Y-3.024
X4.162Y-3.052
X4.1654Y-3.1535
X4.2067Y-2.7972
X4.222Y-4.2
X4.24Y-3.024
X4.24Y-3.052
X4.254Y-4.35
X4.266Y-3.54
X4.286Y-3.986
X4.288Y-3.936
X4.2942Y-2.8693
X4.298Y-2.716
X4.3196Y-3.027
X4.3306Y-2.9332
X4.372Y-3.884
X4.392Y-2.674
X4.422Y-2.666
X4.432Y-3.768
X4.444Y-2.694
X4.4772Y-2.6622
X4.49Y-3.88
X4.49Y-3.934
X4.516Y-2.844
X4.558Y-2.844
X4.58Y-2.946
X4.59Y-2.526
X4.608Y-3.894
X4.608Y-3.926
X4.638Y-4.534
X4.64Y-4.562
X4.7044Y-4.3347
X4.73Y-3.936
X4.73Y-3.986
X4.7316Y-4.3315
X4.734Y-2.878
X4.758Y-4.384
X4.788Y-2.812
X4.792Y-4.384
X4.8Y-2.84
X4.8Y-2.914
X4.838Y-4.34
X4.858Y-4.626
X4.864Y-2.876
X4.88Y-4.34
X4.888Y-2.74
X4.926Y-2.738
X4.94Y-2.914
X5.008Y-2.738
T2
X3.205Y-2.6049
X3.205Y-2.6837
X3.205Y-2.7624
X3.205Y-2.8411
X3.205Y-2.9199
X3.205Y-2.9986
X3.205Y-3.0774
X3.205Y-3.1561
X3.205Y-3.2349
X3.205Y-3.3136
X3.205Y-3.3923
X3.205Y-3.4711
X3.205Y-3.5498
X3.205Y-3.6286
X3.205Y-3.7073
X3.205Y-3.786
X3.205Y-3.8648
X3.205Y-3.9435
X3.205Y-4.0223
X3.205Y-4.101
X3.205Y-4.1797
X3.205Y-4.2585
X3.205Y-4.3372
X3.205Y-4.416
X3.205Y-4.4947
X3.2838Y-2.6049
X3.2838Y-2.6837
X3.2838Y-2.7624
X3.2838Y-2.8411
X3.2838Y-2.9199
X3.2838Y-2.9986
X3.2838Y-3.0774
X3.2838Y-3.1561
X3.2838Y-3.2349
X3.2838Y-3.3136
X3.2838Y-3.3923
X3.2838Y-3.4711
X3.2838Y-3.5498
X3.2838Y-3.6286
X3.2838Y-3.7073
X3.2838Y-3.786
X3.2838Y-3.8648
X3.2838Y-3.9435
X3.2838Y-4.0223
X3.2838Y-4.101
X3.2838Y-4.1797
X3.2838Y-4.2585
X3.2838Y-4.3372
X3.2838Y-4.416
X3.2838Y-4.4947
X4.0689Y-4.8819
X4.0689Y-4.9606
X4.1476Y-4.8819
X4.1476Y-4.9606
X4.2264Y-4.8819
X4.2264Y-4.9606
X4.3051Y-4.8819
X4.3051Y-4.9606
X4.3839Y-4.8819
X4.3839Y-4.9606
X4.4626Y-4.8819
X4.4626Y-4.9606
X4.5413Y-4.8819
X4.5413Y-4.9606
T3
X3.7402Y-2.1654
X4.0354Y-2.1654
X4.3307Y-2.1654
X4.626Y-2.1654
X5.43Y-2.6392
X5.43Y-2.8361
X5.43Y-3.0329
X5.43Y-3.2298
X5.43Y-3.4266
X5.43Y-3.6235
X5.43Y-3.8203
X5.43Y-4.0172
T0
M30
