EESchema Schematic File Version 2
LIBS:Capacitors
LIBS:Connectors
LIBS:Discretes
LIBS:ICs
LIBS:Allegro
LIBS:Resistors
LIBS:TestPoints
LIBS:Asek20DaughterCard-cache
EELAYER 25 0
EELAYER END
$Descr A4 11693 8268
encoding utf-8
Sheet 7 8
Title "ASEK20 Daughter Card"
Date "Friday, January 23, 2015"
Rev "v1.2"
Comp "Allegro Microsystems LLC"
Comment1 ""
Comment2 ""
Comment3 ""
Comment4 ""
$EndDescr
$Comp
L ProtoTP TP101
U 1 1 54F99552
P 2100 4600
F 0 "TP101" H 2100 4950 60  0000 C CNN
F 1 "5v0" H 2100 4850 60  0000 C CNN
F 2 "TestPoints:TP_1p0mm" H 2100 4600 60  0001 C CNN
F 3 "" H 2100 4600 60  0000 C CNN
	1    2100 4600
	-1   0    0    -1  
$EndComp
$Comp
L ProtoTP TP115
U 1 1 54F9955E
P 2100 3750
F 0 "TP115" H 2100 4100 60  0000 C CNN
F 1 "GND" H 2100 4000 60  0000 C CNN
F 2 "TestPoints:TP_1p0mm" H 2100 3750 60  0001 C CNN
F 3 "" H 2100 3750 60  0000 C CNN
	1    2100 3750
	1    0    0    -1  
$EndComp
Wire Wire Line
	1750 4600 2100 4600
Text HLabel 1100 4600 0    60   Input ~ 0
5v0SMPS
Text HLabel 1100 3750 0    60   Input ~ 0
GND
$Comp
L 0.0-BF R68
U 1 1 5501B46D
P 1550 4600
F 0 "R68" H 1550 4800 60  0000 C CNN
F 1 "0.0-BF" H 1550 4700 60  0000 C CNN
F 2 "Resistors:R0603" H 1450 4696 60  0001 C CNN
F 3 "" H 1650 4750 60  0000 C CNN
F 4 "P0.0GCT-ND" H 1568 4868 60  0001 C CNN "DigikeyPN"
F 5 "5%" H 1300 4700 60  0000 C CNN "Precision"
	1    1550 4600
	-1   0    0    -1  
$EndComp
$Comp
L 0.0-BF R69
U 1 1 5501B577
P 1550 3750
F 0 "R69" H 1550 3550 60  0000 C CNN
F 1 "0.0-BF" H 1550 3650 60  0000 C CNN
F 2 "Resistors:R0603" H 1450 3846 60  0001 C CNN
F 3 "" H 1650 3900 60  0000 C CNN
F 4 "P0.0GCT-ND" H 1568 4018 60  0001 C CNN "DigikeyPN"
F 5 "5%" H 1800 3650 60  0000 C CNN "Precision"
	1    1550 3750
	1    0    0    1   
$EndComp
Wire Wire Line
	1100 4600 1350 4600
Wire Wire Line
	1100 3750 1350 3750
$Comp
L ProtoTP TP19
U 1 1 54F20AE9
P 2100 1000
F 0 "TP19" H 2100 1350 60  0000 C CNN
F 1 "GPIO4" H 2100 1250 60  0000 C CNN
F 2 "TestPoints:TP_1p0mm" H 2100 1000 60  0001 C CNN
F 3 "" H 2100 1000 60  0000 C CNN
	1    2100 1000
	-1   0    0    -1  
$EndComp
$Comp
L ProtoTP TP20
U 1 1 54F20BD6
P 2100 1750
F 0 "TP20" H 2100 2100 60  0000 C CNN
F 1 "GPIO5" H 2100 2000 60  0000 C CNN
F 2 "TestPoints:TP_1p0mm" H 2100 1750 60  0001 C CNN
F 3 "" H 2100 1750 60  0000 C CNN
	1    2100 1750
	-1   0    0    -1  
$EndComp
$Comp
L ProtoTP TP21
U 1 1 54F20C98
P 2100 2300
F 0 "TP21" H 2100 2650 60  0000 C CNN
F 1 "GPIO6" H 2100 2550 60  0000 C CNN
F 2 "TestPoints:TP_1p0mm" H 2100 2300 60  0001 C CNN
F 3 "" H 2100 2300 60  0000 C CNN
	1    2100 2300
	-1   0    0    -1  
$EndComp
$Comp
L ProtoTP TP22
U 1 1 54F20D5B
P 2100 2950
F 0 "TP22" H 2100 3300 60  0000 C CNN
F 1 "GPIO7" H 2100 3200 60  0000 C CNN
F 2 "TestPoints:TP_1p0mm" H 2100 2950 60  0001 C CNN
F 3 "" H 2100 2950 60  0000 C CNN
	1    2100 2950
	-1   0    0    -1  
$EndComp
$Comp
L 5.1k-AF R64
U 1 1 54F24AC5
P 1550 1000
F 0 "R64" H 1550 1196 60  0000 C CNN
F 1 "5.1k-AF" H 1450 1100 60  0000 C CNN
F 2 "Resistors:R0402" H 1550 1000 60  0001 C CNN
F 3 "" H 1650 1150 60  0000 C CNN
F 4 "P5.1KJCT-ND" H 1568 1268 60  0001 C CNN "DigikeyPN"
F 5 "5%" H 1750 1100 60  0000 C CNN "Precision"
	1    1550 1000
	1    0    0    -1  
$EndComp
$Comp
L 5.1k-AF R65
U 1 1 54F24DB4
P 1550 1750
F 0 "R65" H 1550 1946 60  0000 C CNN
F 1 "5.1k-AF" H 1450 1850 60  0000 C CNN
F 2 "Resistors:R0402" H 1550 1750 60  0001 C CNN
F 3 "" H 1650 1900 60  0000 C CNN
F 4 "P5.1KJCT-ND" H 1568 2018 60  0001 C CNN "DigikeyPN"
F 5 "5%" H 1750 1850 60  0000 C CNN "Precision"
	1    1550 1750
	1    0    0    -1  
$EndComp
$Comp
L 5.1k-AF R66
U 1 1 54F25646
P 1550 2300
F 0 "R66" H 1550 2496 60  0000 C CNN
F 1 "5.1k-AF" H 1450 2400 60  0000 C CNN
F 2 "Resistors:R0402" H 1550 2300 60  0001 C CNN
F 3 "" H 1650 2450 60  0000 C CNN
F 4 "P5.1KJCT-ND" H 1568 2568 60  0001 C CNN "DigikeyPN"
F 5 "5%" H 1750 2400 60  0000 C CNN "Precision"
	1    1550 2300
	1    0    0    -1  
$EndComp
$Comp
L 5.1k-AF R67
U 1 1 54F25711
P 1550 2950
F 0 "R67" H 1550 3146 60  0000 C CNN
F 1 "5.1k-AF" H 1450 3050 60  0000 C CNN
F 2 "Resistors:R0402" H 1550 2950 60  0001 C CNN
F 3 "" H 1650 3100 60  0000 C CNN
F 4 "P5.1KJCT-ND" H 1568 3218 60  0001 C CNN "DigikeyPN"
F 5 "5%" H 1750 3050 60  0000 C CNN "Precision"
	1    1550 2950
	1    0    0    -1  
$EndComp
Wire Wire Line
	1750 2950 2100 2950
Wire Wire Line
	1750 2300 2100 2300
Wire Wire Line
	1750 1750 2100 1750
Wire Wire Line
	1750 1000 2100 1000
Text HLabel 1100 1000 0    60   BiDi ~ 0
GPIO0
Text HLabel 1100 1750 0    60   BiDi ~ 0
GPIO1
Text HLabel 1100 2300 0    60   BiDi ~ 0
GPIO2
Text HLabel 1100 2950 0    60   BiDi ~ 0
GPIO3
Wire Wire Line
	1100 1000 1350 1000
Wire Wire Line
	1100 1750 1350 1750
Wire Wire Line
	1100 2300 1350 2300
Wire Wire Line
	1100 2950 1350 2950
Wire Wire Line
	1750 3750 2100 3750
Text HLabel 9650 1050 2    60   Input ~ 0
VCC
Text HLabel 9650 1650 2    60   Input ~ 0
Mux
Text HLabel 9650 2250 2    60   Input ~ 0
DUT_GND
$Comp
L ProtoTP TP26
U 1 1 54F647A5
P 8650 1650
F 0 "TP26" H 8650 2000 60  0000 C CNN
F 1 "MUX" H 8650 1900 60  0000 C CNN
F 2 "TestPoints:TP_1p0mm" H 8650 1650 60  0001 C CNN
F 3 "" H 8650 1650 60  0000 C CNN
	1    8650 1650
	1    0    0    -1  
$EndComp
$Comp
L ProtoTP TP25
U 1 1 54F647AB
P 8650 1050
F 0 "TP25" H 8650 1400 60  0000 C CNN
F 1 "VCC" H 8650 1300 60  0000 C CNN
F 2 "TestPoints:TP_1p0mm" H 8650 1050 60  0001 C CNN
F 3 "" H 8650 1050 60  0000 C CNN
	1    8650 1050
	-1   0    0    -1  
$EndComp
Wire Wire Line
	9000 1650 8650 1650
$Comp
L 0.0-BF R71
U 1 1 54F647B4
P 9200 1650
F 0 "R71" H 9200 1850 60  0000 C CNN
F 1 "0.0-BF" H 9200 1750 60  0000 C CNN
F 2 "Resistors:R0603" H 9100 1746 60  0001 C CNN
F 3 "" H 9300 1800 60  0000 C CNN
F 4 "P0.0GCT-ND" H 9218 1918 60  0001 C CNN "DigikeyPN"
F 5 "5%" H 8950 1750 60  0000 C CNN "Precision"
	1    9200 1650
	1    0    0    -1  
$EndComp
$Comp
L 0.0-BF R70
U 1 1 54F647BC
P 9200 1050
F 0 "R70" H 9200 850 60  0000 C CNN
F 1 "0.0-BF" H 9200 950 60  0000 C CNN
F 2 "Resistors:R0603" H 9100 1146 60  0001 C CNN
F 3 "" H 9300 1200 60  0000 C CNN
F 4 "P0.0GCT-ND" H 9218 1318 60  0001 C CNN "DigikeyPN"
F 5 "5%" H 9450 950 60  0000 C CNN "Precision"
	1    9200 1050
	-1   0    0    1   
$EndComp
Wire Wire Line
	9650 1650 9400 1650
Wire Wire Line
	9650 1050 9400 1050
Wire Wire Line
	8650 1050 9000 1050
$Comp
L ProtoTP TP27
U 1 1 54F64982
P 8650 2250
F 0 "TP27" H 8650 2600 60  0000 C CNN
F 1 "DUT_GND" H 8650 2500 60  0000 C CNN
F 2 "TestPoints:TP_1p0mm" H 8650 2250 60  0001 C CNN
F 3 "" H 8650 2250 60  0000 C CNN
	1    8650 2250
	1    0    0    -1  
$EndComp
Wire Wire Line
	9000 2250 8650 2250
$Comp
L 0.0-BF R72
U 1 1 54F6498B
P 9200 2250
F 0 "R72" H 9200 2450 60  0000 C CNN
F 1 "0.0-BF" H 9200 2350 60  0000 C CNN
F 2 "Resistors:R0603" H 9100 2346 60  0001 C CNN
F 3 "" H 9300 2400 60  0000 C CNN
F 4 "P0.0GCT-ND" H 9218 2518 60  0001 C CNN "DigikeyPN"
F 5 "5%" H 8950 2350 60  0000 C CNN "Precision"
	1    9200 2250
	1    0    0    -1  
$EndComp
Wire Wire Line
	9650 2250 9400 2250
$Comp
L ProtoTP TP23
U 1 1 54F64CBE
P 2100 5200
F 0 "TP23" H 2100 5550 60  0000 C CNN
F 1 "3v3" H 2100 5450 60  0000 C CNN
F 2 "TestPoints:TP_1p0mm" H 2100 5200 60  0001 C CNN
F 3 "" H 2100 5200 60  0000 C CNN
	1    2100 5200
	-1   0    0    -1  
$EndComp
$Comp
L ProtoTP TP24
U 1 1 54F64D24
P 2100 5950
F 0 "TP24" H 2100 6300 60  0000 C CNN
F 1 "ProtoTP" H 2100 6200 60  0000 C CNN
F 2 "TestPoints:TP_1p0mm" H 2100 5950 60  0001 C CNN
F 3 "" H 2100 5950 60  0000 C CNN
	1    2100 5950
	1    0    0    -1  
$EndComp
Wire Wire Line
	2100 5200 1750 5200
$Comp
L ProtoTP TP28
U 1 1 54F65464
P 8650 2950
F 0 "TP28" H 8650 3300 60  0000 C CNN
F 1 "Neg" H 8650 3200 60  0000 C CNN
F 2 "TestPoints:TP_1p0mm" H 8650 2950 60  0001 C CNN
F 3 "" H 8650 2950 60  0000 C CNN
	1    8650 2950
	-1   0    0    -1  
$EndComp
$Comp
L ProtoTP TP29
U 1 1 54F6546A
P 8650 3750
F 0 "TP29" H 8450 3900 60  0000 C CNN
F 1 "Pos" H 8450 4000 60  0000 C CNN
F 2 "TestPoints:TP_1p0mm" H 8650 3750 60  0001 C CNN
F 3 "" H 8650 3750 60  0000 C CNN
	1    8650 3750
	1    0    0    -1  
$EndComp
$Comp
L ProtoTP TP30
U 1 1 54F658C7
P 8650 4600
F 0 "TP30" H 8650 4950 60  0000 C CNN
F 1 "Out" H 8650 4850 60  0000 C CNN
F 2 "TestPoints:TP_1p0mm" H 8650 4600 60  0001 C CNN
F 3 "" H 8650 4600 60  0000 C CNN
	1    8650 4600
	-1   0    0    -1  
$EndComp
$Comp
L ProtoTP TP31
U 1 1 54F658CD
P 8650 5200
F 0 "TP31" H 8650 5550 60  0000 C CNN
F 1 "Sense_1" H 8650 5450 60  0000 C CNN
F 2 "TestPoints:TP_1p0mm" H 8650 5200 60  0001 C CNN
F 3 "" H 8650 5200 60  0000 C CNN
	1    8650 5200
	1    0    0    -1  
$EndComp
Wire Wire Line
	9000 5200 8650 5200
$Comp
L ProtoTP TP32
U 1 1 54F65D45
P 8650 5950
F 0 "TP32" H 8650 6300 60  0000 C CNN
F 1 "Sense_2" H 8650 6200 60  0000 C CNN
F 2 "TestPoints:TP_1p0mm" H 8650 5950 60  0001 C CNN
F 3 "" H 8650 5950 60  0000 C CNN
	1    8650 5950
	1    0    0    -1  
$EndComp
Wire Wire Line
	9000 5950 8650 5950
Wire Wire Line
	1100 5200 1350 5200
$Comp
L 0.0-BF R73
U 1 1 54F67316
P 1550 5200
F 0 "R73" H 1550 5400 60  0000 C CNN
F 1 "0.0-BF" H 1550 5300 60  0000 C CNN
F 2 "Resistors:R0603" H 1450 5296 60  0001 C CNN
F 3 "" H 1650 5350 60  0000 C CNN
F 4 "P0.0GCT-ND" H 1568 5468 60  0001 C CNN "DigikeyPN"
F 5 "5%" H 1300 5300 60  0000 C CNN "Precision"
	1    1550 5200
	-1   0    0    -1  
$EndComp
Text HLabel 1100 5200 0    60   Input ~ 0
3v3PWR
$Comp
L 0.0-BF R75
U 1 1 54F63E55
P 9200 5950
F 0 "R75" H 9200 6150 60  0000 C CNN
F 1 "0.0-BF" H 9200 6050 60  0000 C CNN
F 2 "Resistors:R0603" H 9100 6046 60  0001 C CNN
F 3 "" H 9300 6100 60  0000 C CNN
F 4 "P0.0GCT-ND" H 9218 6218 60  0001 C CNN "DigikeyPN"
F 5 "5%" H 8950 6050 60  0000 C CNN "Precision"
	1    9200 5950
	1    0    0    -1  
$EndComp
Wire Wire Line
	9650 5950 9400 5950
$Comp
L 0.0-BF R74
U 1 1 54F642FD
P 9200 5200
F 0 "R74" H 9200 5400 60  0000 C CNN
F 1 "0.0-BF" H 9200 5300 60  0000 C CNN
F 2 "Resistors:R0603" H 9100 5296 60  0001 C CNN
F 3 "" H 9300 5350 60  0000 C CNN
F 4 "P0.0GCT-ND" H 9218 5468 60  0001 C CNN "DigikeyPN"
F 5 "5%" H 8950 5300 60  0000 C CNN "Precision"
	1    9200 5200
	1    0    0    -1  
$EndComp
Wire Wire Line
	9650 5200 9400 5200
Text HLabel 9650 5200 2    60   Input ~ 0
Sense_1
Text HLabel 9650 5950 2    60   Input ~ 0
Sense_2
$EndSCHEMATC
