(footprint "Dual18650" (version 20211014) (generator pcbnew)
  (layer "F.Cu")
  (tedit 0)
  (attr smd)
  (fp_text reference "REF**" (at -19 -46 unlocked) (layer "F.SilkS")
    (effects (font (size 1 1) (thickness 0.15)))
    (tstamp 7734df69-b492-47bb-8e6f-074f007dd8cd)
  )
  (fp_text value "Dual18650" (at 0 1 unlocked) (layer "F.Fab")
    (effects (font (size 1 1) (thickness 0.15)))
    (tstamp f36ec6b0-eb85-4d88-a0ba-6da08a9a62fc)
  )
  (fp_text user "-" (at -19 42 unlocked) (layer "F.SilkS")
    (effects (font (size 2 2) (thickness 0.15)))
    (tstamp 2645a6e8-0a7d-4f3a-8e3e-d1ee02d01010)
  )
  (fp_text user "Otherwise Fire Risk" (at 10 0 90 unlocked) (layer "F.SilkS")
    (effects (font (size 1 1) (thickness 0.15)))
    (tstamp 2bd17895-e053-4e8c-b8ec-2a4fe35b89f1)
  )
  (fp_text user "+" (at -19 -42 unlocked) (layer "F.SilkS")
    (effects (font (size 2 2) (thickness 0.15)))
    (tstamp 2bd8bace-66b4-4a65-b0de-9372394e61b1)
  )
  (fp_text user "+" (at 19 -42 unlocked) (layer "F.SilkS")
    (effects (font (size 2 2) (thickness 0.15)))
    (tstamp c3bc6dd3-98b8-47f7-b728-4460d451249a)
  )
  (fp_text user "Ensure Batteries are at Equal Charge" (at -9 2 90 unlocked) (layer "F.SilkS")
    (effects (font (size 1 1) (thickness 0.15)))
    (tstamp d41905c0-f6a6-4e8d-b4ff-dc8b4c062b2b)
  )
  (fp_text user "-" (at 19 42 unlocked) (layer "F.SilkS")
    (effects (font (size 2 2) (thickness 0.15)))
    (tstamp e56c3735-e0f6-4457-8df4-20cb18f1c51a)
  )
  (fp_text user "${REFERENCE}" (at 0 2.5 unlocked) (layer "F.Fab")
    (effects (font (size 1 1) (thickness 0.15)))
    (tstamp 07a7e96d-68a2-44d4-94f6-ea79a318d00e)
  )
  (fp_rect (start -21 -44) (end 21 44) (layer "F.SilkS") (width 0.12) (fill none) (tstamp 668a4dea-a6a7-4c70-9f21-188e001764de))
  (fp_rect (start -22 -45) (end 22 45) (layer "F.CrtYd") (width 0.05) (fill none) (tstamp cd4e2de1-c631-4749-82c6-ec65eb74e239))
  (pad "0" thru_hole circle (at 17.5 27.6) (size 3.9624 3.9624) (drill 3.5) (layers *.Cu *.Mask) (tstamp 6afb9cc2-9869-4192-ac7f-49b235a174aa))
  (pad "0" thru_hole circle (at -17.5 -27.6) (size 3.9624 3.9624) (drill 3.5) (layers *.Cu *.Mask) (tstamp a114de30-5697-4809-b625-ce4f98fb3031))
  (pad "1" smd rect (at -9.55 -39.35) (size 6.4 7.3) (layers "F.Cu" "F.Paste" "F.Mask") (tstamp 4a1c91f3-28d7-4781-a0d7-d5f626f0a91a))
  (pad "2" smd rect (at -9.55 39.35) (size 6.4 7.3) (layers "F.Cu" "F.Paste" "F.Mask") (tstamp e6ca7969-4787-4842-9873-582aca55d019))
  (pad "3" smd rect (at 9.55 -39.35) (size 6.4 7.3) (layers "F.Cu" "F.Paste" "F.Mask") (tstamp aa074596-50a0-4a50-85c0-321aa4d30ac9))
  (pad "4" smd rect (at 9.55 39.35) (size 6.4 7.3) (layers "F.Cu" "F.Paste" "F.Mask") (tstamp d8f5f6ef-b9ee-4557-8213-5c90efda64f9))
  (pad "5" smd roundrect (at -8.255 2.54) (size 0 0) (layers "F.Cu" "F.Paste" "F.Mask") (roundrect_rratio 0.25) (tstamp 9b5b94d0-702c-4b6a-92ee-8c8f64c7e903))
  (model "${KICAD_DATASHEET_DIR}/Battery/Footprint.pretty/Dual18650Holder.STEP"
    (offset (xyz 0 0 7.5))
    (scale (xyz 1 1 1))
    (rotate (xyz -90 0 90))
  )
)
