(footprint "Single18650" (version 20211014) (generator pcbnew)
  (layer "F.Cu")
  (tedit 0)
  (attr smd)
  (fp_text reference "REF**" (at -16.256 -41.91 unlocked) (layer "F.SilkS")
    (effects (font (size 1 1) (thickness 0.15)))
    (tstamp 6cc25d95-2394-4a06-99f0-ab45b10e54c7)
  )
  (fp_text value "Single18650" (at 0 -6.62 unlocked) (layer "F.Fab")
    (effects (font (size 1 1) (thickness 0.15)))
    (tstamp 6b71e51d-689a-4fc0-925f-f92ffe748950)
  )
  (fp_text user "Ensure Batteries are at Equal Charge" (at 0.55 2.02 90 unlocked) (layer "F.SilkS")
    (effects (font (size 1 1) (thickness 0.15)))
    (tstamp 599e2da1-4f1f-4873-944f-0eacbe4e9b7b)
  )
  (fp_text user "+" (at -9.45 -41.98 unlocked) (layer "F.SilkS")
    (effects (font (size 2 2) (thickness 0.15)))
    (tstamp 637d65cb-d6e4-4603-a648-e10d846fb56a)
  )
  (fp_text user "-" (at -9.45 42.02 unlocked) (layer "F.SilkS")
    (effects (font (size 2 2) (thickness 0.15)))
    (tstamp c74af65d-4e2f-4ccc-b60d-81059df4aff8)
  )
  (fp_text user "${REFERENCE}" (at 0 -5.12 unlocked) (layer "F.Fab")
    (effects (font (size 1 1) (thickness 0.15)))
    (tstamp fac7a8fb-6c47-49cc-9c1a-616bd74438ac)
  )
  (fp_rect (start -11 -45) (end 11 45) (layer "F.SilkS") (width 0.12) (fill none) (tstamp 04de435a-2c41-4810-ab44-b06836691ecb))
  (fp_rect (start -11.5 -45.5) (end 11.5 45.5) (layer "F.CrtYd") (width 0.05) (fill none) (tstamp 8ab78fc6-5f00-48b7-9ff8-b3e9140acf0f))
  (pad "0" thru_hole circle (at -8 -27.6) (size 3.9624 3.9624) (drill 3.5) (layers *.Cu *.Mask) (tstamp 7435580a-1ee3-4f46-b0b3-d309d2ab15be))
  (pad "0" thru_hole circle (at 8 27.6) (size 3.9624 3.9624) (drill 3.5) (layers *.Cu *.Mask) (tstamp eed0f73a-4e3a-436e-a5a9-a8bc977538b6))
  (pad "1" smd rect (at 0 -39.35) (size 6.4 7.3) (layers "F.Cu" "F.Paste" "F.Mask") (tstamp 41dd8413-a615-4bc6-9165-c93dc9f9415e))
  (pad "2" smd rect (at 0 39.35) (size 6.4 7.3) (layers "F.Cu" "F.Paste" "F.Mask") (tstamp cceb8b0b-561a-42f4-8129-1c64a55a95e3))
  (pad "5" smd roundrect (at 1.295 2.56) (size 0 0) (layers "F.Cu" "F.Paste" "F.Mask") (roundrect_rratio 0.25) (tstamp 76512777-f339-4633-b9c2-defeb1d23281))
  (model "${KICAD_DATASHEET_DIR}/Battery/Footprint.pretty/Single18650Holder.STEP"
    (offset (xyz 0 0 0))
    (scale (xyz 1 1 1))
    (rotate (xyz -90 0 0))
  )
)
