G04 #@! TF.GenerationSoftware,KiCad,Pcbnew,(2017-09-07 revision 90668f9ef)-makepkg*
G04 #@! TF.CreationDate,2017-09-08T13:15:44-04:00*
G04 #@! TF.ProjectId,BCI_Injector,4243495F496E6A6563746F722E6B6963,rev?*
G04 #@! TF.SameCoordinates,Original*
G04 #@! TF.FileFunction,Soldermask,Bot*
G04 #@! TF.FilePolarity,Negative*
%FSLAX46Y46*%
G04 Gerber Fmt 4.6, Leading zero omitted, Abs format (unit mm)*
G04 Created by KiCad (PCBNEW (2017-09-07 revision 90668f9ef)-makepkg) date 09/08/17 13:15:44*
%MOMM*%
%LPD*%
G01*
G04 APERTURE LIST*
%ADD10R,1.350000X1.350000*%
%ADD11R,1.900000X1.900000*%
%ADD12C,2.800000*%
%ADD13R,1.000000X1.000000*%
%ADD14C,10.800000*%
%ADD15C,3.400000*%
%ADD16C,2.400000*%
%ADD17R,1.400000X0.950000*%
%ADD18R,0.950000X1.400000*%
G04 APERTURE END LIST*
D10*
X129122000Y-102870000D03*
X127672000Y-102870000D03*
X127646600Y-107950000D03*
X129096600Y-107950000D03*
X129122000Y-97790000D03*
X127672000Y-97790000D03*
X127672000Y-110490000D03*
X129122000Y-110490000D03*
X129147400Y-105410000D03*
X127697400Y-105410000D03*
X127672000Y-100330000D03*
X129122000Y-100330000D03*
X127672000Y-95250000D03*
X129122000Y-95250000D03*
D11*
X130810000Y-95250000D03*
X138430000Y-95250000D03*
X130810000Y-97790000D03*
X138430000Y-97790000D03*
X130810000Y-100330000D03*
X138430000Y-100330000D03*
X130810000Y-102870000D03*
X138430000Y-102870000D03*
X130810000Y-105410000D03*
X138430000Y-105410000D03*
X130810000Y-107950000D03*
X138430000Y-107950000D03*
X130810000Y-110490000D03*
X138430000Y-110490000D03*
D12*
X87144200Y-131191000D03*
X112144200Y-131191000D03*
D13*
X162781800Y-100660200D03*
X161931800Y-100660200D03*
X116941600Y-116706200D03*
X116941600Y-115856200D03*
X164185600Y-95256800D03*
X164185600Y-96106800D03*
X110845600Y-115690200D03*
X110845600Y-114840200D03*
D10*
X118719600Y-115861000D03*
X118719600Y-117311000D03*
X161936600Y-104165400D03*
X163386600Y-104165400D03*
X120650000Y-115861000D03*
X120650000Y-117311000D03*
X161936600Y-102336600D03*
X163386600Y-102336600D03*
X107137200Y-114845000D03*
X107137200Y-116295000D03*
X167792400Y-96102000D03*
X167792400Y-94652000D03*
X109067600Y-114845000D03*
X109067600Y-116295000D03*
X165912800Y-96102000D03*
X165912800Y-94652000D03*
D14*
X109855000Y-76225400D03*
X92075000Y-76123800D03*
X128270000Y-76200000D03*
D15*
X170815000Y-76835000D03*
X170835000Y-86995000D03*
D16*
X165735000Y-79375000D03*
X165735000Y-81915000D03*
X74852823Y-89782133D03*
X74411757Y-92283544D03*
D15*
X70712437Y-83893704D03*
X68967867Y-93902823D03*
X70732133Y-117016823D03*
X68948171Y-107014650D03*
D16*
X75293890Y-113633279D03*
X74852823Y-111131867D03*
X165735000Y-118110000D03*
X165735000Y-115570000D03*
D15*
X170835000Y-123190000D03*
X170815000Y-113030000D03*
D17*
X112594400Y-115707200D03*
X112594400Y-114757200D03*
X112594400Y-113807200D03*
X115294400Y-113807200D03*
X115294400Y-115707200D03*
D18*
X162595600Y-96236800D03*
X160695600Y-96236800D03*
X160695600Y-98936800D03*
X161645600Y-98936800D03*
X162595600Y-98936800D03*
D13*
X166591800Y-100050600D03*
X165741800Y-100050600D03*
X154515000Y-118110000D03*
X155365000Y-118110000D03*
D10*
X158902400Y-96328400D03*
X158902400Y-97778400D03*
X161811800Y-94716600D03*
X160361800Y-94716600D03*
X112928400Y-111418200D03*
X112928400Y-109968200D03*
X114757200Y-109968200D03*
X114757200Y-111418200D03*
X116941600Y-111898600D03*
X116941600Y-113348600D03*
X113856600Y-117500400D03*
X112406600Y-117500400D03*
D12*
X119380000Y-89535000D03*
M02*
