%FSLAX45Y45*%
G04 Gerber Fmt 4.5, Leading zero omitted, Abs format (unit mm)*
G04 Created by KiCad (PCBNEW (2017-09-07 revision 90668f9ef)-makepkg) date 09/08/17 13:15:28*
%MOMM*%
%LPD*%
G01*
G04 APERTURE LIST*
%ADD10C,0.150000*%
%ADD11C,0.200000*%
%ADD12C,0.300000*%
G04 APERTURE END LIST*
D10*
X6666091Y-6601995D02*
G75*
G03X5842000Y-10043160I6783208J-3443705D01*
G01*
X6665051Y-13487354D02*
G75*
G02X5842000Y-10043160I6784249J3441654D01*
G01*
X18161000Y-13487400D02*
X6664960Y-13487400D01*
X18161000Y-6601460D02*
X18161000Y-13487400D01*
X6666000Y-6601460D02*
X18161000Y-6601460D01*
D11*
X6771960Y-6708460D02*
X6811960Y-6748460D01*
X6811960Y-6708460D02*
X6771960Y-6748460D01*
X6771960Y-13312460D02*
X6811960Y-13352460D01*
X6811960Y-13312460D02*
X6771960Y-13352460D01*
X7025960Y-6708460D02*
X7065960Y-6748460D01*
X7065960Y-6708460D02*
X7025960Y-6748460D01*
X7025960Y-13312460D02*
X7065960Y-13352460D01*
X7065960Y-13312460D02*
X7025960Y-13352460D01*
X7279960Y-6708460D02*
X7319960Y-6748460D01*
X7319960Y-6708460D02*
X7279960Y-6748460D01*
X7279960Y-13312460D02*
X7319960Y-13352460D01*
X7319960Y-13312460D02*
X7279960Y-13352460D01*
X7533960Y-6708460D02*
X7573960Y-6748460D01*
X7573960Y-6708460D02*
X7533960Y-6748460D01*
X7533960Y-13312460D02*
X7573960Y-13352460D01*
X7573960Y-13312460D02*
X7533960Y-13352460D01*
X7787960Y-6708460D02*
X7827960Y-6748460D01*
X7827960Y-6708460D02*
X7787960Y-6748460D01*
X7787960Y-13312460D02*
X7827960Y-13352460D01*
X7827960Y-13312460D02*
X7787960Y-13352460D01*
X8041960Y-6708460D02*
X8081960Y-6748460D01*
X8081960Y-6708460D02*
X8041960Y-6748460D01*
X8041960Y-13312460D02*
X8081960Y-13352460D01*
X8081960Y-13312460D02*
X8041960Y-13352460D01*
X8295960Y-6708460D02*
X8335960Y-6748460D01*
X8335960Y-6708460D02*
X8295960Y-6748460D01*
X8295960Y-13312460D02*
X8335960Y-13352460D01*
X8335960Y-13312460D02*
X8295960Y-13352460D01*
X8549960Y-6708460D02*
X8589960Y-6748460D01*
X8589960Y-6708460D02*
X8549960Y-6748460D01*
X8549960Y-13312460D02*
X8589960Y-13352460D01*
X8589960Y-13312460D02*
X8549960Y-13352460D01*
X8803960Y-6708460D02*
X8843960Y-6748460D01*
X8843960Y-6708460D02*
X8803960Y-6748460D01*
X8803960Y-13312460D02*
X8843960Y-13352460D01*
X8843960Y-13312460D02*
X8803960Y-13352460D01*
X9057960Y-6708460D02*
X9097960Y-6748460D01*
X9097960Y-6708460D02*
X9057960Y-6748460D01*
X9057960Y-13312460D02*
X9097960Y-13352460D01*
X9097960Y-13312460D02*
X9057960Y-13352460D01*
X9311960Y-6708460D02*
X9351960Y-6748460D01*
X9351960Y-6708460D02*
X9311960Y-6748460D01*
X9311960Y-13312460D02*
X9351960Y-13352460D01*
X9351960Y-13312460D02*
X9311960Y-13352460D01*
X9565960Y-6708460D02*
X9605960Y-6748460D01*
X9605960Y-6708460D02*
X9565960Y-6748460D01*
X9565960Y-13312460D02*
X9605960Y-13352460D01*
X9605960Y-13312460D02*
X9565960Y-13352460D01*
X9819960Y-6708460D02*
X9859960Y-6748460D01*
X9859960Y-6708460D02*
X9819960Y-6748460D01*
X9819960Y-13312460D02*
X9859960Y-13352460D01*
X9859960Y-13312460D02*
X9819960Y-13352460D01*
X10073960Y-6708460D02*
X10113960Y-6748460D01*
X10113960Y-6708460D02*
X10073960Y-6748460D01*
X10073960Y-13312460D02*
X10113960Y-13352460D01*
X10113960Y-13312460D02*
X10073960Y-13352460D01*
X10120950Y-10767380D02*
X10160950Y-10807380D01*
X10160950Y-10767380D02*
X10120950Y-10807380D01*
X10122220Y-10880410D02*
X10162220Y-10920410D01*
X10162220Y-10880410D02*
X10122220Y-10920410D01*
X10230170Y-10717850D02*
X10270170Y-10757850D01*
X10270170Y-10717850D02*
X10230170Y-10757850D01*
X10233980Y-10823260D02*
X10273980Y-10863260D01*
X10273980Y-10823260D02*
X10233980Y-10863260D01*
X10239060Y-10931210D02*
X10279060Y-10971210D01*
X10279060Y-10931210D02*
X10239060Y-10971210D01*
X10327960Y-6708460D02*
X10367960Y-6748460D01*
X10367960Y-6708460D02*
X10327960Y-6748460D01*
X10327960Y-13312460D02*
X10367960Y-13352460D01*
X10367960Y-13312460D02*
X10327960Y-13352460D01*
X10349550Y-10753410D02*
X10389550Y-10793410D01*
X10389550Y-10753410D02*
X10349550Y-10793410D01*
X10354630Y-10863900D02*
X10394630Y-10903900D01*
X10394630Y-10863900D02*
X10354630Y-10903900D01*
X10581960Y-6708460D02*
X10621960Y-6748460D01*
X10621960Y-6708460D02*
X10581960Y-6748460D01*
X10581960Y-11349040D02*
X10621960Y-11389040D01*
X10621960Y-11349040D02*
X10581960Y-11389040D01*
X10581960Y-13312460D02*
X10621960Y-13352460D01*
X10621960Y-13312460D02*
X10581960Y-13352460D01*
X10688640Y-11349040D02*
X10728640Y-11389040D01*
X10728640Y-11349040D02*
X10688640Y-11389040D01*
X10747060Y-9847900D02*
X10787060Y-9887900D01*
X10787060Y-9847900D02*
X10747060Y-9887900D01*
X10790240Y-11349040D02*
X10830240Y-11389040D01*
X10830240Y-11349040D02*
X10790240Y-11389040D01*
X10802940Y-9743760D02*
X10842940Y-9783760D01*
X10842940Y-9743760D02*
X10802940Y-9783760D01*
X10820720Y-9413560D02*
X10860720Y-9453560D01*
X10860720Y-9413560D02*
X10820720Y-9453560D01*
X10820720Y-9515160D02*
X10860720Y-9555160D01*
X10860720Y-9515160D02*
X10820720Y-9555160D01*
X10823260Y-9624380D02*
X10863260Y-9664380D01*
X10863260Y-9624380D02*
X10823260Y-9664380D01*
X10830880Y-10429560D02*
X10870880Y-10469560D01*
X10870880Y-10429560D02*
X10830880Y-10469560D01*
X10835960Y-6708460D02*
X10875960Y-6748460D01*
X10875960Y-6708460D02*
X10835960Y-6748460D01*
X10835960Y-13312460D02*
X10875960Y-13352460D01*
X10875960Y-13312460D02*
X10835960Y-13352460D01*
X10891840Y-10505760D02*
X10931840Y-10545760D01*
X10931840Y-10505760D02*
X10891840Y-10545760D01*
X10891840Y-11349040D02*
X10931840Y-11389040D01*
X10931840Y-11349040D02*
X10891840Y-11389040D01*
X10896920Y-10597200D02*
X10936920Y-10637200D01*
X10936920Y-10597200D02*
X10896920Y-10637200D01*
X10896920Y-10693720D02*
X10936920Y-10733720D01*
X10936920Y-10693720D02*
X10896920Y-10733720D01*
X10896920Y-10785160D02*
X10936920Y-10825160D01*
X10936920Y-10785160D02*
X10896920Y-10825160D01*
X10896920Y-10876600D02*
X10936920Y-10916600D01*
X10936920Y-10876600D02*
X10896920Y-10916600D01*
X10988360Y-11349040D02*
X11028360Y-11389040D01*
X11028360Y-11349040D02*
X10988360Y-11389040D01*
X11003600Y-10470200D02*
X11043600Y-10510200D01*
X11043600Y-10470200D02*
X11003600Y-10510200D01*
X11084880Y-11349040D02*
X11124880Y-11389040D01*
X11124880Y-11349040D02*
X11084880Y-11389040D01*
X11089960Y-6708460D02*
X11129960Y-6748460D01*
X11129960Y-6708460D02*
X11089960Y-6748460D01*
X11089960Y-13312460D02*
X11129960Y-13352460D01*
X11129960Y-13312460D02*
X11089960Y-13352460D01*
X11130600Y-10439720D02*
X11170600Y-10479720D01*
X11170600Y-10439720D02*
X11130600Y-10479720D01*
X11343960Y-6708460D02*
X11383960Y-6748460D01*
X11383960Y-6708460D02*
X11343960Y-6748460D01*
X11343960Y-13312460D02*
X11383960Y-13352460D01*
X11383960Y-13312460D02*
X11343960Y-13352460D01*
X11597960Y-6708460D02*
X11637960Y-6748460D01*
X11637960Y-6708460D02*
X11597960Y-6748460D01*
X11597960Y-13312460D02*
X11637960Y-13352460D01*
X11637960Y-13312460D02*
X11597960Y-13352460D01*
X11633520Y-11460800D02*
X11673520Y-11500800D01*
X11673520Y-11460800D02*
X11633520Y-11500800D01*
X11724960Y-11460800D02*
X11764960Y-11500800D01*
X11764960Y-11460800D02*
X11724960Y-11500800D01*
X11811320Y-11460800D02*
X11851320Y-11500800D01*
X11851320Y-11460800D02*
X11811320Y-11500800D01*
X11851960Y-6708460D02*
X11891960Y-6748460D01*
X11891960Y-6708460D02*
X11851960Y-6748460D01*
X11851960Y-13312460D02*
X11891960Y-13352460D01*
X11891960Y-13312460D02*
X11851960Y-13352460D01*
X11897680Y-11460800D02*
X11937680Y-11500800D01*
X11937680Y-11460800D02*
X11897680Y-11500800D01*
X11984040Y-11460800D02*
X12024040Y-11500800D01*
X12024040Y-11460800D02*
X11984040Y-11500800D01*
X12070400Y-11460800D02*
X12110400Y-11500800D01*
X12110400Y-11460800D02*
X12070400Y-11500800D01*
X12105960Y-6708460D02*
X12145960Y-6748460D01*
X12145960Y-6708460D02*
X12105960Y-6748460D01*
X12105960Y-13312460D02*
X12145960Y-13352460D01*
X12145960Y-13312460D02*
X12105960Y-13352460D01*
X12359960Y-6708460D02*
X12399960Y-6748460D01*
X12399960Y-6708460D02*
X12359960Y-6748460D01*
X12359960Y-13312460D02*
X12399960Y-13352460D01*
X12399960Y-13312460D02*
X12359960Y-13352460D01*
X12613960Y-6708460D02*
X12653960Y-6748460D01*
X12653960Y-6708460D02*
X12613960Y-6748460D01*
X12613960Y-13312460D02*
X12653960Y-13352460D01*
X12653960Y-13312460D02*
X12613960Y-13352460D01*
X12867960Y-6708460D02*
X12907960Y-6748460D01*
X12907960Y-6708460D02*
X12867960Y-6748460D01*
X12867960Y-13312460D02*
X12907960Y-13352460D01*
X12907960Y-13312460D02*
X12867960Y-13352460D01*
X13121960Y-6708460D02*
X13161960Y-6748460D01*
X13161960Y-6708460D02*
X13121960Y-6748460D01*
X13121960Y-13312460D02*
X13161960Y-13352460D01*
X13161960Y-13312460D02*
X13121960Y-13352460D01*
X13375960Y-6708460D02*
X13415960Y-6748460D01*
X13415960Y-6708460D02*
X13375960Y-6748460D01*
X13375960Y-13312460D02*
X13415960Y-13352460D01*
X13415960Y-13312460D02*
X13375960Y-13352460D01*
X13629960Y-6708460D02*
X13669960Y-6748460D01*
X13669960Y-6708460D02*
X13629960Y-6748460D01*
X13629960Y-13312460D02*
X13669960Y-13352460D01*
X13669960Y-13312460D02*
X13629960Y-13352460D01*
X13883960Y-6708460D02*
X13923960Y-6748460D01*
X13923960Y-6708460D02*
X13883960Y-6748460D01*
X13883960Y-13312460D02*
X13923960Y-13352460D01*
X13923960Y-13312460D02*
X13883960Y-13352460D01*
X14137960Y-6708460D02*
X14177960Y-6748460D01*
X14177960Y-6708460D02*
X14137960Y-6748460D01*
X14137960Y-13312460D02*
X14177960Y-13352460D01*
X14177960Y-13312460D02*
X14137960Y-13352460D01*
X14391960Y-6708460D02*
X14431960Y-6748460D01*
X14431960Y-6708460D02*
X14391960Y-6748460D01*
X14391960Y-13312460D02*
X14431960Y-13352460D01*
X14431960Y-13312460D02*
X14391960Y-13352460D01*
X14645960Y-6708460D02*
X14685960Y-6748460D01*
X14685960Y-6708460D02*
X14645960Y-6748460D01*
X14645960Y-13312460D02*
X14685960Y-13352460D01*
X14685960Y-13312460D02*
X14645960Y-13352460D01*
X14899960Y-6708460D02*
X14939960Y-6748460D01*
X14939960Y-6708460D02*
X14899960Y-6748460D01*
X14899960Y-13312460D02*
X14939960Y-13352460D01*
X14939960Y-13312460D02*
X14899960Y-13352460D01*
X15153960Y-6708460D02*
X15193960Y-6748460D01*
X15193960Y-6708460D02*
X15153960Y-6748460D01*
X15153960Y-13312460D02*
X15193960Y-13352460D01*
X15193960Y-13312460D02*
X15153960Y-13352460D01*
X15407960Y-6708460D02*
X15447960Y-6748460D01*
X15447960Y-6708460D02*
X15407960Y-6748460D01*
X15407960Y-13312460D02*
X15447960Y-13352460D01*
X15447960Y-13312460D02*
X15407960Y-13352460D01*
X15458760Y-10267000D02*
X15498760Y-10307000D01*
X15498760Y-10267000D02*
X15458760Y-10307000D01*
X15661960Y-6708460D02*
X15701960Y-6748460D01*
X15701960Y-6708460D02*
X15661960Y-6748460D01*
X15661960Y-13312460D02*
X15701960Y-13352460D01*
X15701960Y-13312460D02*
X15661960Y-13352460D01*
X15915960Y-6708460D02*
X15955960Y-6748460D01*
X15955960Y-6708460D02*
X15915960Y-6748460D01*
X15915960Y-13312460D02*
X15955960Y-13352460D01*
X15955960Y-13312460D02*
X15915960Y-13352460D01*
X16063280Y-10010460D02*
X16103280Y-10050460D01*
X16103280Y-10010460D02*
X16063280Y-10050460D01*
X16063280Y-10112060D02*
X16103280Y-10152060D01*
X16103280Y-10112060D02*
X16063280Y-10152060D01*
X16063280Y-10208580D02*
X16103280Y-10248580D01*
X16103280Y-10208580D02*
X16063280Y-10248580D01*
X16063280Y-10305100D02*
X16103280Y-10345100D01*
X16103280Y-10305100D02*
X16063280Y-10345100D01*
X16169960Y-6708460D02*
X16209960Y-6748460D01*
X16209960Y-6708460D02*
X16169960Y-6748460D01*
X16169960Y-13312460D02*
X16209960Y-13352460D01*
X16209960Y-13312460D02*
X16169960Y-13352460D01*
X16368080Y-9700580D02*
X16408080Y-9740580D01*
X16408080Y-9700580D02*
X16368080Y-9740580D01*
X16423960Y-6708460D02*
X16463960Y-6748460D01*
X16463960Y-6708460D02*
X16423960Y-6748460D01*
X16423960Y-13312460D02*
X16463960Y-13352460D01*
X16463960Y-13312460D02*
X16423960Y-13352460D01*
X16464600Y-9700580D02*
X16504600Y-9740580D01*
X16504600Y-9700580D02*
X16464600Y-9740580D01*
X16561120Y-9700580D02*
X16601120Y-9740580D01*
X16601120Y-9700580D02*
X16561120Y-9740580D01*
X16657640Y-9700580D02*
X16697640Y-9740580D01*
X16697640Y-9700580D02*
X16657640Y-9740580D01*
X16677960Y-6708460D02*
X16717960Y-6748460D01*
X16717960Y-6708460D02*
X16677960Y-6748460D01*
X16677960Y-13312460D02*
X16717960Y-13352460D01*
X16717960Y-13312460D02*
X16677960Y-13352460D01*
X16759240Y-9700580D02*
X16799240Y-9740580D01*
X16799240Y-9700580D02*
X16759240Y-9740580D01*
X16860840Y-9700580D02*
X16900840Y-9740580D01*
X16900840Y-9700580D02*
X16860840Y-9740580D01*
X16931960Y-6708460D02*
X16971960Y-6748460D01*
X16971960Y-6708460D02*
X16931960Y-6748460D01*
X16931960Y-13312460D02*
X16971960Y-13352460D01*
X16971960Y-13312460D02*
X16931960Y-13352460D01*
X17185960Y-6708460D02*
X17225960Y-6748460D01*
X17225960Y-6708460D02*
X17185960Y-6748460D01*
X17185960Y-13312460D02*
X17225960Y-13352460D01*
X17225960Y-13312460D02*
X17185960Y-13352460D01*
X17439960Y-6708460D02*
X17479960Y-6748460D01*
X17479960Y-6708460D02*
X17439960Y-6748460D01*
X17439960Y-13312460D02*
X17479960Y-13352460D01*
X17479960Y-13312460D02*
X17439960Y-13352460D01*
X17693960Y-6708460D02*
X17733960Y-6748460D01*
X17733960Y-6708460D02*
X17693960Y-6748460D01*
X17693960Y-13312460D02*
X17733960Y-13352460D01*
X17733960Y-13312460D02*
X17693960Y-13352460D01*
X17947960Y-6708460D02*
X17987960Y-6748460D01*
X17987960Y-6708460D02*
X17947960Y-6748460D01*
X17947960Y-6962460D02*
X17987960Y-7002460D01*
X17987960Y-6962460D02*
X17947960Y-7002460D01*
X17947960Y-7216460D02*
X17987960Y-7256460D01*
X17987960Y-7216460D02*
X17947960Y-7256460D01*
X17947960Y-7470460D02*
X17987960Y-7510460D01*
X17987960Y-7470460D02*
X17947960Y-7510460D01*
X17947960Y-7724460D02*
X17987960Y-7764460D01*
X17987960Y-7724460D02*
X17947960Y-7764460D01*
X17947960Y-7978460D02*
X17987960Y-8018460D01*
X17987960Y-7978460D02*
X17947960Y-8018460D01*
X17947960Y-8232460D02*
X17987960Y-8272460D01*
X17987960Y-8232460D02*
X17947960Y-8272460D01*
X17947960Y-8486460D02*
X17987960Y-8526460D01*
X17987960Y-8486460D02*
X17947960Y-8526460D01*
X17947960Y-8740460D02*
X17987960Y-8780460D01*
X17987960Y-8740460D02*
X17947960Y-8780460D01*
X17947960Y-8994460D02*
X17987960Y-9034460D01*
X17987960Y-8994460D02*
X17947960Y-9034460D01*
X17947960Y-9248460D02*
X17987960Y-9288460D01*
X17987960Y-9248460D02*
X17947960Y-9288460D01*
X17947960Y-9502460D02*
X17987960Y-9542460D01*
X17987960Y-9502460D02*
X17947960Y-9542460D01*
X17947960Y-9756460D02*
X17987960Y-9796460D01*
X17987960Y-9756460D02*
X17947960Y-9796460D01*
X17947960Y-10010460D02*
X17987960Y-10050460D01*
X17987960Y-10010460D02*
X17947960Y-10050460D01*
X17947960Y-10264460D02*
X17987960Y-10304460D01*
X17987960Y-10264460D02*
X17947960Y-10304460D01*
X17947960Y-10518460D02*
X17987960Y-10558460D01*
X17987960Y-10518460D02*
X17947960Y-10558460D01*
X17947960Y-10772460D02*
X17987960Y-10812460D01*
X17987960Y-10772460D02*
X17947960Y-10812460D01*
X17947960Y-11026460D02*
X17987960Y-11066460D01*
X17987960Y-11026460D02*
X17947960Y-11066460D01*
X17947960Y-11280460D02*
X17987960Y-11320460D01*
X17987960Y-11280460D02*
X17947960Y-11320460D01*
X17947960Y-11534460D02*
X17987960Y-11574460D01*
X17987960Y-11534460D02*
X17947960Y-11574460D01*
X17947960Y-11788460D02*
X17987960Y-11828460D01*
X17987960Y-11788460D02*
X17947960Y-11828460D01*
X17947960Y-12042460D02*
X17987960Y-12082460D01*
X17987960Y-12042460D02*
X17947960Y-12082460D01*
X17947960Y-12296460D02*
X17987960Y-12336460D01*
X17987960Y-12296460D02*
X17947960Y-12336460D01*
X17947960Y-12550460D02*
X17987960Y-12590460D01*
X17987960Y-12550460D02*
X17947960Y-12590460D01*
X17947960Y-12804460D02*
X17987960Y-12844460D01*
X17987960Y-12804460D02*
X17947960Y-12844460D01*
X17947960Y-13058460D02*
X17987960Y-13098460D01*
X17987960Y-13058460D02*
X17947960Y-13098460D01*
X17947960Y-13312460D02*
X17987960Y-13352460D01*
X17987960Y-13312460D02*
X17947960Y-13352460D01*
X7529782Y-11113187D02*
G75*
G03X7529782Y-11113187I-44500J0D01*
G01*
X7573889Y-11363328D02*
G75*
G03X7573889Y-11363328I-44500J0D01*
G01*
X7485676Y-9228354D02*
G75*
G03X7485676Y-9228354I-44500J0D01*
G01*
X7529782Y-8978213D02*
G75*
G03X7529782Y-8978213I-44500J0D01*
G01*
X16618000Y-7937500D02*
G75*
G03X16618000Y-7937500I-44500J0D01*
G01*
X16618000Y-8191500D02*
G75*
G03X16618000Y-8191500I-44500J0D01*
G01*
X16618000Y-11557000D02*
G75*
G03X16618000Y-11557000I-44500J0D01*
G01*
X16618000Y-11811000D02*
G75*
G03X16618000Y-11811000I-44500J0D01*
G01*
X13081000Y-9480000D02*
X13081000Y-9570000D01*
X13036000Y-9525000D02*
X13126000Y-9525000D01*
X13081000Y-9734000D02*
X13081000Y-9824000D01*
X13036000Y-9779000D02*
X13126000Y-9779000D01*
X13081000Y-9988000D02*
X13081000Y-10078000D01*
X13036000Y-10033000D02*
X13126000Y-10033000D01*
X13081000Y-10242000D02*
X13081000Y-10332000D01*
X13036000Y-10287000D02*
X13126000Y-10287000D01*
X13081000Y-10496000D02*
X13081000Y-10586000D01*
X13036000Y-10541000D02*
X13126000Y-10541000D01*
X13081000Y-10750000D02*
X13081000Y-10840000D01*
X13036000Y-10795000D02*
X13126000Y-10795000D01*
X13081000Y-11004000D02*
X13081000Y-11094000D01*
X13036000Y-11049000D02*
X13126000Y-11049000D01*
X13843000Y-9480000D02*
X13843000Y-9570000D01*
X13798000Y-9525000D02*
X13888000Y-9525000D01*
X13843000Y-9734000D02*
X13843000Y-9824000D01*
X13798000Y-9779000D02*
X13888000Y-9779000D01*
X13843000Y-9988000D02*
X13843000Y-10078000D01*
X13798000Y-10033000D02*
X13888000Y-10033000D01*
X13843000Y-10242000D02*
X13843000Y-10332000D01*
X13798000Y-10287000D02*
X13888000Y-10287000D01*
X13843000Y-10496000D02*
X13843000Y-10586000D01*
X13798000Y-10541000D02*
X13888000Y-10541000D01*
X13843000Y-10750000D02*
X13843000Y-10840000D01*
X13798000Y-10795000D02*
X13888000Y-10795000D01*
X13843000Y-11004000D02*
X13843000Y-11094000D01*
X13798000Y-11049000D02*
X13888000Y-11049000D01*
X11994569Y-9010069D02*
X11994569Y-8896931D01*
X11881431Y-8896931D01*
X11881431Y-9010069D01*
X11994569Y-9010069D01*
X8770989Y-13175669D02*
X8770989Y-13062531D01*
X8657851Y-13062531D01*
X8657851Y-13175669D01*
X8770989Y-13175669D01*
X11270989Y-13175669D02*
X11270989Y-13062531D01*
X11157851Y-13062531D01*
X11157851Y-13175669D01*
X11270989Y-13175669D01*
X6894817Y-10801965D02*
X6995317Y-10701465D01*
X6894817Y-10600965D01*
X6794317Y-10701465D01*
X6894817Y-10801965D01*
X7073213Y-11802182D02*
X7173713Y-11701682D01*
X7073213Y-11601182D01*
X6972713Y-11701682D01*
X7073213Y-11802182D01*
X6896787Y-9490782D02*
X6997287Y-9390282D01*
X6896787Y-9289782D01*
X6796287Y-9390282D01*
X6896787Y-9490782D01*
X7071244Y-8489870D02*
X7171744Y-8389370D01*
X7071244Y-8288870D01*
X6970744Y-8389370D01*
X7071244Y-8489870D01*
X17081500Y-7784000D02*
X17182000Y-7683500D01*
X17081500Y-7583000D01*
X16981000Y-7683500D01*
X17081500Y-7784000D01*
X17083500Y-8800000D02*
X17184000Y-8699500D01*
X17083500Y-8599000D01*
X16983000Y-8699500D01*
X17083500Y-8800000D01*
X17081500Y-11403500D02*
X17182000Y-11303000D01*
X17081500Y-11202500D01*
X16981000Y-11303000D01*
X17081500Y-11403500D01*
X17083500Y-12419500D02*
X17184000Y-12319000D01*
X17083500Y-12218500D01*
X16983000Y-12319000D01*
X17083500Y-12419500D01*
X10776000Y-7413040D02*
X11195000Y-7832040D01*
X11195000Y-7413040D02*
X10776000Y-7832040D01*
X11195000Y-7622540D02*
G75*
G03X11195000Y-7622540I-209500J0D01*
G01*
X8998000Y-7402880D02*
X9417000Y-7821880D01*
X9417000Y-7402880D02*
X8998000Y-7821880D01*
X9417000Y-7612380D02*
G75*
G03X9417000Y-7612380I-209500J0D01*
G01*
X12617500Y-7410500D02*
X13036500Y-7829500D01*
X13036500Y-7410500D02*
X12617500Y-7829500D01*
X13036500Y-7620000D02*
G75*
G03X13036500Y-7620000I-209500J0D01*
G01*
D12*
X6120928Y-13960614D02*
X6120928Y-13660614D01*
X6192357Y-13660614D01*
X6235214Y-13674900D01*
X6263785Y-13703471D01*
X6278071Y-13732043D01*
X6292357Y-13789186D01*
X6292357Y-13832043D01*
X6278071Y-13889186D01*
X6263785Y-13917757D01*
X6235214Y-13946329D01*
X6192357Y-13960614D01*
X6120928Y-13960614D01*
X6420928Y-13960614D02*
X6420928Y-13760614D01*
X6420928Y-13817757D02*
X6435214Y-13789186D01*
X6449500Y-13774900D01*
X6478071Y-13760614D01*
X6506642Y-13760614D01*
X6606642Y-13960614D02*
X6606642Y-13760614D01*
X6606642Y-13660614D02*
X6592357Y-13674900D01*
X6606642Y-13689186D01*
X6620928Y-13674900D01*
X6606642Y-13660614D01*
X6606642Y-13689186D01*
X6792357Y-13960614D02*
X6763785Y-13946329D01*
X6749500Y-13917757D01*
X6749500Y-13660614D01*
X6949500Y-13960614D02*
X6920928Y-13946329D01*
X6906642Y-13917757D01*
X6906642Y-13660614D01*
X7292357Y-13960614D02*
X7292357Y-13660614D01*
X7392357Y-13874900D01*
X7492357Y-13660614D01*
X7492357Y-13960614D01*
X7763785Y-13960614D02*
X7763785Y-13803471D01*
X7749500Y-13774900D01*
X7720928Y-13760614D01*
X7663785Y-13760614D01*
X7635214Y-13774900D01*
X7763785Y-13946329D02*
X7735214Y-13960614D01*
X7663785Y-13960614D01*
X7635214Y-13946329D01*
X7620928Y-13917757D01*
X7620928Y-13889186D01*
X7635214Y-13860614D01*
X7663785Y-13846329D01*
X7735214Y-13846329D01*
X7763785Y-13832043D01*
X7906642Y-13760614D02*
X7906642Y-14060614D01*
X7906642Y-13774900D02*
X7935214Y-13760614D01*
X7992357Y-13760614D01*
X8020928Y-13774900D01*
X8035214Y-13789186D01*
X8049500Y-13817757D01*
X8049500Y-13903471D01*
X8035214Y-13932043D01*
X8020928Y-13946329D01*
X7992357Y-13960614D01*
X7935214Y-13960614D01*
X7906642Y-13946329D01*
X8178071Y-13932043D02*
X8192357Y-13946329D01*
X8178071Y-13960614D01*
X8163785Y-13946329D01*
X8178071Y-13932043D01*
X8178071Y-13960614D01*
X8178071Y-13774900D02*
X8192357Y-13789186D01*
X8178071Y-13803471D01*
X8163785Y-13789186D01*
X8178071Y-13774900D01*
X8178071Y-13803471D01*
X5794500Y-14434900D02*
X5834500Y-14474900D01*
X5834500Y-14434900D02*
X5794500Y-14474900D01*
X6178071Y-14290614D02*
X6206642Y-14290614D01*
X6235214Y-14304900D01*
X6249500Y-14319186D01*
X6263785Y-14347757D01*
X6278071Y-14404900D01*
X6278071Y-14476329D01*
X6263785Y-14533471D01*
X6249500Y-14562043D01*
X6235214Y-14576329D01*
X6206642Y-14590614D01*
X6178071Y-14590614D01*
X6149500Y-14576329D01*
X6135214Y-14562043D01*
X6120928Y-14533471D01*
X6106642Y-14476329D01*
X6106642Y-14404900D01*
X6120928Y-14347757D01*
X6135214Y-14319186D01*
X6149500Y-14304900D01*
X6178071Y-14290614D01*
X6406642Y-14562043D02*
X6420928Y-14576329D01*
X6406642Y-14590614D01*
X6392357Y-14576329D01*
X6406642Y-14562043D01*
X6406642Y-14590614D01*
X6678071Y-14390614D02*
X6678071Y-14590614D01*
X6606642Y-14276329D02*
X6535214Y-14490614D01*
X6720928Y-14490614D01*
X6892357Y-14290614D02*
X6920928Y-14290614D01*
X6949500Y-14304900D01*
X6963785Y-14319186D01*
X6978071Y-14347757D01*
X6992357Y-14404900D01*
X6992357Y-14476329D01*
X6978071Y-14533471D01*
X6963785Y-14562043D01*
X6949500Y-14576329D01*
X6920928Y-14590614D01*
X6892357Y-14590614D01*
X6863785Y-14576329D01*
X6849500Y-14562043D01*
X6835214Y-14533471D01*
X6820928Y-14476329D01*
X6820928Y-14404900D01*
X6835214Y-14347757D01*
X6849500Y-14319186D01*
X6863785Y-14304900D01*
X6892357Y-14290614D01*
X7120928Y-14590614D02*
X7120928Y-14390614D01*
X7120928Y-14419186D02*
X7135214Y-14404900D01*
X7163785Y-14390614D01*
X7206642Y-14390614D01*
X7235214Y-14404900D01*
X7249500Y-14433471D01*
X7249500Y-14590614D01*
X7249500Y-14433471D02*
X7263785Y-14404900D01*
X7292357Y-14390614D01*
X7335214Y-14390614D01*
X7363785Y-14404900D01*
X7378071Y-14433471D01*
X7378071Y-14590614D01*
X7520928Y-14590614D02*
X7520928Y-14390614D01*
X7520928Y-14419186D02*
X7535214Y-14404900D01*
X7563785Y-14390614D01*
X7606642Y-14390614D01*
X7635214Y-14404900D01*
X7649500Y-14433471D01*
X7649500Y-14590614D01*
X7649500Y-14433471D02*
X7663785Y-14404900D01*
X7692357Y-14390614D01*
X7735214Y-14390614D01*
X7763785Y-14404900D01*
X7778071Y-14433471D01*
X7778071Y-14590614D01*
X8363785Y-14276329D02*
X8106642Y-14662043D01*
X8749500Y-14290614D02*
X8778071Y-14290614D01*
X8806642Y-14304900D01*
X8820928Y-14319186D01*
X8835214Y-14347757D01*
X8849500Y-14404900D01*
X8849500Y-14476329D01*
X8835214Y-14533471D01*
X8820928Y-14562043D01*
X8806642Y-14576329D01*
X8778071Y-14590614D01*
X8749500Y-14590614D01*
X8720928Y-14576329D01*
X8706642Y-14562043D01*
X8692357Y-14533471D01*
X8678071Y-14476329D01*
X8678071Y-14404900D01*
X8692357Y-14347757D01*
X8706642Y-14319186D01*
X8720928Y-14304900D01*
X8749500Y-14290614D01*
X8978071Y-14562043D02*
X8992357Y-14576329D01*
X8978071Y-14590614D01*
X8963785Y-14576329D01*
X8978071Y-14562043D01*
X8978071Y-14590614D01*
X9178071Y-14290614D02*
X9206642Y-14290614D01*
X9235214Y-14304900D01*
X9249500Y-14319186D01*
X9263785Y-14347757D01*
X9278071Y-14404900D01*
X9278071Y-14476329D01*
X9263785Y-14533471D01*
X9249500Y-14562043D01*
X9235214Y-14576329D01*
X9206642Y-14590614D01*
X9178071Y-14590614D01*
X9149500Y-14576329D01*
X9135214Y-14562043D01*
X9120928Y-14533471D01*
X9106642Y-14476329D01*
X9106642Y-14404900D01*
X9120928Y-14347757D01*
X9135214Y-14319186D01*
X9149500Y-14304900D01*
X9178071Y-14290614D01*
X9563785Y-14590614D02*
X9392357Y-14590614D01*
X9478071Y-14590614D02*
X9478071Y-14290614D01*
X9449500Y-14333471D01*
X9420928Y-14362043D01*
X9392357Y-14376329D01*
X9820928Y-14290614D02*
X9763785Y-14290614D01*
X9735214Y-14304900D01*
X9720928Y-14319186D01*
X9692357Y-14362043D01*
X9678071Y-14419186D01*
X9678071Y-14533471D01*
X9692357Y-14562043D01*
X9706642Y-14576329D01*
X9735214Y-14590614D01*
X9792357Y-14590614D01*
X9820928Y-14576329D01*
X9835214Y-14562043D01*
X9849500Y-14533471D01*
X9849500Y-14462043D01*
X9835214Y-14433471D01*
X9820928Y-14419186D01*
X9792357Y-14404900D01*
X9735214Y-14404900D01*
X9706642Y-14419186D01*
X9692357Y-14433471D01*
X9678071Y-14462043D01*
X9963785Y-14290614D02*
X9963785Y-14347757D01*
X10078071Y-14290614D02*
X10078071Y-14347757D01*
X10520928Y-14704900D02*
X10506642Y-14690614D01*
X10478071Y-14647757D01*
X10463785Y-14619186D01*
X10449500Y-14576329D01*
X10435214Y-14504900D01*
X10435214Y-14447757D01*
X10449500Y-14376329D01*
X10463785Y-14333471D01*
X10478071Y-14304900D01*
X10506642Y-14262043D01*
X10520928Y-14247757D01*
X10792357Y-14590614D02*
X10620928Y-14590614D01*
X10706642Y-14590614D02*
X10706642Y-14290614D01*
X10678071Y-14333471D01*
X10649500Y-14362043D01*
X10620928Y-14376329D01*
X11063785Y-14290614D02*
X10920928Y-14290614D01*
X10906642Y-14433471D01*
X10920928Y-14419186D01*
X10949500Y-14404900D01*
X11020928Y-14404900D01*
X11049500Y-14419186D01*
X11063785Y-14433471D01*
X11078071Y-14462043D01*
X11078071Y-14533471D01*
X11063785Y-14562043D01*
X11049500Y-14576329D01*
X11020928Y-14590614D01*
X10949500Y-14590614D01*
X10920928Y-14576329D01*
X10906642Y-14562043D01*
X11249500Y-14419186D02*
X11220928Y-14404900D01*
X11206642Y-14390614D01*
X11192357Y-14362043D01*
X11192357Y-14347757D01*
X11206642Y-14319186D01*
X11220928Y-14304900D01*
X11249500Y-14290614D01*
X11306642Y-14290614D01*
X11335214Y-14304900D01*
X11349500Y-14319186D01*
X11363785Y-14347757D01*
X11363785Y-14362043D01*
X11349500Y-14390614D01*
X11335214Y-14404900D01*
X11306642Y-14419186D01*
X11249500Y-14419186D01*
X11220928Y-14433471D01*
X11206642Y-14447757D01*
X11192357Y-14476329D01*
X11192357Y-14533471D01*
X11206642Y-14562043D01*
X11220928Y-14576329D01*
X11249500Y-14590614D01*
X11306642Y-14590614D01*
X11335214Y-14576329D01*
X11349500Y-14562043D01*
X11363785Y-14533471D01*
X11363785Y-14476329D01*
X11349500Y-14447757D01*
X11335214Y-14433471D01*
X11306642Y-14419186D01*
X11720928Y-14590614D02*
X11720928Y-14290614D01*
X11849500Y-14590614D02*
X11849500Y-14433471D01*
X11835214Y-14404900D01*
X11806642Y-14390614D01*
X11763785Y-14390614D01*
X11735214Y-14404900D01*
X11720928Y-14419186D01*
X12035214Y-14590614D02*
X12006642Y-14576329D01*
X11992357Y-14562043D01*
X11978071Y-14533471D01*
X11978071Y-14447757D01*
X11992357Y-14419186D01*
X12006642Y-14404900D01*
X12035214Y-14390614D01*
X12078071Y-14390614D01*
X12106642Y-14404900D01*
X12120928Y-14419186D01*
X12135214Y-14447757D01*
X12135214Y-14533471D01*
X12120928Y-14562043D01*
X12106642Y-14576329D01*
X12078071Y-14590614D01*
X12035214Y-14590614D01*
X12306642Y-14590614D02*
X12278071Y-14576329D01*
X12263785Y-14547757D01*
X12263785Y-14290614D01*
X12535214Y-14576329D02*
X12506642Y-14590614D01*
X12449500Y-14590614D01*
X12420928Y-14576329D01*
X12406642Y-14547757D01*
X12406642Y-14433471D01*
X12420928Y-14404900D01*
X12449500Y-14390614D01*
X12506642Y-14390614D01*
X12535214Y-14404900D01*
X12549500Y-14433471D01*
X12549500Y-14462043D01*
X12406642Y-14490614D01*
X12663785Y-14576329D02*
X12692357Y-14590614D01*
X12749500Y-14590614D01*
X12778071Y-14576329D01*
X12792357Y-14547757D01*
X12792357Y-14533471D01*
X12778071Y-14504900D01*
X12749500Y-14490614D01*
X12706642Y-14490614D01*
X12678071Y-14476329D01*
X12663785Y-14447757D01*
X12663785Y-14433471D01*
X12678071Y-14404900D01*
X12706642Y-14390614D01*
X12749500Y-14390614D01*
X12778071Y-14404900D01*
X12892357Y-14704900D02*
X12906642Y-14690614D01*
X12935214Y-14647757D01*
X12949500Y-14619186D01*
X12963785Y-14576329D01*
X12978071Y-14504900D01*
X12978071Y-14447757D01*
X12963785Y-14376329D01*
X12949500Y-14333471D01*
X12935214Y-14304900D01*
X12906642Y-14262043D01*
X12892357Y-14247757D01*
X5834500Y-14850900D02*
G75*
G03X5834500Y-14850900I-44500J0D01*
G01*
X6178071Y-14686614D02*
X6206642Y-14686614D01*
X6235214Y-14700900D01*
X6249500Y-14715186D01*
X6263785Y-14743757D01*
X6278071Y-14800900D01*
X6278071Y-14872329D01*
X6263785Y-14929471D01*
X6249500Y-14958043D01*
X6235214Y-14972329D01*
X6206642Y-14986614D01*
X6178071Y-14986614D01*
X6149500Y-14972329D01*
X6135214Y-14958043D01*
X6120928Y-14929471D01*
X6106642Y-14872329D01*
X6106642Y-14800900D01*
X6120928Y-14743757D01*
X6135214Y-14715186D01*
X6149500Y-14700900D01*
X6178071Y-14686614D01*
X6406642Y-14958043D02*
X6420928Y-14972329D01*
X6406642Y-14986614D01*
X6392357Y-14972329D01*
X6406642Y-14958043D01*
X6406642Y-14986614D01*
X6592357Y-14815186D02*
X6563785Y-14800900D01*
X6549500Y-14786614D01*
X6535214Y-14758043D01*
X6535214Y-14743757D01*
X6549500Y-14715186D01*
X6563785Y-14700900D01*
X6592357Y-14686614D01*
X6649500Y-14686614D01*
X6678071Y-14700900D01*
X6692357Y-14715186D01*
X6706642Y-14743757D01*
X6706642Y-14758043D01*
X6692357Y-14786614D01*
X6678071Y-14800900D01*
X6649500Y-14815186D01*
X6592357Y-14815186D01*
X6563785Y-14829471D01*
X6549500Y-14843757D01*
X6535214Y-14872329D01*
X6535214Y-14929471D01*
X6549500Y-14958043D01*
X6563785Y-14972329D01*
X6592357Y-14986614D01*
X6649500Y-14986614D01*
X6678071Y-14972329D01*
X6692357Y-14958043D01*
X6706642Y-14929471D01*
X6706642Y-14872329D01*
X6692357Y-14843757D01*
X6678071Y-14829471D01*
X6649500Y-14815186D01*
X6849500Y-14986614D02*
X6906642Y-14986614D01*
X6935214Y-14972329D01*
X6949500Y-14958043D01*
X6978071Y-14915186D01*
X6992357Y-14858043D01*
X6992357Y-14743757D01*
X6978071Y-14715186D01*
X6963785Y-14700900D01*
X6935214Y-14686614D01*
X6878071Y-14686614D01*
X6849500Y-14700900D01*
X6835214Y-14715186D01*
X6820928Y-14743757D01*
X6820928Y-14815186D01*
X6835214Y-14843757D01*
X6849500Y-14858043D01*
X6878071Y-14872329D01*
X6935214Y-14872329D01*
X6963785Y-14858043D01*
X6978071Y-14843757D01*
X6992357Y-14815186D01*
X7120928Y-14986614D02*
X7120928Y-14786614D01*
X7120928Y-14815186D02*
X7135214Y-14800900D01*
X7163785Y-14786614D01*
X7206642Y-14786614D01*
X7235214Y-14800900D01*
X7249500Y-14829471D01*
X7249500Y-14986614D01*
X7249500Y-14829471D02*
X7263785Y-14800900D01*
X7292357Y-14786614D01*
X7335214Y-14786614D01*
X7363785Y-14800900D01*
X7378071Y-14829471D01*
X7378071Y-14986614D01*
X7520928Y-14986614D02*
X7520928Y-14786614D01*
X7520928Y-14815186D02*
X7535214Y-14800900D01*
X7563785Y-14786614D01*
X7606642Y-14786614D01*
X7635214Y-14800900D01*
X7649500Y-14829471D01*
X7649500Y-14986614D01*
X7649500Y-14829471D02*
X7663785Y-14800900D01*
X7692357Y-14786614D01*
X7735214Y-14786614D01*
X7763785Y-14800900D01*
X7778071Y-14829471D01*
X7778071Y-14986614D01*
X8363785Y-14672329D02*
X8106642Y-15058043D01*
X8749500Y-14686614D02*
X8778071Y-14686614D01*
X8806642Y-14700900D01*
X8820928Y-14715186D01*
X8835214Y-14743757D01*
X8849500Y-14800900D01*
X8849500Y-14872329D01*
X8835214Y-14929471D01*
X8820928Y-14958043D01*
X8806642Y-14972329D01*
X8778071Y-14986614D01*
X8749500Y-14986614D01*
X8720928Y-14972329D01*
X8706642Y-14958043D01*
X8692357Y-14929471D01*
X8678071Y-14872329D01*
X8678071Y-14800900D01*
X8692357Y-14743757D01*
X8706642Y-14715186D01*
X8720928Y-14700900D01*
X8749500Y-14686614D01*
X8978071Y-14958043D02*
X8992357Y-14972329D01*
X8978071Y-14986614D01*
X8963785Y-14972329D01*
X8978071Y-14958043D01*
X8978071Y-14986614D01*
X9178071Y-14686614D02*
X9206642Y-14686614D01*
X9235214Y-14700900D01*
X9249500Y-14715186D01*
X9263785Y-14743757D01*
X9278071Y-14800900D01*
X9278071Y-14872329D01*
X9263785Y-14929471D01*
X9249500Y-14958043D01*
X9235214Y-14972329D01*
X9206642Y-14986614D01*
X9178071Y-14986614D01*
X9149500Y-14972329D01*
X9135214Y-14958043D01*
X9120928Y-14929471D01*
X9106642Y-14872329D01*
X9106642Y-14800900D01*
X9120928Y-14743757D01*
X9135214Y-14715186D01*
X9149500Y-14700900D01*
X9178071Y-14686614D01*
X9378071Y-14686614D02*
X9563785Y-14686614D01*
X9463785Y-14800900D01*
X9506642Y-14800900D01*
X9535214Y-14815186D01*
X9549500Y-14829471D01*
X9563785Y-14858043D01*
X9563785Y-14929471D01*
X9549500Y-14958043D01*
X9535214Y-14972329D01*
X9506642Y-14986614D01*
X9420928Y-14986614D01*
X9392357Y-14972329D01*
X9378071Y-14958043D01*
X9835214Y-14686614D02*
X9692357Y-14686614D01*
X9678071Y-14829471D01*
X9692357Y-14815186D01*
X9720928Y-14800900D01*
X9792357Y-14800900D01*
X9820928Y-14815186D01*
X9835214Y-14829471D01*
X9849500Y-14858043D01*
X9849500Y-14929471D01*
X9835214Y-14958043D01*
X9820928Y-14972329D01*
X9792357Y-14986614D01*
X9720928Y-14986614D01*
X9692357Y-14972329D01*
X9678071Y-14958043D01*
X9963785Y-14686614D02*
X9963785Y-14743757D01*
X10078071Y-14686614D02*
X10078071Y-14743757D01*
X10520928Y-15100900D02*
X10506642Y-15086614D01*
X10478071Y-15043757D01*
X10463785Y-15015186D01*
X10449500Y-14972329D01*
X10435214Y-14900900D01*
X10435214Y-14843757D01*
X10449500Y-14772329D01*
X10463785Y-14729471D01*
X10478071Y-14700900D01*
X10506642Y-14658043D01*
X10520928Y-14643757D01*
X10678071Y-14815186D02*
X10649500Y-14800900D01*
X10635214Y-14786614D01*
X10620928Y-14758043D01*
X10620928Y-14743757D01*
X10635214Y-14715186D01*
X10649500Y-14700900D01*
X10678071Y-14686614D01*
X10735214Y-14686614D01*
X10763785Y-14700900D01*
X10778071Y-14715186D01*
X10792357Y-14743757D01*
X10792357Y-14758043D01*
X10778071Y-14786614D01*
X10763785Y-14800900D01*
X10735214Y-14815186D01*
X10678071Y-14815186D01*
X10649500Y-14829471D01*
X10635214Y-14843757D01*
X10620928Y-14872329D01*
X10620928Y-14929471D01*
X10635214Y-14958043D01*
X10649500Y-14972329D01*
X10678071Y-14986614D01*
X10735214Y-14986614D01*
X10763785Y-14972329D01*
X10778071Y-14958043D01*
X10792357Y-14929471D01*
X10792357Y-14872329D01*
X10778071Y-14843757D01*
X10763785Y-14829471D01*
X10735214Y-14815186D01*
X11149500Y-14986614D02*
X11149500Y-14686614D01*
X11278071Y-14986614D02*
X11278071Y-14829471D01*
X11263785Y-14800900D01*
X11235214Y-14786614D01*
X11192357Y-14786614D01*
X11163785Y-14800900D01*
X11149500Y-14815186D01*
X11463785Y-14986614D02*
X11435214Y-14972329D01*
X11420928Y-14958043D01*
X11406642Y-14929471D01*
X11406642Y-14843757D01*
X11420928Y-14815186D01*
X11435214Y-14800900D01*
X11463785Y-14786614D01*
X11506642Y-14786614D01*
X11535214Y-14800900D01*
X11549500Y-14815186D01*
X11563785Y-14843757D01*
X11563785Y-14929471D01*
X11549500Y-14958043D01*
X11535214Y-14972329D01*
X11506642Y-14986614D01*
X11463785Y-14986614D01*
X11735214Y-14986614D02*
X11706642Y-14972329D01*
X11692357Y-14943757D01*
X11692357Y-14686614D01*
X11963785Y-14972329D02*
X11935214Y-14986614D01*
X11878071Y-14986614D01*
X11849500Y-14972329D01*
X11835214Y-14943757D01*
X11835214Y-14829471D01*
X11849500Y-14800900D01*
X11878071Y-14786614D01*
X11935214Y-14786614D01*
X11963785Y-14800900D01*
X11978071Y-14829471D01*
X11978071Y-14858043D01*
X11835214Y-14886614D01*
X12092357Y-14972329D02*
X12120928Y-14986614D01*
X12178071Y-14986614D01*
X12206642Y-14972329D01*
X12220928Y-14943757D01*
X12220928Y-14929471D01*
X12206642Y-14900900D01*
X12178071Y-14886614D01*
X12135214Y-14886614D01*
X12106642Y-14872329D01*
X12092357Y-14843757D01*
X12092357Y-14829471D01*
X12106642Y-14800900D01*
X12135214Y-14786614D01*
X12178071Y-14786614D01*
X12206642Y-14800900D01*
X12320928Y-15100900D02*
X12335214Y-15086614D01*
X12363785Y-15043757D01*
X12378071Y-15015186D01*
X12392357Y-14972329D01*
X12406642Y-14900900D01*
X12406642Y-14843757D01*
X12392357Y-14772329D01*
X12378071Y-14729471D01*
X12363785Y-14700900D01*
X12335214Y-14658043D01*
X12320928Y-14643757D01*
X5789500Y-15201900D02*
X5789500Y-15291900D01*
X5744500Y-15246900D02*
X5834500Y-15246900D01*
X6178071Y-15082614D02*
X6206642Y-15082614D01*
X6235214Y-15096900D01*
X6249500Y-15111186D01*
X6263785Y-15139757D01*
X6278071Y-15196900D01*
X6278071Y-15268329D01*
X6263785Y-15325471D01*
X6249500Y-15354043D01*
X6235214Y-15368329D01*
X6206642Y-15382614D01*
X6178071Y-15382614D01*
X6149500Y-15368329D01*
X6135214Y-15354043D01*
X6120928Y-15325471D01*
X6106642Y-15268329D01*
X6106642Y-15196900D01*
X6120928Y-15139757D01*
X6135214Y-15111186D01*
X6149500Y-15096900D01*
X6178071Y-15082614D01*
X6406642Y-15354043D02*
X6420928Y-15368329D01*
X6406642Y-15382614D01*
X6392357Y-15368329D01*
X6406642Y-15354043D01*
X6406642Y-15382614D01*
X6563785Y-15382614D02*
X6620928Y-15382614D01*
X6649500Y-15368329D01*
X6663785Y-15354043D01*
X6692357Y-15311186D01*
X6706642Y-15254043D01*
X6706642Y-15139757D01*
X6692357Y-15111186D01*
X6678071Y-15096900D01*
X6649500Y-15082614D01*
X6592357Y-15082614D01*
X6563785Y-15096900D01*
X6549500Y-15111186D01*
X6535214Y-15139757D01*
X6535214Y-15211186D01*
X6549500Y-15239757D01*
X6563785Y-15254043D01*
X6592357Y-15268329D01*
X6649500Y-15268329D01*
X6678071Y-15254043D01*
X6692357Y-15239757D01*
X6706642Y-15211186D01*
X6892357Y-15082614D02*
X6920928Y-15082614D01*
X6949500Y-15096900D01*
X6963785Y-15111186D01*
X6978071Y-15139757D01*
X6992357Y-15196900D01*
X6992357Y-15268329D01*
X6978071Y-15325471D01*
X6963785Y-15354043D01*
X6949500Y-15368329D01*
X6920928Y-15382614D01*
X6892357Y-15382614D01*
X6863785Y-15368329D01*
X6849500Y-15354043D01*
X6835214Y-15325471D01*
X6820928Y-15268329D01*
X6820928Y-15196900D01*
X6835214Y-15139757D01*
X6849500Y-15111186D01*
X6863785Y-15096900D01*
X6892357Y-15082614D01*
X7120928Y-15382614D02*
X7120928Y-15182614D01*
X7120928Y-15211186D02*
X7135214Y-15196900D01*
X7163785Y-15182614D01*
X7206642Y-15182614D01*
X7235214Y-15196900D01*
X7249500Y-15225471D01*
X7249500Y-15382614D01*
X7249500Y-15225471D02*
X7263785Y-15196900D01*
X7292357Y-15182614D01*
X7335214Y-15182614D01*
X7363785Y-15196900D01*
X7378071Y-15225471D01*
X7378071Y-15382614D01*
X7520928Y-15382614D02*
X7520928Y-15182614D01*
X7520928Y-15211186D02*
X7535214Y-15196900D01*
X7563785Y-15182614D01*
X7606642Y-15182614D01*
X7635214Y-15196900D01*
X7649500Y-15225471D01*
X7649500Y-15382614D01*
X7649500Y-15225471D02*
X7663785Y-15196900D01*
X7692357Y-15182614D01*
X7735214Y-15182614D01*
X7763785Y-15196900D01*
X7778071Y-15225471D01*
X7778071Y-15382614D01*
X8363785Y-15068329D02*
X8106642Y-15454043D01*
X8749500Y-15082614D02*
X8778071Y-15082614D01*
X8806642Y-15096900D01*
X8820928Y-15111186D01*
X8835214Y-15139757D01*
X8849500Y-15196900D01*
X8849500Y-15268329D01*
X8835214Y-15325471D01*
X8820928Y-15354043D01*
X8806642Y-15368329D01*
X8778071Y-15382614D01*
X8749500Y-15382614D01*
X8720928Y-15368329D01*
X8706642Y-15354043D01*
X8692357Y-15325471D01*
X8678071Y-15268329D01*
X8678071Y-15196900D01*
X8692357Y-15139757D01*
X8706642Y-15111186D01*
X8720928Y-15096900D01*
X8749500Y-15082614D01*
X8978071Y-15354043D02*
X8992357Y-15368329D01*
X8978071Y-15382614D01*
X8963785Y-15368329D01*
X8978071Y-15354043D01*
X8978071Y-15382614D01*
X9178071Y-15082614D02*
X9206642Y-15082614D01*
X9235214Y-15096900D01*
X9249500Y-15111186D01*
X9263785Y-15139757D01*
X9278071Y-15196900D01*
X9278071Y-15268329D01*
X9263785Y-15325471D01*
X9249500Y-15354043D01*
X9235214Y-15368329D01*
X9206642Y-15382614D01*
X9178071Y-15382614D01*
X9149500Y-15368329D01*
X9135214Y-15354043D01*
X9120928Y-15325471D01*
X9106642Y-15268329D01*
X9106642Y-15196900D01*
X9120928Y-15139757D01*
X9135214Y-15111186D01*
X9149500Y-15096900D01*
X9178071Y-15082614D01*
X9378071Y-15082614D02*
X9563785Y-15082614D01*
X9463785Y-15196900D01*
X9506642Y-15196900D01*
X9535214Y-15211186D01*
X9549500Y-15225471D01*
X9563785Y-15254043D01*
X9563785Y-15325471D01*
X9549500Y-15354043D01*
X9535214Y-15368329D01*
X9506642Y-15382614D01*
X9420928Y-15382614D01*
X9392357Y-15368329D01*
X9378071Y-15354043D01*
X9835214Y-15082614D02*
X9692357Y-15082614D01*
X9678071Y-15225471D01*
X9692357Y-15211186D01*
X9720928Y-15196900D01*
X9792357Y-15196900D01*
X9820928Y-15211186D01*
X9835214Y-15225471D01*
X9849500Y-15254043D01*
X9849500Y-15325471D01*
X9835214Y-15354043D01*
X9820928Y-15368329D01*
X9792357Y-15382614D01*
X9720928Y-15382614D01*
X9692357Y-15368329D01*
X9678071Y-15354043D01*
X9963785Y-15082614D02*
X9963785Y-15139757D01*
X10078071Y-15082614D02*
X10078071Y-15139757D01*
X10520928Y-15496900D02*
X10506642Y-15482614D01*
X10478071Y-15439757D01*
X10463785Y-15411186D01*
X10449500Y-15368329D01*
X10435214Y-15296900D01*
X10435214Y-15239757D01*
X10449500Y-15168329D01*
X10463785Y-15125471D01*
X10478071Y-15096900D01*
X10506642Y-15054043D01*
X10520928Y-15039757D01*
X10792357Y-15382614D02*
X10620928Y-15382614D01*
X10706642Y-15382614D02*
X10706642Y-15082614D01*
X10678071Y-15125471D01*
X10649500Y-15154043D01*
X10620928Y-15168329D01*
X11049500Y-15182614D02*
X11049500Y-15382614D01*
X10978071Y-15068329D02*
X10906642Y-15282614D01*
X11092357Y-15282614D01*
X11435214Y-15382614D02*
X11435214Y-15082614D01*
X11563785Y-15382614D02*
X11563785Y-15225471D01*
X11549500Y-15196900D01*
X11520928Y-15182614D01*
X11478071Y-15182614D01*
X11449500Y-15196900D01*
X11435214Y-15211186D01*
X11749500Y-15382614D02*
X11720928Y-15368329D01*
X11706642Y-15354043D01*
X11692357Y-15325471D01*
X11692357Y-15239757D01*
X11706642Y-15211186D01*
X11720928Y-15196900D01*
X11749500Y-15182614D01*
X11792357Y-15182614D01*
X11820928Y-15196900D01*
X11835214Y-15211186D01*
X11849500Y-15239757D01*
X11849500Y-15325471D01*
X11835214Y-15354043D01*
X11820928Y-15368329D01*
X11792357Y-15382614D01*
X11749500Y-15382614D01*
X12020928Y-15382614D02*
X11992357Y-15368329D01*
X11978071Y-15339757D01*
X11978071Y-15082614D01*
X12249500Y-15368329D02*
X12220928Y-15382614D01*
X12163785Y-15382614D01*
X12135214Y-15368329D01*
X12120928Y-15339757D01*
X12120928Y-15225471D01*
X12135214Y-15196900D01*
X12163785Y-15182614D01*
X12220928Y-15182614D01*
X12249500Y-15196900D01*
X12263785Y-15225471D01*
X12263785Y-15254043D01*
X12120928Y-15282614D01*
X12378071Y-15368329D02*
X12406642Y-15382614D01*
X12463785Y-15382614D01*
X12492357Y-15368329D01*
X12506642Y-15339757D01*
X12506642Y-15325471D01*
X12492357Y-15296900D01*
X12463785Y-15282614D01*
X12420928Y-15282614D01*
X12392357Y-15268329D01*
X12378071Y-15239757D01*
X12378071Y-15225471D01*
X12392357Y-15196900D01*
X12420928Y-15182614D01*
X12463785Y-15182614D01*
X12492357Y-15196900D01*
X12606642Y-15496900D02*
X12620928Y-15482614D01*
X12649500Y-15439757D01*
X12663785Y-15411186D01*
X12678071Y-15368329D01*
X12692357Y-15296900D01*
X12692357Y-15239757D01*
X12678071Y-15168329D01*
X12663785Y-15125471D01*
X12649500Y-15096900D01*
X12620928Y-15054043D01*
X12606642Y-15039757D01*
X5811069Y-15699469D02*
X5811069Y-15586331D01*
X5697930Y-15586331D01*
X5697930Y-15699469D01*
X5811069Y-15699469D01*
X6278071Y-15778614D02*
X6106642Y-15778614D01*
X6192357Y-15778614D02*
X6192357Y-15478614D01*
X6163785Y-15521471D01*
X6135214Y-15550043D01*
X6106642Y-15564329D01*
X6406642Y-15750043D02*
X6420928Y-15764329D01*
X6406642Y-15778614D01*
X6392357Y-15764329D01*
X6406642Y-15750043D01*
X6406642Y-15778614D01*
X6678071Y-15478614D02*
X6620928Y-15478614D01*
X6592357Y-15492900D01*
X6578071Y-15507186D01*
X6549500Y-15550043D01*
X6535214Y-15607186D01*
X6535214Y-15721471D01*
X6549500Y-15750043D01*
X6563785Y-15764329D01*
X6592357Y-15778614D01*
X6649500Y-15778614D01*
X6678071Y-15764329D01*
X6692357Y-15750043D01*
X6706642Y-15721471D01*
X6706642Y-15650043D01*
X6692357Y-15621471D01*
X6678071Y-15607186D01*
X6649500Y-15592900D01*
X6592357Y-15592900D01*
X6563785Y-15607186D01*
X6549500Y-15621471D01*
X6535214Y-15650043D01*
X6892357Y-15478614D02*
X6920928Y-15478614D01*
X6949500Y-15492900D01*
X6963785Y-15507186D01*
X6978071Y-15535757D01*
X6992357Y-15592900D01*
X6992357Y-15664329D01*
X6978071Y-15721471D01*
X6963785Y-15750043D01*
X6949500Y-15764329D01*
X6920928Y-15778614D01*
X6892357Y-15778614D01*
X6863785Y-15764329D01*
X6849500Y-15750043D01*
X6835214Y-15721471D01*
X6820928Y-15664329D01*
X6820928Y-15592900D01*
X6835214Y-15535757D01*
X6849500Y-15507186D01*
X6863785Y-15492900D01*
X6892357Y-15478614D01*
X7120928Y-15778614D02*
X7120928Y-15578614D01*
X7120928Y-15607186D02*
X7135214Y-15592900D01*
X7163785Y-15578614D01*
X7206642Y-15578614D01*
X7235214Y-15592900D01*
X7249500Y-15621471D01*
X7249500Y-15778614D01*
X7249500Y-15621471D02*
X7263785Y-15592900D01*
X7292357Y-15578614D01*
X7335214Y-15578614D01*
X7363785Y-15592900D01*
X7378071Y-15621471D01*
X7378071Y-15778614D01*
X7520928Y-15778614D02*
X7520928Y-15578614D01*
X7520928Y-15607186D02*
X7535214Y-15592900D01*
X7563785Y-15578614D01*
X7606642Y-15578614D01*
X7635214Y-15592900D01*
X7649500Y-15621471D01*
X7649500Y-15778614D01*
X7649500Y-15621471D02*
X7663785Y-15592900D01*
X7692357Y-15578614D01*
X7735214Y-15578614D01*
X7763785Y-15592900D01*
X7778071Y-15621471D01*
X7778071Y-15778614D01*
X8363785Y-15464329D02*
X8106642Y-15850043D01*
X8749500Y-15478614D02*
X8778071Y-15478614D01*
X8806642Y-15492900D01*
X8820928Y-15507186D01*
X8835214Y-15535757D01*
X8849500Y-15592900D01*
X8849500Y-15664329D01*
X8835214Y-15721471D01*
X8820928Y-15750043D01*
X8806642Y-15764329D01*
X8778071Y-15778614D01*
X8749500Y-15778614D01*
X8720928Y-15764329D01*
X8706642Y-15750043D01*
X8692357Y-15721471D01*
X8678071Y-15664329D01*
X8678071Y-15592900D01*
X8692357Y-15535757D01*
X8706642Y-15507186D01*
X8720928Y-15492900D01*
X8749500Y-15478614D01*
X8978071Y-15750043D02*
X8992357Y-15764329D01*
X8978071Y-15778614D01*
X8963785Y-15764329D01*
X8978071Y-15750043D01*
X8978071Y-15778614D01*
X9178071Y-15478614D02*
X9206642Y-15478614D01*
X9235214Y-15492900D01*
X9249500Y-15507186D01*
X9263785Y-15535757D01*
X9278071Y-15592900D01*
X9278071Y-15664329D01*
X9263785Y-15721471D01*
X9249500Y-15750043D01*
X9235214Y-15764329D01*
X9206642Y-15778614D01*
X9178071Y-15778614D01*
X9149500Y-15764329D01*
X9135214Y-15750043D01*
X9120928Y-15721471D01*
X9106642Y-15664329D01*
X9106642Y-15592900D01*
X9120928Y-15535757D01*
X9135214Y-15507186D01*
X9149500Y-15492900D01*
X9178071Y-15478614D01*
X9535214Y-15478614D02*
X9478071Y-15478614D01*
X9449500Y-15492900D01*
X9435214Y-15507186D01*
X9406642Y-15550043D01*
X9392357Y-15607186D01*
X9392357Y-15721471D01*
X9406642Y-15750043D01*
X9420928Y-15764329D01*
X9449500Y-15778614D01*
X9506642Y-15778614D01*
X9535214Y-15764329D01*
X9549500Y-15750043D01*
X9563785Y-15721471D01*
X9563785Y-15650043D01*
X9549500Y-15621471D01*
X9535214Y-15607186D01*
X9506642Y-15592900D01*
X9449500Y-15592900D01*
X9420928Y-15607186D01*
X9406642Y-15621471D01*
X9392357Y-15650043D01*
X9663785Y-15478614D02*
X9849500Y-15478614D01*
X9749500Y-15592900D01*
X9792357Y-15592900D01*
X9820928Y-15607186D01*
X9835214Y-15621471D01*
X9849500Y-15650043D01*
X9849500Y-15721471D01*
X9835214Y-15750043D01*
X9820928Y-15764329D01*
X9792357Y-15778614D01*
X9706642Y-15778614D01*
X9678071Y-15764329D01*
X9663785Y-15750043D01*
X9963785Y-15478614D02*
X9963785Y-15535757D01*
X10078071Y-15478614D02*
X10078071Y-15535757D01*
X10520928Y-15892900D02*
X10506642Y-15878614D01*
X10478071Y-15835757D01*
X10463785Y-15807186D01*
X10449500Y-15764329D01*
X10435214Y-15692900D01*
X10435214Y-15635757D01*
X10449500Y-15564329D01*
X10463785Y-15521471D01*
X10478071Y-15492900D01*
X10506642Y-15450043D01*
X10520928Y-15435757D01*
X10606642Y-15478614D02*
X10792357Y-15478614D01*
X10692357Y-15592900D01*
X10735214Y-15592900D01*
X10763785Y-15607186D01*
X10778071Y-15621471D01*
X10792357Y-15650043D01*
X10792357Y-15721471D01*
X10778071Y-15750043D01*
X10763785Y-15764329D01*
X10735214Y-15778614D01*
X10649500Y-15778614D01*
X10620928Y-15764329D01*
X10606642Y-15750043D01*
X11149500Y-15778614D02*
X11149500Y-15478614D01*
X11278071Y-15778614D02*
X11278071Y-15621471D01*
X11263785Y-15592900D01*
X11235214Y-15578614D01*
X11192357Y-15578614D01*
X11163785Y-15592900D01*
X11149500Y-15607186D01*
X11463785Y-15778614D02*
X11435214Y-15764329D01*
X11420928Y-15750043D01*
X11406642Y-15721471D01*
X11406642Y-15635757D01*
X11420928Y-15607186D01*
X11435214Y-15592900D01*
X11463785Y-15578614D01*
X11506642Y-15578614D01*
X11535214Y-15592900D01*
X11549500Y-15607186D01*
X11563785Y-15635757D01*
X11563785Y-15721471D01*
X11549500Y-15750043D01*
X11535214Y-15764329D01*
X11506642Y-15778614D01*
X11463785Y-15778614D01*
X11735214Y-15778614D02*
X11706642Y-15764329D01*
X11692357Y-15735757D01*
X11692357Y-15478614D01*
X11963785Y-15764329D02*
X11935214Y-15778614D01*
X11878071Y-15778614D01*
X11849500Y-15764329D01*
X11835214Y-15735757D01*
X11835214Y-15621471D01*
X11849500Y-15592900D01*
X11878071Y-15578614D01*
X11935214Y-15578614D01*
X11963785Y-15592900D01*
X11978071Y-15621471D01*
X11978071Y-15650043D01*
X11835214Y-15678614D01*
X12092357Y-15764329D02*
X12120928Y-15778614D01*
X12178071Y-15778614D01*
X12206642Y-15764329D01*
X12220928Y-15735757D01*
X12220928Y-15721471D01*
X12206642Y-15692900D01*
X12178071Y-15678614D01*
X12135214Y-15678614D01*
X12106642Y-15664329D01*
X12092357Y-15635757D01*
X12092357Y-15621471D01*
X12106642Y-15592900D01*
X12135214Y-15578614D01*
X12178071Y-15578614D01*
X12206642Y-15592900D01*
X12320928Y-15892900D02*
X12335214Y-15878614D01*
X12363785Y-15835757D01*
X12378071Y-15807186D01*
X12392357Y-15764329D01*
X12406642Y-15692900D01*
X12406642Y-15635757D01*
X12392357Y-15564329D01*
X12378071Y-15521471D01*
X12363785Y-15492900D01*
X12335214Y-15450043D01*
X12320928Y-15435757D01*
X5734000Y-16139400D02*
X5834500Y-16038900D01*
X5734000Y-15938400D01*
X5633500Y-16038900D01*
X5734000Y-16139400D01*
X6106642Y-15903186D02*
X6120928Y-15888900D01*
X6149500Y-15874614D01*
X6220928Y-15874614D01*
X6249500Y-15888900D01*
X6263785Y-15903186D01*
X6278071Y-15931757D01*
X6278071Y-15960329D01*
X6263785Y-16003186D01*
X6092357Y-16174614D01*
X6278071Y-16174614D01*
X6406642Y-16146043D02*
X6420928Y-16160329D01*
X6406642Y-16174614D01*
X6392357Y-16160329D01*
X6406642Y-16146043D01*
X6406642Y-16174614D01*
X6606642Y-15874614D02*
X6635214Y-15874614D01*
X6663785Y-15888900D01*
X6678071Y-15903186D01*
X6692357Y-15931757D01*
X6706642Y-15988900D01*
X6706642Y-16060329D01*
X6692357Y-16117471D01*
X6678071Y-16146043D01*
X6663785Y-16160329D01*
X6635214Y-16174614D01*
X6606642Y-16174614D01*
X6578071Y-16160329D01*
X6563785Y-16146043D01*
X6549500Y-16117471D01*
X6535214Y-16060329D01*
X6535214Y-15988900D01*
X6549500Y-15931757D01*
X6563785Y-15903186D01*
X6578071Y-15888900D01*
X6606642Y-15874614D01*
X6992357Y-16174614D02*
X6820928Y-16174614D01*
X6906642Y-16174614D02*
X6906642Y-15874614D01*
X6878071Y-15917471D01*
X6849500Y-15946043D01*
X6820928Y-15960329D01*
X7120928Y-16174614D02*
X7120928Y-15974614D01*
X7120928Y-16003186D02*
X7135214Y-15988900D01*
X7163785Y-15974614D01*
X7206642Y-15974614D01*
X7235214Y-15988900D01*
X7249500Y-16017471D01*
X7249500Y-16174614D01*
X7249500Y-16017471D02*
X7263785Y-15988900D01*
X7292357Y-15974614D01*
X7335214Y-15974614D01*
X7363785Y-15988900D01*
X7378071Y-16017471D01*
X7378071Y-16174614D01*
X7520928Y-16174614D02*
X7520928Y-15974614D01*
X7520928Y-16003186D02*
X7535214Y-15988900D01*
X7563785Y-15974614D01*
X7606642Y-15974614D01*
X7635214Y-15988900D01*
X7649500Y-16017471D01*
X7649500Y-16174614D01*
X7649500Y-16017471D02*
X7663785Y-15988900D01*
X7692357Y-15974614D01*
X7735214Y-15974614D01*
X7763785Y-15988900D01*
X7778071Y-16017471D01*
X7778071Y-16174614D01*
X8363785Y-15860329D02*
X8106642Y-16246043D01*
X8749500Y-15874614D02*
X8778071Y-15874614D01*
X8806642Y-15888900D01*
X8820928Y-15903186D01*
X8835214Y-15931757D01*
X8849500Y-15988900D01*
X8849500Y-16060329D01*
X8835214Y-16117471D01*
X8820928Y-16146043D01*
X8806642Y-16160329D01*
X8778071Y-16174614D01*
X8749500Y-16174614D01*
X8720928Y-16160329D01*
X8706642Y-16146043D01*
X8692357Y-16117471D01*
X8678071Y-16060329D01*
X8678071Y-15988900D01*
X8692357Y-15931757D01*
X8706642Y-15903186D01*
X8720928Y-15888900D01*
X8749500Y-15874614D01*
X8978071Y-16146043D02*
X8992357Y-16160329D01*
X8978071Y-16174614D01*
X8963785Y-16160329D01*
X8978071Y-16146043D01*
X8978071Y-16174614D01*
X9178071Y-15874614D02*
X9206642Y-15874614D01*
X9235214Y-15888900D01*
X9249500Y-15903186D01*
X9263785Y-15931757D01*
X9278071Y-15988900D01*
X9278071Y-16060329D01*
X9263785Y-16117471D01*
X9249500Y-16146043D01*
X9235214Y-16160329D01*
X9206642Y-16174614D01*
X9178071Y-16174614D01*
X9149500Y-16160329D01*
X9135214Y-16146043D01*
X9120928Y-16117471D01*
X9106642Y-16060329D01*
X9106642Y-15988900D01*
X9120928Y-15931757D01*
X9135214Y-15903186D01*
X9149500Y-15888900D01*
X9178071Y-15874614D01*
X9378071Y-15874614D02*
X9578071Y-15874614D01*
X9449500Y-16174614D01*
X9706642Y-16174614D02*
X9763785Y-16174614D01*
X9792357Y-16160329D01*
X9806642Y-16146043D01*
X9835214Y-16103186D01*
X9849500Y-16046043D01*
X9849500Y-15931757D01*
X9835214Y-15903186D01*
X9820928Y-15888900D01*
X9792357Y-15874614D01*
X9735214Y-15874614D01*
X9706642Y-15888900D01*
X9692357Y-15903186D01*
X9678071Y-15931757D01*
X9678071Y-16003186D01*
X9692357Y-16031757D01*
X9706642Y-16046043D01*
X9735214Y-16060329D01*
X9792357Y-16060329D01*
X9820928Y-16046043D01*
X9835214Y-16031757D01*
X9849500Y-16003186D01*
X9963785Y-15874614D02*
X9963785Y-15931757D01*
X10078071Y-15874614D02*
X10078071Y-15931757D01*
X10520928Y-16288900D02*
X10506642Y-16274614D01*
X10478071Y-16231757D01*
X10463785Y-16203186D01*
X10449500Y-16160329D01*
X10435214Y-16088900D01*
X10435214Y-16031757D01*
X10449500Y-15960329D01*
X10463785Y-15917471D01*
X10478071Y-15888900D01*
X10506642Y-15846043D01*
X10520928Y-15831757D01*
X10678071Y-16003186D02*
X10649500Y-15988900D01*
X10635214Y-15974614D01*
X10620928Y-15946043D01*
X10620928Y-15931757D01*
X10635214Y-15903186D01*
X10649500Y-15888900D01*
X10678071Y-15874614D01*
X10735214Y-15874614D01*
X10763785Y-15888900D01*
X10778071Y-15903186D01*
X10792357Y-15931757D01*
X10792357Y-15946043D01*
X10778071Y-15974614D01*
X10763785Y-15988900D01*
X10735214Y-16003186D01*
X10678071Y-16003186D01*
X10649500Y-16017471D01*
X10635214Y-16031757D01*
X10620928Y-16060329D01*
X10620928Y-16117471D01*
X10635214Y-16146043D01*
X10649500Y-16160329D01*
X10678071Y-16174614D01*
X10735214Y-16174614D01*
X10763785Y-16160329D01*
X10778071Y-16146043D01*
X10792357Y-16117471D01*
X10792357Y-16060329D01*
X10778071Y-16031757D01*
X10763785Y-16017471D01*
X10735214Y-16003186D01*
X11149500Y-16174614D02*
X11149500Y-15874614D01*
X11278071Y-16174614D02*
X11278071Y-16017471D01*
X11263785Y-15988900D01*
X11235214Y-15974614D01*
X11192357Y-15974614D01*
X11163785Y-15988900D01*
X11149500Y-16003186D01*
X11463785Y-16174614D02*
X11435214Y-16160329D01*
X11420928Y-16146043D01*
X11406642Y-16117471D01*
X11406642Y-16031757D01*
X11420928Y-16003186D01*
X11435214Y-15988900D01*
X11463785Y-15974614D01*
X11506642Y-15974614D01*
X11535214Y-15988900D01*
X11549500Y-16003186D01*
X11563785Y-16031757D01*
X11563785Y-16117471D01*
X11549500Y-16146043D01*
X11535214Y-16160329D01*
X11506642Y-16174614D01*
X11463785Y-16174614D01*
X11735214Y-16174614D02*
X11706642Y-16160329D01*
X11692357Y-16131757D01*
X11692357Y-15874614D01*
X11963785Y-16160329D02*
X11935214Y-16174614D01*
X11878071Y-16174614D01*
X11849500Y-16160329D01*
X11835214Y-16131757D01*
X11835214Y-16017471D01*
X11849500Y-15988900D01*
X11878071Y-15974614D01*
X11935214Y-15974614D01*
X11963785Y-15988900D01*
X11978071Y-16017471D01*
X11978071Y-16046043D01*
X11835214Y-16074614D01*
X12092357Y-16160329D02*
X12120928Y-16174614D01*
X12178071Y-16174614D01*
X12206642Y-16160329D01*
X12220928Y-16131757D01*
X12220928Y-16117471D01*
X12206642Y-16088900D01*
X12178071Y-16074614D01*
X12135214Y-16074614D01*
X12106642Y-16060329D01*
X12092357Y-16031757D01*
X12092357Y-16017471D01*
X12106642Y-15988900D01*
X12135214Y-15974614D01*
X12178071Y-15974614D01*
X12206642Y-15988900D01*
X12320928Y-16288900D02*
X12335214Y-16274614D01*
X12363785Y-16231757D01*
X12378071Y-16203186D01*
X12392357Y-16160329D01*
X12406642Y-16088900D01*
X12406642Y-16031757D01*
X12392357Y-15960329D01*
X12378071Y-15917471D01*
X12363785Y-15888900D01*
X12335214Y-15846043D01*
X12320928Y-15831757D01*
X5415500Y-16225400D02*
X5834500Y-16644400D01*
X5834500Y-16225400D02*
X5415500Y-16644400D01*
X5834500Y-16434900D02*
G75*
G03X5834500Y-16434900I-209500J0D01*
G01*
X6249500Y-16370614D02*
X6249500Y-16570614D01*
X6178071Y-16256329D02*
X6106642Y-16470614D01*
X6292357Y-16470614D01*
X6406642Y-16542043D02*
X6420928Y-16556329D01*
X6406642Y-16570614D01*
X6392357Y-16556329D01*
X6406642Y-16542043D01*
X6406642Y-16570614D01*
X6706642Y-16570614D02*
X6535214Y-16570614D01*
X6620928Y-16570614D02*
X6620928Y-16270614D01*
X6592357Y-16313471D01*
X6563785Y-16342043D01*
X6535214Y-16356329D01*
X6849500Y-16570614D02*
X6906642Y-16570614D01*
X6935214Y-16556329D01*
X6949500Y-16542043D01*
X6978071Y-16499186D01*
X6992357Y-16442043D01*
X6992357Y-16327757D01*
X6978071Y-16299186D01*
X6963785Y-16284900D01*
X6935214Y-16270614D01*
X6878071Y-16270614D01*
X6849500Y-16284900D01*
X6835214Y-16299186D01*
X6820928Y-16327757D01*
X6820928Y-16399186D01*
X6835214Y-16427757D01*
X6849500Y-16442043D01*
X6878071Y-16456329D01*
X6935214Y-16456329D01*
X6963785Y-16442043D01*
X6978071Y-16427757D01*
X6992357Y-16399186D01*
X7120928Y-16570614D02*
X7120928Y-16370614D01*
X7120928Y-16399186D02*
X7135214Y-16384900D01*
X7163785Y-16370614D01*
X7206642Y-16370614D01*
X7235214Y-16384900D01*
X7249500Y-16413471D01*
X7249500Y-16570614D01*
X7249500Y-16413471D02*
X7263785Y-16384900D01*
X7292357Y-16370614D01*
X7335214Y-16370614D01*
X7363785Y-16384900D01*
X7378071Y-16413471D01*
X7378071Y-16570614D01*
X7520928Y-16570614D02*
X7520928Y-16370614D01*
X7520928Y-16399186D02*
X7535214Y-16384900D01*
X7563785Y-16370614D01*
X7606642Y-16370614D01*
X7635214Y-16384900D01*
X7649500Y-16413471D01*
X7649500Y-16570614D01*
X7649500Y-16413471D02*
X7663785Y-16384900D01*
X7692357Y-16370614D01*
X7735214Y-16370614D01*
X7763785Y-16384900D01*
X7778071Y-16413471D01*
X7778071Y-16570614D01*
X8363785Y-16256329D02*
X8106642Y-16642043D01*
X8749500Y-16270614D02*
X8778071Y-16270614D01*
X8806642Y-16284900D01*
X8820928Y-16299186D01*
X8835214Y-16327757D01*
X8849500Y-16384900D01*
X8849500Y-16456329D01*
X8835214Y-16513471D01*
X8820928Y-16542043D01*
X8806642Y-16556329D01*
X8778071Y-16570614D01*
X8749500Y-16570614D01*
X8720928Y-16556329D01*
X8706642Y-16542043D01*
X8692357Y-16513471D01*
X8678071Y-16456329D01*
X8678071Y-16384900D01*
X8692357Y-16327757D01*
X8706642Y-16299186D01*
X8720928Y-16284900D01*
X8749500Y-16270614D01*
X8978071Y-16542043D02*
X8992357Y-16556329D01*
X8978071Y-16570614D01*
X8963785Y-16556329D01*
X8978071Y-16542043D01*
X8978071Y-16570614D01*
X9278071Y-16570614D02*
X9106642Y-16570614D01*
X9192357Y-16570614D02*
X9192357Y-16270614D01*
X9163785Y-16313471D01*
X9135214Y-16342043D01*
X9106642Y-16356329D01*
X9535214Y-16270614D02*
X9478071Y-16270614D01*
X9449500Y-16284900D01*
X9435214Y-16299186D01*
X9406642Y-16342043D01*
X9392357Y-16399186D01*
X9392357Y-16513471D01*
X9406642Y-16542043D01*
X9420928Y-16556329D01*
X9449500Y-16570614D01*
X9506642Y-16570614D01*
X9535214Y-16556329D01*
X9549500Y-16542043D01*
X9563785Y-16513471D01*
X9563785Y-16442043D01*
X9549500Y-16413471D01*
X9535214Y-16399186D01*
X9506642Y-16384900D01*
X9449500Y-16384900D01*
X9420928Y-16399186D01*
X9406642Y-16413471D01*
X9392357Y-16442043D01*
X9835214Y-16270614D02*
X9692357Y-16270614D01*
X9678071Y-16413471D01*
X9692357Y-16399186D01*
X9720928Y-16384900D01*
X9792357Y-16384900D01*
X9820928Y-16399186D01*
X9835214Y-16413471D01*
X9849500Y-16442043D01*
X9849500Y-16513471D01*
X9835214Y-16542043D01*
X9820928Y-16556329D01*
X9792357Y-16570614D01*
X9720928Y-16570614D01*
X9692357Y-16556329D01*
X9678071Y-16542043D01*
X9963785Y-16270614D02*
X9963785Y-16327757D01*
X10078071Y-16270614D02*
X10078071Y-16327757D01*
X10520928Y-16684900D02*
X10506642Y-16670614D01*
X10478071Y-16627757D01*
X10463785Y-16599186D01*
X10449500Y-16556329D01*
X10435214Y-16484900D01*
X10435214Y-16427757D01*
X10449500Y-16356329D01*
X10463785Y-16313471D01*
X10478071Y-16284900D01*
X10506642Y-16242043D01*
X10520928Y-16227757D01*
X10606642Y-16270614D02*
X10792357Y-16270614D01*
X10692357Y-16384900D01*
X10735214Y-16384900D01*
X10763785Y-16399186D01*
X10778071Y-16413471D01*
X10792357Y-16442043D01*
X10792357Y-16513471D01*
X10778071Y-16542043D01*
X10763785Y-16556329D01*
X10735214Y-16570614D01*
X10649500Y-16570614D01*
X10620928Y-16556329D01*
X10606642Y-16542043D01*
X11149500Y-16570614D02*
X11149500Y-16270614D01*
X11278071Y-16570614D02*
X11278071Y-16413471D01*
X11263785Y-16384900D01*
X11235214Y-16370614D01*
X11192357Y-16370614D01*
X11163785Y-16384900D01*
X11149500Y-16399186D01*
X11463785Y-16570614D02*
X11435214Y-16556329D01*
X11420928Y-16542043D01*
X11406642Y-16513471D01*
X11406642Y-16427757D01*
X11420928Y-16399186D01*
X11435214Y-16384900D01*
X11463785Y-16370614D01*
X11506642Y-16370614D01*
X11535214Y-16384900D01*
X11549500Y-16399186D01*
X11563785Y-16427757D01*
X11563785Y-16513471D01*
X11549500Y-16542043D01*
X11535214Y-16556329D01*
X11506642Y-16570614D01*
X11463785Y-16570614D01*
X11735214Y-16570614D02*
X11706642Y-16556329D01*
X11692357Y-16527757D01*
X11692357Y-16270614D01*
X11963785Y-16556329D02*
X11935214Y-16570614D01*
X11878071Y-16570614D01*
X11849500Y-16556329D01*
X11835214Y-16527757D01*
X11835214Y-16413471D01*
X11849500Y-16384900D01*
X11878071Y-16370614D01*
X11935214Y-16370614D01*
X11963785Y-16384900D01*
X11978071Y-16413471D01*
X11978071Y-16442043D01*
X11835214Y-16470614D01*
X12092357Y-16556329D02*
X12120928Y-16570614D01*
X12178071Y-16570614D01*
X12206642Y-16556329D01*
X12220928Y-16527757D01*
X12220928Y-16513471D01*
X12206642Y-16484900D01*
X12178071Y-16470614D01*
X12135214Y-16470614D01*
X12106642Y-16456329D01*
X12092357Y-16427757D01*
X12092357Y-16413471D01*
X12106642Y-16384900D01*
X12135214Y-16370614D01*
X12178071Y-16370614D01*
X12206642Y-16384900D01*
X12320928Y-16684900D02*
X12335214Y-16670614D01*
X12363785Y-16627757D01*
X12378071Y-16599186D01*
X12392357Y-16556329D01*
X12406642Y-16484900D01*
X12406642Y-16427757D01*
X12392357Y-16356329D01*
X12378071Y-16313471D01*
X12363785Y-16284900D01*
X12335214Y-16242043D01*
X12320928Y-16227757D01*
M02*
