(kicad_sch (version 20211123) (generator eeschema)

  (uuid ac719da8-bb2c-4393-8075-5a0d9d8927eb)

  (paper "A4")

  (lib_symbols
    (symbol "Antenna:Ant_315MHz" (in_bom yes) (on_board yes)
      (property "Reference" "A" (id 0) (at 2.54 1.27 0)
        (effects (font (size 1.27 1.27)))
      )
      (property "Value" "Ant_315MHz" (id 1) (at 0 3.81 0)
        (effects (font (size 1.27 1.27)))
      )
      (property "Footprint" "Antenna:315MHz_Antenna" (id 2) (at 0 0 0)
        (effects (font (size 1.27 1.27)) hide)
      )
      (property "Datasheet" "" (id 3) (at 0 0 0)
        (effects (font (size 1.27 1.27)) hide)
      )
      (symbol "Ant_315MHz_0_1"
        (polyline
          (pts
            (xy 0 0)
            (xy 0 1.27)
            (xy 1.27 2.54)
            (xy -1.27 2.54)
            (xy 0 1.27)
          )
          (stroke (width 0) (type default) (color 0 0 0 0))
          (fill (type none))
        )
      )
      (symbol "Ant_315MHz_1_1"
        (pin bidirectional line (at 0 -2.54 90) (length 2.54)
          (name "" (effects (font (size 1.27 1.27))))
          (number "1" (effects (font (size 1.27 1.27))))
        )
      )
    )
    (symbol "Capacitors:1u-BD" (pin_names (offset 1.016)) (in_bom yes) (on_board yes)
      (property "Reference" "C" (id 0) (at 4.064 2.794 0)
        (effects (font (size 1.524 1.524)))
      )
      (property "Value" "1u-BD" (id 1) (at 6.5024 0.508 0)
        (effects (font (size 1.524 1.524)))
      )
      (property "Footprint" "Capacitors:C0603" (id 2) (at 0 0.0508 0)
        (effects (font (size 1.524 1.524)) hide)
      )
      (property "Datasheet" "${KICAD_DATASHEET_DIR}Capacitors/Datasheets/Murata GRM series capaitors.pdf" (id 3) (at 0 0.0508 0)
        (effects (font (size 1.524 1.524)) hide)
      )
      (property "DigikeyPN" "490-3897-1-ND" (id 4) (at 8.0264 5.1816 0)
        (effects (font (size 1.524 1.524)) hide)
      )
      (property "MaxVoltage" "25V" (id 5) (at 4.8768 -1.6256 0)
        (effects (font (size 1.524 1.524)))
      )
      (property "ki_description" "1uF 0603 capacitor +/-10%" (id 6) (at 0 0 0)
        (effects (font (size 1.27 1.27)) hide)
      )
      (property "ki_fp_filters" "C0603" (id 7) (at 0 0 0)
        (effects (font (size 1.27 1.27)) hide)
      )
      (symbol "1u-BD_0_1"
        (polyline
          (pts
            (xy -1.9812 0.4064)
            (xy 1.9812 0.4064)
          )
          (stroke (width 0) (type default) (color 0 0 0 0))
          (fill (type none))
        )
        (polyline
          (pts
            (xy 0 -1.27)
            (xy 0 -0.6096)
          )
          (stroke (width 0) (type default) (color 0 0 0 0))
          (fill (type none))
        )
        (polyline
          (pts
            (xy 0 -1.2192)
            (xy 0 -0.6096)
          )
          (stroke (width 0) (type default) (color 0 0 0 0))
          (fill (type none))
        )
        (polyline
          (pts
            (xy 0 1.3208)
            (xy 0 0.4572)
          )
          (stroke (width 0) (type default) (color 0 0 0 0))
          (fill (type none))
        )
        (arc (start 1.9812 -0.9144) (mid 0 -0.5417) (end -1.9812 -0.9144)
          (stroke (width 0) (type default) (color 0 0 0 0))
          (fill (type none))
        )
      )
      (symbol "1u-BD_1_1"
        (pin passive line (at 0 3.81 270) (length 2.54)
          (name "~" (effects (font (size 1.27 1.27))))
          (number "1" (effects (font (size 1.27 1.27))))
        )
        (pin passive line (at 0 -3.81 90) (length 2.54)
          (name "~" (effects (font (size 1.27 1.27))))
          (number "2" (effects (font (size 1.27 1.27))))
        )
      )
    )
    (symbol "Connectors:PJ-002A" (in_bom yes) (on_board yes)
      (property "Reference" "J" (id 0) (at 6.35 5.08 0)
        (effects (font (size 1.27 1.27)))
      )
      (property "Value" "PJ-002A" (id 1) (at 0 6.35 0)
        (effects (font (size 1.27 1.27)))
      )
      (property "Footprint" "Connectors:2x5.5mmBarrel" (id 2) (at 0 0 0)
        (effects (font (size 1.27 1.27)) hide)
      )
      (property "Datasheet" "${KICAD_DATASHEET_DIR}Connectors/Datasheets/CUI 2.1mm by 5.5mm barrel plug.pdf" (id 3) (at 0 0 0)
        (effects (font (size 1.27 1.27)) hide)
      )
      (property "DigikeyPN" "CP-002A-ND" (id 4) (at 0 0 0)
        (effects (font (size 1.27 1.27)) hide)
      )
      (symbol "PJ-002A_0_0"
        (text "+" (at 2.794 2.54 0)
          (effects (font (size 1.27 1.27)))
        )
        (text "-" (at 3.302 -1.778 0)
          (effects (font (size 1.27 1.27)))
        )
      )
      (symbol "PJ-002A_0_1"
        (arc (start -3.048 3.302) (mid -3.7594 2.54) (end -3.048 1.778)
          (stroke (width 0) (type default) (color 0 0 0 0))
          (fill (type none))
        )
        (polyline
          (pts
            (xy 1.778 1.778)
            (xy -3.048 1.778)
          )
          (stroke (width 0) (type default) (color 0 0 0 0))
          (fill (type none))
        )
        (polyline
          (pts
            (xy 1.778 3.302)
            (xy -3.048 3.302)
          )
          (stroke (width 0) (type default) (color 0 0 0 0))
          (fill (type none))
        )
        (polyline
          (pts
            (xy 3.81 -2.54)
            (xy -1.524 -2.54)
            (xy -2.032 -1.524)
            (xy -2.54 -2.54)
          )
          (stroke (width 0) (type default) (color 0 0 0 0))
          (fill (type none))
        )
        (polyline
          (pts
            (xy 3.81 3.556)
            (xy 3.81 1.524)
            (xy 1.778 1.524)
            (xy 1.778 3.556)
            (xy 3.81 3.556)
          )
          (stroke (width 0) (type default) (color 0 0 0 0))
          (fill (type none))
        )
        (polyline
          (pts
            (xy 3.81 0)
            (xy 1.016 0)
            (xy 0.254 0)
            (xy 0.254 -1.016)
            (xy 0 -1.016)
            (xy 0.254 -2.032)
            (xy 0.508 -1.016)
            (xy 0.254 -1.016)
          )
          (stroke (width 0) (type default) (color 0 0 0 0))
          (fill (type none))
        )
      )
      (symbol "PJ-002A_1_1"
        (pin input line (at 6.35 2.54 180) (length 2.54)
          (name "" (effects (font (size 1.27 1.27))))
          (number "1" (effects (font (size 1.27 1.27))))
        )
        (pin input line (at 6.35 -2.54 180) (length 2.54)
          (name "" (effects (font (size 1.27 1.27))))
          (number "2" (effects (font (size 1.27 1.27))))
        )
        (pin input line (at 6.35 0 180) (length 2.54)
          (name "" (effects (font (size 1.27 1.27))))
          (number "3" (effects (font (size 1.27 1.27))))
        )
      )
    )
    (symbol "DRV5055_1" (in_bom yes) (on_board yes)
      (property "Reference" "U" (id 0) (at 5.715 6.35 0)
        (effects (font (size 1.27 1.27)))
      )
      (property "Value" "DRV5055_1" (id 1) (at -1.27 6.35 0)
        (effects (font (size 1.27 1.27)))
      )
      (property "Footprint" "ICs:SOT233" (id 2) (at 0 0 0)
        (effects (font (size 1.27 1.27)) hide)
      )
      (property "Datasheet" "${KICAD_DATASHEET_DIR}ICs/Datasheets/TI DRV5055 Magnetic Position Sensor.pdf" (id 3) (at 0 0 0)
        (effects (font (size 1.27 1.27)) hide)
      )
      (property "ki_description" "Magnetic Position Sensor" (id 4) (at 0 0 0)
        (effects (font (size 1.27 1.27)) hide)
      )
      (symbol "DRV5055_1_0_1"
        (rectangle (start -5.08 5.08) (end 6.35 -5.08)
          (stroke (width 0) (type default) (color 0 0 0 0))
          (fill (type none))
        )
        (rectangle (start -0.635 0.635) (end 0.635 -0.635)
          (stroke (width 0) (type default) (color 0 0 0 0))
          (fill (type none))
        )
        (polyline
          (pts
            (xy 0.254 0.254)
            (xy -0.254 -0.254)
            (xy 0 0)
            (xy -0.254 0.254)
            (xy 0.254 -0.254)
          )
          (stroke (width 0) (type default) (color 0 0 0 0))
          (fill (type none))
        )
      )
      (symbol "DRV5055_1_1_1"
        (pin power_in line (at -7.62 3.81 0) (length 2.54)
          (name "VCC" (effects (font (size 1.27 1.27))))
          (number "1" (effects (font (size 1.27 1.27))))
        )
        (pin output line (at 8.89 0 180) (length 2.54)
          (name "OUT" (effects (font (size 1.27 1.27))))
          (number "2" (effects (font (size 1.27 1.27))))
        )
        (pin power_out line (at -7.62 -3.81 0) (length 2.54)
          (name "GND" (effects (font (size 1.27 1.27))))
          (number "3" (effects (font (size 1.27 1.27))))
        )
      )
    )
    (symbol "Modules:A4988" (in_bom yes) (on_board yes)
      (property "Reference" "U1" (id 0) (at 0 16.51 0)
        (effects (font (size 1.27 1.27)))
      )
      (property "Value" "A4988" (id 1) (at 0 13.97 0)
        (effects (font (size 1.27 1.27)))
      )
      (property "Footprint" "Modules:A4988Module" (id 2) (at 15.875 -11.43 0)
        (effects (font (size 1.27 1.27)) hide)
      )
      (property "Datasheet" "${KICAD_DATASHEET_DIR}/Modules/Datasheets/Allegro A4988 Stepper Motor Driver Module.pdf" (id 3) (at -0.635 -13.335 0)
        (effects (font (size 1.27 1.27)) hide)
      )
      (property "DigikeyPN" "2183-2128-ND" (id 4) (at -13.335 -11.43 0)
        (effects (font (size 1.27 1.27)) hide)
      )
      (property "ki_description" "Stepper Motor Driver" (id 5) (at 0 0 0)
        (effects (font (size 1.27 1.27)) hide)
      )
      (symbol "A4988_0_1"
        (rectangle (start -6.35 10.795) (end 6.35 -10.16)
          (stroke (width 0) (type default) (color 0 0 0 0))
          (fill (type none))
        )
      )
      (symbol "A4988_1_1"
        (pin bidirectional line (at 8.89 -8.89 180) (length 2.54)
          (name "GND" (effects (font (size 1.27 1.27))))
          (number "1" (effects (font (size 1.27 1.27))))
        )
        (pin bidirectional line (at -8.89 6.35 0) (length 2.54)
          (name "MS1" (effects (font (size 1.27 1.27))))
          (number "10" (effects (font (size 1.27 1.27))))
        )
        (pin bidirectional line (at -8.89 3.81 0) (length 2.54)
          (name "MS2" (effects (font (size 1.27 1.27))))
          (number "11" (effects (font (size 1.27 1.27))))
        )
        (pin bidirectional line (at -8.89 1.27 0) (length 2.54)
          (name "MS3" (effects (font (size 1.27 1.27))))
          (number "12" (effects (font (size 1.27 1.27))))
        )
        (pin bidirectional line (at -8.89 -1.27 0) (length 2.54)
          (name "RESETn" (effects (font (size 1.27 1.27))))
          (number "13" (effects (font (size 1.27 1.27))))
        )
        (pin bidirectional line (at -8.89 -3.81 0) (length 2.54)
          (name "SLEEPn" (effects (font (size 1.27 1.27))))
          (number "14" (effects (font (size 1.27 1.27))))
        )
        (pin bidirectional line (at -8.89 -6.35 0) (length 2.54)
          (name "STEP" (effects (font (size 1.27 1.27))))
          (number "15" (effects (font (size 1.27 1.27))))
        )
        (pin bidirectional line (at -8.89 -8.89 0) (length 2.54)
          (name "DIR" (effects (font (size 1.27 1.27))))
          (number "16" (effects (font (size 1.27 1.27))))
        )
        (pin bidirectional line (at 8.89 -6.35 180) (length 2.54)
          (name "VDD" (effects (font (size 1.27 1.27))))
          (number "2" (effects (font (size 1.27 1.27))))
        )
        (pin bidirectional line (at 8.89 -3.81 180) (length 2.54)
          (name "1B" (effects (font (size 1.27 1.27))))
          (number "3" (effects (font (size 1.27 1.27))))
        )
        (pin bidirectional line (at 8.89 -1.27 180) (length 2.54)
          (name "1A" (effects (font (size 1.27 1.27))))
          (number "4" (effects (font (size 1.27 1.27))))
        )
        (pin bidirectional line (at 8.89 1.27 180) (length 2.54)
          (name "2A" (effects (font (size 1.27 1.27))))
          (number "5" (effects (font (size 1.27 1.27))))
        )
        (pin bidirectional line (at 8.89 3.81 180) (length 2.54)
          (name "2B" (effects (font (size 1.27 1.27))))
          (number "6" (effects (font (size 1.27 1.27))))
        )
        (pin bidirectional line (at 8.89 6.35 180) (length 2.54)
          (name "GND" (effects (font (size 1.27 1.27))))
          (number "7" (effects (font (size 1.27 1.27))))
        )
        (pin bidirectional line (at 8.89 8.89 180) (length 2.54)
          (name "VMOT" (effects (font (size 1.27 1.27))))
          (number "8" (effects (font (size 1.27 1.27))))
        )
        (pin bidirectional line (at -8.89 8.89 0) (length 2.54)
          (name "ENn" (effects (font (size 1.27 1.27))))
          (number "9" (effects (font (size 1.27 1.27))))
        )
      )
    )
    (symbol "Modules:ArduinoNanoEvery" (in_bom yes) (on_board yes)
      (property "Reference" "A" (id 0) (at 0 11.43 0)
        (effects (font (size 1.27 1.27)))
      )
      (property "Value" "ArduinoNanoEvery" (id 1) (at 0 6.35 0)
        (effects (font (size 1.27 1.27)))
      )
      (property "Footprint" "Modules:ArduinoNanoEvery" (id 2) (at 0 8.89 0)
        (effects (font (size 1.27 1.27)) hide)
      )
      (property "Datasheet" "${KICAD_DATASHEET_DIR}/Modules/Datasheets/Arduino Nano ATmega328 module.pdf" (id 3) (at -1.27 -5.08 0)
        (effects (font (size 1.27 1.27)) hide)
      )
      (property "DigikeyPN" "1050-ABX00033-ND" (id 4) (at 0 0 0)
        (effects (font (size 1.27 1.27)) hide)
      )
      (symbol "ArduinoNanoEvery_0_1"
        (rectangle (start -12.7 24.13) (end 11.43 -19.05)
          (stroke (width 0) (type default) (color 0 0 0 0))
          (fill (type none))
        )
      )
      (symbol "ArduinoNanoEvery_1_1"
        (pin bidirectional line (at 13.97 -15.24 180) (length 2.54)
          (name "D0/TX" (effects (font (size 1.27 1.27))))
          (number "1" (effects (font (size 1.27 1.27))))
        )
        (pin bidirectional line (at 13.97 7.62 180) (length 2.54)
          (name "D7" (effects (font (size 1.27 1.27))))
          (number "10" (effects (font (size 1.27 1.27))))
        )
        (pin bidirectional line (at 13.97 10.16 180) (length 2.54)
          (name "D8" (effects (font (size 1.27 1.27))))
          (number "11" (effects (font (size 1.27 1.27))))
        )
        (pin bidirectional line (at 13.97 12.7 180) (length 2.54)
          (name "D9" (effects (font (size 1.27 1.27))))
          (number "12" (effects (font (size 1.27 1.27))))
        )
        (pin bidirectional line (at 13.97 15.24 180) (length 2.54)
          (name "D10(SS)" (effects (font (size 1.27 1.27))))
          (number "13" (effects (font (size 1.27 1.27))))
        )
        (pin bidirectional line (at 13.97 17.78 180) (length 2.54)
          (name "D11(MOSI)" (effects (font (size 1.27 1.27))))
          (number "14" (effects (font (size 1.27 1.27))))
        )
        (pin bidirectional line (at 13.97 20.32 180) (length 2.54)
          (name "D12(MISO)" (effects (font (size 1.27 1.27))))
          (number "15" (effects (font (size 1.27 1.27))))
        )
        (pin bidirectional line (at -15.24 20.32 0) (length 2.54)
          (name "D13(SCLK)" (effects (font (size 1.27 1.27))))
          (number "16" (effects (font (size 1.27 1.27))))
        )
        (pin power_out line (at -15.24 17.78 0) (length 2.54)
          (name "3V3" (effects (font (size 1.27 1.27))))
          (number "17" (effects (font (size 1.27 1.27))))
        )
        (pin bidirectional line (at -15.24 15.24 0) (length 2.54)
          (name "REF" (effects (font (size 1.27 1.27))))
          (number "18" (effects (font (size 1.27 1.27))))
        )
        (pin input line (at -15.24 12.7 0) (length 2.54)
          (name "A0" (effects (font (size 1.27 1.27))))
          (number "19" (effects (font (size 1.27 1.27))))
        )
        (pin bidirectional line (at 13.97 -12.7 180) (length 2.54)
          (name "D1/RX" (effects (font (size 1.27 1.27))))
          (number "2" (effects (font (size 1.27 1.27))))
        )
        (pin input line (at -15.24 10.16 0) (length 2.54)
          (name "A1" (effects (font (size 1.27 1.27))))
          (number "20" (effects (font (size 1.27 1.27))))
        )
        (pin input line (at -15.24 7.62 0) (length 2.54)
          (name "A2" (effects (font (size 1.27 1.27))))
          (number "21" (effects (font (size 1.27 1.27))))
        )
        (pin input line (at -15.24 5.08 0) (length 2.54)
          (name "A3" (effects (font (size 1.27 1.27))))
          (number "22" (effects (font (size 1.27 1.27))))
        )
        (pin open_emitter line (at -15.24 2.54 0) (length 2.54)
          (name "A4(SDA)" (effects (font (size 1.27 1.27))))
          (number "23" (effects (font (size 1.27 1.27))))
        )
        (pin open_emitter line (at -15.24 0 0) (length 2.54)
          (name "A5(SLC)" (effects (font (size 1.27 1.27))))
          (number "24" (effects (font (size 1.27 1.27))))
        )
        (pin input line (at -15.24 -2.54 0) (length 2.54)
          (name "A6" (effects (font (size 1.27 1.27))))
          (number "25" (effects (font (size 1.27 1.27))))
        )
        (pin input line (at -15.24 -5.08 0) (length 2.54)
          (name "A7" (effects (font (size 1.27 1.27))))
          (number "26" (effects (font (size 1.27 1.27))))
        )
        (pin power_in line (at -15.24 -7.62 0) (length 2.54)
          (name "5V" (effects (font (size 1.27 1.27))))
          (number "27" (effects (font (size 1.27 1.27))))
        )
        (pin power_in line (at -15.24 -10.16 0) (length 2.54)
          (name "RST" (effects (font (size 1.27 1.27))))
          (number "28" (effects (font (size 1.27 1.27))))
        )
        (pin power_out line (at -15.24 -12.7 0) (length 2.54)
          (name "GND" (effects (font (size 1.27 1.27))))
          (number "29" (effects (font (size 1.27 1.27))))
        )
        (pin power_in line (at 13.97 -10.16 180) (length 2.54)
          (name "RST" (effects (font (size 1.27 1.27))))
          (number "3" (effects (font (size 1.27 1.27))))
        )
        (pin power_out line (at -15.24 -15.24 0) (length 2.54)
          (name "VIN_(5V-12V)" (effects (font (size 1.27 1.27))))
          (number "30" (effects (font (size 1.27 1.27))))
        )
        (pin power_out line (at 13.97 -7.62 180) (length 2.54)
          (name "GND" (effects (font (size 1.27 1.27))))
          (number "4" (effects (font (size 1.27 1.27))))
        )
        (pin bidirectional line (at 13.97 -5.08 180) (length 2.54)
          (name "D2/INT0" (effects (font (size 1.27 1.27))))
          (number "5" (effects (font (size 1.27 1.27))))
        )
        (pin bidirectional line (at 13.97 -2.54 180) (length 2.54)
          (name "D3/INT1" (effects (font (size 1.27 1.27))))
          (number "6" (effects (font (size 1.27 1.27))))
        )
        (pin bidirectional line (at 13.97 0 180) (length 2.54)
          (name "D4" (effects (font (size 1.27 1.27))))
          (number "7" (effects (font (size 1.27 1.27))))
        )
        (pin bidirectional line (at 13.97 2.54 180) (length 2.54)
          (name "D5" (effects (font (size 1.27 1.27))))
          (number "8" (effects (font (size 1.27 1.27))))
        )
        (pin bidirectional line (at 13.97 5.08 180) (length 2.54)
          (name "D6" (effects (font (size 1.27 1.27))))
          (number "9" (effects (font (size 1.27 1.27))))
        )
      )
    )
    (symbol "Modules:NEMA_17" (in_bom yes) (on_board yes)
      (property "Reference" "M" (id 0) (at 7.62 6.35 0)
        (effects (font (size 1.27 1.27)))
      )
      (property "Value" "NEMA_17" (id 1) (at 0 6.35 0)
        (effects (font (size 1.27 1.27)))
      )
      (property "Footprint" "Modules:NEMA17" (id 2) (at 0 0 0)
        (effects (font (size 1.27 1.27)) hide)
      )
      (property "Datasheet" "" (id 3) (at 0 0 0)
        (effects (font (size 1.27 1.27)) hide)
      )
      (symbol "NEMA_17_0_0"
        (text "M" (at 0 0 0)
          (effects (font (size 1.27 1.27)))
        )
      )
      (symbol "NEMA_17_0_1"
        (arc (start -2.54 -5.08) (mid -1.905 -5.7264) (end -1.27 -5.08)
          (stroke (width 0) (type default) (color 0 0 0 0))
          (fill (type none))
        )
        (arc (start -1.27 -5.0687) (mid -0.635 -5.7151) (end 0 -5.0687)
          (stroke (width 0) (type default) (color 0 0 0 0))
          (fill (type none))
        )
        (arc (start 0 -5.0687) (mid 0.635 -5.7151) (end 1.27 -5.0687)
          (stroke (width 0) (type default) (color 0 0 0 0))
          (fill (type none))
        )
        (polyline
          (pts
            (xy -3.81 -8.89)
            (xy -3.81 -5.08)
            (xy -2.54 -5.08)
          )
          (stroke (width 0) (type default) (color 0 0 0 0))
          (fill (type none))
        )
        (polyline
          (pts
            (xy 3.81 -8.89)
            (xy 3.81 -5.08)
            (xy 2.54 -5.08)
          )
          (stroke (width 0) (type default) (color 0 0 0 0))
          (fill (type none))
        )
        (polyline
          (pts
            (xy 8.89 -3.81)
            (xy 5.08 -3.81)
            (xy 5.08 -2.54)
          )
          (stroke (width 0) (type default) (color 0 0 0 0))
          (fill (type none))
        )
        (polyline
          (pts
            (xy 8.89 3.81)
            (xy 5.08 3.81)
            (xy 5.08 2.54)
          )
          (stroke (width 0) (type default) (color 0 0 0 0))
          (fill (type none))
        )
        (circle (center 0 0) (radius 2.8398)
          (stroke (width 0) (type default) (color 0 0 0 0))
          (fill (type none))
        )
        (arc (start 1.27 -5.0687) (mid 1.905 -5.7151) (end 2.54 -5.0687)
          (stroke (width 0) (type default) (color 0 0 0 0))
          (fill (type none))
        )
        (arc (start 5.0687 -2.54) (mid 5.7151 -1.905) (end 5.0687 -1.27)
          (stroke (width 0) (type default) (color 0 0 0 0))
          (fill (type none))
        )
        (arc (start 5.0687 -1.27) (mid 5.7151 -0.635) (end 5.0687 0)
          (stroke (width 0) (type default) (color 0 0 0 0))
          (fill (type none))
        )
        (arc (start 5.0687 0) (mid 5.7151 0.635) (end 5.0687 1.27)
          (stroke (width 0) (type default) (color 0 0 0 0))
          (fill (type none))
        )
        (arc (start 5.0687 1.27) (mid 5.7151 1.905) (end 5.0687 2.54)
          (stroke (width 0) (type default) (color 0 0 0 0))
          (fill (type none))
        )
      )
      (symbol "NEMA_17_1_1"
        (pin power_in line (at 11.43 3.81 180) (length 2.54)
          (name "1A" (effects (font (size 1.27 1.27))))
          (number "1" (effects (font (size 1.27 1.27))))
        )
        (pin power_in line (at 11.43 -3.81 180) (length 2.54)
          (name "1B" (effects (font (size 1.27 1.27))))
          (number "2" (effects (font (size 1.27 1.27))))
        )
        (pin power_in line (at 3.81 -11.43 90) (length 2.54)
          (name "2A" (effects (font (size 1.27 1.27))))
          (number "3" (effects (font (size 1.27 1.27))))
        )
        (pin power_in line (at -3.81 -11.43 90) (length 2.54)
          (name "2B" (effects (font (size 1.27 1.27))))
          (number "4" (effects (font (size 1.27 1.27))))
        )
      )
    )
    (symbol "Modules:RF315Reciever" (in_bom yes) (on_board yes)
      (property "Reference" "U" (id 0) (at 6.35 3.81 0)
        (effects (font (size 1.27 1.27)))
      )
      (property "Value" "RF315Reciever" (id 1) (at -1.27 3.81 0)
        (effects (font (size 1.27 1.27)))
      )
      (property "Footprint" "Modules:RF315Reciever" (id 2) (at 0 0 0)
        (effects (font (size 1.27 1.27)) hide)
      )
      (property "Datasheet" "" (id 3) (at 0 0 0)
        (effects (font (size 1.27 1.27)) hide)
      )
      (symbol "RF315Reciever_0_1"
        (rectangle (start -7.62 2.54) (end 7.62 -2.54)
          (stroke (width 0) (type default) (color 0 0 0 0))
          (fill (type none))
        )
      )
      (symbol "RF315Reciever_1_1"
        (pin power_in line (at -3.81 -5.08 90) (length 2.54)
          (name "VCC" (effects (font (size 1.27 1.27))))
          (number "1" (effects (font (size 1.27 1.27))))
        )
        (pin output line (at -1.27 -5.08 90) (length 2.54)
          (name "Data" (effects (font (size 1.27 1.27))))
          (number "2" (effects (font (size 1.27 1.27))))
        )
        (pin free line (at 1.27 -5.08 90) (length 2.54)
          (name "NC" (effects (font (size 1.27 1.27))))
          (number "3" (effects (font (size 1.27 1.27))))
        )
        (pin power_out line (at 3.81 -5.08 90) (length 2.54)
          (name "GND" (effects (font (size 1.27 1.27))))
          (number "4" (effects (font (size 1.27 1.27))))
        )
      )
    )
  )


  (no_connect (at 165.1 64.77) (uuid 286a33a4-8405-421f-b844-ddc40eaaadd1))

  (wire (pts (xy 45.72 55.88) (xy 54.61 55.88))
    (stroke (width 0) (type default) (color 0 0 0 0))
    (uuid 02047949-e729-41d1-a971-2b89d65ae660)
  )
  (wire (pts (xy 132.08 72.39) (xy 132.08 67.31))
    (stroke (width 0) (type default) (color 0 0 0 0))
    (uuid 0466c2da-4d24-481d-9abd-3c097d518a46)
  )
  (wire (pts (xy 132.08 113.03) (xy 132.08 104.14))
    (stroke (width 0) (type default) (color 0 0 0 0))
    (uuid 0e980e63-d17a-4071-ab69-8ff8af9419b6)
  )
  (wire (pts (xy 24.13 85.09) (xy 33.02 85.09))
    (stroke (width 0) (type default) (color 0 0 0 0))
    (uuid 0fd0d88b-9791-4919-9f7a-65a3ce85498b)
  )
  (wire (pts (xy 121.92 69.85) (xy 125.73 69.85))
    (stroke (width 0) (type default) (color 0 0 0 0))
    (uuid 148696e5-b838-45b1-b2e8-e8d08c42c916)
  )
  (wire (pts (xy 54.61 109.22) (xy 63.5 109.22))
    (stroke (width 0) (type default) (color 0 0 0 0))
    (uuid 3285940f-021b-4bac-855b-204a8fa1f1d2)
  )
  (wire (pts (xy 24.13 92.71) (xy 33.02 92.71))
    (stroke (width 0) (type default) (color 0 0 0 0))
    (uuid 330351a5-2aaf-4da9-898f-53ae66f28b49)
  )
  (wire (pts (xy 147.32 77.47) (xy 147.32 59.69))
    (stroke (width 0) (type default) (color 0 0 0 0))
    (uuid 3686fe8a-3c5d-4a89-9589-c4b24d47138c)
  )
  (wire (pts (xy 92.71 93.98) (xy 100.33 93.98))
    (stroke (width 0) (type default) (color 0 0 0 0))
    (uuid 3cd2f6ad-9fda-4fbd-a5a0-80763fc5100f)
  )
  (wire (pts (xy 97.79 80.01) (xy 104.14 80.01))
    (stroke (width 0) (type default) (color 0 0 0 0))
    (uuid 3ec3fec3-8213-4ab2-8d85-71cf92d5e76b)
  )
  (wire (pts (xy 151.13 80.01) (xy 151.13 52.07))
    (stroke (width 0) (type default) (color 0 0 0 0))
    (uuid 57de643b-d9f9-474d-953f-b9b74b4f5065)
  )
  (wire (pts (xy 121.92 77.47) (xy 147.32 77.47))
    (stroke (width 0) (type default) (color 0 0 0 0))
    (uuid 5bd76b1e-b9e1-433f-b0e8-29ac32706283)
  )
  (wire (pts (xy 121.92 72.39) (xy 132.08 72.39))
    (stroke (width 0) (type default) (color 0 0 0 0))
    (uuid 6593f25a-f4a5-4f3a-a805-cfedad3e6295)
  )
  (wire (pts (xy 121.92 67.31) (xy 125.73 67.31))
    (stroke (width 0) (type default) (color 0 0 0 0))
    (uuid 6bde1817-72ed-4949-b0ea-8227f63b66a4)
  )
  (wire (pts (xy 104.14 82.55) (xy 97.79 82.55))
    (stroke (width 0) (type default) (color 0 0 0 0))
    (uuid 72397945-9f8a-488c-8cb3-91719dc018d2)
  )
  (wire (pts (xy 121.92 80.01) (xy 151.13 80.01))
    (stroke (width 0) (type default) (color 0 0 0 0))
    (uuid 772abd8f-41cc-4ebd-a26d-ef8da04b1bd2)
  )
  (wire (pts (xy 92.71 91.44) (xy 97.79 91.44))
    (stroke (width 0) (type default) (color 0 0 0 0))
    (uuid 7fd45416-0a34-4ccb-871e-cc36e46c9a44)
  )
  (wire (pts (xy 139.7 113.03) (xy 139.7 104.14))
    (stroke (width 0) (type default) (color 0 0 0 0))
    (uuid 8ed48413-6f3a-4df4-aa8c-02f45f94f421)
  )
  (wire (pts (xy 100.33 85.09) (xy 100.33 93.98))
    (stroke (width 0) (type default) (color 0 0 0 0))
    (uuid 95fac684-b2be-4108-8e64-55abc8089b36)
  )
  (wire (pts (xy 54.61 116.84) (xy 63.5 116.84))
    (stroke (width 0) (type default) (color 0 0 0 0))
    (uuid 96a7bddd-ef65-48dc-860a-fbdb6006a5b4)
  )
  (wire (pts (xy 45.72 50.8) (xy 54.61 50.8))
    (stroke (width 0) (type default) (color 0 0 0 0))
    (uuid 994ca529-e523-45dc-b662-00c6004742a1)
  )
  (wire (pts (xy 139.7 74.93) (xy 139.7 67.31))
    (stroke (width 0) (type default) (color 0 0 0 0))
    (uuid 9f1c133d-688a-4a35-855c-59f3ddf4303e)
  )
  (wire (pts (xy 97.79 77.47) (xy 104.14 77.47))
    (stroke (width 0) (type default) (color 0 0 0 0))
    (uuid a8784677-8c8a-45ae-aa9b-257868ae3990)
  )
  (wire (pts (xy 134.62 113.03) (xy 134.62 104.14))
    (stroke (width 0) (type default) (color 0 0 0 0))
    (uuid b1fd4bad-fa4f-4632-9e24-227a6a4b6ac0)
  )
  (wire (pts (xy 92.71 106.68) (xy 101.6 106.68))
    (stroke (width 0) (type default) (color 0 0 0 0))
    (uuid b7b6ec85-6d77-4405-97f9-fa5b2316552a)
  )
  (wire (pts (xy 92.71 109.22) (xy 101.6 109.22))
    (stroke (width 0) (type default) (color 0 0 0 0))
    (uuid b9901dc5-4a18-4ef4-b74f-e4f1c4c5cb88)
  )
  (wire (pts (xy 151.13 52.07) (xy 147.32 52.07))
    (stroke (width 0) (type default) (color 0 0 0 0))
    (uuid b9910776-a8a1-4c65-ad69-671bc221543b)
  )
  (wire (pts (xy 121.92 82.55) (xy 125.73 82.55))
    (stroke (width 0) (type default) (color 0 0 0 0))
    (uuid bc574479-9b3e-4f3e-8449-54d664a94a1d)
  )
  (wire (pts (xy 54.61 114.3) (xy 63.5 114.3))
    (stroke (width 0) (type default) (color 0 0 0 0))
    (uuid bff97af7-b12b-49bb-8688-47c49c1527fa)
  )
  (wire (pts (xy 49.53 88.9) (xy 63.5 88.9))
    (stroke (width 0) (type default) (color 0 0 0 0))
    (uuid c1d686b2-7b80-4a06-aa01-a7d59bfd2289)
  )
  (wire (pts (xy 104.14 85.09) (xy 100.33 85.09))
    (stroke (width 0) (type default) (color 0 0 0 0))
    (uuid c6316a7d-3ba6-437a-8d84-7c433ce554c8)
  )
  (wire (pts (xy 121.92 85.09) (xy 125.73 85.09))
    (stroke (width 0) (type default) (color 0 0 0 0))
    (uuid d8aca314-c3ba-4e4e-9cce-6e215f639aa6)
  )
  (wire (pts (xy 97.79 82.55) (xy 97.79 91.44))
    (stroke (width 0) (type default) (color 0 0 0 0))
    (uuid f1b7bc42-3d54-4992-b6f5-548bd11ce463)
  )
  (wire (pts (xy 121.92 74.93) (xy 139.7 74.93))
    (stroke (width 0) (type default) (color 0 0 0 0))
    (uuid f853345b-385e-4284-89be-75e08fe4ea7b)
  )
  (wire (pts (xy 97.79 67.31) (xy 104.14 67.31))
    (stroke (width 0) (type default) (color 0 0 0 0))
    (uuid fe767316-2779-4e5d-b2b3-16728d3bc3f9)
  )

  (text "use 16mm of wire to connect" (at 167.64 66.04 0)
    (effects (font (size 1.27 1.27)) (justify left bottom))
    (uuid 9e848091-e1da-447b-a3bd-37fe2890e9a1)
  )
  (text "Don't place any ground under" (at 143.51 105.41 0)
    (effects (font (size 1.27 1.27)) (justify left bottom))
    (uuid c0e76c01-f07d-4a42-a1d0-de11d40c5603)
  )

  (label "5V0" (at 97.79 67.31 0)
    (effects (font (size 1.27 1.27)) (justify left bottom))
    (uuid 06f37c2a-1b6e-4bff-a9e8-c3b78c183ce6)
  )
  (label "RFData" (at 93.98 106.68 0)
    (effects (font (size 1.27 1.27)) (justify left bottom))
    (uuid 0baf36d1-694c-46d1-85ba-44a873e09d8d)
  )
  (label "5V0" (at 27.94 85.09 0)
    (effects (font (size 1.27 1.27)) (justify left bottom))
    (uuid 1b3acb3d-7146-44d4-bd49-5f39d9e07c03)
  )
  (label "GND" (at 48.26 55.88 0)
    (effects (font (size 1.27 1.27)) (justify left bottom))
    (uuid 1faf4a56-ffa7-45ba-aa0d-33da08956504)
  )
  (label "12V0" (at 125.73 67.31 0)
    (effects (font (size 1.27 1.27)) (justify left bottom))
    (uuid 2c582bcb-42d8-4f1b-84d2-fad0ef72022c)
  )
  (label "RFData" (at 134.62 111.76 90)
    (effects (font (size 1.27 1.27)) (justify left bottom))
    (uuid 308725bb-1054-4cdc-bb6c-9d8cec0a5b92)
  )
  (label "GND" (at 139.7 110.49 90)
    (effects (font (size 1.27 1.27)) (justify left bottom))
    (uuid 3a9ad510-ad47-45b8-8255-bb20548cc043)
  )
  (label "GND" (at 125.73 85.09 0)
    (effects (font (size 1.27 1.27)) (justify left bottom))
    (uuid 46f7292f-8085-4308-9a2f-60e86791c154)
  )
  (label "5V0" (at 125.73 82.55 0)
    (effects (font (size 1.27 1.27)) (justify left bottom))
    (uuid 54d5814f-a2eb-4472-867e-472105450ec0)
  )
  (label "12V0" (at 57.15 116.84 0)
    (effects (font (size 1.27 1.27)) (justify left bottom))
    (uuid 5e877487-e0dd-420b-9be4-106b49f7497b)
  )
  (label "5V0" (at 97.79 77.47 0)
    (effects (font (size 1.27 1.27)) (justify left bottom))
    (uuid 7b94daa4-a051-425f-96b4-114b9f74587d)
  )
  (label "GND" (at 27.94 92.71 0)
    (effects (font (size 1.27 1.27)) (justify left bottom))
    (uuid 8f587e60-a076-4f62-8c32-bf715f0b6e51)
  )
  (label "5V0" (at 58.42 109.22 0)
    (effects (font (size 1.27 1.27)) (justify left bottom))
    (uuid 91b1bc8c-425c-464e-adfc-07fd3863a640)
  )
  (label "12V0" (at 48.26 50.8 0)
    (effects (font (size 1.27 1.27)) (justify left bottom))
    (uuid 980e4792-00a3-49b9-82a9-f78657c9b79d)
  )
  (label "GND" (at 57.15 114.3 0)
    (effects (font (size 1.27 1.27)) (justify left bottom))
    (uuid bd80f8cb-e678-44fb-8dff-181568ef0167)
  )
  (label "5V0" (at 97.79 80.01 0)
    (effects (font (size 1.27 1.27)) (justify left bottom))
    (uuid bec91ff9-8650-43f5-bc4f-86e5a2e1003d)
  )
  (label "GND" (at 95.25 109.22 0)
    (effects (font (size 1.27 1.27)) (justify left bottom))
    (uuid bf1fcebe-2cd3-4004-ad15-d398d2d33d4c)
  )
  (label "5V0" (at 132.08 109.22 90)
    (effects (font (size 1.27 1.27)) (justify left bottom))
    (uuid dd0418fb-4304-4568-8735-d569e90b3881)
  )
  (label "GND" (at 125.73 69.85 0)
    (effects (font (size 1.27 1.27)) (justify left bottom))
    (uuid e6d547ed-ac17-4e37-baf2-0379b71ab7dc)
  )

  (symbol (lib_name "DRV5055_1") (lib_id "ICs:DRV5055") (at 40.64 88.9 0) (unit 1)
    (in_bom yes) (on_board yes) (fields_autoplaced)
    (uuid 01d4d1af-6a73-46ce-8d72-a1613ba01b2f)
    (property "Reference" "U3" (id 0) (at 41.5925 78.74 0))
    (property "Value" "DRV5055" (id 1) (at 41.5925 81.28 0))
    (property "Footprint" "ICs:SOT233" (id 2) (at 40.64 88.9 0)
      (effects (font (size 1.27 1.27)) hide)
    )
    (property "Datasheet" "${KICAD_DATASHEET_DIR}ICs/Datasheets/TI DRV5055 Magnetic Position Sensor.pdf" (id 3) (at 40.64 88.9 0)
      (effects (font (size 1.27 1.27)) hide)
    )
    (property "DigikeyPN" "296-DRV5055Z4QDBZRCT-ND" (id 4) (at 40.64 88.9 0)
      (effects (font (size 1.27 1.27)) hide)
    )
    (pin "1" (uuid 70fcd6b0-4a7f-45c4-b7da-f71e39ad6f1e))
    (pin "2" (uuid c4ba50bb-5dd0-4bdc-a944-aaa68ec06e35))
    (pin "3" (uuid 1957c886-3531-45be-a85f-02eca730f5ca))
  )

  (symbol (lib_id "Connectors:PJ-002A") (at 39.37 53.34 0) (unit 1)
    (in_bom yes) (on_board yes) (fields_autoplaced)
    (uuid 1c2554d2-09fd-47b9-bee9-61b2a16968b1)
    (property "Reference" "J1" (id 0) (at 39.5741 44.45 0))
    (property "Value" "PJ-002A" (id 1) (at 39.5741 46.99 0))
    (property "Footprint" "Connectors:2x5.5mmBarrel" (id 2) (at 39.37 53.34 0)
      (effects (font (size 1.27 1.27)) hide)
    )
    (property "Datasheet" "${KICAD_DATASHEET_DIR}Connectors/Datasheets/CUI 2.1mm by 5.5mm barrel plug.pdf" (id 3) (at 39.37 53.34 0)
      (effects (font (size 1.27 1.27)) hide)
    )
    (property "DigikeyPN" "CP-002A-ND" (id 4) (at 39.37 53.34 0)
      (effects (font (size 1.27 1.27)) hide)
    )
    (pin "1" (uuid 349f06c3-533f-4b8a-b38f-43991545c5bd))
    (pin "2" (uuid f57dac0a-5b7d-48f2-937d-8ec504a17bc5))
    (pin "3" (uuid adf258ed-d888-4a78-b568-ad2b18c083f9))
  )

  (symbol (lib_id "Modules:RF315Reciever") (at 135.89 99.06 0) (unit 1)
    (in_bom yes) (on_board yes) (fields_autoplaced)
    (uuid 3636ab4d-751e-453b-9b69-539e4a32b4c6)
    (property "Reference" "U2" (id 0) (at 144.78 97.7899 0)
      (effects (font (size 1.27 1.27)) (justify left))
    )
    (property "Value" "RF315Reciever" (id 1) (at 144.78 100.3299 0)
      (effects (font (size 1.27 1.27)) (justify left))
    )
    (property "Footprint" "Modules:RF315Reciever" (id 2) (at 135.89 99.06 0)
      (effects (font (size 1.27 1.27)) hide)
    )
    (property "Datasheet" "" (id 3) (at 135.89 99.06 0)
      (effects (font (size 1.27 1.27)) hide)
    )
    (pin "1" (uuid 3f9617f2-bcf8-4ba2-9898-a416eb717b41))
    (pin "2" (uuid 943643b1-08a2-42ff-a8b5-990197bc1a59))
    (pin "3" (uuid 9fc0b160-2512-49ee-a4a5-e2ccea9d6909))
    (pin "4" (uuid 07ccee65-3057-4752-8778-e03b4510e5cb))
  )

  (symbol (lib_id "Antenna:Ant_315MHz") (at 165.1 62.23 0) (unit 1)
    (in_bom yes) (on_board yes) (fields_autoplaced)
    (uuid 3c959cfc-ca50-485c-9ee4-70b2538f7f80)
    (property "Reference" "A?" (id 0) (at 167.64 59.6899 0)
      (effects (font (size 1.27 1.27)) (justify left))
    )
    (property "Value" "Ant_315MHz" (id 1) (at 167.64 62.2299 0)
      (effects (font (size 1.27 1.27)) (justify left))
    )
    (property "Footprint" "Antenna:315MHz_Antenna" (id 2) (at 165.1 62.23 0)
      (effects (font (size 1.27 1.27)) hide)
    )
    (property "Datasheet" "" (id 3) (at 165.1 62.23 0)
      (effects (font (size 1.27 1.27)) hide)
    )
    (pin "1" (uuid 0d76616a-252e-442a-b826-93f0bf79916a))
  )

  (symbol (lib_id "Modules:A4988") (at 113.03 76.2 0) (unit 1)
    (in_bom yes) (on_board yes) (fields_autoplaced)
    (uuid 41e0d5dd-eced-4382-8258-189ff9ea0e09)
    (property "Reference" "U1" (id 0) (at 113.03 59.69 0))
    (property "Value" "A4988" (id 1) (at 113.03 62.23 0))
    (property "Footprint" "Modules:A4988Module" (id 2) (at 128.905 87.63 0)
      (effects (font (size 1.27 1.27)) hide)
    )
    (property "Datasheet" "${KICAD_DATASHEET_DIR}/Modules/Datasheets/Allegro A4988 Stepper Motor Driver Module.pdf" (id 3) (at 112.395 89.535 0)
      (effects (font (size 1.27 1.27)) hide)
    )
    (property "DigikeyPN" "2183-2128-ND" (id 4) (at 99.695 87.63 0)
      (effects (font (size 1.27 1.27)) hide)
    )
    (pin "1" (uuid e5259945-7a84-4767-88ca-5ed2e8bdb7dd))
    (pin "10" (uuid cf58dfca-4a31-4127-b67d-b78ee772f493))
    (pin "11" (uuid 927563b1-8bd0-43e4-9aab-d533e04f3d7f))
    (pin "12" (uuid b86f51fe-488a-478d-9c24-970b35ce6cce))
    (pin "13" (uuid 35913b41-75b9-4ec6-a6f6-8bda98510095))
    (pin "14" (uuid a3072b26-a632-48a7-886b-103cdb6b851a))
    (pin "15" (uuid 75826d5e-65ef-47ac-948d-0a7f99c410d9))
    (pin "16" (uuid 830533ab-c68a-48c3-ab76-796178de8c7b))
    (pin "2" (uuid 2c74a758-f213-4348-bab3-dfd8e8b3f2d9))
    (pin "3" (uuid 332c7cf3-7382-4867-8ecc-980f8e3b674a))
    (pin "4" (uuid c93d0212-4aed-4bba-a759-7f592e241bd1))
    (pin "5" (uuid 1c6646c6-3877-44df-b7f3-d677f54ef47e))
    (pin "6" (uuid 1c44af43-8157-4711-ba34-29172b393078))
    (pin "7" (uuid 20cdf939-d0ac-450d-b165-9715749771c4))
    (pin "8" (uuid 6373b8fc-0fe4-4fb7-b9e6-899f0f29a6d8))
    (pin "9" (uuid 30016ac4-c0b5-4381-ac10-02044ecab06b))
  )

  (symbol (lib_id "Modules:ArduinoNanoEvery") (at 78.74 101.6 0) (unit 1)
    (in_bom yes) (on_board yes) (fields_autoplaced)
    (uuid 4e9c4487-8c0e-4f7d-a625-57ca10dc4945)
    (property "Reference" "A1" (id 0) (at 78.105 72.39 0))
    (property "Value" "ArduinoNanoEvery" (id 1) (at 78.105 74.93 0))
    (property "Footprint" "Modules:ArduinoNanoEvery" (id 2) (at 78.74 92.71 0)
      (effects (font (size 1.27 1.27)) hide)
    )
    (property "Datasheet" "${KICAD_DATASHEET_DIR}/Modules/Datasheets/Arduino Nano ATmega328 module.pdf" (id 3) (at 77.47 106.68 0)
      (effects (font (size 1.27 1.27)) hide)
    )
    (property "DigikeyPN" "1050-ABX00033-ND" (id 4) (at 78.74 101.6 0)
      (effects (font (size 1.27 1.27)) hide)
    )
    (pin "1" (uuid cd25d01e-5e5e-4bd8-b27f-65e57669e6cd))
    (pin "10" (uuid 0961976c-42a0-4b9e-8c6d-5a0579acb796))
    (pin "11" (uuid 06391dfd-80f4-4a55-a17e-91789ca157cf))
    (pin "12" (uuid 1f3f87d3-b7f1-4558-9744-fbff9e5866d2))
    (pin "13" (uuid 1c3dedc4-f822-4de5-8e80-5127a9140db6))
    (pin "14" (uuid 8005b9f9-b547-40e0-89c1-8ea848c6bec9))
    (pin "15" (uuid 9d577099-58fe-43de-af9b-2cd77cd94ed6))
    (pin "16" (uuid c3bd46f5-ff4d-4b38-939f-47300dd639ae))
    (pin "17" (uuid 0662f04b-65e8-4a0e-9c00-d41ee7070946))
    (pin "18" (uuid 9bae33a1-9699-4ac9-a6e2-86472095dfba))
    (pin "19" (uuid 74f72212-1158-4b82-9d1d-0e1ee941627c))
    (pin "2" (uuid 2314ef15-6881-4ab6-ac0c-45e86a3144d2))
    (pin "20" (uuid dbbd1e7f-1a5a-44d2-8943-9e42decf2a28))
    (pin "21" (uuid d0c2f16a-c100-453d-93f8-f979819b937f))
    (pin "22" (uuid 2fc4abc4-89e5-4150-b3a2-0fa7ffc04182))
    (pin "23" (uuid e2a498a5-d886-4eea-8648-2c4295a571ab))
    (pin "24" (uuid 7981a23d-ab35-45d1-a001-d1a86d05d7a0))
    (pin "25" (uuid d1dd9085-e95c-44c4-b681-e81b2efa5e9d))
    (pin "26" (uuid 875cbe54-bdf0-48ea-92f1-b33e07395bde))
    (pin "27" (uuid f97bdb11-f58c-4424-8832-d1a133e1eccd))
    (pin "28" (uuid dd4357b1-118f-4ccd-af8b-7eaccca46d6d))
    (pin "29" (uuid ec3df5cc-bfc4-4ce9-a8e9-d85baa27c360))
    (pin "3" (uuid cf5a635a-1d98-4640-bd5d-ce38f727c80b))
    (pin "30" (uuid 5dcde93f-1db4-4414-9520-16d3fbca9354))
    (pin "4" (uuid e4f3aea0-621f-40a8-a04d-5db867149be3))
    (pin "5" (uuid 5fb92cf9-9cf5-4220-90cd-f576560974db))
    (pin "6" (uuid 777c319e-6886-4ad5-ad9c-908122cf0a88))
    (pin "7" (uuid 1531be67-bc6b-4228-84d8-c0da86edb780))
    (pin "8" (uuid 9523c1db-daa7-4238-851f-91d32aed7f83))
    (pin "9" (uuid 5269fffe-e2a4-41ef-8cc1-1cbfdd4fc75b))
  )

  (symbol (lib_id "Modules:NEMA_17") (at 135.89 55.88 0) (unit 1)
    (in_bom yes) (on_board yes) (fields_autoplaced)
    (uuid c546b165-950e-45aa-9d08-cdc49adaac2b)
    (property "Reference" "M1" (id 0) (at 138.43 46.99 0))
    (property "Value" "NEMA_17" (id 1) (at 138.43 49.53 0))
    (property "Footprint" "Modules:NEMA17" (id 2) (at 135.89 55.88 0)
      (effects (font (size 1.27 1.27)) hide)
    )
    (property "Datasheet" "" (id 3) (at 135.89 55.88 0)
      (effects (font (size 1.27 1.27)) hide)
    )
    (pin "1" (uuid 3791d718-ef8e-4060-a1eb-ab51c81802ee))
    (pin "2" (uuid 3c5fcede-4304-49f9-85c6-2bc647345708))
    (pin "3" (uuid bf618426-c1a2-49f6-a5d7-b8d6ce6e0415))
    (pin "4" (uuid 807c25f9-80e0-4165-9090-b036867b5547))
  )

  (symbol (lib_id "Capacitors:1u-BD") (at 24.13 88.9 0) (unit 1)
    (in_bom yes) (on_board yes) (fields_autoplaced)
    (uuid e6baa5b8-91a7-425f-b5ea-65ed6d5c68ac)
    (property "Reference" "C1" (id 0) (at 27.94 85.6996 0)
      (effects (font (size 1.524 1.524)) (justify left))
    )
    (property "Value" "1u-BD" (id 1) (at 27.94 89.5096 0)
      (effects (font (size 1.524 1.524)) (justify left))
    )
    (property "Footprint" "Capacitors:C0603" (id 2) (at 24.13 88.8492 0)
      (effects (font (size 1.524 1.524)) hide)
    )
    (property "Datasheet" "${KICAD_DATASHEET_DIR}Capacitors/Datasheets/Murata GRM series capaitors.pdf" (id 3) (at 24.13 88.8492 0)
      (effects (font (size 1.524 1.524)) hide)
    )
    (property "DigikeyPN" "490-3897-1-ND" (id 4) (at 32.1564 83.7184 0)
      (effects (font (size 1.524 1.524)) hide)
    )
    (property "MaxVoltage" "25V" (id 5) (at 27.94 93.3196 0)
      (effects (font (size 1.524 1.524)) (justify left))
    )
    (pin "1" (uuid b7faaf21-bc72-4f22-a2da-94ea44ae12ba))
    (pin "2" (uuid 56f5141d-0e54-4dd3-b9f1-e6a356109b3f))
  )

  (sheet_instances
    (path "/" (page "1"))
  )

  (symbol_instances
    (path "/4e9c4487-8c0e-4f7d-a625-57ca10dc4945"
      (reference "A1") (unit 1) (value "ArduinoNanoEvery") (footprint "Modules:ArduinoNanoEvery")
    )
    (path "/3c959cfc-ca50-485c-9ee4-70b2538f7f80"
      (reference "A?") (unit 1) (value "Ant_315MHz") (footprint "Antenna:315MHz_Antenna")
    )
    (path "/e6baa5b8-91a7-425f-b5ea-65ed6d5c68ac"
      (reference "C1") (unit 1) (value "1u-BD") (footprint "Capacitors:C0603")
    )
    (path "/1c2554d2-09fd-47b9-bee9-61b2a16968b1"
      (reference "J1") (unit 1) (value "PJ-002A") (footprint "Connectors:2x5.5mmBarrel")
    )
    (path "/c546b165-950e-45aa-9d08-cdc49adaac2b"
      (reference "M1") (unit 1) (value "NEMA_17") (footprint "Modules:NEMA17")
    )
    (path "/41e0d5dd-eced-4382-8258-189ff9ea0e09"
      (reference "U1") (unit 1) (value "A4988") (footprint "Modules:A4988Module")
    )
    (path "/3636ab4d-751e-453b-9b69-539e4a32b4c6"
      (reference "U2") (unit 1) (value "RF315Reciever") (footprint "Modules:RF315Reciever")
    )
    (path "/01d4d1af-6a73-46ce-8d72-a1613ba01b2f"
      (reference "U3") (unit 1) (value "DRV5055") (footprint "ICs:SOT233")
    )
  )
)
