ISO-10303-21;
HEADER;
FILE_DESCRIPTION (( 'STEP AP214' ),
    '1' );
FILE_NAME ('REV Robotics-REV-49-1559.STEP',
    '2020-11-27T07:14:01',
    ( '' ),
    ( '' ),
    'SwSTEP 2.0',
    'SolidWorks 2020',
    '' );
FILE_SCHEMA (( 'AUTOMOTIVE_DESIGN' ));
ENDSEC;

DATA;
#1 = EDGE_LOOP ( 'NONE', ( #462, #392, #644, #144 ) ) ;
#2 = DIRECTION ( 'NONE',  ( 1.000000000000000000, 0.0000000000000000000, 0.0000000000000000000 ) ) ;
#3 = FACE_OUTER_BOUND ( 'NONE', #102, .T. ) ;
#4 = AXIS2_PLACEMENT_3D ( 'NONE', #587, #46, #575 ) ;
#5 = CARTESIAN_POINT ( 'NONE',  ( 0.0000000000000000000, 0.0000000000000000000, 1.749999999958617991 ) ) ;
#6 = ADVANCED_FACE ( 'NONE', ( #559 ), #651, .T. ) ;
#7 = AXIS2_PLACEMENT_3D ( 'NONE', #643, #33, #28 ) ;
#8 = ORIENTED_EDGE ( 'NONE', *, *, #483, .F. ) ;
#9 = FILL_AREA_STYLE ('',( #550 ) ) ;
#10 = DIRECTION ( 'NONE',  ( 0.0000000000000000000, 0.0000000000000000000, 1.000000000000000000 ) ) ;
#11 = DIRECTION ( 'NONE',  ( -1.000000000000000000, 0.0000000000000000000, 0.0000000000000000000 ) ) ;
#12 = ORIENTED_EDGE ( 'NONE', *, *, #153, .F. ) ;
#13 =( LENGTH_UNIT ( ) NAMED_UNIT ( * ) SI_UNIT ( .MILLI., .METRE. ) );
#14 = CARTESIAN_POINT ( 'NONE',  ( -3.999999999962255970, 4.898587196566301176E-16, -1.649999999983720045 ) ) ;
#15 = VERTEX_POINT ( 'NONE', #183 ) ;
#16 = PLANE ( 'NONE',  #281 ) ;
#17 = DIRECTION ( 'NONE',  ( 0.0000000000000000000, 0.0000000000000000000, 1.000000000000000000 ) ) ;
#18 = CARTESIAN_POINT ( 'NONE',  ( 0.0000000000000000000, 0.0000000000000000000, -0.9500000000000000666 ) ) ;
#19 = AXIS2_PLACEMENT_3D ( 'NONE', #89, #566, #338 ) ;
#20 = AXIS2_PLACEMENT_3D ( 'NONE', #231, #178, #228 ) ;
#21 = ORIENTED_EDGE ( 'NONE', *, *, #648, .F. ) ;
#22 = SHAPE_DEFINITION_REPRESENTATION ( #85, #545 ) ;
#23 = EDGE_CURVE ( 'NONE', #620, #275, #471, .T. ) ;
#24 = CARTESIAN_POINT ( 'NONE',  ( 0.0000000000000000000, 6.800000000000000711, -0.9500000000000000666 ) ) ;
#25 = ORIENTED_EDGE ( 'NONE', *, *, #630, .T. ) ;
#26 = DIRECTION ( 'NONE',  ( 1.000000000000000000, 0.0000000000000000000, 0.0000000000000000000 ) ) ;
#27 = VERTEX_POINT ( 'NONE', #300 ) ;
#28 = DIRECTION ( 'NONE',  ( -1.000000000000000000, 0.0000000000000000000, 0.0000000000000000000 ) ) ;
#29 = DIRECTION ( 'NONE',  ( 0.0000000000000000000, 0.0000000000000000000, 1.000000000000000000 ) ) ;
#30 = EDGE_CURVE ( 'NONE', #384, #388, #343, .T. ) ;
#31 = AXIS2_PLACEMENT_3D ( 'NONE', #310, #302, #591 ) ;
#32 = ORIENTED_EDGE ( 'NONE', *, *, #258, .T. ) ;
#33 = DIRECTION ( 'NONE',  ( 0.0000000000000000000, 0.0000000000000000000, 1.000000000000000000 ) ) ;
#34 = LINE ( 'NONE', #285, #161 ) ;
#35 = CARTESIAN_POINT ( 'NONE',  ( 0.0000000000000000000, -4.099999999993997335, 1.749999999958617991 ) ) ;
#36 = ORIENTED_EDGE ( 'NONE', *, *, #83, .T. ) ;
#37 = ADVANCED_FACE ( 'NONE', ( #534 ), #118, .F. ) ;
#38 = CIRCLE ( 'NONE', #171, 6.800000000000000711 ) ;
#39 = ORIENTED_EDGE ( 'NONE', *, *, #444, .T. ) ;
#40 = DIRECTION ( 'NONE',  ( 0.0000000000000000000, 0.0000000000000000000, 1.000000000000000000 ) ) ;
#41 = AXIS2_PLACEMENT_3D ( 'NONE', #192, #260, #501 ) ;
#42 = EDGE_CURVE ( 'NONE', #557, #426, #769, .T. ) ;
#43 = AXIS2_PLACEMENT_3D ( 'NONE', #760, #474, #657 ) ;
#44 = FACE_OUTER_BOUND ( 'NONE', #633, .T. ) ;
#45 = EDGE_LOOP ( 'NONE', ( #82, #652, #314, #254 ) ) ;
#46 = DIRECTION ( 'NONE',  ( 0.0000000000000000000, 0.0000000000000000000, 1.000000000000000000 ) ) ;
#47 = EDGE_CURVE ( 'NONE', #682, #275, #125, .T. ) ;
#48 = ORIENTED_EDGE ( 'NONE', *, *, #507, .F. ) ;
#49 = DIRECTION ( 'NONE',  ( 0.7071067811865474617, 8.659560562354932858E-17, -0.7071067811865474617 ) ) ;
#50 = CARTESIAN_POINT ( 'NONE',  ( 0.0000000000000000000, 0.0000000000000000000, 1.750000000000000444 ) ) ;
#51 = DIRECTION ( 'NONE',  ( 0.0000000000000000000, 0.0000000000000000000, 1.000000000000000000 ) ) ;
#52 = EDGE_CURVE ( 'NONE', #311, #360, #582, .T. ) ;
#53 = EDGE_LOOP ( 'NONE', ( #224, #526 ) ) ;
#54 = DIRECTION ( 'NONE',  ( 0.0000000000000000000, 0.0000000000000000000, 1.000000000000000000 ) ) ;
#55 = VECTOR ( 'NONE', #62, 1000.000000000000114 ) ;
#56 = AXIS2_PLACEMENT_3D ( 'NONE', #349, #107, #469 ) ;
#57 = VECTOR ( 'NONE', #572, 1000.000000000000000 ) ;
#58 = DIRECTION ( 'NONE',  ( 0.7071067811865474617, 8.659560562354932858E-17, -0.7071067811865474617 ) ) ;
#59 = ORIENTED_EDGE ( 'NONE', *, *, #630, .F. ) ;
#60 =( NAMED_UNIT ( * ) SI_UNIT ( $, .STERADIAN. ) SOLID_ANGLE_UNIT ( ) );
#61 = FACE_OUTER_BOUND ( 'NONE', #45, .T. ) ;
#62 = DIRECTION ( 'NONE',  ( -0.7071067811865474617, 0.0000000000000000000, -0.7071067811865474617 ) ) ;
#63 = VERTEX_POINT ( 'NONE', #359 ) ;
#64 = DIRECTION ( 'NONE',  ( 0.0000000000000000000, -1.000000000000000000, 5.288791085302886819E-17 ) ) ;
#65 = EDGE_LOOP ( 'NONE', ( #684, #455, #508, #32 ) ) ;
#66 = DIRECTION ( 'NONE',  ( 1.000000000000000000, 0.0000000000000000000, 0.0000000000000000000 ) ) ;
#67 = EDGE_CURVE ( 'NONE', #147, #606, #201, .T. ) ;
#68 =( GEOMETRIC_REPRESENTATION_CONTEXT ( 3 ) GLOBAL_UNCERTAINTY_ASSIGNED_CONTEXT ( ( #117 ) ) GLOBAL_UNIT_ASSIGNED_CONTEXT ( ( #590, #182, #527 ) ) REPRESENTATION_CONTEXT ( 'NONE', 'WORKASPACE' ) );
#69 = CIRCLE ( 'NONE', #513, 6.800000000000000711 ) ;
#70 = ORIENTED_EDGE ( 'NONE', *, *, #286, .F. ) ;
#71 = SURFACE_SIDE_STYLE ('',( #255 ) ) ;
#72 = DIRECTION ( 'NONE',  ( -0.0000000000000000000, -0.0000000000000000000, -1.000000000000000000 ) ) ;
#73 = PLANE ( 'NONE',  #701 ) ;
#74 = ORIENTED_EDGE ( 'NONE', *, *, #222, .T. ) ;
#75 = CARTESIAN_POINT ( 'NONE',  ( 0.0000000000000000000, 0.0000000000000000000, -1.650000000000000133 ) ) ;
#76 = CARTESIAN_POINT ( 'NONE',  ( 0.0000000000000000000, 1.503164834666737308E-27, 1.749999999958617991 ) ) ;
#77 = FACE_OUTER_BOUND ( 'NONE', #181, .T. ) ;
#78 = ADVANCED_FACE ( 'NONE', ( #416 ), #542, .T. ) ;
#79 = ORIENTED_EDGE ( 'NONE', *, *, #126, .T. ) ;
#80 = DIRECTION ( 'NONE',  ( 0.0000000000000000000, 0.0000000000000000000, 1.000000000000000000 ) ) ;
#81 = AXIS2_PLACEMENT_3D ( 'NONE', #463, #54, #417 ) ;
#82 = ORIENTED_EDGE ( 'NONE', *, *, #42, .F. ) ;
#83 = EDGE_CURVE ( 'NONE', #27, #724, #548, .T. ) ;
#84 = LINE ( 'NONE', #87, #252 ) ;
#85 = PRODUCT_DEFINITION_SHAPE ( 'NONE', 'NONE',  #466 ) ;
#86 = ORIENTED_EDGE ( 'NONE', *, *, #258, .F. ) ;
#87 = CARTESIAN_POINT ( 'NONE',  ( -5.300000000000000711, 6.490628035480972910E-16, 1.650000000000000133 ) ) ;
#88 = EDGE_CURVE ( 'NONE', #227, #570, #470, .T. ) ;
#89 = CARTESIAN_POINT ( 'NONE',  ( 0.0000000000000000000, 6.000000000000000000, 1.750000000000000222 ) ) ;
#90 = ORIENTED_EDGE ( 'NONE', *, *, #98, .T. ) ;
#91 = DIRECTION ( 'NONE',  ( 0.0000000000000000000, 0.0000000000000000000, -1.000000000000000000 ) ) ;
#92 = AXIS2_PLACEMENT_3D ( 'NONE', #180, #420, #189 ) ;
#93 = VERTEX_POINT ( 'NONE', #539 ) ;
#94 = AXIS2_PLACEMENT_3D ( 'NONE', #443, #618, #327 ) ;
#95 = DIRECTION ( 'NONE',  ( 1.000000000000000000, 0.0000000000000000000, 0.0000000000000000000 ) ) ;
#96 = AXIS2_PLACEMENT_3D ( 'NONE', #97, #453, #626 ) ;
#97 = CARTESIAN_POINT ( 'NONE',  ( 0.0000000000000000000, 0.0000000000000000000, 1.650000000000001688 ) ) ;
#98 = EDGE_CURVE ( 'NONE', #27, #63, #369, .T. ) ;
#99 = VERTEX_POINT ( 'NONE', #601 ) ;
#100 = DIRECTION ( 'NONE',  ( 1.000000000000000000, 0.0000000000000000000, 0.0000000000000000000 ) ) ;
#101 = EDGE_CURVE ( 'NONE', #724, #289, #424, .T. ) ;
#102 = EDGE_LOOP ( 'NONE', ( #705, #438, #628, #282, #642 ) ) ;
#103 = CARTESIAN_POINT ( 'NONE',  ( 0.0000000000000000000, 0.0000000000000000000, 1.750000000000000444 ) ) ;
#104 = ORIENTED_EDGE ( 'NONE', *, *, #230, .T. ) ;
#105 = CONICAL_SURFACE ( 'NONE', #740, 4.099999999937153916, 0.7853981633974482790 ) ;
#106 = AXIS2_PLACEMENT_3D ( 'NONE', #145, #251, #66 ) ;
#107 = DIRECTION ( 'NONE',  ( 0.0000000000000000000, 0.0000000000000000000, 1.000000000000000000 ) ) ;
#108 = CARTESIAN_POINT ( 'NONE',  ( 0.0000000000000000000, 0.0000000000000000000, -1.650000000000000133 ) ) ;
#109 = ORIENTED_EDGE ( 'NONE', *, *, #47, .F. ) ;
#110 = FACE_OUTER_BOUND ( 'NONE', #206, .T. ) ;
#111 = APPLICATION_CONTEXT ( 'automotive_design' ) ;
#112 = DIRECTION ( 'NONE',  ( 1.000000000000000000, 0.0000000000000000000, 0.0000000000000000000 ) ) ;
#113 = ADVANCED_FACE ( 'NONE', ( #664 ), #784, .T. ) ;
#114 = DIRECTION ( 'NONE',  ( -0.0000000000000000000, -0.0000000000000000000, -1.000000000000000000 ) ) ;
#115 = ORIENTED_EDGE ( 'NONE', *, *, #47, .T. ) ;
#116 = CARTESIAN_POINT ( 'NONE',  ( 0.0000000000000000000, 0.0000000000000000000, 1.650000000000001688 ) ) ;
#117 = UNCERTAINTY_MEASURE_WITH_UNIT (LENGTH_MEASURE( 1.000000000000000082E-05 ), #590, 'distance_accuracy_value', 'NONE');
#118 = CYLINDRICAL_SURFACE ( 'NONE', #92, 5.300000000000000711 ) ;
#119 = ORIENTED_EDGE ( 'NONE', *, *, #665, .T. ) ;
#120 = CYLINDRICAL_SURFACE ( 'NONE', #20, 4.599999999999999645 ) ;
#121 = CIRCLE ( 'NONE', #560, 6.000000000000000000 ) ;
#122 = SURFACE_STYLE_FILL_AREA ( #241 ) ;
#123 = AXIS2_PLACEMENT_3D ( 'NONE', #488, #329, #554 ) ;
#124 = AXIS2_PLACEMENT_3D ( 'NONE', #273, #456, #340 ) ;
#125 = LINE ( 'NONE', #659, #265 ) ;
#126 = EDGE_CURVE ( 'NONE', #311, #243, #34, .T. ) ;
#127 = ORIENTED_EDGE ( 'NONE', *, *, #88, .F. ) ;
#128 = CARTESIAN_POINT ( 'NONE',  ( 4.599999999999999645, 0.0000000000000000000, 1.750000000000000222 ) ) ;
#129 = DIRECTION ( 'NONE',  ( 1.000000000000000000, 0.0000000000000000000, 0.0000000000000000000 ) ) ;
#130 = ORIENTED_EDGE ( 'NONE', *, *, #263, .T. ) ;
#131 = CARTESIAN_POINT ( 'NONE',  ( 0.0000000000000000000, 0.0000000000000000000, 1.650000000000000133 ) ) ;
#132 = ADVANCED_FACE ( 'NONE', ( #765 ), #739, .F. ) ;
#133 = CARTESIAN_POINT ( 'NONE',  ( 0.0000000000000000000, 0.0000000000000000000, -1.650000000000000133 ) ) ;
#134 = ORIENTED_EDGE ( 'NONE', *, *, #461, .T. ) ;
#135 = DIRECTION ( 'NONE',  ( 0.0000000000000000000, 0.0000000000000000000, 1.000000000000000000 ) ) ;
#136 = VECTOR ( 'NONE', #678, 1000.000000000000000 ) ;
#137 = ADVANCED_FACE ( 'NONE', ( #410 ), #619, .F. ) ;
#138 = AXIS2_PLACEMENT_3D ( 'NONE', #669, #200, #491 ) ;
#139 = AXIS2_PLACEMENT_3D ( 'NONE', #315, #599, #2 ) ;
#140 = ORIENTED_EDGE ( 'NONE', *, *, #83, .F. ) ;
#141 = CARTESIAN_POINT ( 'NONE',  ( 6.800000000000000711, 0.0000000000000000000, 1.750000000000000444 ) ) ;
#142 = CARTESIAN_POINT ( 'NONE',  ( 0.0000000000000000000, 0.0000000000000000000, -1.650000000000000133 ) ) ;
#143 = EDGE_CURVE ( 'NONE', #298, #660, #193, .T. ) ;
#144 = ORIENTED_EDGE ( 'NONE', *, *, #126, .F. ) ;
#145 = CARTESIAN_POINT ( 'NONE',  ( 0.0000000000000000000, 0.0000000000000000000, -1.750000000000000000 ) ) ;
#146 = CARTESIAN_POINT ( 'NONE',  ( 0.0000000000000000000, -4.000000000000000000, 1.649999999999999911 ) ) ;
#147 = VERTEX_POINT ( 'NONE', #146 ) ;
#148 = DIRECTION ( 'NONE',  ( -1.000000000000000000, 0.0000000000000000000, 0.0000000000000000000 ) ) ;
#149 = MECHANICAL_DESIGN_GEOMETRIC_PRESENTATION_REPRESENTATION (  '', ( #425 ), #68 ) ;
#150 = CIRCLE ( 'NONE', #583, 4.599999999999999645 ) ;
#151 = VECTOR ( 'NONE', #519, 1000.000000000000000 ) ;
#152 = EDGE_LOOP ( 'NONE', ( #217, #430, #395, #48, #553 ) ) ;
#153 = EDGE_CURVE ( 'NONE', #163, #620, #608, .T. ) ;
#154 = DIRECTION ( 'NONE',  ( 0.0000000000000000000, 0.0000000000000000000, -1.000000000000000000 ) ) ;
#155 = EDGE_LOOP ( 'NONE', ( #616, #497 ) ) ;
#156 = CARTESIAN_POINT ( 'NONE',  ( -4.000000000000000000, 4.898587196589412829E-16, 1.750000000000000444 ) ) ;
#157 = CARTESIAN_POINT ( 'NONE',  ( 0.0000000000000000000, 0.0000000000000000000, -1.750000000000000222 ) ) ;
#158 = ORIENTED_EDGE ( 'NONE', *, *, #190, .F. ) ;
#159 =( NAMED_UNIT ( * ) SI_UNIT ( $, .STERADIAN. ) SOLID_ANGLE_UNIT ( ) );
#160 = CARTESIAN_POINT ( 'NONE',  ( 0.0000000000000000000, 0.0000000000000000000, -1.649999999983720045 ) ) ;
#161 = VECTOR ( 'NONE', #525, 1000.000000000000000 ) ;
#162 = AXIS2_PLACEMENT_3D ( 'NONE', #160, #685, #287 ) ;
#163 = VERTEX_POINT ( 'NONE', #386 ) ;
#164 = DIRECTION ( 'NONE',  ( 0.0000000000000000000, 0.0000000000000000000, 1.000000000000000000 ) ) ;
#165 = EDGE_CURVE ( 'NONE', #682, #15, #291, .T. ) ;
#166 = ORIENTED_EDGE ( 'NONE', *, *, #546, .F. ) ;
#167 = LINE ( 'NONE', #294, #458 ) ;
#168 = CARTESIAN_POINT ( 'NONE',  ( 0.0000000000000000000, 0.0000000000000000000, -0.9500000000000000666 ) ) ;
#169 = CARTESIAN_POINT ( 'NONE',  ( 0.0000000000000000000, 0.0000000000000000000, -1.649999999983720045 ) ) ;
#170 = DIRECTION ( 'NONE',  ( 0.0000000000000000000, -1.000000000000000000, 0.0000000000000000000 ) ) ;
#171 = AXIS2_PLACEMENT_3D ( 'NONE', #168, #305, #783 ) ;
#172 = EDGE_CURVE ( 'NONE', #778, #227, #447, .T. ) ;
#173 = AXIS2_PLACEMENT_3D ( 'NONE', #446, #504, #100 ) ;
#174 = CARTESIAN_POINT ( 'NONE',  ( 0.0000000000000000000, 0.0000000000000000000, -1.749999999958617991 ) ) ;
#175 =( GEOMETRIC_REPRESENTATION_CONTEXT ( 3 ) GLOBAL_UNCERTAINTY_ASSIGNED_CONTEXT ( ( #358 ) ) GLOBAL_UNIT_ASSIGNED_CONTEXT ( ( #486, #611, #60 ) ) REPRESENTATION_CONTEXT ( 'NONE', 'WORKASPACE' ) );
#176 = CARTESIAN_POINT ( 'NONE',  ( 0.0000000000000000000, 0.0000000000000000000, 1.649999999999999911 ) ) ;
#177 = EDGE_LOOP ( 'NONE', ( #36, #339 ) ) ;
#178 = DIRECTION ( 'NONE',  ( -0.0000000000000000000, -0.0000000000000000000, -1.000000000000000000 ) ) ;
#179 = FACE_OUTER_BOUND ( 'NONE', #1, .T. ) ;
#180 = CARTESIAN_POINT ( 'NONE',  ( 0.0000000000000000000, 0.0000000000000000000, 1.650000000000000133 ) ) ;
#181 = EDGE_LOOP ( 'NONE', ( #191, #59 ) ) ;
#182 =( NAMED_UNIT ( * ) PLANE_ANGLE_UNIT ( ) SI_UNIT ( $, .RADIAN. ) );
#183 = CARTESIAN_POINT ( 'NONE',  ( -5.899999999996907718, 0.0000000000000000000, 1.749999999958617991 ) ) ;
#184 = EDGE_LOOP ( 'NONE', ( #567, #134 ) ) ;
#185 = AXIS2_PLACEMENT_3D ( 'NONE', #363, #776, #306 ) ;
#186 = LINE ( 'NONE', #428, #511 ) ;
#187 = CIRCLE ( 'NONE', #625, 5.300000000000000711 ) ;
#188 = VECTOR ( 'NONE', #703, 1000.000000000000000 ) ;
#189 = DIRECTION ( 'NONE',  ( 1.000000000000000000, 0.0000000000000000000, 0.0000000000000000000 ) ) ;
#190 = EDGE_CURVE ( 'NONE', #452, #523, #498, .T. ) ;
#191 = ORIENTED_EDGE ( 'NONE', *, *, #230, .F. ) ;
#192 = CARTESIAN_POINT ( 'NONE',  ( 0.0000000000000000000, 0.0000000000000000000, -1.750000000015461410 ) ) ;
#193 = LINE ( 'NONE', #209, #136 ) ;
#194 = EDGE_LOOP ( 'NONE', ( #109, #505, #248, #86 ) ) ;
#195 = SURFACE_STYLE_USAGE ( .BOTH. , #71 ) ;
#196 = FACE_OUTER_BOUND ( 'NONE', #413, .T. ) ;
#197 = FACE_OUTER_BOUND ( 'NONE', #737, .T. ) ;
#198 = EDGE_LOOP ( 'NONE', ( #325, #747 ) ) ;
#199 = ADVANCED_FACE ( 'NONE', ( #674 ), #319, .F. ) ;
#200 = DIRECTION ( 'NONE',  ( 0.0000000000000000000, 0.0000000000000000000, 1.000000000000000000 ) ) ;
#201 = CIRCLE ( 'NONE', #378, 4.000000000000000000 ) ;
#202 = AXIS2_PLACEMENT_3D ( 'NONE', #506, #154, #148 ) ;
#203 = VERTEX_POINT ( 'NONE', #736 ) ;
#204 = LINE ( 'NONE', #141, #612 ) ;
#205 = DIRECTION ( 'NONE',  ( -1.000000000000000000, 0.0000000000000000000, 0.0000000000000000000 ) ) ;
#206 = EDGE_LOOP ( 'NONE', ( #623, #370, #767, #39 ) ) ;
#207 = DIRECTION ( 'NONE',  ( 0.0000000000000000000, 0.0000000000000000000, 1.000000000000000000 ) ) ;
#208 = DIRECTION ( 'NONE',  ( -0.0000000000000000000, -0.0000000000000000000, -1.000000000000000000 ) ) ;
#209 = CARTESIAN_POINT ( 'NONE',  ( 4.000000000000000000, 0.0000000000000000000, 1.750000000000000444 ) ) ;
#210 = ORIENTED_EDGE ( 'NONE', *, *, #101, .T. ) ;
#211 = DIRECTION ( 'NONE',  ( -0.0000000000000000000, -0.0000000000000000000, -1.000000000000000000 ) ) ;
#212 = AXIS2_PLACEMENT_3D ( 'NONE', #465, #709, #170 ) ;
#213 = ADVANCED_FACE ( 'NONE', ( #614, #197 ), #73, .F. ) ;
#214 = EDGE_LOOP ( 'NONE', ( #693, #671 ) ) ;
#215 = DIRECTION ( 'NONE',  ( 1.000000000000000000, 0.0000000000000000000, 0.0000000000000000000 ) ) ;
#216 = DIRECTION ( 'NONE',  ( -1.000000000000000000, 0.0000000000000000000, 0.0000000000000000000 ) ) ;
#217 = ORIENTED_EDGE ( 'NONE', *, *, #67, .T. ) ;
#218 = CARTESIAN_POINT ( 'NONE',  ( 0.0000000000000000000, 0.0000000000000000000, 1.750000000000000222 ) ) ;
#219 = ADVANCED_FACE ( 'NONE', ( #77, #632 ), #335, .F. ) ;
#220 = ORIENTED_EDGE ( 'NONE', *, *, #580, .T. ) ;
#221 = CARTESIAN_POINT ( 'NONE',  ( -4.599999999999999645, 5.633375276077824112E-16, 1.650000000000000133 ) ) ;
#222 = EDGE_CURVE ( 'NONE', #63, #289, #484, .T. ) ;
#223 = VECTOR ( 'NONE', #531, 1000.000000000000114 ) ;
#224 = ORIENTED_EDGE ( 'NONE', *, *, #475, .F. ) ;
#225 = FACE_OUTER_BOUND ( 'NONE', #301, .T. ) ;
#226 = PRODUCT_DEFINITION_FORMATION_WITH_SPECIFIED_SOURCE ( 'ANY', '', #393, .NOT_KNOWN. ) ;
#227 = VERTEX_POINT ( 'NONE', #278 ) ;
#228 = DIRECTION ( 'NONE',  ( -1.000000000000000000, 0.0000000000000000000, 0.0000000000000000000 ) ) ;
#229 = DIRECTION ( 'NONE',  ( 1.000000000000000000, 0.0000000000000000000, 0.0000000000000000000 ) ) ;
#230 = EDGE_CURVE ( 'NONE', #503, #99, #457, .T. ) ;
#231 = CARTESIAN_POINT ( 'NONE',  ( 0.0000000000000000000, 0.0000000000000000000, -1.650000000000000133 ) ) ;
#232 = DIRECTION ( 'NONE',  ( 1.000000000000000000, 0.0000000000000000000, 0.0000000000000000000 ) ) ;
#233 = DIRECTION ( 'NONE',  ( -1.000000000000000000, 0.0000000000000000000, 0.0000000000000000000 ) ) ;
#234 = CIRCLE ( 'NONE', #123, 4.000000000000000000 ) ;
#235 = ORIENTED_EDGE ( 'NONE', *, *, #762, .F. ) ;
#236 = FACE_OUTER_BOUND ( 'NONE', #592, .T. ) ;
#237 = CIRCLE ( 'NONE', #729, 4.099999999993997335 ) ;
#238 = DIRECTION ( 'NONE',  ( -0.0000000000000000000, -0.0000000000000000000, -1.000000000000000000 ) ) ;
#239 =( GEOMETRIC_REPRESENTATION_CONTEXT ( 3 ) GLOBAL_UNCERTAINTY_ASSIGNED_CONTEXT ( ( #594 ) ) GLOBAL_UNIT_ASSIGNED_CONTEXT ( ( #13, #276, #159 ) ) REPRESENTATION_CONTEXT ( 'NONE', 'WORKASPACE' ) );
#240 = EDGE_LOOP ( 'NONE', ( #730, #741, #25, #647 ) ) ;
#241 = FILL_AREA_STYLE ('',( #368 ) ) ;
#242 = CARTESIAN_POINT ( 'NONE',  ( 4.599999999999999645, 5.633375276077824112E-16, -1.650000000000000133 ) ) ;
#243 = VERTEX_POINT ( 'NONE', #700 ) ;
#244 = CARTESIAN_POINT ( 'NONE',  ( 4.599999999999999645, 0.0000000000000000000, 1.650000000000000133 ) ) ;
#245 = PRODUCT_DEFINITION_CONTEXT ( 'detailed design', #297, 'design' ) ;
#246 = EDGE_CURVE ( 'NONE', #426, #203, #38, .T. ) ;
#247 = CARTESIAN_POINT ( 'NONE',  ( 0.0000000000000000000, 0.0000000000000000000, 1.650000000000000133 ) ) ;
#248 = ORIENTED_EDGE ( 'NONE', *, *, #762, .T. ) ;
#249 = CARTESIAN_POINT ( 'NONE',  ( -5.999999999858118827, 0.0000000000000000000, 1.650000000097406883 ) ) ;
#250 = VECTOR ( 'NONE', #723, 1000.000000000000000 ) ;
#251 = DIRECTION ( 'NONE',  ( 0.0000000000000000000, 0.0000000000000000000, 1.000000000000000000 ) ) ;
#252 = VECTOR ( 'NONE', #404, 1000.000000000000000 ) ;
#253 = DIRECTION ( 'NONE',  ( 0.0000000000000000000, 0.0000000000000000000, -1.000000000000000000 ) ) ;
#254 = ORIENTED_EDGE ( 'NONE', *, *, #779, .T. ) ;
#255 = SURFACE_STYLE_FILL_AREA ( #9 ) ;
#256 = PLANE ( 'NONE',  #138 ) ;
#257 = DIRECTION ( 'NONE',  ( 0.0000000000000000000, 0.0000000000000000000, 1.000000000000000000 ) ) ;
#258 = EDGE_CURVE ( 'NONE', #275, #543, #121, .T. ) ;
#259 = ORIENTED_EDGE ( 'NONE', *, *, #641, .F. ) ;
#260 = DIRECTION ( 'NONE',  ( 0.0000000000000000000, 0.0000000000000000000, -1.000000000000000000 ) ) ;
#261 = EDGE_LOOP ( 'NONE', ( #70, #303, #734, #104 ) ) ;
#262 = DIRECTION ( 'NONE',  ( -1.000000000000000000, 0.0000000000000000000, -0.0000000000000000000 ) ) ;
#263 = EDGE_CURVE ( 'NONE', #243, #477, #758, .T. ) ;
#264 = DIRECTION ( 'NONE',  ( 1.000000000000000000, 0.0000000000000000000, 0.0000000000000000000 ) ) ;
#265 = VECTOR ( 'NONE', #58, 1000.000000000000114 ) ;
#266 = DIRECTION ( 'NONE',  ( -1.000000000000000000, 0.0000000000000000000, 0.0000000000000000000 ) ) ;
#267 = AXIS2_PLACEMENT_3D ( 'NONE', #517, #211, #396 ) ;
#268 = AXIS2_PLACEMENT_3D ( 'NONE', #751, #207, #95 ) ;
#269 = EDGE_LOOP ( 'NONE', ( #407, #115, #259, #235 ) ) ;
#270 = LINE ( 'NONE', #277, #188 ) ;
#271 = ADVANCED_FACE ( 'NONE', ( #44 ), #773, .T. ) ;
#272 = ORIENTED_EDGE ( 'NONE', *, *, #52, .T. ) ;
#273 = CARTESIAN_POINT ( 'NONE',  ( 0.0000000000000000000, 0.0000000000000000000, -1.750000000000000222 ) ) ;
#274 = EDGE_CURVE ( 'NONE', #602, #388, #663, .T. ) ;
#275 = VERTEX_POINT ( 'NONE', #476 ) ;
#276 =( NAMED_UNIT ( * ) PLANE_ANGLE_UNIT ( ) SI_UNIT ( $, .RADIAN. ) );
#277 = CARTESIAN_POINT ( 'NONE',  ( 5.300000000000000711, 0.0000000000000000000, 1.650000000000000133 ) ) ;
#278 = CARTESIAN_POINT ( 'NONE',  ( 5.021051876496797174E-16, 4.099999999993997335, 1.749999999958617991 ) ) ;
#279 = AXIS2_PLACEMENT_3D ( 'NONE', #655, #528, #670 ) ;
#280 = EDGE_CURVE ( 'NONE', #606, #778, #350, .T. ) ;
#281 = AXIS2_PLACEMENT_3D ( 'NONE', #75, #603, #262 ) ;
#282 = ORIENTED_EDGE ( 'NONE', *, *, #353, .F. ) ;
#283 = PRODUCT_CONTEXT ( 'NONE', #111, 'mechanical' ) ;
#284 = FACE_OUTER_BOUND ( 'NONE', #198, .T. ) ;
#285 = CARTESIAN_POINT ( 'NONE',  ( -5.300000000000000711, 0.0000000000000000000, -1.650000000000000133 ) ) ;
#286 = EDGE_CURVE ( 'NONE', #530, #99, #600, .T. ) ;
#287 = DIRECTION ( 'NONE',  ( -1.000000000000000000, 0.0000000000000000000, 0.0000000000000000000 ) ) ;
#288 = MANIFOLD_SOLID_BREP ( 'Chamfer1', #533 ) ;
#289 = VERTEX_POINT ( 'NONE', #415 ) ;
#290 = CARTESIAN_POINT ( 'NONE',  ( 5.899999999996907718, 7.286648454924858699E-16, 1.749999999958617991 ) ) ;
#291 = CIRCLE ( 'NONE', #726, 5.899999999996907718 ) ;
#292 = CONICAL_SURFACE ( 'NONE', #43, 4.099999999937153916, 0.7853981633974482790 ) ;
#293 = ORIENTED_EDGE ( 'NONE', *, *, #419, .T. ) ;
#294 = CARTESIAN_POINT ( 'NONE',  ( 4.099999999937153916, 5.021051876427184143E-16, -1.749999999958617991 ) ) ;
#295 = DIRECTION ( 'NONE',  ( -0.0000000000000000000, -0.0000000000000000000, -1.000000000000000000 ) ) ;
#296 = EDGE_CURVE ( 'NONE', #620, #163, #562, .T. ) ;
#297 = APPLICATION_CONTEXT ( 'automotive_design' ) ;
#298 = VERTEX_POINT ( 'NONE', #532 ) ;
#299 = DIRECTION ( 'NONE',  ( -0.0000000000000000000, -0.0000000000000000000, -1.000000000000000000 ) ) ;
#300 = CARTESIAN_POINT ( 'NONE',  ( -4.599999999999999645, 0.0000000000000000000, -1.650000000000000133 ) ) ;
#301 = EDGE_LOOP ( 'NONE', ( #21, #328, #220, #434 ) ) ;
#302 = DIRECTION ( 'NONE',  ( -0.0000000000000000000, -0.0000000000000000000, -1.000000000000000000 ) ) ;
#303 = ORIENTED_EDGE ( 'NONE', *, *, #624, .F. ) ;
#304 = CIRCLE ( 'NONE', #106, 6.800000000000000711 ) ;
#305 = DIRECTION ( 'NONE',  ( -0.0000000000000000000, -0.0000000000000000000, -1.000000000000000000 ) ) ;
#306 = DIRECTION ( 'NONE',  ( 0.0000000000000000000, -1.000000000000000000, 5.288791085302886819E-17 ) ) ;
#307 = ORIENTED_EDGE ( 'NONE', *, *, #101, .F. ) ;
#308 = DIRECTION ( 'NONE',  ( 0.0000000000000000000, 0.0000000000000000000, 1.000000000000000000 ) ) ;
#309 = ADVANCED_FACE ( 'NONE', ( #61 ), #460, .T. ) ;
#310 = CARTESIAN_POINT ( 'NONE',  ( 0.0000000000000000000, 0.0000000000000000000, -1.650000000000000133 ) ) ;
#311 = VERTEX_POINT ( 'NONE', #719 ) ;
#312 = DIRECTION ( 'NONE',  ( -0.0000000000000000000, -0.0000000000000000000, -1.000000000000000000 ) ) ;
#313 = CARTESIAN_POINT ( 'NONE',  ( 0.0000000000000000000, 0.0000000000000000000, -1.650000000000000133 ) ) ;
#314 = ORIENTED_EDGE ( 'NONE', *, *, #766, .T. ) ;
#315 = CARTESIAN_POINT ( 'NONE',  ( 0.0000000000000000000, 0.0000000000000000000, -0.9500000000000000666 ) ) ;
#316 = AXIS2_PLACEMENT_3D ( 'NONE', #108, #114, #233 ) ;
#317 = CARTESIAN_POINT ( 'NONE',  ( -4.099999999993997335, 0.0000000000000000000, -1.750000000015461410 ) ) ;
#318 = AXIS2_PLACEMENT_3D ( 'NONE', #131, #308, #731 ) ;
#319 = CYLINDRICAL_SURFACE ( 'NONE', #714, 4.000000000000000000 ) ;
#320 = ADVANCED_FACE ( 'NONE', ( #179 ), #581, .F. ) ;
#321 = PRESENTATION_LAYER_ASSIGNMENT (  '', '', ( #692 ) ) ;
#322 = ORIENTED_EDGE ( 'NONE', *, *, #561, .F. ) ;
#323 = DIRECTION ( 'NONE',  ( 0.0000000000000000000, 0.0000000000000000000, -1.000000000000000000 ) ) ;
#324 = CARTESIAN_POINT ( 'NONE',  ( 0.0000000000000000000, 6.000000000000000000, 1.750000000000000222 ) ) ;
#325 = ORIENTED_EDGE ( 'NONE', *, *, #779, .F. ) ;
#326 = DIRECTION ( 'NONE',  ( 0.0000000000000000000, 0.0000000000000000000, 1.000000000000000000 ) ) ;
#327 = DIRECTION ( 'NONE',  ( 0.0000000000000000000, -1.000000000000000000, 0.0000000000000000000 ) ) ;
#328 = ORIENTED_EDGE ( 'NONE', *, *, #665, .F. ) ;
#329 = DIRECTION ( 'NONE',  ( -0.0000000000000000000, -0.0000000000000000000, -1.000000000000000000 ) ) ;
#330 = COLOUR_RGB ( '',0.7921568627450980005, 0.8196078431372548767, 0.9333333333333333481 ) ;
#331 = AXIS2_PLACEMENT_3D ( 'NONE', #218, #164, #757 ) ;
#332 = ORIENTED_EDGE ( 'NONE', *, *, #648, .T. ) ;
#333 = ADVANCED_FACE ( 'NONE', ( #658 ), #105, .F. ) ;
#334 = CARTESIAN_POINT ( 'NONE',  ( 0.0000000000000000000, 0.0000000000000000000, 1.650000000000000133 ) ) ;
#335 = PLANE ( 'NONE',  #19 ) ;
#336 = EDGE_LOOP ( 'NONE', ( #166, #656, #480, #352, #667 ) ) ;
#337 = LINE ( 'NONE', #156, #57 ) ;
#338 = DIRECTION ( 'NONE',  ( -1.000000000000000000, 0.0000000000000000000, -0.0000000000000000000 ) ) ;
#339 = ORIENTED_EDGE ( 'NONE', *, *, #483, .T. ) ;
#340 = DIRECTION ( 'NONE',  ( -1.000000000000000000, 0.0000000000000000000, 0.0000000000000000000 ) ) ;
#341 = AXIS2_PLACEMENT_3D ( 'NONE', #247, #727, #429 ) ;
#342 = EDGE_CURVE ( 'NONE', #298, #384, #609, .T. ) ;
#343 = LINE ( 'NONE', #595, #55 ) ;
#344 = CARTESIAN_POINT ( 'NONE',  ( 4.000000000000000000, 0.0000000000000000000, 1.649999999999999911 ) ) ;
#345 = EDGE_LOOP ( 'NONE', ( #749, #322 ) ) ;
#346 = CARTESIAN_POINT ( 'NONE',  ( -4.000000000000000000, 4.898587196589412829E-16, 1.649999999999999911 ) ) ;
#347 = ORIENTED_EDGE ( 'NONE', *, *, #374, .F. ) ;
#348 = CYLINDRICAL_SURFACE ( 'NONE', #487, 6.800000000000000711 ) ;
#349 = CARTESIAN_POINT ( 'NONE',  ( 0.0000000000000000000, 0.0000000000000000000, 1.750000000000000444 ) ) ;
#350 = CIRCLE ( 'NONE', #750, 4.000000000000000000 ) ;
#351 = CIRCLE ( 'NONE', #173, 4.599999999999999645 ) ;
#352 = ORIENTED_EDGE ( 'NONE', *, *, #529, .F. ) ;
#353 = EDGE_CURVE ( 'NONE', #660, #147, #234, .T. ) ;
#354 = SURFACE_STYLE_USAGE ( .BOTH. , #649 ) ;
#355 = DIRECTION ( 'NONE',  ( 0.0000000000000000000, 0.0000000000000000000, 1.000000000000000000 ) ) ;
#356 = EDGE_LOOP ( 'NONE', ( #272, #710 ) ) ;
#357 = CARTESIAN_POINT ( 'NONE',  ( 0.0000000000000000000, 0.0000000000000000000, 1.649999999999999911 ) ) ;
#358 = UNCERTAINTY_MEASURE_WITH_UNIT (LENGTH_MEASURE( 1.000000000000000082E-05 ), #486, 'distance_accuracy_value', 'NONE');
#359 = CARTESIAN_POINT ( 'NONE',  ( -4.599999999999999645, 0.0000000000000000000, -1.750000000000000222 ) ) ;
#360 = VERTEX_POINT ( 'NONE', #732 ) ;
#361 = LINE ( 'NONE', #468, #223 ) ;
#362 = DIRECTION ( 'NONE',  ( 1.000000000000000000, 0.0000000000000000000, 0.0000000000000000000 ) ) ;
#363 = CARTESIAN_POINT ( 'NONE',  ( 0.0000000000000000000, 1.503164834666737308E-27, 1.749999999958617991 ) ) ;
#364 = ADVANCED_FACE ( 'NONE', ( #3 ), #432, .F. ) ;
#365 = ORIENTED_EDGE ( 'NONE', *, *, #475, .T. ) ;
#366 = LINE ( 'NONE', #249, #691 ) ;
#367 = CONICAL_SURFACE ( 'NONE', #380, 5.999999999858118827, 0.7853981633974482790 ) ;
#368 = FILL_AREA_STYLE_COLOUR ( '', #330 ) ;
#369 = LINE ( 'NONE', #482, #712 ) ;
#370 = ORIENTED_EDGE ( 'NONE', *, *, #635, .F. ) ;
#371 = DIRECTION ( 'NONE',  ( -0.0000000000000000000, -2.644395542688106028E-17, -1.000000000000000000 ) ) ;
#372 = DIRECTION ( 'NONE',  ( 0.0000000000000000000, 0.0000000000000000000, 1.000000000000000000 ) ) ;
#373 = EDGE_LOOP ( 'NONE', ( #307, #140, #90, #74 ) ) ;
#374 = EDGE_CURVE ( 'NONE', #360, #477, #186, .T. ) ;
#375 = LINE ( 'NONE', #244, #639 ) ;
#376 = DIRECTION ( 'NONE',  ( 8.659560562354932858E-17, 0.7071067811865474617, 0.7071067811865474617 ) ) ;
#377 = ORIENTED_EDGE ( 'NONE', *, *, #52, .F. ) ;
#378 = AXIS2_PLACEMENT_3D ( 'NONE', #176, #715, #229 ) ;
#379 = CARTESIAN_POINT ( 'NONE',  ( 0.0000000000000000000, 0.0000000000000000000, 1.750000000000000222 ) ) ;
#380 = AXIS2_PLACEMENT_3D ( 'NONE', #576, #638, #394 ) ;
#381 = DIRECTION ( 'NONE',  ( -0.0000000000000000000, -0.0000000000000000000, -1.000000000000000000 ) ) ;
#382 = ORIENTED_EDGE ( 'NONE', *, *, #746, .T. ) ;
#383 = DIRECTION ( 'NONE',  ( 1.000000000000000000, 0.0000000000000000000, 0.0000000000000000000 ) ) ;
#384 = VERTEX_POINT ( 'NONE', #14 ) ;
#385 = CARTESIAN_POINT ( 'NONE',  ( 5.300000000000000711, 6.490628035480972910E-16, -1.750000000000000222 ) ) ;
#386 = CARTESIAN_POINT ( 'NONE',  ( -6.000000000000000000, 7.347880794884119736E-16, -0.9500000000000000666 ) ) ;
#387 = ADVANCED_FACE ( 'NONE', ( #742 ), #472, .F. ) ;
#388 = VERTEX_POINT ( 'NONE', #317 ) ;
#389 = CARTESIAN_POINT ( 'NONE',  ( -5.300000000000000711, 6.490628035480972910E-16, 1.750000000000000222 ) ) ;
#390 = VECTOR ( 'NONE', #780, 1000.000000000000000 ) ;
#391 = AXIS2_PLACEMENT_3D ( 'NONE', #756, #208, #215 ) ;
#392 = ORIENTED_EDGE ( 'NONE', *, *, #374, .T. ) ;
#393 = PRODUCT ( 'REV Robotics-REV-49-1559', 'REV Robotics-REV-49-1559', '', ( #283 ) ) ;
#394 = DIRECTION ( 'NONE',  ( -1.000000000000000000, 0.0000000000000000000, 0.0000000000000000000 ) ) ;
#395 = ORIENTED_EDGE ( 'NONE', *, *, #172, .T. ) ;
#396 = DIRECTION ( 'NONE',  ( 1.000000000000000000, 0.0000000000000000000, 0.0000000000000000000 ) ) ;
#397 = EDGE_CURVE ( 'NONE', #540, #503, #375, .T. ) ;
#398 = EDGE_LOOP ( 'NONE', ( #158, #332, #293, #442 ) ) ;
#399 = FACE_OUTER_BOUND ( 'NONE', #269, .T. ) ;
#400 = AXIS2_PLACEMENT_3D ( 'NONE', #18, #547, #129 ) ;
#401 = AXIS2_PLACEMENT_3D ( 'NONE', #683, #323, #725 ) ;
#402 = AXIS2_PLACEMENT_3D ( 'NONE', #558, #677, #440 ) ;
#403 = ORIENTED_EDGE ( 'NONE', *, *, #444, .F. ) ;
#404 = DIRECTION ( 'NONE',  ( 0.0000000000000000000, 0.0000000000000000000, 1.000000000000000000 ) ) ;
#405 = CARTESIAN_POINT ( 'NONE',  ( 0.0000000000000000000, 0.0000000000000000000, -1.750000000015461410 ) ) ;
#406 = EDGE_CURVE ( 'NONE', #15, #682, #522, .T. ) ;
#407 = ORIENTED_EDGE ( 'NONE', *, *, #406, .T. ) ;
#408 = FACE_OUTER_BOUND ( 'NONE', #373, .T. ) ;
#409 = CARTESIAN_POINT ( 'NONE',  ( 0.0000000000000000000, 0.0000000000000000000, -1.750000000000000222 ) ) ;
#410 = FACE_OUTER_BOUND ( 'NONE', #421, .T. ) ;
#411 = PRESENTATION_LAYER_ASSIGNMENT (  '', '', ( #425 ) ) ;
#412 = CIRCLE ( 'NONE', #716, 5.300000000000000711 ) ;
#413 = EDGE_LOOP ( 'NONE', ( #687, #536 ) ) ;
#414 = DIRECTION ( 'NONE',  ( 0.0000000000000000000, 0.0000000000000000000, 1.000000000000000000 ) ) ;
#415 = CARTESIAN_POINT ( 'NONE',  ( 4.599999999999999645, 5.633375276077824112E-16, -1.750000000000000222 ) ) ;
#416 = FACE_OUTER_BOUND ( 'NONE', #702, .T. ) ;
#417 = DIRECTION ( 'NONE',  ( 1.000000000000000000, 0.0000000000000000000, 0.0000000000000000000 ) ) ;
#418 = CARTESIAN_POINT ( 'NONE',  ( 0.0000000000000000000, 0.0000000000000000000, -1.650000000000000133 ) ) ;
#419 = EDGE_CURVE ( 'NONE', #584, #93, #187, .T. ) ;
#420 = DIRECTION ( 'NONE',  ( 0.0000000000000000000, 0.0000000000000000000, 1.000000000000000000 ) ) ;
#421 = EDGE_LOOP ( 'NONE', ( #347, #377, #79, #130 ) ) ;
#422 = LINE ( 'NONE', #661, #151 ) ;
#423 = DIRECTION ( 'NONE',  ( -1.000000000000000000, 0.0000000000000000000, 0.0000000000000000000 ) ) ;
#424 = LINE ( 'NONE', #242, #250 ) ;
#425 = STYLED_ITEM ( 'NONE', ( #478 ), #288 ) ;
#426 = VERTEX_POINT ( 'NONE', #495 ) ;
#427 = CIRCLE ( 'NONE', #535, 4.599999999999999645 ) ;
#428 = CARTESIAN_POINT ( 'NONE',  ( 5.300000000000000711, 6.490628035480972910E-16, -1.650000000000000133 ) ) ;
#429 = DIRECTION ( 'NONE',  ( 1.000000000000000000, 0.0000000000000000000, 0.0000000000000000000 ) ) ;
#430 = ORIENTED_EDGE ( 'NONE', *, *, #280, .T. ) ;
#431 = FACE_OUTER_BOUND ( 'NONE', #356, .T. ) ;
#432 = CYLINDRICAL_SURFACE ( 'NONE', #774, 4.000000000000000000 ) ;
#433 = DIRECTION ( 'NONE',  ( 1.000000000000000000, 0.0000000000000000000, 0.0000000000000000000 ) ) ;
#434 = ORIENTED_EDGE ( 'NONE', *, *, #586, .T. ) ;
#435 = PRESENTATION_STYLE_ASSIGNMENT (( #195 ) ) ;
#436 = FACE_BOUND ( 'NONE', #763, .T. ) ;
#437 = CARTESIAN_POINT ( 'NONE',  ( 0.0000000000000000000, 0.0000000000000000000, 1.650000000000000133 ) ) ;
#438 = ORIENTED_EDGE ( 'NONE', *, *, #546, .T. ) ;
#439 = AXIS2_PLACEMENT_3D ( 'NONE', #50, #764, #362 ) ;
#440 = DIRECTION ( 'NONE',  ( 1.000000000000000000, 0.0000000000000000000, -0.0000000000000000000 ) ) ;
#441 = CIRCLE ( 'NONE', #331, 5.300000000000000711 ) ;
#442 = ORIENTED_EDGE ( 'NONE', *, *, #580, .F. ) ;
#443 = CARTESIAN_POINT ( 'NONE',  ( 0.0000000000000000000, 0.0000000000000000000, 1.749999999901774572 ) ) ;
#444 = EDGE_CURVE ( 'NONE', #388, #602, #728, .T. ) ;
#445 = EDGE_LOOP ( 'NONE', ( #514, #12 ) ) ;
#446 = CARTESIAN_POINT ( 'NONE',  ( 0.0000000000000000000, 0.0000000000000000000, 1.650000000000000133 ) ) ;
#447 = LINE ( 'NONE', #622, #650 ) ;
#448 = ORIENTED_EDGE ( 'NONE', *, *, #529, .T. ) ;
#449 = PLANE ( 'NONE',  #502 ) ;
#450 = AXIS2_PLACEMENT_3D ( 'NONE', #313, #381, #11 ) ;
#451 = CONICAL_SURFACE ( 'NONE', #202, 5.999999999858118827, 0.7853981633974482790 ) ;
#452 = VERTEX_POINT ( 'NONE', #673 ) ;
#453 = DIRECTION ( 'NONE',  ( -0.0000000000000000000, -0.0000000000000000000, -1.000000000000000000 ) ) ;
#454 = CARTESIAN_POINT ( 'NONE',  ( 0.0000000000000000000, 0.0000000000000000000, -1.750000000000000000 ) ) ;
#455 = ORIENTED_EDGE ( 'NONE', *, *, #153, .T. ) ;
#456 = DIRECTION ( 'NONE',  ( -0.0000000000000000000, -0.0000000000000000000, -1.000000000000000000 ) ) ;
#457 = CIRCLE ( 'NONE', #510, 4.599999999999999645 ) ;
#458 = VECTOR ( 'NONE', #49, 1000.000000000000114 ) ;
#459 = CYLINDRICAL_SURFACE ( 'NONE', #318, 5.300000000000000711 ) ;
#460 = CYLINDRICAL_SURFACE ( 'NONE', #56, 6.800000000000000711 ) ;
#461 = EDGE_CURVE ( 'NONE', #530, #540, #150, .T. ) ;
#462 = ORIENTED_EDGE ( 'NONE', *, *, #489, .F. ) ;
#463 = CARTESIAN_POINT ( 'NONE',  ( 0.0000000000000000000, 0.0000000000000000000, 1.650000000000000133 ) ) ;
#464 = DIRECTION ( 'NONE',  ( -1.000000000000000000, 0.0000000000000000000, 0.0000000000000000000 ) ) ;
#465 = CARTESIAN_POINT ( 'NONE',  ( 0.0000000000000000000, 0.0000000000000000000, 1.749999999901774572 ) ) ;
#466 = PRODUCT_DEFINITION ( 'UNKNOWN', '', #226, #245 ) ;
#467 = ORIENTED_EDGE ( 'NONE', *, *, #274, .T. ) ;
#468 = CARTESIAN_POINT ( 'NONE',  ( 0.0000000000000000000, -4.099999999937153916, 1.749999999901774572 ) ) ;
#469 = DIRECTION ( 'NONE',  ( 1.000000000000000000, 0.0000000000000000000, 0.0000000000000000000 ) ) ;
#470 = CIRCLE ( 'NONE', #185, 4.099999999993997335 ) ;
#471 = LINE ( 'NONE', #720, #521 ) ;
#472 = CONICAL_SURFACE ( 'NONE', #94, 4.099999999937153916, 0.7853981633974482790 ) ;
#473 = CIRCLE ( 'NONE', #139, 6.800000000000000711 ) ;
#474 = DIRECTION ( 'NONE',  ( 0.0000000000000000000, 0.0000000000000000000, -1.000000000000000000 ) ) ;
#475 = EDGE_CURVE ( 'NONE', #675, #557, #304, .T. ) ;
#476 = CARTESIAN_POINT ( 'NONE',  ( 5.999999999955524466, 7.347880794829651849E-16, 1.650000000000001688 ) ) ;
#477 = VERTEX_POINT ( 'NONE', #385 ) ;
#478 = PRESENTATION_STYLE_ASSIGNMENT (( #354 ) ) ;
#479 = CARTESIAN_POINT ( 'NONE',  ( -6.800000000000000711, 8.327598234202002105E-16, 1.750000000000000444 ) ) ;
#480 = ORIENTED_EDGE ( 'NONE', *, *, #143, .T. ) ;
#481 = FACE_OUTER_BOUND ( 'NONE', #680, .T. ) ;
#482 = CARTESIAN_POINT ( 'NONE',  ( -4.599999999999999645, 0.0000000000000000000, -1.650000000000000133 ) ) ;
#483 = EDGE_CURVE ( 'NONE', #724, #27, #427, .T. ) ;
#484 = CIRCLE ( 'NONE', #679, 4.599999999999999645 ) ;
#485 = ORIENTED_EDGE ( 'NONE', *, *, #699, .T. ) ;
#486 =( LENGTH_UNIT ( ) NAMED_UNIT ( * ) SI_UNIT ( .MILLI., .METRE. ) );
#487 = AXIS2_PLACEMENT_3D ( 'NONE', #103, #40, #645 ) ;
#488 = CARTESIAN_POINT ( 'NONE',  ( 0.0000000000000000000, 0.0000000000000000000, 1.649999999999999911 ) ) ;
#489 = EDGE_CURVE ( 'NONE', #360, #311, #666, .T. ) ;
#490 = ORIENTED_EDGE ( 'NONE', *, *, #98, .F. ) ;
#491 = DIRECTION ( 'NONE',  ( 1.000000000000000000, 0.0000000000000000000, -0.0000000000000000000 ) ) ;
#492 = DIRECTION ( 'NONE',  ( 1.000000000000000000, 0.0000000000000000000, 0.0000000000000000000 ) ) ;
#493 = EDGE_LOOP ( 'NONE', ( #578, #448, #718, #485, #127 ) ) ;
#494 = APPLICATION_PROTOCOL_DEFINITION ( 'draft international standard', 'automotive_design', 1998, #111 ) ;
#495 = CARTESIAN_POINT ( 'NONE',  ( -6.800000000000000711, 8.327598234202002105E-16, -0.9500000000000000666 ) ) ;
#496 = DIRECTION ( 'NONE',  ( -1.000000000000000000, 0.0000000000000000000, -0.0000000000000000000 ) ) ;
#497 = ORIENTED_EDGE ( 'NONE', *, *, #419, .F. ) ;
#498 = CIRCLE ( 'NONE', #571, 5.300000000000000711 ) ;
#499 = AXIS2_PLACEMENT_3D ( 'NONE', #169, #312, #205 ) ;
#500 = ADVANCED_FACE ( 'NONE', ( #481, #605 ), #256, .T. ) ;
#501 = DIRECTION ( 'NONE',  ( -1.000000000000000000, 0.0000000000000000000, 0.0000000000000000000 ) ) ;
#502 = AXIS2_PLACEMENT_3D ( 'NONE', #24, #91, #752 ) ;
#503 = VERTEX_POINT ( 'NONE', #128 ) ;
#504 = DIRECTION ( 'NONE',  ( -0.0000000000000000000, -0.0000000000000000000, -1.000000000000000000 ) ) ;
#505 = ORIENTED_EDGE ( 'NONE', *, *, #165, .T. ) ;
#506 = CARTESIAN_POINT ( 'NONE',  ( 0.0000000000000000000, 0.0000000000000000000, 1.650000000097406883 ) ) ;
#507 = EDGE_CURVE ( 'NONE', #570, #227, #237, .T. ) ;
#508 = ORIENTED_EDGE ( 'NONE', *, *, #23, .T. ) ;
#509 = CARTESIAN_POINT ( 'NONE',  ( 6.000000000000000000, 0.0000000000000000000, -0.9500000000000000666 ) ) ;
#510 = AXIS2_PLACEMENT_3D ( 'NONE', #512, #696, #516 ) ;
#511 = VECTOR ( 'NONE', #544, 1000.000000000000000 ) ;
#512 = CARTESIAN_POINT ( 'NONE',  ( 0.0000000000000000000, 0.0000000000000000000, 1.750000000000000222 ) ) ;
#513 = AXIS2_PLACEMENT_3D ( 'NONE', #454, #694, #631 ) ;
#514 = ORIENTED_EDGE ( 'NONE', *, *, #296, .F. ) ;
#515 = CARTESIAN_POINT ( 'NONE',  ( 4.099999999993997335, 5.021051876496797174E-16, -1.750000000015461410 ) ) ;
#516 = DIRECTION ( 'NONE',  ( 1.000000000000000000, 0.0000000000000000000, 0.0000000000000000000 ) ) ;
#517 = CARTESIAN_POINT ( 'NONE',  ( 0.0000000000000000000, 0.0000000000000000000, 1.649999999999999911 ) ) ;
#518 = ORIENTED_EDGE ( 'NONE', *, *, #695, .T. ) ;
#519 = DIRECTION ( 'NONE',  ( 0.0000000000000000000, 0.0000000000000000000, 1.000000000000000000 ) ) ;
#520 = ADVANCED_FACE ( 'NONE', ( #196, #436 ), #621, .F. ) ;
#521 = VECTOR ( 'NONE', #51, 1000.000000000000000 ) ;
#522 = CIRCLE ( 'NONE', #401, 5.899999999996907718 ) ;
#523 = VERTEX_POINT ( 'NONE', #681 ) ;
#524 = DIRECTION ( 'NONE',  ( 0.0000000000000000000, 0.0000000000000000000, -1.000000000000000000 ) ) ;
#525 = DIRECTION ( 'NONE',  ( -0.0000000000000000000, -0.0000000000000000000, -1.000000000000000000 ) ) ;
#526 = ORIENTED_EDGE ( 'NONE', *, *, #604, .F. ) ;
#527 =( NAMED_UNIT ( * ) SI_UNIT ( $, .STERADIAN. ) SOLID_ANGLE_UNIT ( ) );
#528 = DIRECTION ( 'NONE',  ( 0.0000000000000000000, 0.0000000000000000000, 1.000000000000000000 ) ) ;
#529 = EDGE_CURVE ( 'NONE', #778, #660, #596, .T. ) ;
#530 = VERTEX_POINT ( 'NONE', #221 ) ;
#531 = DIRECTION ( 'NONE',  ( 0.0000000000000000000, -0.7071067811865474617, 0.7071067811865474617 ) ) ;
#532 = CARTESIAN_POINT ( 'NONE',  ( 3.999999999962255970, 0.0000000000000000000, -1.649999999983720045 ) ) ;
#533 = CLOSED_SHELL ( 'NONE', ( #686, #320, #271, #78, #615, #333, #37, #364, #387, #722, #733, #309, #137, #556, #770, #6, #676, #597, #520, #213, #743, #755, #199, #500, #132, #113, #219 ) ) ;
#534 = FACE_OUTER_BOUND ( 'NONE', #398, .T. ) ;
#535 = AXIS2_PLACEMENT_3D ( 'NONE', #133, #10, #738 ) ;
#536 = ORIENTED_EDGE ( 'NONE', *, *, #577, .F. ) ;
#537 = CARTESIAN_POINT ( 'NONE',  ( 0.0000000000000000000, 4.000000000000000000, -1.749999999999999778 ) ) ;
#538 = DIRECTION ( 'NONE',  ( 0.0000000000000000000, 0.0000000000000000000, -1.000000000000000000 ) ) ;
#539 = CARTESIAN_POINT ( 'NONE',  ( 5.300000000000000711, 0.0000000000000000000, 1.750000000000000222 ) ) ;
#540 = VERTEX_POINT ( 'NONE', #690 ) ;
#541 = CARTESIAN_POINT ( 'NONE',  ( -4.599999999999999645, 5.633375276077824112E-16, 1.650000000000000133 ) ) ;
#542 = CYLINDRICAL_SURFACE ( 'NONE', #31, 4.599999999999999645 ) ;
#543 = VERTEX_POINT ( 'NONE', #634 ) ;
#544 = DIRECTION ( 'NONE',  ( -0.0000000000000000000, -0.0000000000000000000, -1.000000000000000000 ) ) ;
#545 = ADVANCED_BREP_SHAPE_REPRESENTATION ( 'REV Robotics-REV-49-1559', ( #288, #268 ), #175 ) ;
#546 = EDGE_CURVE ( 'NONE', #384, #606, #337, .T. ) ;
#547 = DIRECTION ( 'NONE',  ( 0.0000000000000000000, 0.0000000000000000000, 1.000000000000000000 ) ) ;
#548 = CIRCLE ( 'NONE', #4, 4.599999999999999645 ) ;
#549 = ORIENTED_EDGE ( 'NONE', *, *, #23, .F. ) ;
#550 = FILL_AREA_STYLE_COLOUR ( '', #717 ) ;
#551 = CARTESIAN_POINT ( 'NONE',  ( 0.0000000000000000000, 0.0000000000000000000, 1.750000000000000444 ) ) ;
#552 = CARTESIAN_POINT ( 'NONE',  ( 0.0000000000000000000, 0.0000000000000000000, 1.750000000000000444 ) ) ;
#553 = ORIENTED_EDGE ( 'NONE', *, *, #699, .F. ) ;
#554 = DIRECTION ( 'NONE',  ( 1.000000000000000000, 0.0000000000000000000, 0.0000000000000000000 ) ) ;
#555 = DIRECTION ( 'NONE',  ( 0.0000000000000000000, 0.0000000000000000000, -1.000000000000000000 ) ) ;
#556 = ADVANCED_FACE ( 'NONE', ( #284, #698 ), #449, .F. ) ;
#557 = VERTEX_POINT ( 'NONE', #745 ) ;
#558 = CARTESIAN_POINT ( 'NONE',  ( 0.0000000000000000000, 4.000000000000000000, -1.749999999999999778 ) ) ;
#559 = FACE_OUTER_BOUND ( 'NONE', #65, .T. ) ;
#560 = AXIS2_PLACEMENT_3D ( 'NONE', #116, #662, #593 ) ;
#561 = EDGE_CURVE ( 'NONE', #477, #243, #775, .T. ) ;
#562 = CIRCLE ( 'NONE', #689, 6.000000000000000000 ) ;
#563 = CARTESIAN_POINT ( 'NONE',  ( 0.0000000000000000000, 0.0000000000000000000, 1.650000000000000133 ) ) ;
#564 = EDGE_LOOP ( 'NONE', ( #782, #518, #467, #598 ) ) ;
#565 = DIRECTION ( 'NONE',  ( 0.0000000000000000000, 0.0000000000000000000, 1.000000000000000000 ) ) ;
#566 = DIRECTION ( 'NONE',  ( 0.0000000000000000000, 0.0000000000000000000, -1.000000000000000000 ) ) ;
#567 = ORIENTED_EDGE ( 'NONE', *, *, #624, .T. ) ;
#568 = FACE_OUTER_BOUND ( 'NONE', #194, .T. ) ;
#569 = PRODUCT_RELATED_PRODUCT_CATEGORY ( 'part', '', ( #393 ) ) ;
#570 = VERTEX_POINT ( 'NONE', #35 ) ;
#571 = AXIS2_PLACEMENT_3D ( 'NONE', #437, #372, #433 ) ;
#572 = DIRECTION ( 'NONE',  ( 0.0000000000000000000, 0.0000000000000000000, 1.000000000000000000 ) ) ;
#573 = AXIS2_PLACEMENT_3D ( 'NONE', #418, #295, #713 ) ;
#574 = AXIS2_PLACEMENT_3D ( 'NONE', #142, #72, #607 ) ;
#575 = DIRECTION ( 'NONE',  ( -1.000000000000000000, 0.0000000000000000000, 0.0000000000000000000 ) ) ;
#576 = CARTESIAN_POINT ( 'NONE',  ( 0.0000000000000000000, 0.0000000000000000000, 1.650000000097406883 ) ) ;
#577 = EDGE_CURVE ( 'NONE', #289, #63, #704, .T. ) ;
#578 = ORIENTED_EDGE ( 'NONE', *, *, #172, .F. ) ;
#579 = FACE_OUTER_BOUND ( 'NONE', #240, .T. ) ;
#580 = EDGE_CURVE ( 'NONE', #523, #93, #270, .T. ) ;
#581 = CYLINDRICAL_SURFACE ( 'NONE', #573, 5.300000000000000711 ) ;
#582 = CIRCLE ( 'NONE', #316, 5.300000000000000711 ) ;
#583 = AXIS2_PLACEMENT_3D ( 'NONE', #563, #613, #735 ) ;
#584 = VERTEX_POINT ( 'NONE', #389 ) ;
#585 = CYLINDRICAL_SURFACE ( 'NONE', #81, 4.599999999999999645 ) ;
#586 = EDGE_CURVE ( 'NONE', #93, #584, #441, .T. ) ;
#587 = CARTESIAN_POINT ( 'NONE',  ( 0.0000000000000000000, 0.0000000000000000000, -1.650000000000000133 ) ) ;
#588 = ORIENTED_EDGE ( 'NONE', *, *, #246, .T. ) ;
#589 = PLANE ( 'NONE',  #761 ) ;
#590 =( LENGTH_UNIT ( ) NAMED_UNIT ( * ) SI_UNIT ( .MILLI., .METRE. ) );
#591 = DIRECTION ( 'NONE',  ( -1.000000000000000000, 0.0000000000000000000, 0.0000000000000000000 ) ) ;
#592 = EDGE_LOOP ( 'NONE', ( #365, #759, #588, #771 ) ) ;
#593 = DIRECTION ( 'NONE',  ( 1.000000000000000000, 0.0000000000000000000, 0.0000000000000000000 ) ) ;
#594 = UNCERTAINTY_MEASURE_WITH_UNIT (LENGTH_MEASURE( 1.000000000000000082E-05 ), #13, 'distance_accuracy_value', 'NONE');
#595 = CARTESIAN_POINT ( 'NONE',  ( -4.099999999937153916, 0.0000000000000000000, -1.749999999958617991 ) ) ;
#596 = CIRCLE ( 'NONE', #267, 4.000000000000000000 ) ;
#597 = ADVANCED_FACE ( 'NONE', ( #568 ), #451, .T. ) ;
#598 = ORIENTED_EDGE ( 'NONE', *, *, #30, .F. ) ;
#599 = DIRECTION ( 'NONE',  ( -0.0000000000000000000, -0.0000000000000000000, -1.000000000000000000 ) ) ;
#600 = LINE ( 'NONE', #541, #390 ) ;
#601 = CARTESIAN_POINT ( 'NONE',  ( -4.599999999999999645, 5.633375276077824112E-16, 1.750000000000000222 ) ) ;
#602 = VERTEX_POINT ( 'NONE', #515 ) ;
#603 = DIRECTION ( 'NONE',  ( 0.0000000000000000000, 0.0000000000000000000, -1.000000000000000000 ) ) ;
#604 = EDGE_CURVE ( 'NONE', #557, #675, #69, .T. ) ;
#605 = FACE_BOUND ( 'NONE', #184, .T. ) ;
#606 = VERTEX_POINT ( 'NONE', #346 ) ;
#607 = DIRECTION ( 'NONE',  ( -1.000000000000000000, 0.0000000000000000000, 0.0000000000000000000 ) ) ;
#608 = CIRCLE ( 'NONE', #400, 6.000000000000000000 ) ;
#609 = CIRCLE ( 'NONE', #499, 3.999999999962255970 ) ;
#610 = ORIENTED_EDGE ( 'NONE', *, *, #190, .T. ) ;
#611 =( NAMED_UNIT ( * ) PLANE_ANGLE_UNIT ( ) SI_UNIT ( $, .RADIAN. ) );
#612 = VECTOR ( 'NONE', #326, 1000.000000000000000 ) ;
#613 = DIRECTION ( 'NONE',  ( -0.0000000000000000000, -0.0000000000000000000, -1.000000000000000000 ) ) ;
#614 = FACE_BOUND ( 'NONE', #155, .T. ) ;
#615 = ADVANCED_FACE ( 'NONE', ( #399 ), #367, .T. ) ;
#616 = ORIENTED_EDGE ( 'NONE', *, *, #586, .F. ) ;
#617 = DIRECTION ( 'NONE',  ( -0.7071067811865474617, 0.0000000000000000000, -0.7071067811865474617 ) ) ;
#618 = DIRECTION ( 'NONE',  ( 0.0000000000000000000, 2.644395542688106028E-17, 1.000000000000000000 ) ) ;
#619 = CYLINDRICAL_SURFACE ( 'NONE', #450, 5.300000000000000711 ) ;
#620 = VERTEX_POINT ( 'NONE', #509 ) ;
#621 = PLANE ( 'NONE',  #402 ) ;
#622 = CARTESIAN_POINT ( 'NONE',  ( 5.021051876427184143E-16, 4.099999999937153916, 1.749999999901774572 ) ) ;
#623 = ORIENTED_EDGE ( 'NONE', *, *, #695, .F. ) ;
#624 = EDGE_CURVE ( 'NONE', #540, #530, #351, .T. ) ;
#625 = AXIS2_PLACEMENT_3D ( 'NONE', #379, #80, #264 ) ;
#626 = DIRECTION ( 'NONE',  ( 1.000000000000000000, 0.0000000000000000000, 0.0000000000000000000 ) ) ;
#627 = CIRCLE ( 'NONE', #162, 3.999999999962255970 ) ;
#628 = ORIENTED_EDGE ( 'NONE', *, *, #67, .F. ) ;
#629 = APPLICATION_PROTOCOL_DEFINITION ( 'draft international standard', 'automotive_design', 1998, #297 ) ;
#630 = EDGE_CURVE ( 'NONE', #99, #503, #640, .T. ) ;
#631 = DIRECTION ( 'NONE',  ( 1.000000000000000000, 0.0000000000000000000, 0.0000000000000000000 ) ) ;
#632 = FACE_BOUND ( 'NONE', #214, .T. ) ;
#633 = EDGE_LOOP ( 'NONE', ( #754, #382, #707, #549 ) ) ;
#634 = CARTESIAN_POINT ( 'NONE',  ( -5.999999999955524466, 0.0000000000000000000, 1.650000000000001688 ) ) ;
#635 = EDGE_CURVE ( 'NONE', #384, #298, #627, .T. ) ;
#636 = ORIENTED_EDGE ( 'NONE', *, *, #577, .T. ) ;
#637 = VECTOR ( 'NONE', #355, 1000.000000000000000 ) ;
#638 = DIRECTION ( 'NONE',  ( 0.0000000000000000000, 0.0000000000000000000, -1.000000000000000000 ) ) ;
#639 = VECTOR ( 'NONE', #135, 1000.000000000000000 ) ;
#640 = CIRCLE ( 'NONE', #391, 4.599999999999999645 ) ;
#641 = EDGE_CURVE ( 'NONE', #543, #275, #753, .T. ) ;
#642 = ORIENTED_EDGE ( 'NONE', *, *, #143, .F. ) ;
#643 = CARTESIAN_POINT ( 'NONE',  ( 0.0000000000000000000, 0.0000000000000000000, -1.750000000000000222 ) ) ;
#644 = ORIENTED_EDGE ( 'NONE', *, *, #561, .T. ) ;
#645 = DIRECTION ( 'NONE',  ( 1.000000000000000000, 0.0000000000000000000, 0.0000000000000000000 ) ) ;
#646 = DIRECTION ( 'NONE',  ( -1.000000000000000000, 0.0000000000000000000, 0.0000000000000000000 ) ) ;
#647 = ORIENTED_EDGE ( 'NONE', *, *, #397, .F. ) ;
#648 = EDGE_CURVE ( 'NONE', #452, #584, #84, .T. ) ;
#649 = SURFACE_SIDE_STYLE ('',( #122 ) ) ;
#650 = VECTOR ( 'NONE', #376, 1000.000000000000114 ) ;
#651 = CYLINDRICAL_SURFACE ( 'NONE', #279, 6.000000000000000000 ) ;
#652 = ORIENTED_EDGE ( 'NONE', *, *, #604, .T. ) ;
#653 = DIRECTION ( 'NONE',  ( 1.000000000000000000, 0.0000000000000000000, -0.0000000000000000000 ) ) ;
#654 = CARTESIAN_POINT ( 'NONE',  ( 0.0000000000000000000, 0.0000000000000000000, -0.9500000000000000666 ) ) ;
#655 = CARTESIAN_POINT ( 'NONE',  ( 0.0000000000000000000, 0.0000000000000000000, 1.750000000000000444 ) ) ;
#656 = ORIENTED_EDGE ( 'NONE', *, *, #635, .T. ) ;
#657 = DIRECTION ( 'NONE',  ( -1.000000000000000000, 0.0000000000000000000, 0.0000000000000000000 ) ) ;
#658 = FACE_OUTER_BOUND ( 'NONE', #564, .T. ) ;
#659 = CARTESIAN_POINT ( 'NONE',  ( 5.999999999858118827, 7.347880794710365233E-16, 1.650000000097406883 ) ) ;
#660 = VERTEX_POINT ( 'NONE', #344 ) ;
#661 = CARTESIAN_POINT ( 'NONE',  ( -6.000000000000000000, 7.347880794884119736E-16, 1.750000000000000444 ) ) ;
#662 = DIRECTION ( 'NONE',  ( -0.0000000000000000000, -0.0000000000000000000, -1.000000000000000000 ) ) ;
#663 = CIRCLE ( 'NONE', #688, 4.099999999993997335 ) ;
#664 = FACE_OUTER_BOUND ( 'NONE', #261, .T. ) ;
#665 = EDGE_CURVE ( 'NONE', #523, #452, #412, .T. ) ;
#666 = CIRCLE ( 'NONE', #574, 5.300000000000000711 ) ;
#667 = ORIENTED_EDGE ( 'NONE', *, *, #280, .F. ) ;
#668 = FACE_BOUND ( 'NONE', #177, .T. ) ;
#669 = CARTESIAN_POINT ( 'NONE',  ( 0.0000000000000000000, 0.0000000000000000000, 1.650000000000000133 ) ) ;
#670 = DIRECTION ( 'NONE',  ( 1.000000000000000000, 0.0000000000000000000, 0.0000000000000000000 ) ) ;
#671 = ORIENTED_EDGE ( 'NONE', *, *, #88, .T. ) ;
#672 = CARTESIAN_POINT ( 'NONE',  ( 4.959819536543105494E-16, 4.000000000000000000, 1.649999999999999911 ) ) ;
#673 = CARTESIAN_POINT ( 'NONE',  ( -5.300000000000000711, 6.490628035480972910E-16, 1.650000000000000133 ) ) ;
#674 = FACE_OUTER_BOUND ( 'NONE', #336, .T. ) ;
#675 = VERTEX_POINT ( 'NONE', #748 ) ;
#676 = ADVANCED_FACE ( 'NONE', ( #408 ), #120, .T. ) ;
#677 = DIRECTION ( 'NONE',  ( 0.0000000000000000000, 0.0000000000000000000, 1.000000000000000000 ) ) ;
#678 = DIRECTION ( 'NONE',  ( 0.0000000000000000000, 0.0000000000000000000, 1.000000000000000000 ) ) ;
#679 = AXIS2_PLACEMENT_3D ( 'NONE', #157, #29, #216 ) ;
#680 = EDGE_LOOP ( 'NONE', ( #119, #610 ) ) ;
#681 = CARTESIAN_POINT ( 'NONE',  ( 5.300000000000000711, 0.0000000000000000000, 1.650000000000000133 ) ) ;
#682 = VERTEX_POINT ( 'NONE', #290 ) ;
#683 = CARTESIAN_POINT ( 'NONE',  ( 0.0000000000000000000, 0.0000000000000000000, 1.749999999958617991 ) ) ;
#684 = ORIENTED_EDGE ( 'NONE', *, *, #746, .F. ) ;
#685 = DIRECTION ( 'NONE',  ( -0.0000000000000000000, -0.0000000000000000000, -1.000000000000000000 ) ) ;
#686 = ADVANCED_FACE ( 'NONE', ( #236 ), #348, .T. ) ;
#687 = ORIENTED_EDGE ( 'NONE', *, *, #222, .F. ) ;
#688 = AXIS2_PLACEMENT_3D ( 'NONE', #405, #538, #646 ) ;
#689 = AXIS2_PLACEMENT_3D ( 'NONE', #654, #706, #112 ) ;
#690 = CARTESIAN_POINT ( 'NONE',  ( 4.599999999999999645, 0.0000000000000000000, 1.650000000000000133 ) ) ;
#691 = VECTOR ( 'NONE', #617, 1000.000000000000114 ) ;
#692 = STYLED_ITEM ( 'NONE', ( #435 ), #545 ) ;
#693 = ORIENTED_EDGE ( 'NONE', *, *, #507, .T. ) ;
#694 = DIRECTION ( 'NONE',  ( 0.0000000000000000000, 0.0000000000000000000, 1.000000000000000000 ) ) ;
#695 = EDGE_CURVE ( 'NONE', #298, #602, #167, .T. ) ;
#696 = DIRECTION ( 'NONE',  ( -0.0000000000000000000, -0.0000000000000000000, -1.000000000000000000 ) ) ;
#697 = ORIENTED_EDGE ( 'NONE', *, *, #165, .F. ) ;
#698 = FACE_BOUND ( 'NONE', #445, .T. ) ;
#699 = EDGE_CURVE ( 'NONE', #147, #570, #361, .T. ) ;
#700 = CARTESIAN_POINT ( 'NONE',  ( -5.300000000000000711, 0.0000000000000000000, -1.750000000000000222 ) ) ;
#701 = AXIS2_PLACEMENT_3D ( 'NONE', #324, #555, #496 ) ;
#702 = EDGE_LOOP ( 'NONE', ( #8, #210, #636, #490 ) ) ;
#703 = DIRECTION ( 'NONE',  ( 0.0000000000000000000, 0.0000000000000000000, 1.000000000000000000 ) ) ;
#704 = CIRCLE ( 'NONE', #7, 4.599999999999999645 ) ;
#705 = ORIENTED_EDGE ( 'NONE', *, *, #342, .T. ) ;
#706 = DIRECTION ( 'NONE',  ( 0.0000000000000000000, 0.0000000000000000000, 1.000000000000000000 ) ) ;
#707 = ORIENTED_EDGE ( 'NONE', *, *, #641, .T. ) ;
#708 = CARTESIAN_POINT ( 'NONE',  ( 4.599999999999999645, 5.633375276077824112E-16, -1.650000000000000133 ) ) ;
#709 = DIRECTION ( 'NONE',  ( 0.0000000000000000000, 2.644395542688106028E-17, 1.000000000000000000 ) ) ;
#710 = ORIENTED_EDGE ( 'NONE', *, *, #489, .T. ) ;
#711 = FACE_BOUND ( 'NONE', #345, .T. ) ;
#712 = VECTOR ( 'NONE', #781, 1000.000000000000000 ) ;
#713 = DIRECTION ( 'NONE',  ( -1.000000000000000000, 0.0000000000000000000, 0.0000000000000000000 ) ) ;
#714 = AXIS2_PLACEMENT_3D ( 'NONE', #552, #257, #492 ) ;
#715 = DIRECTION ( 'NONE',  ( -0.0000000000000000000, -0.0000000000000000000, -1.000000000000000000 ) ) ;
#716 = AXIS2_PLACEMENT_3D ( 'NONE', #334, #565, #26 ) ;
#717 = COLOUR_RGB ( '',0.7921568627450980005, 0.8196078431372548767, 0.9333333333333333481 ) ;
#718 = ORIENTED_EDGE ( 'NONE', *, *, #353, .T. ) ;
#719 = CARTESIAN_POINT ( 'NONE',  ( -5.300000000000000711, 0.0000000000000000000, -1.650000000000000133 ) ) ;
#720 = CARTESIAN_POINT ( 'NONE',  ( 6.000000000000000000, 0.0000000000000000000, 1.750000000000000444 ) ) ;
#721 = ORIENTED_EDGE ( 'NONE', *, *, #274, .F. ) ;
#722 = ADVANCED_FACE ( 'NONE', ( #579 ), #585, .T. ) ;
#723 = DIRECTION ( 'NONE',  ( -0.0000000000000000000, -0.0000000000000000000, -1.000000000000000000 ) ) ;
#724 = VERTEX_POINT ( 'NONE', #708 ) ;
#725 = DIRECTION ( 'NONE',  ( -1.000000000000000000, 0.0000000000000000000, 0.0000000000000000000 ) ) ;
#726 = AXIS2_PLACEMENT_3D ( 'NONE', #5, #253, #266 ) ;
#727 = DIRECTION ( 'NONE',  ( 0.0000000000000000000, 0.0000000000000000000, 1.000000000000000000 ) ) ;
#728 = CIRCLE ( 'NONE', #41, 4.099999999993997335 ) ;
#729 = AXIS2_PLACEMENT_3D ( 'NONE', #76, #371, #64 ) ;
#730 = ORIENTED_EDGE ( 'NONE', *, *, #461, .F. ) ;
#731 = DIRECTION ( 'NONE',  ( 1.000000000000000000, 0.0000000000000000000, 0.0000000000000000000 ) ) ;
#732 = CARTESIAN_POINT ( 'NONE',  ( 5.300000000000000711, 6.490628035480972910E-16, -1.650000000000000133 ) ) ;
#733 = ADVANCED_FACE ( 'NONE', ( #768, #711 ), #589, .F. ) ;
#734 = ORIENTED_EDGE ( 'NONE', *, *, #397, .T. ) ;
#735 = DIRECTION ( 'NONE',  ( 1.000000000000000000, 0.0000000000000000000, 0.0000000000000000000 ) ) ;
#736 = CARTESIAN_POINT ( 'NONE',  ( 6.800000000000000711, 0.0000000000000000000, -0.9500000000000000666 ) ) ;
#737 = EDGE_LOOP ( 'NONE', ( #744, #697 ) ) ;
#738 = DIRECTION ( 'NONE',  ( -1.000000000000000000, 0.0000000000000000000, 0.0000000000000000000 ) ) ;
#739 = CONICAL_SURFACE ( 'NONE', #212, 4.099999999937153916, 0.7853981633974482790 ) ;
#740 = AXIS2_PLACEMENT_3D ( 'NONE', #174, #524, #464 ) ;
#741 = ORIENTED_EDGE ( 'NONE', *, *, #286, .T. ) ;
#742 = FACE_OUTER_BOUND ( 'NONE', #152, .T. ) ;
#743 = ADVANCED_FACE ( 'NONE', ( #110 ), #292, .F. ) ;
#744 = ORIENTED_EDGE ( 'NONE', *, *, #406, .F. ) ;
#745 = CARTESIAN_POINT ( 'NONE',  ( -6.800000000000000711, 8.327598234202002105E-16, -1.750000000000000000 ) ) ;
#746 = EDGE_CURVE ( 'NONE', #163, #543, #422, .T. ) ;
#747 = ORIENTED_EDGE ( 'NONE', *, *, #246, .F. ) ;
#748 = CARTESIAN_POINT ( 'NONE',  ( 6.800000000000000711, 0.0000000000000000000, -1.750000000000000000 ) ) ;
#749 = ORIENTED_EDGE ( 'NONE', *, *, #263, .F. ) ;
#750 = AXIS2_PLACEMENT_3D ( 'NONE', #357, #299, #232 ) ;
#751 = CARTESIAN_POINT ( 'NONE',  ( 0.0000000000000000000, 0.0000000000000000000, 0.0000000000000000000 ) ) ;
#752 = DIRECTION ( 'NONE',  ( -1.000000000000000000, 0.0000000000000000000, -0.0000000000000000000 ) ) ;
#753 = CIRCLE ( 'NONE', #96, 6.000000000000000000 ) ;
#754 = ORIENTED_EDGE ( 'NONE', *, *, #296, .T. ) ;
#755 = ADVANCED_FACE ( 'NONE', ( #225 ), #459, .F. ) ;
#756 = CARTESIAN_POINT ( 'NONE',  ( 0.0000000000000000000, 0.0000000000000000000, 1.750000000000000222 ) ) ;
#757 = DIRECTION ( 'NONE',  ( 1.000000000000000000, 0.0000000000000000000, 0.0000000000000000000 ) ) ;
#758 = CIRCLE ( 'NONE', #772, 5.300000000000000711 ) ;
#759 = ORIENTED_EDGE ( 'NONE', *, *, #42, .T. ) ;
#760 = CARTESIAN_POINT ( 'NONE',  ( 0.0000000000000000000, 0.0000000000000000000, -1.749999999958617991 ) ) ;
#761 = AXIS2_PLACEMENT_3D ( 'NONE', #537, #414, #653 ) ;
#762 = EDGE_CURVE ( 'NONE', #15, #543, #366, .T. ) ;
#763 = EDGE_LOOP ( 'NONE', ( #403, #721 ) ) ;
#764 = DIRECTION ( 'NONE',  ( 0.0000000000000000000, 0.0000000000000000000, 1.000000000000000000 ) ) ;
#765 = FACE_OUTER_BOUND ( 'NONE', #493, .T. ) ;
#766 = EDGE_CURVE ( 'NONE', #675, #203, #204, .T. ) ;
#767 = ORIENTED_EDGE ( 'NONE', *, *, #30, .T. ) ;
#768 = FACE_OUTER_BOUND ( 'NONE', #53, .T. ) ;
#769 = LINE ( 'NONE', #479, #637 ) ;
#770 = ADVANCED_FACE ( 'NONE', ( #668, #431 ), #16, .T. ) ;
#771 = ORIENTED_EDGE ( 'NONE', *, *, #766, .F. ) ;
#772 = AXIS2_PLACEMENT_3D ( 'NONE', #409, #238, #423 ) ;
#773 = CYLINDRICAL_SURFACE ( 'NONE', #439, 6.000000000000000000 ) ;
#774 = AXIS2_PLACEMENT_3D ( 'NONE', #551, #17, #383 ) ;
#775 = CIRCLE ( 'NONE', #124, 5.300000000000000711 ) ;
#776 = DIRECTION ( 'NONE',  ( -0.0000000000000000000, -2.644395542688106028E-17, -1.000000000000000000 ) ) ;
#777 = MECHANICAL_DESIGN_GEOMETRIC_PRESENTATION_REPRESENTATION (  '', ( #692 ), #239 ) ;
#778 = VERTEX_POINT ( 'NONE', #672 ) ;
#779 = EDGE_CURVE ( 'NONE', #203, #426, #473, .T. ) ;
#780 = DIRECTION ( 'NONE',  ( 0.0000000000000000000, 0.0000000000000000000, 1.000000000000000000 ) ) ;
#781 = DIRECTION ( 'NONE',  ( -0.0000000000000000000, -0.0000000000000000000, -1.000000000000000000 ) ) ;
#782 = ORIENTED_EDGE ( 'NONE', *, *, #342, .F. ) ;
#783 = DIRECTION ( 'NONE',  ( 1.000000000000000000, 0.0000000000000000000, 0.0000000000000000000 ) ) ;
#784 = CYLINDRICAL_SURFACE ( 'NONE', #341, 4.599999999999999645 ) ;
ENDSEC;
END-ISO-10303-21;
