EESchema Schematic File Version 2
LIBS:Capacitors
LIBS:Connectors
LIBS:Discretes
LIBS:ICs
LIBS:Allegro
LIBS:Resistors
LIBS:TestPoints
LIBS:Asek20DaughterCard-cache
EELAYER 25 0
EELAYER END
$Descr A4 11693 8268
encoding utf-8
Sheet 4 8
Title "ASEK20 Daughter Card"
Date "Friday, January 23, 2015"
Rev "v1.2"
Comp "Allegro Microsystems LLC"
Comment1 ""
Comment2 ""
Comment3 ""
Comment4 ""
$EndDescr
$Comp
L 2.2u-AD C27
U 1 1 54AA2BA6
P 5600 1150
F 0 "C27" H 5700 1200 60  0000 C CNN
F 1 "2.2u-AD" V 5500 1100 60  0000 C CNN
F 2 "Capacitors:C0402" H 5600 1152 60  0001 C CNN
F 3 "" H 5600 1152 60  0000 C CNN
F 4 "490-10452-1-ND" H 5916 1354 60  0001 C CNN "DigikeyPN"
F 5 "10V" H 5700 1050 60  0000 C CNN "MaxVoltage"
	1    5600 1150
	1    0    0    -1  
$EndComp
$Comp
L 10u-BD C19
U 1 1 54AA2C59
P 6700 1150
F 0 "C19" H 6800 1250 60  0000 C CNN
F 1 "10u-BD" V 6550 1050 60  0000 C CNN
F 2 "Capacitors:C0603" H 6700 1152 60  0001 C CNN
F 3 "" H 6700 1152 60  0000 C CNN
F 4 "490-7200-1-ND" H 7016 1354 60  0001 C CNN "DigikeyPN"
F 5 "10V" H 6800 1050 60  0000 C CNN "MaxVoltage"
	1    6700 1150
	1    0    0    -1  
$EndComp
Text HLabel 7700 3250 2    60   Output ~ 0
SPI_mosi
Text HLabel 7700 3450 2    60   Output ~ 0
SPI_miso
Text HLabel 7700 3350 2    60   Output ~ 0
SPI_clk
Text HLabel 8900 3650 2    60   Output ~ 0
SPI_cs
Text HLabel 1100 800  0    60   Input ~ 0
5v0SMPS
Text HLabel 1100 900  0    60   Input ~ 0
GND
Text Label 1150 800  0    60   ~ 0
5v0PWR
Text Label 1150 900  0    60   ~ 0
GND
Text Label 6800 1400 0    60   ~ 0
GND
$Comp
L 1n-AC C28
U 1 1 54AAAB2C
P 6000 1150
F 0 "C28" H 6100 1250 60  0000 C CNN
F 1 "1n-AC" H 6250 1150 60  0000 C CNN
F 2 "Capacitors:C0402" H 6000 1152 60  0001 C CNN
F 3 "" H 6000 1152 60  0000 C CNN
F 4 "490-1303-1-ND" H 6316 1354 60  0001 C CNN "DigikeyPN"
F 5 "50V" H 6100 1050 60  0000 C CNN "MaxVoltage"
	1    6000 1150
	1    0    0    -1  
$EndComp
Text Label 5750 1400 0    60   ~ 0
GND
Text HLabel 3450 3150 0    60   Input ~ 0
Mux
Text HLabel 3450 3250 0    60   Input ~ 0
VREGD
Text HLabel 3450 3450 0    60   Input ~ 0
ICC
Text HLabel 3450 3350 0    60   Input ~ 0
IDDQ
Text HLabel 950  3150 0    60   Input ~ 0
VCC
$Comp
L 1.4M-BE R26
U 1 1 54ABB61B
P 1650 3350
F 0 "R26" H 1650 3546 60  0000 C CNN
F 1 "1.4M-BE" H 1550 3450 60  0000 C CNN
F 2 "Resistors:R0603" H 1650 3350 60  0001 C CNN
F 3 "" H 1750 3500 60  0000 C CNN
F 4 "1276-4934-1-ND" H 1668 3618 60  0001 C CNN "DigikeyPN"
F 5 "1%" H 1850 3450 60  0000 C CNN "Precision"
	1    1650 3350
	0    1    1    0   
$EndComp
$Comp
L 200k-BE R27
U 1 1 54ABB766
P 1650 3900
F 0 "R27" H 1650 4096 60  0000 C CNN
F 1 "200k-BE" H 1550 4000 60  0000 C CNN
F 2 "Resistors:R0603" H 1650 3900 60  0001 C CNN
F 3 "" H 1750 4050 60  0000 C CNN
F 4 "1276-4863-1-ND" H 1668 4168 60  0001 C CNN "DigikeyPN"
F 5 "1%" H 1850 4000 60  0000 C CNN "Precision"
	1    1650 3900
	0    -1   -1   0   
$EndComp
Text Label 1650 4400 1    60   ~ 0
GND
$Comp
L 10u-BD C14
U 1 1 54ABCAC9
P 8500 2400
F 0 "C14" H 8660 2510 60  0000 C CNN
F 1 "10u-BD" H 8756 2420 60  0000 C CNN
F 2 "Capacitors:C0603" H 8500 2402 60  0001 C CNN
F 3 "" H 8500 2402 60  0000 C CNN
F 4 "490-7200-1-ND" H 8816 2604 60  0001 C CNN "DigikeyPN"
F 5 "10V" H 8692 2336 60  0000 C CNN "MaxVoltage"
	1    8500 2400
	1    0    0    -1  
$EndComp
$Comp
L 1u-BD C15
U 1 1 54ABCB20
P 9050 2400
F 0 "C15" H 9210 2510 60  0000 C CNN
F 1 "1u-BD" H 9306 2420 60  0000 C CNN
F 2 "Capacitors:C0603" H 9050 2402 60  0001 C CNN
F 3 "" H 9050 2402 60  0000 C CNN
F 4 "490-3897-1-ND" H 9366 2604 60  0001 C CNN "DigikeyPN"
F 5 "25V" H 9242 2336 60  0000 C CNN "MaxVoltage"
	1    9050 2400
	1    0    0    -1  
$EndComp
$Comp
L 1n-AC C16
U 1 1 54ABCB87
P 9550 2400
F 0 "C16" H 9710 2510 60  0000 C CNN
F 1 "1n-AC" H 9806 2420 60  0000 C CNN
F 2 "Capacitors:C0402" H 9550 2402 60  0001 C CNN
F 3 "" H 9550 2402 60  0000 C CNN
F 4 "490-1303-1-ND" H 9866 2604 60  0001 C CNN "DigikeyPN"
F 5 "50V" H 9742 2336 60  0000 C CNN "MaxVoltage"
	1    9550 2400
	1    0    0    -1  
$EndComp
Text Label 9350 2600 2    60   ~ 0
GND
Text Label 8650 2150 0    60   ~ 0
5v0PWR
Text Notes 8500 2000 0    60   ~ 0
ADC Decoupling Capacitors
Text HLabel 1100 1000 0    60   Input ~ 0
3v3PWR
Text Label 1150 1000 0    60   ~ 0
3v3PWR
$Comp
L 10u-BD C29
U 1 1 54C0B548
P 9150 1150
F 0 "C29" H 9250 1250 60  0000 C CNN
F 1 "10u-BD" V 9000 1050 60  0000 C CNN
F 2 "Capacitors:C0603" H 9150 1152 60  0001 C CNN
F 3 "" H 9150 1152 60  0000 C CNN
F 4 "490-7200-1-ND" H 9466 1354 60  0001 C CNN "DigikeyPN"
F 5 "10V" H 9250 1050 60  0000 C CNN "MaxVoltage"
	1    9150 1150
	1    0    0    -1  
$EndComp
$Comp
L 1n-AC C31
U 1 1 54C0B5CA
P 9700 1150
F 0 "C31" H 9800 1250 60  0000 C CNN
F 1 "1n-AC" H 9950 1150 60  0000 C CNN
F 2 "Capacitors:C0402" H 9700 1152 60  0001 C CNN
F 3 "" H 9700 1152 60  0000 C CNN
F 4 "490-1303-1-ND" H 10016 1354 60  0001 C CNN "DigikeyPN"
F 5 "50V" H 9800 1050 60  0000 C CNN "MaxVoltage"
	1    9700 1150
	1    0    0    -1  
$EndComp
Text Label 9600 950  2    60   ~ 0
3v3PWR
Text Label 9550 1400 2    60   ~ 0
GND
Text Label 2600 3300 0    60   ~ 0
5v0PWR
Text Label 2650 3800 0    60   ~ 0
GND
Text HLabel 3450 3750 0    60   Input ~ 0
Sense_1
Text HLabel 3450 3850 0    60   Input ~ 0
Sense_2
$Comp
L LMP2022 U6
U 1 1 54F39E24
P 2350 3550
F 0 "U6" H 2500 3950 60  0000 C CNN
F 1 "LMP2022" H 2150 3950 60  0000 C CNN
F 2 "ICs:8-TSSOP" H 2350 3550 60  0001 C CNN
F 3 "" H 2500 3950 60  0000 C CNN
F 4 "LMP2022MME/NOPBCT-ND" H 2600 4050 60  0001 C CNN "DigikeyPN"
	1    2350 3550
	1    0    0    -1  
$EndComp
$Comp
L 2.7n-AC C21
U 1 1 54F40AF0
P 5000 4050
F 0 "C21" H 4850 4150 60  0000 C CNN
F 1 "2.7n-AC" H 4750 4050 60  0000 C CNN
F 2 "Capacitors:C0402" H 5000 4052 60  0001 C CNN
F 3 "" H 5000 4052 60  0000 C CNN
F 4 "490-6361-1-ND" H 5316 4254 60  0001 C CNN "DigikeyPN"
F 5 "50V" H 4850 3950 60  0000 C CNN "MaxVoltage"
	1    5000 4050
	1    0    0    -1  
$EndComp
$Comp
L 2.7n-AC C23
U 1 1 54F40B21
P 5150 4350
F 0 "C23" H 5310 4460 60  0000 C CNN
F 1 "2.7n-AC" H 5426 4384 60  0000 C CNN
F 2 "Capacitors:C0402" H 5150 4352 60  0001 C CNN
F 3 "" H 5150 4352 60  0000 C CNN
F 4 "490-6361-1-ND" H 5466 4554 60  0001 C CNN "DigikeyPN"
F 5 "50V" H 5342 4286 60  0000 C CNN "MaxVoltage"
	1    5150 4350
	1    0    0    -1  
$EndComp
$Comp
L 2.7n-AC C26
U 1 1 54F40BAF
P 5300 4650
F 0 "C26" H 5460 4760 60  0000 C CNN
F 1 "2.7n-AC" H 5576 4684 60  0000 C CNN
F 2 "Capacitors:C0402" H 5300 4652 60  0001 C CNN
F 3 "" H 5300 4652 60  0000 C CNN
F 4 "490-6361-1-ND" H 5616 4854 60  0001 C CNN "DigikeyPN"
F 5 "50V" H 5492 4586 60  0000 C CNN "MaxVoltage"
	1    5300 4650
	1    0    0    -1  
$EndComp
$Comp
L 2.7n-AC C20
U 1 1 54F40D07
P 5000 2250
F 0 "C20" H 5160 2360 60  0000 C CNN
F 1 "2.7n-AC" H 5276 2284 60  0000 C CNN
F 2 "Capacitors:C0402" H 5000 2252 60  0001 C CNN
F 3 "" H 5000 2252 60  0000 C CNN
F 4 "490-6361-1-ND" H 5316 2454 60  0001 C CNN "DigikeyPN"
F 5 "50V" H 5192 2186 60  0000 C CNN "MaxVoltage"
	1    5000 2250
	-1   0    0    1   
$EndComp
$Comp
L 2.7n-AC C22
U 1 1 54F40D0F
P 5150 2550
F 0 "C22" H 5310 2660 60  0000 C CNN
F 1 "2.7n-AC" H 5426 2584 60  0000 C CNN
F 2 "Capacitors:C0402" H 5150 2552 60  0001 C CNN
F 3 "" H 5150 2552 60  0000 C CNN
F 4 "490-6361-1-ND" H 5466 2754 60  0001 C CNN "DigikeyPN"
F 5 "50V" H 5342 2486 60  0000 C CNN "MaxVoltage"
	1    5150 2550
	-1   0    0    1   
$EndComp
$Comp
L 2.7n-AC C25
U 1 1 54F40D17
P 5300 2850
F 0 "C25" H 5460 2960 60  0000 C CNN
F 1 "2.7n-AC" H 5576 2884 60  0000 C CNN
F 2 "Capacitors:C0402" H 5300 2852 60  0001 C CNN
F 3 "" H 5300 2852 60  0000 C CNN
F 4 "490-6361-1-ND" H 5616 3054 60  0001 C CNN "DigikeyPN"
F 5 "50V" H 5492 2786 60  0000 C CNN "MaxVoltage"
	1    5300 2850
	-1   0    0    1   
$EndComp
$Comp
L 2.7n-AC C17
U 1 1 54F434E0
P 4000 4100
F 0 "C17" H 4160 4210 60  0000 C CNN
F 1 "2.7n-AC" H 4276 4134 60  0000 C CNN
F 2 "Capacitors:C0402" H 4000 4102 60  0001 C CNN
F 3 "" H 4000 4102 60  0000 C CNN
F 4 "490-6361-1-ND" H 4316 4304 60  0001 C CNN "DigikeyPN"
F 5 "50V" H 4192 4036 60  0000 C CNN "MaxVoltage"
	1    4000 4100
	1    0    0    -1  
$EndComp
$Comp
L 2.7n-AC C18
U 1 1 54F4365E
P 4050 2850
F 0 "C18" H 4210 2960 60  0000 C CNN
F 1 "2.7n-AC" H 4326 2884 60  0000 C CNN
F 2 "Capacitors:C0402" H 4050 2852 60  0001 C CNN
F 3 "" H 4050 2852 60  0000 C CNN
F 4 "490-6361-1-ND" H 4366 3054 60  0001 C CNN "DigikeyPN"
F 5 "50V" H 4242 2786 60  0000 C CNN "MaxVoltage"
	1    4050 2850
	-1   0    0    1   
$EndComp
Text Label 4000 4450 1    60   ~ 0
GND
Text Label 5000 4400 1    60   ~ 0
GND
Text Label 5150 4700 1    60   ~ 0
GND
Text Label 5300 5000 1    60   ~ 0
GND
Text Label 4050 2500 3    60   ~ 0
GND
Text Label 5000 1900 3    60   ~ 0
GND
Text Label 5150 2200 3    60   ~ 0
GND
Text Label 5300 2500 3    60   ~ 0
GND
Text Notes 3250 4800 0    60   ~ 0
50kHz bandwidth on all inputs
$Comp
L 5005K TP13
U 1 1 5502BD7C
P 1600 3150
F 0 "TP13" H 1600 3500 60  0000 C CNN
F 1 "VCC" H 1600 3400 60  0000 C CNN
F 2 "TestPoints:TP_1p6mm" H 1600 3150 60  0001 C CNN
F 3 "" H 1600 3150 60  0000 C CNN
F 4 "5005K-ND" H 1850 3500 60  0001 C CNN "DigikeyPN"
	1    1600 3150
	1    0    0    -1  
$EndComp
$Comp
L Bare_TP TP192
U 1 1 54F3B5D4
P 8350 950
F 0 "TP192" H 8350 1200 60  0000 C CNN
F 1 "ADC_Ref" H 8350 1300 60  0000 C CNN
F 2 "TestPoints:TP_bare_1p5mm" H 8350 950 60  0001 C CNN
F 3 "" H 8350 950 60  0000 C CNN
	1    8350 950 
	1    0    0    -1  
$EndComp
$Comp
L ProtoTP TP33
U 1 1 54F70D94
P 1900 3150
F 0 "TP33" H 1900 3500 60  0000 C CNN
F 1 "VCC" H 1900 3400 60  0000 C CNN
F 2 "TestPoints:TP_1p0mm" H 1900 3150 60  0001 C CNN
F 3 "" H 1900 3150 60  0000 C CNN
	1    1900 3150
	1    0    0    -1  
$EndComp
Text Label 3500 6950 0    60   ~ 0
5v0PWR
Text Label 3550 7450 0    60   ~ 0
GND
$Comp
L LMP2022 U13
U 1 1 5539DABA
P 3250 7200
F 0 "U13" H 3400 7600 60  0000 C CNN
F 1 "LMP2022" H 3050 7600 60  0000 C CNN
F 2 "ICs:8-TSSOP" H 3250 7200 60  0001 C CNN
F 3 "" H 3400 7600 60  0000 C CNN
F 4 "LMP2022MME/NOPBCT-ND" H 3500 7700 60  0001 C CNN "DigikeyPN"
	1    3250 7200
	1    0    0    -1  
$EndComp
Text Label 3650 7200 0    60   ~ 0
VCC2_int
Text Label 3550 3650 0    60   ~ 0
VCC2_int
Text Label 1050 3850 1    60   ~ 0
GND
$Comp
L SPHV36 D2
U 1 1 553A54DC
P 1050 3400
F 0 "D2" H 1166 3310 60  0000 C CNN
F 1 "SPHV36" H 1340 3484 60  0000 C CNN
F 2 "Discretes:SOD882" H 683 3596 60  0001 C CNN
F 3 "" H 1050 3400 60  0000 C CNN
F 4 "F6512CT-ND" H 883 3796 60  0001 C CNN "DigikeyPN"
F 5 "36V" H 1178 3404 60  0000 C CNN "Clamp"
	1    1050 3400
	1    0    0    -1  
$EndComp
$Comp
L LTC2372 U7
U 1 1 5541E17B
P 6250 3500
F 0 "U7" H 6090 3860 60  0000 C CNN
F 1 "LTC2372" H 6670 3250 60  0000 C CNN
F 2 "ICs:32-QFN-GP" H 6270 4290 60  0001 C CNN
F 3 "" H 6374 4908 60  0000 C CNN
F 4 "LTC2372CUH-18#PBF-ND" H 6300 4410 60  0001 C CNN "DigikeyPN"
	1    6250 3500
	1    0    0    -1  
$EndComp
Wire Wire Line
	7350 3550 8250 3550
Wire Wire Line
	7350 3350 7700 3350
Wire Wire Line
	7350 3450 7700 3450
Wire Wire Line
	7350 3250 7700 3250
Wire Wire Line
	6700 1000 6700 950 
Wire Wire Line
	6700 950  7100 950 
Wire Wire Line
	7100 950  7100 1000
Wire Wire Line
	6700 1300 6700 1400
Wire Wire Line
	6700 1400 7100 1400
Wire Wire Line
	7100 1400 7100 1300
Wire Wire Line
	1100 900  1400 900 
Wire Wire Line
	1100 800  1400 800 
Wire Wire Line
	5600 1000 5600 950 
Wire Wire Line
	5600 950  6000 950 
Wire Wire Line
	6000 950  6000 1000
Wire Wire Line
	6000 1300 6000 1400
Wire Wire Line
	6000 1400 5600 1400
Wire Wire Line
	5600 1400 5600 1300
Wire Wire Line
	1650 3550 1650 3700
Wire Wire Line
	1650 4100 1650 4400
Connection ~ 1650 3600
Wire Wire Line
	8500 2250 8500 2150
Wire Wire Line
	8500 2150 9550 2150
Wire Wire Line
	9550 2150 9550 2250
Wire Wire Line
	9050 2250 9050 2150
Connection ~ 9050 2150
Wire Wire Line
	8500 2600 9550 2600
Wire Wire Line
	9550 2600 9550 2550
Wire Wire Line
	9050 2550 9050 2600
Connection ~ 9050 2600
Wire Wire Line
	8500 2550 8500 2600
Wire Wire Line
	950  3150 1900 3150
Connection ~ 1600 3150
Wire Wire Line
	1100 1000 1400 1000
Wire Wire Line
	9150 1000 9150 950 
Wire Wire Line
	9150 950  9700 950 
Wire Wire Line
	9700 950  9700 1000
Wire Wire Line
	9700 1300 9700 1400
Wire Wire Line
	9700 1400 9150 1400
Wire Wire Line
	9150 1400 9150 1300
Wire Wire Line
	2000 3600 1650 3600
Wire Wire Line
	2000 3500 2000 3350
Wire Wire Line
	2000 3350 2700 3350
Wire Wire Line
	2700 3350 2700 3550
Wire Wire Line
	2550 3300 2850 3300
Wire Wire Line
	2550 3800 2850 3800
Wire Wire Line
	4000 3150 5500 3150
Wire Wire Line
	4500 3250 5500 3250
Wire Wire Line
	3950 3450 5500 3450
Wire Wire Line
	4500 3550 5500 3550
Wire Wire Line
	3950 3750 5500 3750
Wire Wire Line
	4500 3850 5500 3850
Wire Wire Line
	4100 3850 3450 3850
Wire Wire Line
	3550 3750 3450 3750
Wire Wire Line
	3450 3650 4550 3650
Wire Wire Line
	2700 3550 4100 3550
Wire Wire Line
	3550 3450 3450 3450
Wire Wire Line
	3450 3350 4550 3350
Wire Wire Line
	4100 3250 3450 3250
Wire Wire Line
	3600 3150 3450 3150
Wire Wire Line
	4950 3350 5500 3350
Wire Wire Line
	4950 3650 5500 3650
Wire Wire Line
	5000 3650 5000 3900
Connection ~ 5000 3650
Wire Wire Line
	5150 3550 5150 4200
Connection ~ 5150 3550
Wire Wire Line
	5000 3350 5000 2400
Connection ~ 5000 3350
Wire Wire Line
	5150 3450 5150 2700
Connection ~ 5150 3450
Wire Wire Line
	5300 3250 5300 3000
Connection ~ 5300 3250
Wire Wire Line
	4000 3750 4000 3950
Connection ~ 4000 3750
Wire Wire Line
	4050 3150 4050 3000
Connection ~ 4050 3150
Wire Wire Line
	5300 3850 5300 4500
Connection ~ 5300 3850
Wire Wire Line
	5300 5000 5300 4800
Wire Wire Line
	5150 4700 5150 4500
Wire Wire Line
	5000 4400 5000 4200
Wire Wire Line
	4000 4450 4000 4250
Wire Wire Line
	4050 2500 4050 2700
Wire Wire Line
	5000 1900 5000 2100
Wire Wire Line
	5150 2200 5150 2400
Wire Wire Line
	5300 2500 5300 2700
Connection ~ 1650 3150
Wire Wire Line
	2900 7000 3600 7000
Wire Wire Line
	3600 7000 3600 7200
Wire Wire Line
	3450 6950 3750 6950
Wire Wire Line
	3450 7450 3750 7450
Wire Wire Line
	3600 7200 4050 7200
Wire Wire Line
	2900 7150 2900 7000
Wire Wire Line
	1050 3250 1050 3150
Connection ~ 1050 3150
Wire Wire Line
	1050 3550 1050 3850
Wire Wire Line
	6150 4200 6150 4250
Wire Wire Line
	6150 4250 6250 4250
Wire Wire Line
	6250 4250 6250 4200
Wire Wire Line
	6350 4200 6350 4300
Wire Wire Line
	6350 4300 6050 4300
Wire Wire Line
	6050 4300 6050 4200
Text Label 6450 2550 3    60   ~ 0
5v0PWR
Wire Wire Line
	6450 2950 6450 2550
Text Label 6950 2550 3    60   ~ 0
3v3PWR
Wire Wire Line
	6950 2550 6950 2950
Wire Wire Line
	6600 4200 6600 4300
Wire Wire Line
	6500 4300 7200 4300
Wire Wire Line
	7200 4300 7200 4200
Wire Wire Line
	7100 4200 7100 4300
Connection ~ 7100 4300
Wire Wire Line
	7000 4200 7000 4300
Connection ~ 7000 4300
Wire Wire Line
	6900 4200 6900 4300
Connection ~ 6900 4300
Wire Wire Line
	6800 4200 6800 4300
Connection ~ 6800 4300
Wire Wire Line
	6700 4200 6700 4300
Connection ~ 6700 4300
Text Label 7000 4300 2    60   ~ 0
GND
Wire Wire Line
	7350 3650 7550 3650
Text Label 7550 3650 2    60   ~ 0
GND
Wire Wire Line
	7350 3750 8250 3750
Wire Wire Line
	6750 2950 6750 2550
Wire Wire Line
	6650 2950 6650 2550
Wire Wire Line
	6350 2950 6350 2550
Text Label 6350 2900 1    60   ~ 0
VDDByp
Text Label 6650 2850 1    60   ~ 0
REFin
Text Label 6750 2900 1    60   ~ 0
REFBuff
Text Label 8300 950  2    60   ~ 0
REFBuff
Text Label 7050 950  2    60   ~ 0
REFin
Text Label 5950 950  2    60   ~ 0
VDDByp
$Comp
L 100n-AC C24
U 1 1 5542E057
P 7100 1150
F 0 "C24" H 7200 1250 60  0000 C CNN
F 1 "100n-AC" H 7400 1150 60  0000 C CNN
F 2 "Capacitors:C0402" H 7100 1152 60  0001 C CNN
F 3 "" H 7100 1152 60  0000 C CNN
F 4 "445-5932-1-ND" H 7416 1354 60  0001 C CNN "DigikeyPN"
F 5 "50V" H 7200 1050 60  0000 C CNN "MaxVoltage"
	1    7100 1150
	1    0    0    -1  
$EndComp
Wire Wire Line
	7900 950  8350 950 
$Comp
L 1n-AC C32
U 1 1 554190F0
P 8350 1150
F 0 "C32" H 8450 1250 60  0000 C CNN
F 1 "1n-AC" H 8600 1150 60  0000 C CNN
F 2 "Capacitors:C0402" H 8350 1152 60  0001 C CNN
F 3 "" H 8350 1152 60  0000 C CNN
F 4 "490-1303-1-ND" H 8666 1354 60  0001 C CNN "DigikeyPN"
F 5 "50V" H 8450 1050 60  0000 C CNN "MaxVoltage"
	1    8350 1150
	1    0    0    -1  
$EndComp
Wire Wire Line
	8350 950  8350 1000
$Comp
L 47u-CD C30
U 1 1 5541960C
P 7900 1150
F 0 "C30" H 8000 1250 60  0000 C CNN
F 1 "47u-CD" V 7750 1050 60  0000 C CNN
F 2 "Capacitors:C0805" H 7900 1440 60  0001 C CNN
F 3 "" H 7900 1152 60  0000 C CNN
F 4 "490-9961-1-ND" H 8216 1354 60  0001 C CNN "DigikeyPN"
F 5 "10V" H 8000 1050 60  0000 C CNN "MaxVoltage"
	1    7900 1150
	1    0    0    -1  
$EndComp
Wire Wire Line
	7900 1000 7900 950 
Wire Wire Line
	7900 1300 7900 1400
Wire Wire Line
	7900 1400 8350 1400
Wire Wire Line
	8350 1400 8350 1300
Text Label 8050 1400 0    60   ~ 0
GND
$Comp
L 0.0-BF R37
U 1 1 55424A70
P 8450 3550
F 0 "R37" H 8450 3750 60  0000 C CNN
F 1 "0.0-BF" H 8400 3650 60  0000 C CNN
F 2 "Resistors:R0603" H 8350 3646 60  0001 C CNN
F 3 "" H 8550 3700 60  0000 C CNN
F 4 "P0.0GCT-ND" H 8468 3818 60  0001 C CNN "DigikeyPN"
F 5 "5%" H 8650 3650 60  0000 C CNN "Precision"
	1    8450 3550
	1    0    0    -1  
$EndComp
$Comp
L 0.0-BF R38
U 1 1 55424B3E
P 8450 3750
F 0 "R38" H 8450 3550 60  0000 C CNN
F 1 "0.0-BF" H 8400 3650 60  0000 C CNN
F 2 "Resistors:R0603" H 8350 3846 60  0001 C CNN
F 3 "" H 8550 3900 60  0000 C CNN
F 4 "P0.0GCT-ND" H 8468 4018 60  0001 C CNN "DigikeyPN"
F 5 "5%" H 8650 3650 60  0000 C CNN "Precision"
	1    8450 3750
	1    0    0    -1  
$EndComp
Wire Wire Line
	8800 3750 8650 3750
Wire Wire Line
	8800 3550 8800 3750
Wire Wire Line
	8800 3550 8650 3550
Wire Wire Line
	8900 3650 8800 3650
Connection ~ 8800 3650
$Comp
L 0.0-BF R36
U 1 1 554269EB
P 7950 4050
F 0 "R36" H 7950 3850 60  0000 C CNN
F 1 "0.0-BF" H 7900 3950 60  0000 C CNN
F 2 "Resistors:R0603" H 7850 4146 60  0001 C CNN
F 3 "" H 8050 4200 60  0000 C CNN
F 4 "P0.0GCT-ND" H 7968 4318 60  0001 C CNN "DigikeyPN"
F 5 "5%" H 8150 3950 60  0000 C CNN "Precision"
	1    7950 4050
	0    1    1    0   
$EndComp
Wire Wire Line
	7950 3850 7950 3750
Connection ~ 7950 3750
Text Label 7950 4350 3    60   ~ 0
GND
Wire Wire Line
	7950 4250 7950 4550
Text Notes 8050 4200 0    60   ~ 0
RDL should probably be tied to ground\nLeaving ability to hook up in case it is necessary
NoConn ~ 7350 3150
Wire Wire Line
	6500 4200 6500 4300
Connection ~ 6600 4300
$Comp
L 49.9-AE R30
U 1 1 5543450D
P 3800 3150
F 0 "R30" H 3650 3100 60  0000 C CNN
F 1 "49.9-AE" H 3750 3200 60  0000 C CNN
F 2 "Resistors:R0402" H 3800 3150 60  0001 C CNN
F 3 "" H 3900 3300 60  0000 C CNN
F 4 "P49.9LCT-ND" H 3818 3418 60  0001 C CNN "DigikeyPN"
F 5 "1%" H 3950 3100 60  0000 C CNN "Precision"
	1    3800 3150
	1    0    0    -1  
$EndComp
$Comp
L 49.9-AE R31
U 1 1 55434C0C
P 4300 3250
F 0 "R31" H 4150 3200 60  0000 C CNN
F 1 "49.9-AE" H 4250 3300 60  0000 C CNN
F 2 "Resistors:R0402" H 4300 3250 60  0001 C CNN
F 3 "" H 4400 3400 60  0000 C CNN
F 4 "P49.9LCT-ND" H 4318 3518 60  0001 C CNN "DigikeyPN"
F 5 "1%" H 4450 3200 60  0000 C CNN "Precision"
	1    4300 3250
	1    0    0    -1  
$EndComp
$Comp
L 49.9-AE R34
U 1 1 55434FE9
P 4750 3350
F 0 "R34" H 4600 3300 60  0000 C CNN
F 1 "49.9-AE" H 4700 3400 60  0000 C CNN
F 2 "Resistors:R0402" H 4750 3350 60  0001 C CNN
F 3 "" H 4850 3500 60  0000 C CNN
F 4 "P49.9LCT-ND" H 4768 3618 60  0001 C CNN "DigikeyPN"
F 5 "1%" H 4900 3300 60  0000 C CNN "Precision"
	1    4750 3350
	1    0    0    -1  
$EndComp
$Comp
L 49.9-AE R28
U 1 1 5543704F
P 3750 3450
F 0 "R28" H 3600 3400 60  0000 C CNN
F 1 "49.9-AE" H 3700 3500 60  0000 C CNN
F 2 "Resistors:R0402" H 3750 3450 60  0001 C CNN
F 3 "" H 3850 3600 60  0000 C CNN
F 4 "P49.9LCT-ND" H 3768 3718 60  0001 C CNN "DigikeyPN"
F 5 "1%" H 3900 3400 60  0000 C CNN "Precision"
	1    3750 3450
	1    0    0    -1  
$EndComp
$Comp
L 49.9-AE R29
U 1 1 5543754B
P 3750 3750
F 0 "R29" H 3600 3700 60  0000 C CNN
F 1 "49.9-AE" H 3700 3800 60  0000 C CNN
F 2 "Resistors:R0402" H 3750 3750 60  0001 C CNN
F 3 "" H 3850 3900 60  0000 C CNN
F 4 "P49.9LCT-ND" H 3768 4018 60  0001 C CNN "DigikeyPN"
F 5 "1%" H 3900 3700 60  0000 C CNN "Precision"
	1    3750 3750
	1    0    0    -1  
$EndComp
$Comp
L 49.9-AE R32
U 1 1 5543794B
P 4300 3550
F 0 "R32" H 4150 3500 60  0000 C CNN
F 1 "49.9-AE" H 4250 3600 60  0000 C CNN
F 2 "Resistors:R0402" H 4300 3550 60  0001 C CNN
F 3 "" H 4400 3700 60  0000 C CNN
F 4 "P49.9LCT-ND" H 4318 3818 60  0001 C CNN "DigikeyPN"
F 5 "1%" H 4450 3500 60  0000 C CNN "Precision"
	1    4300 3550
	1    0    0    -1  
$EndComp
$Comp
L 49.9-AE R33
U 1 1 55437D51
P 4300 3850
F 0 "R33" H 4150 3800 60  0000 C CNN
F 1 "49.9-AE" H 4250 3900 60  0000 C CNN
F 2 "Resistors:R0402" H 4300 3850 60  0001 C CNN
F 3 "" H 4400 4000 60  0000 C CNN
F 4 "P49.9LCT-ND" H 4318 4118 60  0001 C CNN "DigikeyPN"
F 5 "1%" H 4450 3800 60  0000 C CNN "Precision"
	1    4300 3850
	1    0    0    -1  
$EndComp
$Comp
L 49.9-AE R35
U 1 1 554381A1
P 4750 3650
F 0 "R35" H 4600 3600 60  0000 C CNN
F 1 "49.9-AE" H 4700 3700 60  0000 C CNN
F 2 "Resistors:R0402" H 4750 3650 60  0001 C CNN
F 3 "" H 4850 3800 60  0000 C CNN
F 4 "P49.9LCT-ND" H 4768 3918 60  0001 C CNN "DigikeyPN"
F 5 "1%" H 4900 3600 60  0000 C CNN "Precision"
	1    4750 3650
	1    0    0    -1  
$EndComp
Wire Wire Line
	5500 3950 5350 3950
Text Label 5500 3950 2    60   ~ 0
GND
Text HLabel 950  6000 0    60   Input ~ 0
VCC2
Text Label 3500 6700 1    60   ~ 0
GND
$Comp
L SPHV36 D?
U 1 1 577B63F0
P 3500 6250
F 0 "D?" H 3616 6160 60  0000 C CNN
F 1 "SPHV36" H 3790 6334 60  0000 C CNN
F 2 "Discretes:SOD882" H 3133 6446 60  0001 C CNN
F 3 "" H 3500 6250 60  0000 C CNN
F 4 "F6512CT-ND" H 3333 6646 60  0001 C CNN "DigikeyPN"
F 5 "36V" H 3628 6254 60  0000 C CNN "Clamp"
	1    3500 6250
	1    0    0    -1  
$EndComp
Wire Wire Line
	3500 6000 3500 6100
Wire Wire Line
	3500 6400 3500 6700
$Comp
L 5005K TP?
U 1 1 577B719B
P 2300 6000
F 0 "TP?" H 2300 6350 60  0000 C CNN
F 1 "VCC2" H 2300 6250 60  0000 C CNN
F 2 "TestPoints:TP_1p6mm" H 2300 6000 60  0001 C CNN
F 3 "" H 2300 6000 60  0000 C CNN
F 4 "5005K-ND" H 2550 6350 60  0001 C CNN "DigikeyPN"
	1    2300 6000
	1    0    0    -1  
$EndComp
$Comp
L ProtoTP TP?
U 1 1 577B71A1
P 3500 6000
F 0 "TP?" H 3500 6350 60  0000 C CNN
F 1 "VCC" H 3500 6250 60  0000 C CNN
F 2 "TestPoints:TP_1p0mm" H 3500 6000 60  0001 C CNN
F 3 "" H 3500 6000 60  0000 C CNN
	1    3500 6000
	1    0    0    -1  
$EndComp
$Comp
L 9.1M-BE R?
U 1 1 577BD09F
P 2300 6300
F 0 "R?" V 2194 6388 60  0000 L CNN
F 1 "9.1M-BE" V 2300 6388 60  0000 L CNN
F 2 "Resistors:R0603" H 2300 6300 60  0001 C CNN
F 3 "" H 2400 6450 60  0000 C CNN
F 4 "1276-4988-1-ND" H 2318 6568 60  0001 C CNN "DigikeyPN"
F 5 "1%" V 2406 6388 60  0000 L CNN "Precision"
	1    2300 6300
	0    1    1    0   
$EndComp
$Comp
L 1.3M-BE R?
U 1 1 577BD848
P 2300 6850
F 0 "R?" V 2194 6938 60  0000 L CNN
F 1 "1.3M-BE" V 2300 6938 60  0000 L CNN
F 2 "Resistors:R0603" H 2300 6850 60  0001 C CNN
F 3 "" H 2400 7000 60  0000 C CNN
F 4 "P1.30MHCT-ND" H 2318 7118 60  0001 C CNN "DigikeyPN"
F 5 "1%" V 2406 6938 60  0000 L CNN "Precision"
	1    2300 6850
	0    1    1    0   
$EndComp
Text Label 2300 7350 1    60   ~ 0
GND
Wire Wire Line
	2300 7050 2300 7350
Wire Wire Line
	2300 6000 2300 6100
Wire Wire Line
	2300 6650 2300 6500
Wire Wire Line
	2700 7250 2700 6650
Wire Wire Line
	2700 6650 2300 6650
Wire Wire Line
	2900 7250 2700 7250
$Comp
L CPC1002N U?
U 1 1 577C3296
P 2700 5750
F 0 "U?" V 2647 5572 60  0000 R CNN
F 1 "CPC1002N" V 2753 5572 60  0000 R CNN
F 2 "" H 2730 5750 60  0001 C CNN
F 3 "" H 2730 5750 60  0001 C CNN
F 4 "CLA230CT-ND" H 2700 6075 60  0001 C CNN "DigikeyPN"
	1    2700 5750
	0    -1   1    0   
$EndComp
$Comp
L CPC1002N U?
U 1 1 577C3A2D
P 1500 5750
F 0 "U?" V 1447 5572 60  0000 R CNN
F 1 "CPC1002N" V 1553 5572 60  0000 R CNN
F 2 "" H 1530 5750 60  0001 C CNN
F 3 "" H 1530 5750 60  0001 C CNN
F 4 "CLA230CT-ND" H 1500 6075 60  0001 C CNN "DigikeyPN"
	1    1500 5750
	0    -1   1    0   
$EndComp
Wire Wire Line
	1400 6000 950  6000
Wire Wire Line
	1600 6000 2600 6000
Connection ~ 2300 6000
Wire Wire Line
	2800 6000 3500 6000
Text Label 1400 5500 1    60   ~ 0
5v0PWR
Text Label 2600 5500 1    60   ~ 0
5v0PWR
Wire Wire Line
	1400 5500 1400 5150
Wire Wire Line
	2600 5500 2600 5150
Wire Wire Line
	1600 5500 1850 5500
Wire Wire Line
	2800 5500 3050 5500
Text Label 1600 5500 0    60   ~ 0
Relay1
Text Label 2800 5500 0    60   ~ 0
Relay2
$Comp
L UM5K1N Q?
U 1 1 577CC12A
P 5400 6950
F 0 "Q?" H 5891 7028 60  0000 L CNN
F 1 "UM5K1N" H 5891 6922 60  0000 L CNN
F 2 "Discretes:SOT353" H 5400 6950 60  0001 C CNN
F 3 "" H 5400 6950 60  0000 C CNN
F 4 "UM5K1NCT-ND" H 5398 7250 60  0001 C CNN "DigikeyPN"
	1    5400 6950
	1    0    0    -1  
$EndComp
Wire Wire Line
	5400 7150 5400 7350
Text Label 5400 7350 1    60   ~ 0
GND
$Comp
L 750-AF R?
U 1 1 577CD8B6
P 5200 6350
F 0 "R?" V 5100 6150 60  0000 L CNN
F 1 "750-AF" V 5200 5900 60  0000 L CNN
F 2 "Resistors:R0402" H 5200 6350 60  0001 C CNN
F 3 "" H 5300 6500 60  0000 C CNN
F 4 "P750JCT-ND" H 5218 6618 60  0001 C CNN "DigikeyPN"
F 5 "5%" V 5300 6100 60  0000 L CNN "Precision"
	1    5200 6350
	0    1    1    0   
$EndComp
$Comp
L 750-AF R?
U 1 1 577CDB8D
P 5600 6350
F 0 "R?" V 5494 6438 60  0000 L CNN
F 1 "750-AF" V 5600 6438 60  0000 L CNN
F 2 "Resistors:R0402" H 5600 6350 60  0001 C CNN
F 3 "" H 5700 6500 60  0000 C CNN
F 4 "P750JCT-ND" H 5618 6618 60  0001 C CNN "DigikeyPN"
F 5 "5%" V 5706 6438 60  0000 L CNN "Precision"
	1    5600 6350
	0    1    1    0   
$EndComp
Wire Wire Line
	5200 6550 5200 6700
Wire Wire Line
	5600 6550 5600 6700
Text Label 5600 6150 1    60   ~ 0
Relay2
Text Label 5200 6150 1    60   ~ 0
Relay1
Wire Wire Line
	5200 6150 5200 5850
Wire Wire Line
	5600 6150 5600 5850
$EndSCHEMATC
