EESchema Schematic File Version 2
LIBS:Capacitors
LIBS:Connectors
LIBS:Discretes
LIBS:ICs
LIBS:Allegro
LIBS:Resistors
LIBS:TestPoints
LIBS:Asek20DaughterCard-cache
EELAYER 25 0
EELAYER END
$Descr A4 11693 8268
encoding utf-8
Sheet 1 8
Title ""
Date ""
Rev ""
Comp ""
Comment1 ""
Comment2 ""
Comment3 ""
Comment4 ""
$EndDescr
$EndSCHEMATC
