EESchema Schematic File Version 2
LIBS:Capacitors
LIBS:Connectors
LIBS:Discretes
LIBS:ICs
LIBS:Allegro
LIBS:Resistors
LIBS:TestPoints
LIBS:Asek20DaughterCard-cache
EELAYER 25 0
EELAYER END
$Descr A4 11693 8268
encoding utf-8
Sheet 2 8
Title "ASEK20 Daughter Card"
Date "Friday, January 23, 2015"
Rev "v1.2"
Comp "Allegro Microsystems LLC"
Comment1 ""
Comment2 ""
Comment3 ""
Comment4 ""
$EndDescr
$Comp
L AD623 U4
U 1 1 54988862
P 6750 4650
F 0 "U4" H 7000 5100 60  0000 C CNN
F 1 "AD623" H 6350 5250 60  0000 C CNN
F 2 "ICs:8-SOIC" H 6750 4650 60  0001 C CNN
F 3 "" H 6750 4650 60  0000 C CNN
F 4 "AD623ARZ-ND" H 7300 5350 60  0001 C CNN "DigikeyPN"
	1    6750 4650
	1    0    0    -1  
$EndComp
Text HLabel 1300 3100 0    60   Input ~ 0
DAC0_in
Text HLabel 1100 1400 0    60   Input ~ 0
5v0SMPS
Text HLabel 1100 1500 0    60   Input ~ 0
GND
Text HLabel 2250 5700 0    60   Input ~ 0
GPIO0
Text HLabel 3250 5700 2    60   Input ~ 0
GPIO1
Text Label 1200 1500 0    60   ~ 0
GND
Text Label 1150 1400 0    60   ~ 0
5v0PWR
Text Label 6750 4050 1    60   ~ 0
5v0PWR
Text Label 7400 4500 0    60   ~ 0
GND
Text Label 6750 5400 1    60   ~ 0
GND
Text Label 3700 3050 0    60   ~ 0
DAC0
Text Label 5850 2100 0    60   ~ 0
95pRef
$Comp
L 200-BD R18
U 1 1 5499018C
P 5850 3050
F 0 "R18" H 5850 3250 60  0000 C CNN
F 1 "200-BD" H 5850 3150 60  0000 C CNN
F 2 "Resistors:R0603" H 5850 3050 60  0001 C CNN
F 3 "" H 5950 3200 60  0000 C CNN
F 4 "P200DBCT-ND" H 5868 3318 60  0001 C CNN "DigikeyPN"
F 5 "0.1%" H 5850 2950 60  0000 C CNN "Precision"
	1    5850 3050
	1    0    0    -1  
$EndComp
$Comp
L 200-BD R17
U 1 1 549901D5
P 5300 3050
F 0 "R17" H 5300 3250 60  0000 C CNN
F 1 "200-BD" H 5300 3150 60  0000 C CNN
F 2 "Resistors:R0603" H 5300 3050 60  0001 C CNN
F 3 "" H 5400 3200 60  0000 C CNN
F 4 "P200DBCT-ND" H 5318 3318 60  0001 C CNN "DigikeyPN"
F 5 "0.1%" H 5300 2950 60  0000 C CNN "Precision"
	1    5300 3050
	1    0    0    -1  
$EndComp
$Comp
L 18k-BD R14
U 1 1 54990241
P 4200 3050
F 0 "R14" H 4200 3250 60  0000 C CNN
F 1 "18k-BD" H 4200 3150 60  0000 C CNN
F 2 "Resistors:R0603" H 4200 3050 60  0001 C CNN
F 3 "" H 4300 3200 60  0000 C CNN
F 4 "P18KDBCT-ND" H 4218 3318 60  0001 C CNN "DigikeyPN"
F 5 "0.1%" H 4200 2950 60  0000 C CNN "Precision"
	1    4200 3050
	1    0    0    -1  
$EndComp
Text HLabel 9800 3550 2    60   Output ~ 0
VREGD_Measure
Text HLabel 8050 4650 2    60   Output ~ 0
IDDQ_Measure
$Comp
L 100-BD R19
U 1 1 54990B8B
P 6050 4650
F 0 "R19" H 6050 4846 60  0000 C CNN
F 1 "100-BD" H 5950 4750 60  0000 C CNN
F 2 "Resistors:R0603" H 6050 4650 60  0001 C CNN
F 3 "" H 6150 4800 60  0000 C CNN
F 4 "P100DBCT-ND" H 6068 4918 60  0001 C CNN "DigikeyPN"
F 5 "0.1%" H 6250 4750 60  0000 C CNN "Precision"
	1    6050 4650
	0    -1   -1   0   
$EndComp
$Comp
L UM5K1N Q1
U 1 1 5499198B
P 2750 5700
F 0 "Q1" H 2718 5876 60  0000 C CNN
F 1 "UM5K1N" H 2748 5772 60  0000 C CNN
F 2 "Discretes:SOT353" H 2750 5700 60  0001 C CNN
F 3 "" H 2750 5700 60  0000 C CNN
F 4 "UM5K1NCT-ND" H 2748 6000 60  0001 C CNN "DigikeyPN"
	1    2750 5700
	1    0    0    -1  
$EndComp
Text Label 2750 6100 1    60   ~ 0
GND
$Comp
L 100k-AF R11
U 1 1 549920AC
P 2550 4750
F 0 "R11" H 2550 4946 60  0000 C CNN
F 1 "100k-AF" H 2450 4850 60  0000 C CNN
F 2 "Resistors:R0402" H 2550 4750 60  0001 C CNN
F 3 "" H 2650 4900 60  0000 C CNN
F 4 "P100KJCT-ND" H 2568 5018 60  0001 C CNN "DigikeyPN"
F 5 "5%" H 2750 4850 60  0000 C CNN "Precision"
	1    2550 4750
	0    -1   -1   0   
$EndComp
$Comp
L 100k-AF R12
U 1 1 54992101
P 2950 4750
F 0 "R12" H 2950 4946 60  0000 C CNN
F 1 "100k-AF" H 2850 4850 60  0000 C CNN
F 2 "Resistors:R0402" H 2950 4750 60  0001 C CNN
F 3 "" H 3050 4900 60  0000 C CNN
F 4 "P100KJCT-ND" H 2968 5018 60  0001 C CNN "DigikeyPN"
F 5 "5%" H 3150 4850 60  0000 C CNN "Precision"
	1    2950 4750
	0    -1   -1   0   
$EndComp
Text Label 4200 2350 0    60   ~ 0
18k_pass
Text Label 2950 5050 3    60   ~ 0
2k_pass
Text Notes 6000 3500 2    60   ~ 0
Place instrumentation amp\nconnections close to resistors
$Comp
L DMG1013T Q5
U 1 1 549934AB
P 4200 2600
F 0 "Q5" V 4050 2400 60  0000 C CNN
F 1 "DMG1013T" V 4300 2600 60  0000 C CNN
F 2 "Discretes:SOT523" H 3950 2750 60  0001 C CNN
F 3 "" H 3950 2750 60  0000 C CNN
F 4 "DMG1013T-7DICT-ND" H 4700 2750 60  0001 C CNN "DigikeyPN"
	1    4200 2600
	0    1    1    0   
$EndComp
$Comp
L DMG1013T Q6
U 1 1 549936C5
P 5050 2600
F 0 "Q6" V 4900 2450 60  0000 C CNN
F 1 "DMG1013T" V 5150 2600 60  0000 C CNN
F 2 "Discretes:SOT523" H 4800 2750 60  0001 C CNN
F 3 "" H 4800 2750 60  0000 C CNN
F 4 "DMG1013T-7DICT-ND" H 5550 2750 60  0001 C CNN "DigikeyPN"
	1    5050 2600
	0    1    1    0   
$EndComp
Text Label 2550 5400 1    60   ~ 0
18k_pass
Text Label 5050 2350 0    60   ~ 0
2k_pass
Text Label 3450 4500 2    60   ~ 0
5v0PWR
$Comp
L 5.1k-AF R9
U 1 1 54994DF5
P 1350 3450
F 0 "R9" V 1400 3300 60  0000 C CNN
F 1 "5.1k-AF" H 1350 3550 60  0000 C CNN
F 2 "Resistors:R0402" H 1350 3450 60  0001 C CNN
F 3 "" H 1450 3600 60  0000 C CNN
F 4 "P5.1KJCT-ND" H 1368 3718 60  0001 C CNN "DigikeyPN"
F 5 "5%" V 1300 3300 60  0000 C CNN "Precision"
	1    1350 3450
	0    -1   -1   0   
$EndComp
$Comp
L 100k-AF R10
U 1 1 54994EB9
P 1350 4250
F 0 "R10" V 1400 4100 60  0000 C CNN
F 1 "100k-AF" H 1350 4350 60  0000 C CNN
F 2 "Resistors:R0402" H 1350 4250 60  0001 C CNN
F 3 "" H 1450 4400 60  0000 C CNN
F 4 "P100KJCT-ND" H 1368 4518 60  0001 C CNN "DigikeyPN"
F 5 "5%" V 1300 4100 60  0000 C CNN "Precision"
	1    1350 4250
	0    -1   -1   0   
$EndComp
Text Label 1350 4000 1    60   ~ 0
95pRef
Text Label 1350 4750 1    60   ~ 0
GND
Text Label 9250 3300 0    60   ~ 0
5v0PWR
Text Label 9350 3800 0    60   ~ 0
GND
$Comp
L 1u-BD C10
U 1 1 54A72DA5
P 5800 4150
F 0 "C10" H 5960 4260 60  0000 C CNN
F 1 "1u-BD" H 6056 4170 60  0000 C CNN
F 2 "Capacitors:C0603" H 5800 4152 60  0001 C CNN
F 3 "" H 5800 4152 60  0000 C CNN
F 4 "490-3897-1-ND" H 6116 4354 60  0001 C CNN "DigikeyPN"
F 5 "25V" H 5992 4086 60  0000 C CNN "MaxVoltage"
	1    5800 4150
	0    -1   -1   0   
$EndComp
$Comp
L 1u-BD C1
U 1 1 54A73460
P 1050 7050
F 0 "C1" H 1210 7160 60  0000 C CNN
F 1 "1u-BD" H 1306 7070 60  0000 C CNN
F 2 "Capacitors:C0603" H 1050 7052 60  0001 C CNN
F 3 "" H 1050 7052 60  0000 C CNN
F 4 "490-3897-1-ND" H 1366 7254 60  0001 C CNN "DigikeyPN"
F 5 "25V" H 1242 6986 60  0000 C CNN "MaxVoltage"
	1    1050 7050
	1    0    0    -1  
$EndComp
$Comp
L 1n-AC C2
U 1 1 54A734E0
P 1550 7050
F 0 "C2" H 1710 7160 60  0000 C CNN
F 1 "1n-AC" H 1806 7070 60  0000 C CNN
F 2 "Capacitors:C0402" H 1550 7052 60  0001 C CNN
F 3 "" H 1550 7052 60  0000 C CNN
F 4 "490-1303-1-ND" H 1866 7254 60  0001 C CNN "DigikeyPN"
F 5 "50V" H 1742 6986 60  0000 C CNN "MaxVoltage"
	1    1550 7050
	1    0    0    -1  
$EndComp
$Comp
L 10u-BD C3
U 1 1 54A737A1
P 2050 7050
F 0 "C3" H 2210 7160 60  0000 C CNN
F 1 "10u-BD" H 2306 7070 60  0000 C CNN
F 2 "Capacitors:C0603" H 2050 7052 60  0001 C CNN
F 3 "" H 2050 7052 60  0000 C CNN
F 4 "490-7200-1-ND" H 2366 7254 60  0001 C CNN "DigikeyPN"
F 5 "10V" H 2242 6986 60  0000 C CNN "MaxVoltage"
	1    2050 7050
	1    0    0    -1  
$EndComp
Text Label 1750 6800 2    60   ~ 0
5v0PWR
Text Label 1950 7300 2    60   ~ 0
GND
Text Notes 800  6650 0    60   ~ 0
Decoupling caps insturmentation amp
$Comp
L 1u-BD C7
U 1 1 54A73DF8
P 5000 7050
F 0 "C7" H 5160 7160 60  0000 C CNN
F 1 "1u-BD" H 5256 7070 60  0000 C CNN
F 2 "Capacitors:C0603" H 5000 7052 60  0001 C CNN
F 3 "" H 5000 7052 60  0000 C CNN
F 4 "490-3897-1-ND" H 5316 7254 60  0001 C CNN "DigikeyPN"
F 5 "25V" H 5192 6986 60  0000 C CNN "MaxVoltage"
	1    5000 7050
	1    0    0    -1  
$EndComp
$Comp
L 1n-AC C8
U 1 1 54A73E00
P 5500 7050
F 0 "C8" H 5660 7160 60  0000 C CNN
F 1 "1n-AC" H 5756 7070 60  0000 C CNN
F 2 "Capacitors:C0402" H 5500 7052 60  0001 C CNN
F 3 "" H 5500 7052 60  0000 C CNN
F 4 "490-1303-1-ND" H 5816 7254 60  0001 C CNN "DigikeyPN"
F 5 "50V" H 5692 6986 60  0000 C CNN "MaxVoltage"
	1    5500 7050
	1    0    0    -1  
$EndComp
$Comp
L 10u-BD C9
U 1 1 54A73E08
P 6000 7050
F 0 "C9" H 6160 7160 60  0000 C CNN
F 1 "10u-BD" H 6256 7070 60  0000 C CNN
F 2 "Capacitors:C0603" H 6000 7052 60  0001 C CNN
F 3 "" H 6000 7052 60  0000 C CNN
F 4 "490-7200-1-ND" H 6316 7254 60  0001 C CNN "DigikeyPN"
F 5 "10V" H 6192 6986 60  0000 C CNN "MaxVoltage"
	1    6000 7050
	1    0    0    -1  
$EndComp
Text Label 5700 6800 2    60   ~ 0
5v0PWR
Text Label 5900 7300 2    60   ~ 0
GND
$Comp
L 1n-AC C13
U 1 1 54C15CE9
P 8750 2450
F 0 "C13" H 8900 2450 60  0000 C CNN
F 1 "1n-AC" H 8550 2600 60  0000 C CNN
F 2 "Capacitors:C0402" H 8750 2452 60  0001 C CNN
F 3 "" H 8750 2452 60  0000 C CNN
F 4 "490-1303-1-ND" H 9066 2654 60  0001 C CNN "DigikeyPN"
F 5 "50V" H 8850 2300 60  0000 C CNN "MaxVoltage"
	1    8750 2450
	1    0    0    -1  
$EndComp
Text Label 8750 2800 1    60   ~ 0
GND
$Comp
L 1u-BD C4
U 1 1 54C2A8D3
P 3200 7050
F 0 "C4" H 3360 7160 60  0000 C CNN
F 1 "1u-BD" H 3456 7070 60  0000 C CNN
F 2 "Capacitors:C0603" H 3200 7052 60  0001 C CNN
F 3 "" H 3200 7052 60  0000 C CNN
F 4 "490-3897-1-ND" H 3516 7254 60  0001 C CNN "DigikeyPN"
F 5 "25V" H 3392 6986 60  0000 C CNN "MaxVoltage"
	1    3200 7050
	1    0    0    -1  
$EndComp
$Comp
L 1n-AC C5
U 1 1 54C2A8DB
P 3700 7050
F 0 "C5" H 3860 7160 60  0000 C CNN
F 1 "1n-AC" H 3956 7070 60  0000 C CNN
F 2 "Capacitors:C0402" H 3700 7052 60  0001 C CNN
F 3 "" H 3700 7052 60  0000 C CNN
F 4 "490-1303-1-ND" H 4016 7254 60  0001 C CNN "DigikeyPN"
F 5 "50V" H 3892 6986 60  0000 C CNN "MaxVoltage"
	1    3700 7050
	1    0    0    -1  
$EndComp
$Comp
L 10u-BD C6
U 1 1 54C2A8E3
P 4200 7050
F 0 "C6" H 4360 7160 60  0000 C CNN
F 1 "10u-BD" H 4456 7070 60  0000 C CNN
F 2 "Capacitors:C0603" H 4200 7052 60  0001 C CNN
F 3 "" H 4200 7052 60  0000 C CNN
F 4 "490-7200-1-ND" H 4516 7254 60  0001 C CNN "DigikeyPN"
F 5 "10V" H 4392 6986 60  0000 C CNN "MaxVoltage"
	1    4200 7050
	1    0    0    -1  
$EndComp
Text Label 3900 6800 2    60   ~ 0
5v0PWR
Text Label 4100 7300 2    60   ~ 0
GND
Text Notes 4950 6650 0    60   ~ 0
Decoupling caps opamp
Text Notes 3150 6650 0    60   ~ 0
Decoupling caps opamp
$Comp
L DMG1013T Q3
U 1 1 54EFBC1C
P 3350 3050
F 0 "Q3" V 3250 3250 60  0000 C CNN
F 1 "DMG1013T" V 3500 3100 60  0000 C CNN
F 2 "Discretes:SOT523" H 3100 3200 60  0001 C CNN
F 3 "" H 3100 3200 60  0000 C CNN
F 4 "DMG1013T-7DICT-ND" H 3850 3200 60  0001 C CNN "DigikeyPN"
	1    3350 3050
	0    1    -1   0   
$EndComp
$Comp
L DMG1013T Q2
U 1 1 54EFCA44
P 2900 3050
F 0 "Q2" V 2800 3200 60  0000 C CNN
F 1 "DMG1013T" V 3050 3100 60  0000 C CNN
F 2 "Discretes:SOT523" H 2650 3200 60  0001 C CNN
F 3 "" H 2650 3200 60  0000 C CNN
F 4 "DMG1013T-7DICT-ND" H 3400 3200 60  0001 C CNN "DigikeyPN"
	1    2900 3050
	0    -1   -1   0   
$EndComp
$Comp
L LMP2022 U5
U 1 1 54F23032
P 9000 3550
F 0 "U5" H 9200 3350 60  0000 C CNN
F 1 "LMP2022" H 8850 3200 60  0000 C CNN
F 2 "ICs:8-TSSOP" H 9000 3550 60  0001 C CNN
F 3 "" H 9150 3950 60  0000 C CNN
F 4 "LMP2022MME/NOPBCT-ND" H 9250 4050 60  0001 C CNN "DigikeyPN"
	1    9000 3550
	1    0    0    -1  
$EndComp
$Comp
L 5.1k-AF R20
U 1 1 54F5DE60
P 7500 2150
F 0 "R20" H 7500 2346 60  0000 C CNN
F 1 "5.1k-AF" H 7400 2250 60  0000 C CNN
F 2 "Resistors:R0402" H 7500 2150 60  0001 C CNN
F 3 "" H 7600 2300 60  0000 C CNN
F 4 "P5.1KJCT-ND" H 7518 2418 60  0001 C CNN "DigikeyPN"
F 5 "5%" H 7700 2250 60  0000 C CNN "Precision"
	1    7500 2150
	1    0    0    -1  
$EndComp
Text Label 7950 2450 2    60   ~ 0
IDDQ_highZ
$Comp
L 5009K TP11
U 1 1 54FFB0AE
P 9400 3000
F 0 "TP11" H 9400 3350 60  0000 C CNN
F 1 "IDDQ" H 9400 3250 60  0000 C CNN
F 2 "TestPoints:TP_1p6mm" H 9400 3000 60  0001 C CNN
F 3 "" H 9550 3250 60  0000 C CNN
F 4 "5009K-ND" H 9650 3350 60  0001 C CNN "DigikeyPN"
	1    9400 3000
	1    0    0    -1  
$EndComp
$Comp
L UM5K1N Q4
U 1 1 55006FE9
P 4000 5900
F 0 "Q4" H 3968 6076 60  0000 C CNN
F 1 "UM5K1N" H 3998 5972 60  0000 C CNN
F 2 "Discretes:SOT353" H 4000 5900 60  0001 C CNN
F 3 "" H 4000 5900 60  0000 C CNN
F 4 "UM5K1NCT-ND" H 3998 6200 60  0001 C CNN "DigikeyPN"
	1    4000 5900
	1    0    0    -1  
$EndComp
$Comp
L 100k-AF R13
U 1 1 55007176
P 3800 4750
F 0 "R13" H 3800 4946 60  0000 C CNN
F 1 "100k-AF" H 3700 4850 60  0000 C CNN
F 2 "Resistors:R0402" H 3800 4750 60  0001 C CNN
F 3 "" H 3900 4900 60  0000 C CNN
F 4 "P100KJCT-ND" H 3818 5018 60  0001 C CNN "DigikeyPN"
F 5 "5%" H 4000 4850 60  0000 C CNN "Precision"
	1    3800 4750
	0    -1   -1   0   
$EndComp
$Comp
L 100k-AF R15
U 1 1 5500717E
P 4200 4750
F 0 "R15" H 4200 4946 60  0000 C CNN
F 1 "100k-AF" H 4100 4850 60  0000 C CNN
F 2 "Resistors:R0402" H 4200 4750 60  0001 C CNN
F 3 "" H 4300 4900 60  0000 C CNN
F 4 "P100KJCT-ND" H 4218 5018 60  0001 C CNN "DigikeyPN"
F 5 "5%" H 4400 4850 60  0000 C CNN "Precision"
	1    4200 4750
	0    -1   -1   0   
$EndComp
Wire Wire Line
	6050 4850 6250 4850
Wire Wire Line
	6050 4450 6250 4450
Wire Wire Line
	9050 3050 9050 2350
Wire Wire Line
	6050 3050 9400 3050
Connection ~ 9050 3050
Wire Wire Line
	1100 1500 1400 1500
Wire Wire Line
	1100 1400 1400 1400
Wire Wire Line
	6750 4150 6750 3850
Wire Wire Line
	7300 4500 7550 4500
Wire Wire Line
	6750 5150 6750 5400
Wire Wire Line
	5650 3050 5500 3050
Wire Wire Line
	5000 3050 5100 3050
Wire Wire Line
	4400 3050 4600 3050
Wire Wire Line
	5850 2100 6150 2100
Wire Wire Line
	8550 3050 8550 3600
Connection ~ 8550 3050
Wire Wire Line
	9350 3550 9800 3550
Wire Wire Line
	7600 4650 8050 4650
Wire Wire Line
	2750 5900 2750 6100
Wire Wire Line
	3250 5700 3200 5700
Wire Wire Line
	2250 5700 2300 5700
Wire Wire Line
	5450 3600 5450 5000
Wire Wire Line
	5450 5000 6150 5000
Wire Wire Line
	2550 4950 2550 5450
Wire Wire Line
	2950 4950 2950 5450
Wire Wire Line
	4000 2600 4000 3600
Wire Wire Line
	4000 3600 5450 3600
Wire Wire Line
	2950 4500 2950 4550
Connection ~ 4000 3050
Wire Wire Line
	5250 2600 5500 2600
Wire Wire Line
	5500 2600 5500 3050
Wire Wire Line
	4200 2400 4200 2350
Wire Wire Line
	4200 2350 4600 2350
Wire Wire Line
	5050 2400 5050 2350
Wire Wire Line
	5050 2350 5400 2350
Wire Wire Line
	2550 4550 2550 4500
Wire Wire Line
	2550 4500 4200 4500
Wire Wire Line
	1350 3250 1350 3100
Wire Wire Line
	1350 3650 1350 4050
Wire Wire Line
	1350 4450 1350 4750
Wire Wire Line
	9200 3300 9550 3300
Wire Wire Line
	9200 3800 9550 3800
Wire Wire Line
	6150 4150 5950 4150
Connection ~ 6150 4150
Wire Wire Line
	5650 4150 5450 4150
Connection ~ 5450 4150
Wire Wire Line
	1050 6900 1050 6800
Wire Wire Line
	1050 6800 2050 6800
Wire Wire Line
	2050 6800 2050 6900
Wire Wire Line
	1550 6900 1550 6800
Connection ~ 1550 6800
Wire Wire Line
	1050 7200 1050 7300
Wire Wire Line
	1050 7300 2050 7300
Wire Wire Line
	2050 7300 2050 7200
Wire Wire Line
	1550 7200 1550 7300
Connection ~ 1550 7300
Wire Wire Line
	5000 6900 5000 6800
Wire Wire Line
	5000 6800 6000 6800
Wire Wire Line
	6000 6800 6000 6900
Wire Wire Line
	5500 6900 5500 6800
Connection ~ 5500 6800
Wire Wire Line
	5000 7200 5000 7300
Wire Wire Line
	5000 7300 6000 7300
Wire Wire Line
	6000 7300 6000 7200
Wire Wire Line
	5500 7200 5500 7300
Connection ~ 5500 7300
Wire Wire Line
	6850 2150 7300 2150
Wire Wire Line
	7700 2150 8850 2150
Wire Wire Line
	8750 2600 8750 2800
Wire Wire Line
	3200 6900 3200 6800
Wire Wire Line
	3200 6800 4200 6800
Wire Wire Line
	4200 6800 4200 6900
Wire Wire Line
	3700 6900 3700 6800
Connection ~ 3700 6800
Wire Wire Line
	3200 7200 3200 7300
Wire Wire Line
	3200 7300 4200 7300
Wire Wire Line
	4200 7300 4200 7200
Wire Wire Line
	3700 7200 3700 7300
Connection ~ 3700 7300
Wire Wire Line
	3100 3050 3150 3050
Wire Wire Line
	3550 3050 4000 3050
Connection ~ 6150 3050
Wire Wire Line
	8750 2300 8750 2150
Connection ~ 8750 2150
Wire Wire Line
	7950 2450 7450 2450
Wire Wire Line
	4200 4500 4200 4550
Wire Wire Line
	3800 4500 3800 4550
Connection ~ 3800 4500
Connection ~ 2950 4500
Wire Wire Line
	3800 5650 3800 4950
Wire Wire Line
	4200 4950 4200 5650
Text HLabel 3500 5900 0    60   Input ~ 0
GPIO2
Wire Wire Line
	3550 5900 3500 5900
Text Label 3800 5550 1    60   ~ 0
IDDQ_highZ
Text Label 5000 5900 2    60   ~ 0
IDDQ_highZ
Wire Wire Line
	4450 5900 5000 5900
Text Label 4200 5050 3    60   ~ 0
nIDDQ_highZ
Text Label 4000 6300 1    60   ~ 0
GND
Wire Wire Line
	4000 6100 4000 6300
$Comp
L AD8532 U3
U 1 1 55062A55
P 2050 3050
F 0 "U3" H 2200 3450 60  0000 C CNN
F 1 "AD8532" H 1850 3450 60  0000 C CNN
F 2 "ICs:8-TSSOP" H 2100 3350 60  0001 C CNN
F 3 "" H 2200 3450 60  0000 C CNN
F 4 "AD8532ARUZ-REELCT-ND" H 2300 3550 60  0001 C CNN "DigikeyPN"
	1    2050 3050
	1    0    0    -1  
$EndComp
Wire Wire Line
	1300 3100 1700 3100
Connection ~ 1350 3100
Wire Wire Line
	1700 3000 1700 2850
Wire Wire Line
	1700 2850 2400 2850
Wire Wire Line
	2400 2850 2400 3050
Text Label 2250 2800 0    60   ~ 0
5v0PWR
Text Label 2400 3300 0    60   ~ 0
GND
Wire Wire Line
	2250 2800 2600 2800
Wire Wire Line
	2250 3300 2650 3300
Wire Wire Line
	2400 3050 2700 3050
$Comp
L AD8532 U3
U 2 1 55063795
P 6500 2150
F 0 "U3" H 6650 2000 60  0000 C CNN
F 1 "AD8532" H 6500 1850 60  0000 C CNN
F 2 "ICs:8-TSSOP" H 6550 2450 60  0001 C CNN
F 3 "" H 6650 2550 60  0000 C CNN
F 4 "AD8532ARUZ-REELCT-ND" H 6750 2650 60  0001 C CNN "DigikeyPN"
	2    6500 2150
	1    0    0    1   
$EndComp
$Comp
L 1n-AC C11
U 1 1 55063EB9
P 6450 1600
F 0 "C11" H 6610 1710 60  0000 C CNN
F 1 "1n-AC" H 6706 1620 60  0000 C CNN
F 2 "Capacitors:C0402" H 6450 1602 60  0001 C CNN
F 3 "" H 6450 1602 60  0000 C CNN
F 4 "490-1303-1-ND" H 6766 1804 60  0001 C CNN "DigikeyPN"
F 5 "50V" H 6642 1536 60  0000 C CNN "MaxVoltage"
	1    6450 1600
	0    -1   -1   0   
$EndComp
$Comp
L 1n-AC C12
U 1 1 55063F20
P 6900 2450
F 0 "C12" H 7060 2560 60  0000 C CNN
F 1 "1n-AC" H 7156 2470 60  0000 C CNN
F 2 "Capacitors:C0402" H 6900 2452 60  0001 C CNN
F 3 "" H 6900 2452 60  0000 C CNN
F 4 "490-1303-1-ND" H 7216 2654 60  0001 C CNN "DigikeyPN"
F 5 "50V" H 7092 2386 60  0000 C CNN "MaxVoltage"
	1    6900 2450
	1    0    0    -1  
$EndComp
Wire Wire Line
	6900 1600 6900 2300
Connection ~ 6900 2150
Wire Wire Line
	6600 1600 6900 1600
Wire Wire Line
	5850 1600 6300 1600
Wire Wire Line
	5850 1600 5850 2100
Wire Wire Line
	9400 3050 9400 3000
Wire Wire Line
	6900 2600 6900 2650
Wire Wire Line
	6150 2200 6150 4300
Wire Wire Line
	6900 2650 6150 2650
Connection ~ 6150 2650
Text Label 9050 1450 1    60   ~ 0
5v0PWR
$Comp
L 100-CE R21
U 1 1 54F0A1D8
P 9050 1650
F 0 "R21" H 9050 1846 60  0000 C CNN
F 1 "100-CE" H 8950 1750 60  0000 C CNN
F 2 "Resistors:R0805" H 9050 1650 60  0001 C CNN
F 3 "" H 9150 1800 60  0000 C CNN
F 4 "P16057CT-ND" H 9068 1918 60  0001 C CNN "DigikeyPN"
F 5 "1%" H 9250 1750 60  0000 C CNN "Precision"
	1    9050 1650
	0    1    1    0   
$EndComp
Wire Wire Line
	9050 1850 9050 1950
$Comp
L 1.6k-BD R16
U 1 1 54F0B2E0
P 4800 3050
F 0 "R16" H 4800 3246 60  0000 C CNN
F 1 "1.6k-BD" H 4700 3150 60  0000 C CNN
F 2 "Resistors:R0603" H 4800 3050 60  0001 C CNN
F 3 "" H 4900 3200 60  0000 C CNN
F 4 "P1.6KDBCT-ND" H 4818 3318 60  0001 C CNN "DigikeyPN"
F 5 "0.1%" H 4800 2950 60  0000 C CNN "Precision"
	1    4800 3050
	1    0    0    -1  
$EndComp
$Comp
L DMG1012T Q8
U 1 1 54F38377
P 9050 2150
F 0 "Q8" H 9174 2204 60  0000 C CNN
F 1 "DMG1012T" H 9330 2094 60  0000 C CNN
F 2 "Discretes:SOT523" H 8800 2300 60  0001 C CNN
F 3 "" H 8800 2300 60  0000 C CNN
F 4 "DMG1012T-7DICT-ND" H 9550 2300 60  0001 C CNN "DigikeyPN"
	1    9050 2150
	1    0    0    -1  
$EndComp
$Comp
L DMG1012T Q7
U 1 1 54F38450
P 8150 2450
F 0 "Q7" H 8274 2504 60  0000 C CNN
F 1 "DMG1012T" H 8430 2394 60  0000 C CNN
F 2 "Discretes:SOT523" H 7900 2600 60  0001 C CNN
F 3 "" H 7900 2600 60  0000 C CNN
F 4 "DMG1012T-7DICT-ND" H 8650 2600 60  0001 C CNN "DigikeyPN"
	1    8150 2450
	1    0    0    -1  
$EndComp
Wire Wire Line
	8150 2250 8150 2150
Connection ~ 8150 2150
Text Label 8150 2850 1    60   ~ 0
GND
Wire Wire Line
	8150 2650 8150 2850
Wire Wire Line
	9050 1450 9050 1100
$Comp
L Bare_TP TP182
U 1 1 54F2C83C
P 9750 3450
F 0 "TP182" H 9750 3800 60  0000 C CNN
F 1 "VregD" H 9750 3700 60  0000 C CNN
F 2 "TestPoints:TP_bare_1p5mm" H 9750 3450 60  0001 C CNN
F 3 "" H 9750 3450 60  0000 C CNN
	1    9750 3450
	1    0    0    -1  
$EndComp
$Comp
L Bare_TP TP183
U 1 1 54F2CABF
P 7950 4550
F 0 "TP183" H 7950 4900 60  0000 C CNN
F 1 "IDDQ" H 7950 4800 60  0000 C CNN
F 2 "TestPoints:TP_bare_1p5mm" H 7950 4550 60  0001 C CNN
F 3 "" H 7950 4550 60  0000 C CNN
	1    7950 4550
	-1   0    0    -1  
$EndComp
$Comp
L Bare_TP TP181
U 1 1 54F2CF8D
P 1500 3050
F 0 "TP181" H 1500 3400 60  0000 C CNN
F 1 "DAC2" H 1500 3300 60  0000 C CNN
F 2 "TestPoints:TP_bare_1p5mm" H 1500 3050 60  0001 C CNN
F 3 "" H 1500 3050 60  0000 C CNN
	1    1500 3050
	1    0    0    -1  
$EndComp
Wire Wire Line
	7950 4550 7950 4650
Connection ~ 7950 4650
Wire Wire Line
	9750 3450 9750 3550
Connection ~ 9750 3550
Wire Wire Line
	1500 3050 1500 3100
Connection ~ 1500 3100
$Comp
L 1u-BD C41
U 1 1 54F7BE45
P 2550 1400
F 0 "C41" H 2710 1510 60  0000 C CNN
F 1 "1u-BD" H 2806 1420 60  0000 C CNN
F 2 "Capacitors:C0603" H 2550 1402 60  0001 C CNN
F 3 "" H 2550 1402 60  0000 C CNN
F 4 "490-3897-1-ND" H 2866 1604 60  0001 C CNN "DigikeyPN"
F 5 "25V" H 2742 1336 60  0000 C CNN "MaxVoltage"
	1    2550 1400
	1    0    0    -1  
$EndComp
$Comp
L 1n-AC C42
U 1 1 54F7BE4D
P 3050 1400
F 0 "C42" H 3210 1510 60  0000 C CNN
F 1 "1n-AC" H 3306 1420 60  0000 C CNN
F 2 "Capacitors:C0402" H 3050 1402 60  0001 C CNN
F 3 "" H 3050 1402 60  0000 C CNN
F 4 "490-1303-1-ND" H 3366 1604 60  0001 C CNN "DigikeyPN"
F 5 "50V" H 3242 1336 60  0000 C CNN "MaxVoltage"
	1    3050 1400
	1    0    0    -1  
$EndComp
$Comp
L 10u-BD C43
U 1 1 54F7BE55
P 3550 1400
F 0 "C43" H 3710 1510 60  0000 C CNN
F 1 "10u-BD" H 3806 1420 60  0000 C CNN
F 2 "Capacitors:C0603" H 3550 1402 60  0001 C CNN
F 3 "" H 3550 1402 60  0000 C CNN
F 4 "490-7200-1-ND" H 3866 1604 60  0001 C CNN "DigikeyPN"
F 5 "10V" H 3742 1336 60  0000 C CNN "MaxVoltage"
	1    3550 1400
	1    0    0    -1  
$EndComp
Text Label 3250 1150 2    60   ~ 0
5v0PWR
Text Label 3450 1650 2    60   ~ 0
GND
Text Notes 2500 1000 0    60   ~ 0
Decoupling caps opamp
Wire Wire Line
	2550 1250 2550 1150
Wire Wire Line
	2550 1150 3550 1150
Wire Wire Line
	3550 1150 3550 1250
Wire Wire Line
	3050 1250 3050 1150
Connection ~ 3050 1150
Wire Wire Line
	2550 1550 2550 1650
Wire Wire Line
	2550 1650 3550 1650
Wire Wire Line
	3550 1650 3550 1550
Wire Wire Line
	3050 1550 3050 1650
Connection ~ 3050 1650
$Comp
L 1u-BD C47
U 1 1 54F7BF4B
P 8000 5700
F 0 "C47" H 8160 5810 60  0000 C CNN
F 1 "1u-BD" H 8256 5720 60  0000 C CNN
F 2 "Capacitors:C0603" H 8000 5702 60  0001 C CNN
F 3 "" H 8000 5702 60  0000 C CNN
F 4 "490-3897-1-ND" H 8316 5904 60  0001 C CNN "DigikeyPN"
F 5 "25V" H 8192 5636 60  0000 C CNN "MaxVoltage"
	1    8000 5700
	1    0    0    -1  
$EndComp
$Comp
L 1n-AC C48
U 1 1 54F7BF53
P 8500 5700
F 0 "C48" H 8660 5810 60  0000 C CNN
F 1 "1n-AC" H 8756 5720 60  0000 C CNN
F 2 "Capacitors:C0402" H 8500 5702 60  0001 C CNN
F 3 "" H 8500 5702 60  0000 C CNN
F 4 "490-1303-1-ND" H 8816 5904 60  0001 C CNN "DigikeyPN"
F 5 "50V" H 8692 5636 60  0000 C CNN "MaxVoltage"
	1    8500 5700
	1    0    0    -1  
$EndComp
$Comp
L 10u-BD C49
U 1 1 54F7BF5B
P 9000 5700
F 0 "C49" H 9160 5810 60  0000 C CNN
F 1 "10u-BD" H 9256 5720 60  0000 C CNN
F 2 "Capacitors:C0603" H 9000 5702 60  0001 C CNN
F 3 "" H 9000 5702 60  0000 C CNN
F 4 "490-7200-1-ND" H 9316 5904 60  0001 C CNN "DigikeyPN"
F 5 "10V" H 9192 5636 60  0000 C CNN "MaxVoltage"
	1    9000 5700
	1    0    0    -1  
$EndComp
Text Label 8700 5450 2    60   ~ 0
5v0PWR
Text Label 8900 5950 2    60   ~ 0
GND
Text Notes 4200 1000 0    60   ~ 0
Decoupling caps opamp
Wire Wire Line
	8000 5550 8000 5450
Wire Wire Line
	8000 5450 9000 5450
Wire Wire Line
	9000 5450 9000 5550
Wire Wire Line
	8500 5550 8500 5450
Connection ~ 8500 5450
Wire Wire Line
	8000 5850 8000 5950
Wire Wire Line
	8000 5950 9000 5950
Wire Wire Line
	9000 5950 9000 5850
Wire Wire Line
	8500 5850 8500 5950
Connection ~ 8500 5950
$Comp
L 1u-BD C44
U 1 1 54F7FB43
P 4350 1400
F 0 "C44" H 4510 1510 60  0000 C CNN
F 1 "1u-BD" H 4606 1420 60  0000 C CNN
F 2 "Capacitors:C0603" H 4350 1402 60  0001 C CNN
F 3 "" H 4350 1402 60  0000 C CNN
F 4 "490-3897-1-ND" H 4666 1604 60  0001 C CNN "DigikeyPN"
F 5 "25V" H 4542 1336 60  0000 C CNN "MaxVoltage"
	1    4350 1400
	1    0    0    -1  
$EndComp
$Comp
L 1n-AC C45
U 1 1 54F7FB4B
P 4850 1400
F 0 "C45" H 5010 1510 60  0000 C CNN
F 1 "1n-AC" H 5106 1420 60  0000 C CNN
F 2 "Capacitors:C0402" H 4850 1402 60  0001 C CNN
F 3 "" H 4850 1402 60  0000 C CNN
F 4 "490-1303-1-ND" H 5166 1604 60  0001 C CNN "DigikeyPN"
F 5 "50V" H 5042 1336 60  0000 C CNN "MaxVoltage"
	1    4850 1400
	1    0    0    -1  
$EndComp
$Comp
L 10u-BD C46
U 1 1 54F7FB53
P 5350 1400
F 0 "C46" H 5510 1510 60  0000 C CNN
F 1 "10u-BD" H 5606 1420 60  0000 C CNN
F 2 "Capacitors:C0603" H 5350 1402 60  0001 C CNN
F 3 "" H 5350 1402 60  0000 C CNN
F 4 "490-7200-1-ND" H 5666 1604 60  0001 C CNN "DigikeyPN"
F 5 "10V" H 5542 1336 60  0000 C CNN "MaxVoltage"
	1    5350 1400
	1    0    0    -1  
$EndComp
Text Label 5050 1150 2    60   ~ 0
5v0PWR
Text Label 5250 1650 2    60   ~ 0
GND
Wire Wire Line
	4350 1250 4350 1150
Wire Wire Line
	4350 1150 5350 1150
Wire Wire Line
	5350 1150 5350 1250
Wire Wire Line
	4850 1250 4850 1150
Connection ~ 4850 1150
Wire Wire Line
	4350 1550 4350 1650
Wire Wire Line
	4350 1650 5350 1650
Wire Wire Line
	5350 1650 5350 1550
Wire Wire Line
	4850 1550 4850 1650
Connection ~ 4850 1650
Text Notes 7900 5300 0    60   ~ 0
Decoupling caps voltage ref
Wire Wire Line
	9350 3550 9350 3350
Wire Wire Line
	9350 3350 8650 3350
Wire Wire Line
	8650 3350 8650 3500
Wire Wire Line
	8550 3600 8650 3600
$Comp
L 100k-AF R39
U 1 1 5546DF3A
P 3100 3600
F 0 "R39" H 3100 3700 60  0000 C CNN
F 1 "100k-AF" H 3050 3500 60  0000 C CNN
F 2 "Resistors:R0402" H 3100 3600 60  0001 C CNN
F 3 "" H 3200 3750 60  0000 C CNN
F 4 "P100KJCT-ND" H 3118 3868 60  0001 C CNN "DigikeyPN"
F 5 "5%" H 3350 3500 60  0000 C CNN "Precision"
	1    3100 3600
	0    -1   -1   0   
$EndComp
Wire Wire Line
	3100 2650 3100 3400
Text Label 3100 4350 1    60   ~ 0
IDDQ_highZ
Wire Wire Line
	3100 3800 3100 4350
Text Label 4600 2600 0    60   ~ 0
DAC0
Wire Wire Line
	4600 2600 4850 2600
Wire Wire Line
	4400 2600 4400 3050
$Comp
L 100k-AF R41
U 1 1 55472F6A
P 3250 5100
F 0 "R41" H 3250 5296 60  0000 C CNN
F 1 "100k-AF" H 3150 5200 60  0000 C CNN
F 2 "Resistors:R0402" H 3250 5100 60  0001 C CNN
F 3 "" H 3350 5250 60  0000 C CNN
F 4 "P100KJCT-ND" H 3268 5368 60  0001 C CNN "DigikeyPN"
F 5 "5%" H 3450 5200 60  0000 C CNN "Precision"
	1    3250 5100
	0    -1   -1   0   
$EndComp
$Comp
L 100k-AF R40
U 1 1 5547308C
P 2200 5100
F 0 "R40" H 2200 5296 60  0000 C CNN
F 1 "100k-AF" H 2100 5200 60  0000 C CNN
F 2 "Resistors:R0402" H 2200 5100 60  0001 C CNN
F 3 "" H 2300 5250 60  0000 C CNN
F 4 "P100KJCT-ND" H 2218 5368 60  0001 C CNN "DigikeyPN"
F 5 "5%" H 2400 5200 60  0000 C CNN "Precision"
	1    2200 5100
	0    -1   -1   0   
$EndComp
Wire Wire Line
	2200 5300 2200 5450
Wire Wire Line
	2200 5450 2550 5450
Wire Wire Line
	2950 5450 3250 5450
Text Label 2200 4850 1    60   ~ 0
DAC0
Text Label 3250 4850 1    60   ~ 0
DAC0
Wire Wire Line
	3250 5450 3250 5300
Wire Wire Line
	3250 4900 3250 4650
Wire Wire Line
	2200 4900 2200 4650
Wire Wire Line
	2900 3250 2900 3800
Wire Wire Line
	2900 3800 3350 3800
Wire Wire Line
	3350 3800 3350 3250
Connection ~ 3100 3800
$Comp
L 1u-BD C54
U 1 1 5548FFB6
P 9650 5700
F 0 "C54" H 9810 5810 60  0000 C CNN
F 1 "1u-BD" H 9906 5720 60  0000 C CNN
F 2 "Capacitors:C0603" H 9650 5702 60  0001 C CNN
F 3 "" H 9650 5702 60  0000 C CNN
F 4 "490-3897-1-ND" H 9966 5904 60  0001 C CNN "DigikeyPN"
F 5 "25V" H 9842 5636 60  0000 C CNN "MaxVoltage"
	1    9650 5700
	1    0    0    -1  
$EndComp
$Comp
L 1n-AC C55
U 1 1 5548FFBE
P 10150 5700
F 0 "C55" H 10310 5810 60  0000 C CNN
F 1 "1n-AC" H 10406 5720 60  0000 C CNN
F 2 "Capacitors:C0402" H 10150 5702 60  0001 C CNN
F 3 "" H 10150 5702 60  0000 C CNN
F 4 "490-1303-1-ND" H 10466 5904 60  0001 C CNN "DigikeyPN"
F 5 "50V" H 10342 5636 60  0000 C CNN "MaxVoltage"
	1    10150 5700
	1    0    0    -1  
$EndComp
$Comp
L 10u-BD C56
U 1 1 5548FFC6
P 10650 5700
F 0 "C56" H 10810 5810 60  0000 C CNN
F 1 "10u-BD" H 10906 5720 60  0000 C CNN
F 2 "Capacitors:C0603" H 10650 5702 60  0001 C CNN
F 3 "" H 10650 5702 60  0000 C CNN
F 4 "490-7200-1-ND" H 10966 5904 60  0001 C CNN "DigikeyPN"
F 5 "10V" H 10842 5636 60  0000 C CNN "MaxVoltage"
	1    10650 5700
	1    0    0    -1  
$EndComp
Text Label 10350 5450 2    60   ~ 0
5v0PWR
Text Label 10550 5950 2    60   ~ 0
GND
Text Notes 9600 5300 0    60   ~ 0
Decoupling caps opamp
Wire Wire Line
	9650 5550 9650 5450
Wire Wire Line
	9650 5450 10650 5450
Wire Wire Line
	10650 5450 10650 5550
Wire Wire Line
	10150 5550 10150 5450
Connection ~ 10150 5450
Wire Wire Line
	9650 5850 9650 5950
Wire Wire Line
	9650 5950 10650 5950
Wire Wire Line
	10650 5950 10650 5850
Wire Wire Line
	10150 5850 10150 5950
Connection ~ 10150 5950
$Comp
L 0.0-BF R44
U 1 1 55491CBA
P 2900 2650
F 0 "R44" H 2900 2846 60  0000 C CNN
F 1 "0.0-BF" H 2800 2750 60  0000 C CNN
F 2 "Resistors:R0603" H 2800 2746 60  0001 C CNN
F 3 "" H 3000 2800 60  0000 C CNN
F 4 "P0.0GCT-ND" H 2918 2918 60  0001 C CNN "DigikeyPN"
F 5 "5%" H 3100 2750 60  0000 C CNN "Precision"
	1    2900 2650
	1    0    0    -1  
$EndComp
Wire Wire Line
	2700 3050 2700 2650
Connection ~ 3100 3050
$EndSCHEMATC
